{
  "name": "+2 Ranged Weapon Special Abilities",
  "flags": {},
  "description": "",
  "results": [
    {
      "_id": "KhcaoengWWVNoOh9",
      "flags": {},
      "type": 0,
      "text": "Anarchic",
      "weight": 10,
      "range": [1, 10],
      "drawn": false
    },
    {
      "_id": "F4l1910f9IdTFDnk",
      "flags": {},
      "type": 0,
      "text": "Anchoring",
      "weight": 3,
      "range": [11, 13],
      "drawn": false
    },
    {
      "_id": "gTPnN7i69ouJw3eI",
      "flags": {},
      "type": 0,
      "text": "Axiomatic",
      "weight": 10,
      "range": [14, 23],
      "drawn": false
    },
    {
      "_id": "ofNpm0SxvAb30HVo",
      "flags": {},
      "type": 0,
      "text": "Corrosive Burst",
      "weight": 8,
      "range": [24, 31],
      "drawn": false
    },
    {
      "_id": "HL59LKVkfdyM44ky",
      "flags": {},
      "type": 0,
      "text": "Designating, Lesser",
      "weight": 3,
      "range": [32, 34],
      "drawn": false
    },
    {
      "_id": "jGaqEsCrobdwOyfH",
      "flags": {},
      "type": 0,
      "text": "Endless ammunition",
      "weight": 3,
      "range": [35, 37],
      "drawn": false
    },
    {
      "_id": "gR2PJ7NxB8oRAmtR",
      "flags": {},
      "type": 0,
      "text": "Flaming Burst",
      "weight": 11,
      "range": [38, 48],
      "drawn": false
    },
    {
      "_id": "P30p24z8r4eNLSzb",
      "flags": {},
      "type": 0,
      "text": "Holy",
      "weight": 10,
      "range": [49, 58],
      "drawn": false
    },
    {
      "_id": "Qqk6QFJSJSSXHEQz",
      "flags": {},
      "type": 0,
      "text": "Icy Burst",
      "weight": 11,
      "range": [59, 69],
      "drawn": false
    },
    {
      "_id": "TzTOg0wJ3ouEnqcn",
      "flags": {},
      "type": 0,
      "text": "Igniting",
      "weight": 4,
      "range": [70, 73],
      "drawn": false
    },
    {
      "_id": "Yo27sPwnS7rfhy4M",
      "flags": {},
      "type": 0,
      "text": "Phase Locking",
      "weight": 3,
      "range": [74, 76],
      "drawn": false
    },
    {
      "_id": "uLQ2E2fulsrtTM5p",
      "flags": {},
      "type": 0,
      "text": "Shocking Burst",
      "weight": 10,
      "range": [77, 86],
      "drawn": false
    },
    {
      "_id": "tfglrUKpxGUCSL8t",
      "flags": {},
      "type": 0,
      "text": "Stalking",
      "weight": 4,
      "range": [87, 90],
      "drawn": false
    },
    {
      "_id": "choHWVNisRdCymf9",
      "flags": {},
      "type": 0,
      "text": "Unholy",
      "weight": 10,
      "range": [91, 100],
      "drawn": false
    }
  ],
  "formula": "1d100",
  "replacement": true,
  "displayRoll": true,
  "_id": "XEeC6Vz3hlDl4Tn2",
  "ownership": {
    "default": 0
  }
}
