{
  "name": "+2 Weapon Special Abilities",
  "flags": {},
  "description": "",
  "results": [
    {
      "_id": "DjeXTVSAngvVxhIS",
      "flags": {},
      "type": 0,
      "text": "Advancing",
      "weight": 1,
      "range": [1, 1],
      "drawn": false
    },
    {
      "_id": "n9atioz64uwGCooA",
      "flags": {},
      "type": 0,
      "text": "Anarchic",
      "weight": 9,
      "range": [2, 10],
      "drawn": false
    },
    {
      "_id": "Bb9qGNeeIArEzNVg",
      "flags": {},
      "type": 0,
      "text": "Anchoring",
      "weight": 9,
      "range": [11, 19],
      "drawn": false
    },
    {
      "_id": "7ms4YWfVelNFvJHD",
      "flags": {},
      "type": 0,
      "text": "Axiomatic",
      "weight": 1,
      "range": [20, 20],
      "drawn": false
    },
    {
      "_id": "cvpjCKtFmRMKefHM",
      "flags": {},
      "type": 0,
      "text": "Corrosive Burst",
      "weight": 7,
      "range": [21, 27],
      "drawn": false
    },
    {
      "_id": "wUfmsYpjrPSC1CL3",
      "flags": {},
      "type": 0,
      "text": "Defiant",
      "weight": 1,
      "range": [28, 28],
      "drawn": false
    },
    {
      "_id": "pAUjT84bW94kZbF5",
      "flags": {},
      "type": 0,
      "text": "Dispelling Burst",
      "weight": 1,
      "range": [29, 29],
      "drawn": false
    },
    {
      "_id": "OKeMgM7ZgjcN9MXc",
      "flags": {},
      "type": 0,
      "text": "Disruption",
      "weight": 9,
      "range": [30, 38],
      "drawn": false
    },
    {
      "_id": "rtU0Ea4SpJONPMAB",
      "flags": {},
      "type": 0,
      "text": "Flaming Burst",
      "weight": 9,
      "range": [39, 47],
      "drawn": false
    },
    {
      "_id": "9SSZteV1VzB4YND9",
      "flags": {},
      "type": 0,
      "text": "Furyborn",
      "weight": 1,
      "range": [48, 48],
      "drawn": false
    },
    {
      "_id": "0Xi7jyygkQUTscQL",
      "flags": {},
      "type": 0,
      "text": "Glorious",
      "weight": 1,
      "range": [49, 49],
      "drawn": false
    },
    {
      "_id": "bHxJ5nPSMM3tuCAV",
      "flags": {},
      "type": 0,
      "text": "Holy",
      "weight": 9,
      "range": [50, 58],
      "drawn": false
    },
    {
      "_id": "yNDD02VYqsUzNBAQ",
      "flags": {},
      "type": 0,
      "text": "Icy Burst",
      "weight": 9,
      "range": [59, 67],
      "drawn": false
    },
    {
      "_id": "UA6SUwyi6sKQ87NF",
      "flags": {},
      "type": 0,
      "text": "Igniting",
      "weight": 1,
      "range": [68, 68],
      "drawn": false
    },
    {
      "_id": "oMDK08OzatZemRUn",
      "flags": {},
      "type": 0,
      "text": "Impact",
      "weight": 1,
      "range": [69, 69],
      "drawn": false
    },
    {
      "_id": "da0bAYSQef5nrWPV",
      "flags": {},
      "type": 0,
      "text": "Invigorating",
      "weight": 1,
      "range": [70, 70],
      "drawn": false
    },
    {
      "_id": "ARz9hnT42BOnhxUN",
      "flags": {},
      "type": 0,
      "text": "Ki Intensifying",
      "weight": 1,
      "range": [71, 71],
      "drawn": false
    },
    {
      "_id": "pRyQhzBT10xna1FZ",
      "flags": {},
      "type": 0,
      "text": "Lifesurge",
      "weight": 1,
      "range": [72, 72],
      "drawn": false
    },
    {
      "_id": "NGYAaNXc5RcH3pva",
      "flags": {},
      "type": 0,
      "text": "Negating",
      "weight": 1,
      "range": [73, 73],
      "drawn": false
    },
    {
      "_id": "HdInUrIiA5HSkmCO",
      "flags": {},
      "type": 0,
      "text": "Phase locking",
      "weight": 1,
      "range": [74, 74],
      "drawn": false
    },
    {
      "_id": "uqUouGXgogVoLsv5",
      "flags": {},
      "type": 0,
      "text": "Shocking Burst",
      "weight": 9,
      "range": [75, 83],
      "drawn": false
    },
    {
      "_id": "JyY1FIfTRr8Zb9c1",
      "flags": {},
      "type": 0,
      "text": "Stalking",
      "weight": 1,
      "range": [84, 84],
      "drawn": false
    },
    {
      "_id": "6TysjL9Tu4bIvghV",
      "flags": {},
      "type": 0,
      "text": "Unholy",
      "weight": 7,
      "range": [85, 91],
      "drawn": false
    },
    {
      "_id": "dtuAZq3ky7he889Q",
      "flags": {},
      "type": 0,
      "text": "Wounding",
      "weight": 9,
      "range": [92, 100],
      "drawn": false
    }
  ],
  "formula": "1d100",
  "replacement": true,
  "displayRoll": true,
  "_id": "SRngNw1UlfWrcahB",
  "ownership": {
    "default": 0
  }
}
