{
  "name": "Ammunition",
  "flags": {},
  "description": "",
  "results": [
    {
      "_id": "cPupg7Dq70zxrfQQ",
      "flags": {},
      "type": 0,
      "text": "Arrows (50)",
      "weight": 1,
      "range": [1, 1],
      "drawn": false
    },
    {
      "_id": "bvbRVXxMM8OiYIms",
      "flags": {},
      "type": 0,
      "text": "Atlatl Dart (50)",
      "weight": 1,
      "range": [2, 2],
      "drawn": false
    },
    {
      "_id": "kKInVE21TyvWV01B",
      "flags": {},
      "type": 0,
      "text": "Bamboo Shaft Arrows (50)",
      "weight": 1,
      "range": [3, 3],
      "drawn": false
    },
    {
      "_id": "iQqwgf3lSbKxrUxX",
      "flags": {},
      "type": 0,
      "text": "Blowgun Darts (50)",
      "weight": 1,
      "range": [4, 4],
      "drawn": false
    },
    {
      "_id": "MSXC7jhjbeP8YJ9Z",
      "flags": {},
      "type": 0,
      "text": "Blunt Arrows (50)",
      "weight": 1,
      "range": [5, 5],
      "drawn": false
    },
    {
      "_id": "KxDshg6UA3wCA1kO",
      "flags": {},
      "type": 0,
      "text": "Crossbow Bolts (50)",
      "weight": 1,
      "range": [6, 6],
      "drawn": false
    },
    {
      "_id": "arDEg2A7aKGoooPF",
      "flags": {},
      "type": 0,
      "text": "Flight Arrows (50)",
      "weight": 1,
      "range": [7, 7],
      "drawn": false
    },
    {
      "_id": "hJo1ZHNE8WpeMApk",
      "flags": {},
      "type": 0,
      "text": "Kestros Dart (50)",
      "weight": 1,
      "range": [8, 8],
      "drawn": false
    },
    {
      "_id": "b1P0mj5GQj2r82QE",
      "flags": {},
      "type": 0,
      "text": "Repeating Crossbow Bolts (50)",
      "weight": 1,
      "range": [9, 9],
      "drawn": false
    },
    {
      "_id": "Z4uzJpHiR3eREZPe",
      "flags": {},
      "type": 0,
      "text": "Sling Bullets (50)",
      "weight": 1,
      "range": [10, 10],
      "drawn": false
    },
    {
      "_id": "CnZ7q18deKkbBRft",
      "flags": {},
      "type": 0,
      "text": "Smoke Arrow (50)",
      "weight": 1,
      "range": [11, 11],
      "drawn": false
    },
    {
      "_id": "jncedpTpNp5CeHSo",
      "flags": {},
      "type": 0,
      "text": "Whistling Arrows (50)",
      "weight": 1,
      "range": [12, 12],
      "drawn": false
    }
  ],
  "formula": "1d12",
  "replacement": true,
  "displayRoll": true,
  "_id": "HIi7oxxt0rIhvNA6",
  "ownership": {
    "default": 0
  }
}
