{
  "name": "Common Level 7 Divine Scrolls",
  "flags": {},
  "description": "",
  "results": [
    {
      "_id": "e1VmHStqYW6PTFgr",
      "flags": {},
      "type": 0,
      "text": "Scroll of Blasphemy",
      "img": "icons/svg/d20-black.svg",
      "resultId": "",
      "weight": 4,
      "range": [1, 4],
      "drawn": false
    },
    {
      "_id": "gnGiE1ubiOQGMAKG",
      "flags": {},
      "type": 0,
      "text": "Scroll of Control Weather",
      "img": "icons/svg/d20-black.svg",
      "resultId": "",
      "weight": 6,
      "range": [5, 10],
      "drawn": false
    },
    {
      "_id": "8qgKSubYbwdkBVt6",
      "flags": {},
      "type": 0,
      "text": "Scroll of Creeping Doom",
      "img": "icons/svg/d20-black.svg",
      "resultId": "",
      "weight": 7,
      "range": [11, 17],
      "drawn": false
    },
    {
      "_id": "jWdiIcCpYEFwH4aH",
      "flags": {},
      "type": 0,
      "text": "Scroll of Cure Serious Wounds, Mass",
      "img": "icons/svg/d20-black.svg",
      "resultId": "",
      "weight": 7,
      "range": [18, 24],
      "drawn": false
    },
    {
      "_id": "dMBQdU6JXqobxH9E",
      "flags": {},
      "type": 0,
      "text": "Scroll of Dictum",
      "img": "icons/svg/d20-black.svg",
      "resultId": "",
      "weight": 4,
      "range": [25, 28],
      "drawn": false
    },
    {
      "_id": "l8RXo0CrBPiWNPLT",
      "flags": {},
      "type": 0,
      "text": "Scroll of Ethereal Jaunt",
      "img": "icons/svg/d20-black.svg",
      "resultId": "",
      "weight": 5,
      "range": [29, 33],
      "drawn": false
    },
    {
      "_id": "zZLHQVt4HX0H63uB",
      "flags": {},
      "type": 0,
      "text": "Scroll of Fire Storm",
      "img": "icons/svg/d20-black.svg",
      "resultId": "",
      "weight": 7,
      "range": [34, 40],
      "drawn": false
    },
    {
      "_id": "MG1q7yhmgWMuJpHY",
      "flags": {},
      "type": 0,
      "text": "Scroll of Holy Word",
      "img": "icons/svg/d20-black.svg",
      "resultId": "",
      "weight": 4,
      "range": [41, 44],
      "drawn": false
    },
    {
      "_id": "PSih2fdmIyvc2TUX",
      "flags": {},
      "type": 0,
      "text": "Scroll of Inflict Serious Wounds, Mass",
      "img": "icons/svg/d20-black.svg",
      "resultId": "",
      "weight": 6,
      "range": [45, 50],
      "drawn": false
    },
    {
      "_id": "Mk4wwaqHjxRWxbpw",
      "flags": {},
      "type": 0,
      "text": "Scroll of Regenerate",
      "img": "icons/svg/d20-black.svg",
      "resultId": "",
      "weight": 5,
      "range": [51, 55],
      "drawn": false
    },
    {
      "_id": "eB4yIAtKNtR46UC1",
      "flags": {},
      "type": 0,
      "text": "Scroll of Repulsion",
      "img": "icons/svg/d20-black.svg",
      "resultId": "",
      "weight": 5,
      "range": [56, 60],
      "drawn": false
    },
    {
      "_id": "PY6phepJleC7WHCe",
      "flags": {},
      "type": 0,
      "text": "Scroll of Scrying, Greater",
      "img": "icons/svg/d20-black.svg",
      "resultId": "",
      "weight": 5,
      "range": [61, 65],
      "drawn": false
    },
    {
      "_id": "1mEOWSAbbO8Q37LW",
      "flags": {},
      "type": 0,
      "text": "Scroll of Summon Monster VII",
      "img": "icons/svg/d20-black.svg",
      "resultId": "",
      "weight": 4,
      "range": [66, 69],
      "drawn": false
    },
    {
      "_id": "Uzvcsf7iWUcPH0rC",
      "flags": {},
      "type": 0,
      "text": "Scroll of Summon Nature's Ally VII",
      "img": "icons/svg/d20-black.svg",
      "resultId": "",
      "weight": 4,
      "range": [70, 73],
      "drawn": false
    },
    {
      "_id": "Jasx4eWyl4Txy2y7",
      "flags": {},
      "type": 0,
      "text": "Scroll of Sunbeam",
      "img": "icons/svg/d20-black.svg",
      "resultId": "",
      "weight": 5,
      "range": [74, 78],
      "drawn": false
    },
    {
      "_id": "WsmFilRU6yxp9vEk",
      "flags": {},
      "type": 0,
      "text": "Scroll of Word of Chaos",
      "img": "icons/svg/d20-black.svg",
      "resultId": "",
      "weight": 4,
      "range": [79, 82],
      "drawn": false
    },
    {
      "_id": "A5wJ2biitIacHuGD",
      "flags": {},
      "type": 0,
      "text": "Scroll of Destruction",
      "img": "icons/svg/d20-black.svg",
      "resultId": "",
      "weight": 7,
      "range": [83, 89],
      "drawn": false
    },
    {
      "_id": "FzX4ogVGdsHkRVQU",
      "flags": {},
      "type": 0,
      "text": "Scroll of Restoration, Greater",
      "img": "icons/svg/d20-black.svg",
      "resultId": "",
      "weight": 5,
      "range": [90, 94],
      "drawn": false
    },
    {
      "_id": "4gj112WvDsNUmQHw",
      "flags": {},
      "type": 0,
      "text": "Scroll of Resurrection",
      "img": "icons/svg/d20-black.svg",
      "resultId": "",
      "weight": 6,
      "range": [95, 100],
      "drawn": false
    }
  ],
  "formula": "1d100",
  "replacement": true,
  "displayRoll": true,
  "_id": "8E3ZJ2ipJI34hFyS",
  "ownership": {
    "default": 0
  }
}
