{
  "name": "Common Level 2 Wands",
  "flags": {},
  "description": "",
  "results": [
    {
      "_id": "JVIS7V3ODjzSrX0B",
      "flags": {},
      "type": 0,
      "text": "Wand of Acid Arrow",
      "img": "icons/svg/d20-black.svg",
      "resultId": "",
      "weight": 2,
      "range": [1, 2],
      "drawn": false
    },
    {
      "_id": "ygtLmBbTGFmvfo54",
      "flags": {},
      "type": 0,
      "text": "Wand of Aid",
      "img": "icons/svg/d20-black.svg",
      "resultId": "",
      "weight": 1,
      "range": [3, 3],
      "drawn": false
    },
    {
      "_id": "XVHq7xGui9mclYUv",
      "flags": {},
      "type": 0,
      "text": "Wand of Alter Self",
      "img": "icons/svg/d20-black.svg",
      "resultId": "",
      "weight": 2,
      "range": [4, 5],
      "drawn": false
    },
    {
      "_id": "PufO0kevk1FNwWm4",
      "flags": {},
      "type": 0,
      "text": "Wand of Barkskin",
      "img": "icons/svg/d20-black.svg",
      "resultId": "",
      "weight": 2,
      "range": [6, 7],
      "drawn": false
    },
    {
      "_id": "3nsarzht7LAa63Xa",
      "flags": {},
      "type": 0,
      "text": "Wand of Bear's Endurance",
      "img": "icons/svg/d20-black.svg",
      "resultId": "",
      "weight": 3,
      "range": [8, 10],
      "drawn": false
    },
    {
      "_id": "BR5JaSlW6e5XzMG4",
      "flags": {},
      "type": 0,
      "text": "Wand of Blur",
      "img": "icons/svg/d20-black.svg",
      "resultId": "",
      "weight": 1,
      "range": [11, 11],
      "drawn": false
    },
    {
      "_id": "gtTsG7EL9H1AJkVX",
      "flags": {},
      "type": 0,
      "text": "Wand of Bull's Strength",
      "img": "icons/svg/d20-black.svg",
      "resultId": "",
      "weight": 3,
      "range": [12, 14],
      "drawn": false
    },
    {
      "_id": "ihGG27LaEs1Pm94u",
      "flags": {},
      "type": 0,
      "text": "Wand of Cat's Grace",
      "img": "icons/svg/d20-black.svg",
      "resultId": "",
      "weight": 2,
      "range": [15, 16],
      "drawn": false
    },
    {
      "_id": "ZQt0tbgpJRC3eBSS",
      "flags": {},
      "type": 0,
      "text": "Wand of Cure Moderate Wounds",
      "img": "icons/svg/d20-black.svg",
      "resultId": "",
      "weight": 6,
      "range": [17, 22],
      "drawn": false
    },
    {
      "_id": "R7tNQD3RvU2bPNMF",
      "flags": {},
      "type": 0,
      "text": "Wand of Darkness",
      "img": "icons/svg/d20-black.svg",
      "resultId": "",
      "weight": 3,
      "range": [23, 25],
      "drawn": false
    },
    {
      "_id": "qIptMGniHQXukFg4",
      "flags": {},
      "type": 0,
      "text": "Wand of Darkvision",
      "img": "icons/svg/d20-black.svg",
      "resultId": "",
      "weight": 1,
      "range": [26, 26],
      "drawn": false
    },
    {
      "_id": "El5CBCQnprbRYT3f",
      "flags": {},
      "type": 0,
      "text": "Wand of Delay Poison",
      "img": "icons/svg/d20-black.svg",
      "resultId": "",
      "weight": 1,
      "range": [27, 27],
      "drawn": false
    },
    {
      "_id": "fDQpSP1AeCfphr7P",
      "flags": {},
      "type": 0,
      "text": "Wand of Eagle's Splendor",
      "img": "icons/svg/d20-black.svg",
      "resultId": "",
      "weight": 2,
      "range": [28, 29],
      "drawn": false
    },
    {
      "_id": "f6rhhbbiLYm7L09R",
      "flags": {},
      "type": 0,
      "text": "Wand of False Life",
      "img": "icons/svg/d20-black.svg",
      "resultId": "",
      "weight": 1,
      "range": [30, 30],
      "drawn": false
    },
    {
      "_id": "EIjVChujK1iXllvy",
      "flags": {},
      "type": 0,
      "text": "Wand of Find Traps",
      "img": "icons/svg/d20-black.svg",
      "resultId": "",
      "weight": 1,
      "range": [31, 31],
      "drawn": false
    },
    {
      "_id": "HeLftY8cppLxbb0R",
      "flags": {},
      "type": 0,
      "text": "Wand of Flame Blade",
      "img": "icons/svg/d20-black.svg",
      "resultId": "",
      "weight": 1,
      "range": [32, 32],
      "drawn": false
    },
    {
      "_id": "A1FXZSeP7LCvv5tA",
      "flags": {},
      "type": 0,
      "text": "Wand of Flaming Sphere",
      "img": "icons/svg/d20-black.svg",
      "resultId": "",
      "weight": 1,
      "range": [33, 33],
      "drawn": false
    },
    {
      "_id": "SJvChhGLAI5t7qFU",
      "flags": {},
      "type": 0,
      "text": "Wand of Fog Cloud",
      "img": "icons/svg/d20-black.svg",
      "resultId": "",
      "weight": 2,
      "range": [34, 35],
      "drawn": false
    },
    {
      "_id": "cwhfkzIZcD6PhpFa",
      "flags": {},
      "type": 0,
      "text": "Wand of Fox's Cunning",
      "img": "icons/svg/d20-black.svg",
      "resultId": "",
      "weight": 2,
      "range": [36, 37],
      "drawn": false
    },
    {
      "_id": "aRndBIwtU5tkNiPe",
      "flags": {},
      "type": 0,
      "text": "Wand of Glitterdust",
      "img": "icons/svg/d20-black.svg",
      "resultId": "",
      "weight": 1,
      "range": [38, 38],
      "drawn": false
    },
    {
      "_id": "EfCSEdQkSXNBF2WU",
      "flags": {},
      "type": 0,
      "text": "Wand of Heat Metal",
      "img": "icons/svg/d20-black.svg",
      "resultId": "",
      "weight": 2,
      "range": [39, 40],
      "drawn": false
    },
    {
      "_id": "kNl6V4nYjpFQPgCo",
      "flags": {},
      "type": 0,
      "text": "Wand of Hold Person",
      "img": "icons/svg/d20-black.svg",
      "resultId": "",
      "weight": 3,
      "range": [41, 43],
      "drawn": false
    },
    {
      "_id": "fX4OtgKk3Bka6hV6",
      "flags": {},
      "type": 0,
      "text": "Wand of Inflict Moderate Wounds",
      "img": "icons/svg/d20-black.svg",
      "resultId": "",
      "weight": 3,
      "range": [44, 46],
      "drawn": false
    },
    {
      "_id": "kg6AnqNXAlTNp3t0",
      "flags": {},
      "type": 0,
      "text": "Wand of Invisibility",
      "img": "icons/svg/d20-black.svg",
      "resultId": "",
      "weight": 5,
      "range": [47, 51],
      "drawn": false
    },
    {
      "_id": "hjbnvb3Y7Qh8QfSp",
      "flags": {},
      "type": 0,
      "text": "Wand of Knock",
      "img": "icons/svg/d20-black.svg",
      "resultId": "",
      "weight": 1,
      "range": [52, 52],
      "drawn": false
    },
    {
      "_id": "jOLzv0DMGW0UVeDq",
      "flags": {},
      "type": 0,
      "text": "Wand of Levitate",
      "img": "icons/svg/d20-black.svg",
      "resultId": "",
      "weight": 2,
      "range": [53, 54],
      "drawn": false
    },
    {
      "_id": "QfYJ3EjhIhVCjkGE",
      "flags": {},
      "type": 0,
      "text": "Wand of Minor Image",
      "img": "icons/svg/d20-black.svg",
      "resultId": "",
      "weight": 1,
      "range": [55, 55],
      "drawn": false
    },
    {
      "_id": "0y6HHFhvbUNO3qSI",
      "flags": {},
      "type": 0,
      "text": "Wand of Mirror Image",
      "img": "icons/svg/d20-black.svg",
      "resultId": "",
      "weight": 2,
      "range": [56, 57],
      "drawn": false
    },
    {
      "_id": "C0ecKAHyX9I6Cju3",
      "flags": {},
      "type": 0,
      "text": "Wand of Owl's Wisdom",
      "img": "icons/svg/d20-black.svg",
      "resultId": "",
      "weight": 2,
      "range": [58, 59],
      "drawn": false
    },
    {
      "_id": "z4n20fcPj6RfgwhM",
      "flags": {},
      "type": 0,
      "text": "Wand of Pyrotechnics",
      "img": "icons/svg/d20-black.svg",
      "resultId": "",
      "weight": 1,
      "range": [60, 60],
      "drawn": false
    },
    {
      "_id": "hvbyNpWtNQ7JYp0d",
      "flags": {},
      "type": 0,
      "text": "Wand of Remove Paralysis",
      "img": "icons/svg/d20-black.svg",
      "resultId": "",
      "weight": 1,
      "range": [61, 61],
      "drawn": false
    },
    {
      "_id": "OIhVb7TW4ptknCVg",
      "flags": {},
      "type": 0,
      "text": "Wand of Resist Energy",
      "img": "icons/svg/d20-black.svg",
      "resultId": "",
      "weight": 3,
      "range": [62, 64],
      "drawn": false
    },
    {
      "_id": "j8RQoGKI4MQDNZ4L",
      "flags": {},
      "type": 0,
      "text": "Wand of Restoration, Lesser",
      "img": "icons/svg/d20-black.svg",
      "resultId": "",
      "weight": 2,
      "range": [65, 66],
      "drawn": false
    },
    {
      "_id": "81C1JjlRKzY8WSeV",
      "flags": {},
      "type": 0,
      "text": "Wand of Scorching Ray",
      "img": "icons/svg/d20-black.svg",
      "resultId": "",
      "weight": 5,
      "range": [67, 71],
      "drawn": false
    },
    {
      "_id": "M6DP5Xh3VL41h47W",
      "flags": {},
      "type": 0,
      "text": "Wand of See Invisibility",
      "img": "icons/svg/d20-black.svg",
      "resultId": "",
      "weight": 2,
      "range": [72, 73],
      "drawn": false
    },
    {
      "_id": "sYldLZT953H95fnB",
      "flags": {},
      "type": 0,
      "text": "Wand of Shatter",
      "img": "icons/svg/d20-black.svg",
      "resultId": "",
      "weight": 1,
      "range": [74, 74],
      "drawn": false
    },
    {
      "_id": "hKdEt7b4LoMD5Dd9",
      "flags": {},
      "type": 0,
      "text": "Wand of Shield Other",
      "img": "icons/svg/d20-black.svg",
      "resultId": "",
      "weight": 2,
      "range": [75, 76],
      "drawn": false
    },
    {
      "_id": "eI9piXifKk7O3du4",
      "flags": {},
      "type": 0,
      "text": "Wand of Silence",
      "img": "icons/svg/d20-black.svg",
      "resultId": "",
      "weight": 2,
      "range": [77, 78],
      "drawn": false
    },
    {
      "_id": "R7n5ExjjR3Vo7OOK",
      "flags": {},
      "type": 0,
      "text": "Wand of Sound Burst",
      "img": "icons/svg/d20-black.svg",
      "resultId": "",
      "weight": 3,
      "range": [79, 81],
      "drawn": false
    },
    {
      "_id": "XMyknfwL5QxWvgyr",
      "flags": {},
      "type": 0,
      "text": "Wand of Spider Climb",
      "img": "icons/svg/d20-black.svg",
      "resultId": "",
      "weight": 2,
      "range": [82, 83],
      "drawn": false
    },
    {
      "_id": "puNQjbmNnLPWqonr",
      "flags": {},
      "type": 0,
      "text": "Wand of Spiritual Weapon",
      "img": "icons/svg/d20-black.svg",
      "resultId": "",
      "weight": 3,
      "range": [84, 86],
      "drawn": false
    },
    {
      "_id": "yG44FMU68zKM4wpc",
      "flags": {},
      "type": 0,
      "text": "Wand of Summon Monster II",
      "img": "icons/svg/d20-black.svg",
      "resultId": "",
      "weight": 2,
      "range": [87, 88],
      "drawn": false
    },
    {
      "_id": "cFQO8rk57wL5WSqT",
      "flags": {},
      "type": 0,
      "text": "Wand of Summon Nature's Ally II",
      "img": "icons/svg/d20-black.svg",
      "resultId": "",
      "weight": 2,
      "range": [89, 90],
      "drawn": false
    },
    {
      "_id": "iuP4mJdYKQJDjvuO",
      "flags": {},
      "type": 0,
      "text": "Wand of Summon Swarm",
      "img": "icons/svg/d20-black.svg",
      "resultId": "",
      "weight": 2,
      "range": [91, 92],
      "drawn": false
    },
    {
      "_id": "LuyrmDzzNfircH21",
      "flags": {},
      "type": 0,
      "text": "Wand of Web",
      "img": "icons/svg/d20-black.svg",
      "resultId": "",
      "weight": 4,
      "range": [93, 96],
      "drawn": false
    },
    {
      "_id": "LcluY65t7OoYe0Fl",
      "flags": {},
      "type": 0,
      "text": "Wand of Whispering Wind",
      "img": "icons/svg/d20-black.svg",
      "resultId": "",
      "weight": 1,
      "range": [97, 97],
      "drawn": false
    },
    {
      "_id": "bJCTfnAq1mnpwoV5",
      "flags": {},
      "type": 0,
      "text": "Wand of Augury",
      "img": "icons/svg/d20-black.svg",
      "resultId": "",
      "weight": 2,
      "range": [98, 99],
      "drawn": false
    },
    {
      "_id": "A6ZeivAvlI5kBYBT",
      "flags": {},
      "type": 0,
      "text": "Wand of Fire Trap",
      "img": "icons/svg/d20-black.svg",
      "resultId": "",
      "weight": 1,
      "range": [100, 100],
      "drawn": false
    }
  ],
  "formula": "1d100",
  "replacement": true,
  "displayRoll": true,
  "_id": "qeC9fgOka2MItT2A",
  "ownership": {
    "default": 0
  }
}
