{
  "name": "Common Level 3 Arcane Scrolls",
  "flags": {},
  "description": "",
  "results": [
    {
      "_id": "0SFOTbfmmdm7Fvv7",
      "flags": {},
      "type": 0,
      "text": "Scroll of Beast Shape I",
      "img": "icons/svg/d20-black.svg",
      "resultId": "",
      "weight": 3,
      "range": [1, 3],
      "drawn": false
    },
    {
      "_id": "SVdz8BM65NS8vvfk",
      "flags": {},
      "type": 0,
      "text": "Scroll of Blink",
      "img": "icons/svg/d20-black.svg",
      "resultId": "",
      "weight": 4,
      "range": [4, 7],
      "drawn": false
    },
    {
      "_id": "1eTc3qMJ5zwwW4ow",
      "flags": {},
      "type": 0,
      "text": "Scroll of Dispel Magic",
      "img": "icons/svg/d20-black.svg",
      "resultId": "",
      "weight": 5,
      "range": [8, 12],
      "drawn": false
    },
    {
      "_id": "fkUlNzmvLMQmIj8y",
      "flags": {},
      "type": 0,
      "text": "Scroll of Displacement",
      "img": "icons/svg/d20-black.svg",
      "resultId": "",
      "weight": 4,
      "range": [13, 16],
      "drawn": false
    },
    {
      "_id": "w2wVxflj1ocMtFnq",
      "flags": {},
      "type": 0,
      "text": "Scroll of Fireball",
      "img": "icons/svg/d20-black.svg",
      "resultId": "",
      "weight": 5,
      "range": [17, 21],
      "drawn": false
    },
    {
      "_id": "pAyqV6COVGvDB5er",
      "flags": {},
      "type": 0,
      "text": "Scroll of Flame Arrow",
      "img": "icons/svg/d20-black.svg",
      "resultId": "",
      "weight": 3,
      "range": [22, 24],
      "drawn": false
    },
    {
      "_id": "t1adB4asZJrFlTwv",
      "flags": {},
      "type": 0,
      "text": "Scroll of Fly",
      "img": "icons/svg/d20-black.svg",
      "resultId": "",
      "weight": 5,
      "range": [25, 29],
      "drawn": false
    },
    {
      "_id": "WBGp6o7IdjloMyqJ",
      "flags": {},
      "type": 0,
      "text": "Scroll of Gaseous Form",
      "img": "icons/svg/d20-black.svg",
      "resultId": "",
      "weight": 3,
      "range": [30, 32],
      "drawn": false
    },
    {
      "_id": "TPw5fvBttZox9XWa",
      "flags": {},
      "type": 0,
      "text": "Scroll of Haste",
      "img": "icons/svg/d20-black.svg",
      "resultId": "",
      "weight": 5,
      "range": [33, 37],
      "drawn": false
    },
    {
      "_id": "7ZuXK7pQ4fiK9i1D",
      "flags": {},
      "type": 0,
      "text": "Scroll of Heroism",
      "img": "icons/svg/d20-black.svg",
      "resultId": "",
      "weight": 3,
      "range": [38, 40],
      "drawn": false
    },
    {
      "_id": "UhF3zol3QvL5Dcmb",
      "flags": {},
      "type": 0,
      "text": "Scroll of Hold Person",
      "img": "icons/svg/d20-black.svg",
      "resultId": "",
      "weight": 3,
      "range": [41, 43],
      "drawn": false
    },
    {
      "_id": "1rWWFtaK06j79FKp",
      "flags": {},
      "type": 0,
      "text": "Scroll of Invisibility Sphere",
      "img": "icons/svg/d20-black.svg",
      "resultId": "",
      "weight": 3,
      "range": [44, 46],
      "drawn": false
    },
    {
      "_id": "AO5XvqVQyoaouuaz",
      "flags": {},
      "type": 0,
      "text": "Scroll of Lightning Bolt",
      "img": "icons/svg/d20-black.svg",
      "resultId": "",
      "weight": 5,
      "range": [47, 51],
      "drawn": false
    },
    {
      "_id": "I1tBRyMe5tKVqx5M",
      "flags": {},
      "type": 0,
      "text": "Scroll of Magic Circle Against Chaos",
      "img": "icons/svg/d20-black.svg",
      "resultId": "",
      "weight": 3,
      "range": [52, 54],
      "drawn": false
    },
    {
      "_id": "XtLFwO3xGyJoNpjV",
      "flags": {},
      "type": 0,
      "text": "Scroll of Magic Circle Against Evil",
      "img": "icons/svg/d20-black.svg",
      "resultId": "",
      "weight": 3,
      "range": [55, 57],
      "drawn": false
    },
    {
      "_id": "vNvCnVGE4d6XdUh7",
      "flags": {},
      "type": 0,
      "text": "Scroll of Magic Circle Against Good",
      "img": "icons/svg/d20-black.svg",
      "resultId": "",
      "weight": 3,
      "range": [58, 60],
      "drawn": false
    },
    {
      "_id": "5NZ2R8UQmQm7kWrI",
      "flags": {},
      "type": 0,
      "text": "Scroll of Magic Circle Against Law",
      "img": "icons/svg/d20-black.svg",
      "resultId": "",
      "weight": 3,
      "range": [61, 63],
      "drawn": false
    },
    {
      "_id": "4XHgRueMvQgBoFSA",
      "flags": {},
      "type": 0,
      "text": "Scroll of Major Image",
      "img": "icons/svg/d20-black.svg",
      "resultId": "",
      "weight": 3,
      "range": [64, 66],
      "drawn": false
    },
    {
      "_id": "9y3jxn3o1skZNST9",
      "flags": {},
      "type": 0,
      "text": "Scroll of Phantom Steed",
      "img": "icons/svg/d20-black.svg",
      "resultId": "",
      "weight": 4,
      "range": [67, 70],
      "drawn": false
    },
    {
      "_id": "ZNJJFOMHxZPtejO6",
      "flags": {},
      "type": 0,
      "text": "Scroll of Protection From Energy",
      "img": "icons/svg/d20-black.svg",
      "resultId": "",
      "weight": 4,
      "range": [71, 74],
      "drawn": false
    },
    {
      "_id": "ibZwFWWc4hfnaOF7",
      "flags": {},
      "type": 0,
      "text": "Scroll of Slow",
      "img": "icons/svg/d20-black.svg",
      "resultId": "",
      "weight": 4,
      "range": [75, 78],
      "drawn": false
    },
    {
      "_id": "vAwPB9oKVcaAMOEA",
      "flags": {},
      "type": 0,
      "text": "Scroll of Stinking Cloud",
      "img": "icons/svg/d20-black.svg",
      "resultId": "",
      "weight": 3,
      "range": [79, 81],
      "drawn": false
    },
    {
      "_id": "Ls4NJAX8gMSOCka4",
      "flags": {},
      "type": 0,
      "text": "Scroll of Suggestion",
      "img": "icons/svg/d20-black.svg",
      "resultId": "",
      "weight": 3,
      "range": [82, 84],
      "drawn": false
    },
    {
      "_id": "uFz6Ds1j6pnT55Ea",
      "flags": {},
      "type": 0,
      "text": "Scroll of Summon Monster III",
      "img": "icons/svg/d20-black.svg",
      "resultId": "",
      "weight": 3,
      "range": [85, 87],
      "drawn": false
    },
    {
      "_id": "1tTtcb8soFRChrJ2",
      "flags": {},
      "type": 0,
      "text": "Scroll of Tiny Hut",
      "img": "icons/svg/d20-black.svg",
      "resultId": "",
      "weight": 3,
      "range": [88, 90],
      "drawn": false
    },
    {
      "_id": "qGxEXkdaUu5YUSSW",
      "flags": {},
      "type": 0,
      "text": "Scroll of Tongues",
      "img": "icons/svg/d20-black.svg",
      "resultId": "",
      "weight": 4,
      "range": [91, 94],
      "drawn": false
    },
    {
      "_id": "tzikr9pUVCeyxDD7",
      "flags": {},
      "type": 0,
      "text": "Scroll of Vampiric Touch",
      "img": "icons/svg/d20-black.svg",
      "resultId": "",
      "weight": 3,
      "range": [95, 97],
      "drawn": false
    },
    {
      "_id": "6tMXzaGVTwGWO7WA",
      "flags": {},
      "type": 0,
      "text": "Scroll of Water Breathing",
      "img": "icons/svg/d20-black.svg",
      "resultId": "",
      "weight": 3,
      "range": [98, 100],
      "drawn": false
    }
  ],
  "formula": "1d100",
  "replacement": true,
  "displayRoll": true,
  "_id": "Fz77klJJdyTBTXbB",
  "ownership": {
    "default": 0
  }
}
