{
  "name": "Greater Minor Specific Armours",
  "flags": {},
  "description": "",
  "results": [
    {
      "_id": "JAWagT9Z0Rs8AjCu",
      "flags": {},
      "type": 0,
      "text": "Mistmail",
      "weight": 33,
      "range": [1, 33],
      "drawn": false
    },
    {
      "_id": "AYceJMuZLwE6WYDC",
      "flags": {},
      "type": 0,
      "text": "Otyugh Hide",
      "weight": 33,
      "range": [34, 66],
      "drawn": false
    },
    {
      "_id": "vI6rVFx3jxvyMfqF",
      "flags": {},
      "type": 0,
      "text": "Dragonhide Plate",
      "weight": 34,
      "range": [67, 100],
      "drawn": false
    }
  ],
  "formula": "1d100",
  "replacement": true,
  "displayRoll": true,
  "_id": "wG0peNoYIUCoRic5",
  "ownership": {
    "default": 0
  }
}
