{
  "_id": "IPlbSriBPqZS34pE",
  "name": "Greater Major Divine Scrolls",
  "flags": {},
  "description": "",
  "results": [
    {
      "_id": "gNIAu9CshmhTq7ge",
      "flags": {},
      "type": 2,
      "text": "Uncommon Level 6 Divine Scrolls",
      "img": "icons/svg/d20-black.svg",
      "collection": "pf1.ultimate-equipment",
      "resultId": "xs6wLxdwimYTBKJN",
      "weight": 5,
      "range": [1, 5],
      "drawn": false
    },
    {
      "_id": "s8sN1FoP9GfWzv4e",
      "flags": {},
      "type": 2,
      "text": "Uncommon Level 7 Divine Scrolls",
      "img": "icons/svg/d20-black.svg",
      "collection": "pf1.ultimate-equipment",
      "resultId": "rvHW9yquqHmQy2mI",
      "weight": 30,
      "range": [6, 35],
      "drawn": false
    },
    {
      "_id": "2f4gMdtj6zrCr9ni",
      "flags": {},
      "type": 2,
      "text": "Uncommon Level 8 Divine Scrolls",
      "img": "icons/svg/d20-black.svg",
      "collection": "pf1.ultimate-equipment",
      "resultId": "eFfS7VTnbmSRl9n2",
      "weight": 35,
      "range": [36, 70],
      "drawn": false
    },
    {
      "_id": "cP3XVNbwqsaQk2so",
      "flags": {},
      "type": 2,
      "text": "Uncommon Level 9 Divine Scrolls",
      "collection": "pf1.ultimate-equipment",
      "resultId": "d0uZrVr8nAkYn0Ph",
      "weight": 30,
      "range": [71, 100],
      "drawn": false
    }
  ],
  "formula": "1d100",
  "replacement": true,
  "displayRoll": true,
  "ownership": {
    "default": 0
  }
}
