{
  "name": "Heavy Armours",
  "flags": {},
  "description": "",
  "results": [
    {
      "_id": "YwgCwGybYgloCFXh",
      "flags": {},
      "type": 0,
      "text": "Banded Mail",
      "weight": 1,
      "range": [1, 1],
      "drawn": false
    },
    {
      "_id": "IOOM1QBgUbzcy5pk",
      "flags": {},
      "type": 0,
      "text": "Kusari Gusoku",
      "weight": 1,
      "range": [2, 2],
      "drawn": false
    },
    {
      "_id": "1APpJ1b5X5qVCw0o",
      "flags": {},
      "type": 0,
      "text": "Lamellar (Iron)",
      "weight": 1,
      "range": [3, 3],
      "drawn": false
    },
    {
      "_id": "JJJzowYj8xMID5dk",
      "flags": {},
      "type": 0,
      "text": "Splint Mail",
      "weight": 1,
      "range": [4, 4],
      "drawn": false
    },
    {
      "_id": "EDadX4Eo13UBgSih",
      "flags": {},
      "type": 0,
      "text": "Tatami-Do",
      "weight": 1,
      "range": [5, 5],
      "drawn": false
    },
    {
      "_id": "G41Q00oB1joOnRam",
      "flags": {},
      "type": 0,
      "text": "Agile Half-Plate",
      "weight": 1,
      "range": [6, 6],
      "drawn": false
    },
    {
      "_id": "8xde2M3ptC0W9Xp4",
      "flags": {},
      "type": 0,
      "text": "Half-Plate",
      "weight": 1,
      "range": [7, 7],
      "drawn": false
    },
    {
      "_id": "OwPwjXcRtc9Olsbh",
      "flags": {},
      "type": 0,
      "text": "Lamellar (Stone)",
      "weight": 1,
      "range": [8, 8],
      "drawn": false
    },
    {
      "_id": "JhIvm883L7cUqrDi",
      "flags": {},
      "type": 0,
      "text": "O-Yoroi",
      "weight": 1,
      "range": [9, 9],
      "drawn": false
    },
    {
      "_id": "0ppeES5eCbwNGeAh",
      "flags": {},
      "type": 0,
      "text": "Full Plate",
      "weight": 1,
      "range": [10, 10],
      "drawn": false
    },
    {
      "_id": "oqoCVdYXo9SoWR6n",
      "flags": {},
      "type": 0,
      "text": "Stoneplate",
      "weight": 1,
      "range": [11, 11],
      "drawn": false
    }
  ],
  "formula": "1d11",
  "replacement": true,
  "displayRoll": true,
  "_id": "9n9o2113Ew6lCHiI",
  "ownership": {
    "default": 0
  }
}
