{
  "name": "Lesser Major Hand",
  "flags": {},
  "description": "",
  "results": [
    {
      "_id": "ENjzSHOTpCHMSDP1",
      "flags": {},
      "type": 0,
      "text": "\tGloves of the Commanding Conjurer",
      "weight": 40,
      "range": [1, 40],
      "drawn": false
    },
    {
      "_id": "FDKBPv9WXoSpdvRQ",
      "flags": {},
      "type": 0,
      "text": "\tGauntlet of Rust, Greater",
      "weight": 60,
      "range": [41, 100],
      "drawn": false
    }
  ],
  "formula": "1d100",
  "replacement": true,
  "displayRoll": true,
  "_id": "1GT0e5OB1sL2C1i6",
  "ownership": {
    "default": 0
  }
}
