{
  "_id": "HzkcAbeidUj1QJxe",
  "name": "Lesser Minor Magic Item",
  "flags": {},
  "description": "",
  "results": [
    {
      "_id": "pQNaC3ft9tI17p9E",
      "flags": {},
      "type": 2,
      "text": "Lesser Minor Armour and Shields",
      "img": "icons/svg/d20-black.svg",
      "collection": "pf1.ultimate-equipment",
      "resultId": "bKerxjBSTif4QCuL",
      "weight": 1,
      "range": [1, 4],
      "drawn": false
    },
    {
      "_id": "uZHHBJcoX0Txe24Z",
      "flags": {},
      "type": 2,
      "text": "Lesser Minor Weapon",
      "img": "icons/svg/d20-black.svg",
      "collection": "pf1.ultimate-equipment",
      "resultId": "GwJr1v7M6hkIlYHR",
      "weight": 1,
      "range": [5, 9],
      "drawn": false
    },
    {
      "_id": "2MlJDaIAB2ra8SLa",
      "flags": {},
      "type": 2,
      "text": "Common Level 1 Potions and Oils",
      "img": "icons/svg/d20-black.svg",
      "collection": "pf1.ultimate-equipment",
      "resultId": "iZ6RDY3vBx0QF5fg",
      "weight": 1,
      "range": [10, 32],
      "drawn": false
    },
    {
      "_id": "0zuYjLT72xx0mnm6",
      "flags": {},
      "type": 2,
      "text": "Common Level 2 Potions and Oils",
      "img": "icons/svg/d20-black.svg",
      "collection": "pf1.ultimate-equipment",
      "resultId": "Eo22ZRkZ7filHo8R",
      "weight": 1,
      "range": [33, 44],
      "drawn": false
    },
    {
      "_id": "FWm8Ioyi2h4pQD3h",
      "flags": {},
      "type": 2,
      "text": "Lesser Minor Ring",
      "img": "icons/svg/d20-black.svg",
      "collection": "pf1.ultimate-equipment",
      "resultId": "mtc2lFS6DclN7t1O",
      "weight": 1,
      "range": [45, 46],
      "drawn": false
    },
    {
      "_id": "ZeTyeL1dfoqbG55i",
      "flags": {},
      "type": 2,
      "text": "Lesser Minor Divine Scrolls",
      "img": "icons/svg/d20-black.svg",
      "collection": "pf1.ultimate-equipment",
      "resultId": "k4AfGCVMTYYjWiyO",
      "weight": 1,
      "range": [47, 63],
      "drawn": false
    },
    {
      "_id": "STXKafukDpvIr59v",
      "flags": {},
      "type": 2,
      "text": "Lesser Minor Arcane Scrolls",
      "img": "icons/svg/d20-black.svg",
      "collection": "pf1.ultimate-equipment",
      "resultId": "yJNbRspBHxlzcc1g",
      "weight": 1,
      "range": [64, 79],
      "drawn": false
    },
    {
      "_id": "Kx24VZMvO9Ut0oak",
      "flags": {},
      "type": 2,
      "text": "Common Level 0 Wands",
      "img": "icons/svg/d20-black.svg",
      "collection": "pf1.ultimate-equipment",
      "resultId": "TeMae6GRt7G53JVJ",
      "weight": 1,
      "range": [80, 82],
      "drawn": false
    },
    {
      "_id": "X5pgVRJLiPskAyc5",
      "flags": {},
      "type": 2,
      "text": "Uncommon Level 0 Wands",
      "img": "icons/svg/d20-black.svg",
      "collection": "pf1.ultimate-equipment",
      "resultId": "VKYvNo9t1wQ3pCEk",
      "weight": 1,
      "range": [83, 83],
      "drawn": false
    },
    {
      "_id": "eCBvczwecfSs1E6l",
      "flags": {},
      "type": 2,
      "text": "Common Level 1 Wands",
      "img": "icons/svg/d20-black.svg",
      "collection": "pf1.ultimate-equipment",
      "resultId": "Kxtzw02nxm5GWPb9",
      "weight": 1,
      "range": [84, 87],
      "drawn": false
    },
    {
      "_id": "5ih5tsbs7pvDryGN",
      "flags": {},
      "type": 2,
      "text": "Uncommon Level 1 Wands",
      "img": "icons/svg/d20-black.svg",
      "collection": "pf1.ultimate-equipment",
      "resultId": "2UQtiEKX67vy7gUT",
      "weight": 1,
      "range": [88, 88],
      "drawn": false
    },
    {
      "_id": "wRma0PI57MIfvz8c",
      "flags": {},
      "type": 2,
      "text": "Lesser Minor Belt",
      "img": "icons/svg/d20-black.svg",
      "collection": "pf1.ultimate-equipment",
      "resultId": "OykbRGmw7MFG7rz5",
      "weight": 1,
      "range": [89, 89],
      "drawn": false
    },
    {
      "_id": "hGRBMVD8cOgHiaIJ",
      "flags": {},
      "type": 2,
      "text": "Lesser Minor Body",
      "img": "icons/svg/d20-black.svg",
      "collection": "pf1.ultimate-equipment",
      "resultId": "PMtNVoVaICF8hgaf",
      "weight": 1,
      "range": [90, 90],
      "drawn": false
    },
    {
      "_id": "QcLieMNB4lF4FiSj",
      "flags": {},
      "type": 2,
      "text": "Lesser Minor Chest",
      "img": "icons/svg/d20-black.svg",
      "collection": "pf1.ultimate-equipment",
      "resultId": "y4QypsUdTk0Htxrm",
      "weight": 1,
      "range": [91, 91],
      "drawn": false
    },
    {
      "_id": "oe2xzw2oNHkucFCs",
      "flags": {},
      "type": 2,
      "text": "Lesser Minor Eye",
      "img": "icons/svg/d20-black.svg",
      "collection": "pf1.ultimate-equipment",
      "resultId": "RdtqAAJ7ixYDJye6",
      "weight": 1,
      "range": [92, 92],
      "drawn": false
    },
    {
      "_id": "kw3TBH2PHH32Oloe",
      "flags": {},
      "type": 2,
      "text": "Lesser Minor Feet",
      "img": "icons/svg/d20-black.svg",
      "collection": "pf1.ultimate-equipment",
      "resultId": "GhK94oQ7mfioCSaI",
      "weight": 1,
      "range": [93, 93],
      "drawn": false
    },
    {
      "_id": "MPUGQfgGzP7guatu",
      "flags": {},
      "type": 2,
      "text": "Lesser Minor Hand",
      "img": "icons/svg/d20-black.svg",
      "collection": "pf1.ultimate-equipment",
      "resultId": "VsbyBT2yivoR6Y3b",
      "weight": 1,
      "range": [94, 94],
      "drawn": false
    },
    {
      "_id": "9LtIaEAOb7MByiBm",
      "flags": {},
      "type": 2,
      "text": "Lesser Minor Head",
      "img": "icons/svg/d20-black.svg",
      "collection": "pf1.ultimate-equipment",
      "resultId": "LvKuz05kWDHLR58s",
      "weight": 1,
      "range": [95, 95],
      "drawn": false
    },
    {
      "_id": "ldLIYYmqZmUo5EyO",
      "flags": {},
      "type": 2,
      "text": "Lesser Minor Headband",
      "img": "icons/svg/d20-black.svg",
      "collection": "pf1.ultimate-equipment",
      "resultId": "Cy27XqT2f0MclQ0P",
      "weight": 1,
      "range": [96, 96],
      "drawn": false
    },
    {
      "_id": "ox9xVPEoBI6FGPWY",
      "flags": {},
      "type": 2,
      "text": "Lesser Minor Neck",
      "img": "icons/svg/d20-black.svg",
      "collection": "pf1.ultimate-equipment",
      "resultId": "F7Ktrb2HmQonmhhC",
      "weight": 1,
      "range": [97, 97],
      "drawn": false
    },
    {
      "_id": "5RkCepz0KeSlggrN",
      "flags": {},
      "type": 2,
      "text": "Lesser Minor Shoulders",
      "img": "icons/svg/d20-black.svg",
      "collection": "pf1.ultimate-equipment",
      "resultId": "MrpqT5oFVRYyf9F0",
      "weight": 1,
      "range": [98, 98],
      "drawn": false
    },
    {
      "_id": "T99IeS2E0u0H6Q2j",
      "flags": {},
      "type": 2,
      "text": "Lesser Minor Wrists",
      "img": "icons/svg/d20-black.svg",
      "collection": "pf1.ultimate-equipment",
      "resultId": "ei8SMUzDblJDh5qO",
      "weight": 1,
      "range": [99, 99],
      "drawn": false
    },
    {
      "_id": "WKXxxPrEwjcC2f9e",
      "flags": {},
      "type": 2,
      "text": "Lesser Minor Slotless",
      "img": "icons/svg/d20-black.svg",
      "collection": "pf1.ultimate-equipment",
      "resultId": "bree7h1g8RFS7SAD",
      "weight": 1,
      "range": [100, 100],
      "drawn": false
    }
  ],
  "formula": "1d100",
  "replacement": true,
  "displayRoll": true,
  "ownership": {
    "default": 0
  }
}
