{
  "name": "Lesser Minor Neck",
  "flags": {},
  "description": "",
  "results": [
    {
      "_id": "EnZcixoGpvY2qbuK",
      "flags": {},
      "type": 0,
      "text": "\tHand of the Mage",
      "weight": 10,
      "range": [1, 10],
      "drawn": false
    },
    {
      "_id": "IjKm1LCTtiwgnuhe",
      "flags": {},
      "type": 0,
      "text": "\tAegis of Recovery",
      "weight": 8,
      "range": [11, 18],
      "drawn": false
    },
    {
      "_id": "01Pr1dsqdvHJc2zk",
      "flags": {},
      "type": 0,
      "text": "\tAmulet of Bullet Protection +1",
      "weight": 7,
      "range": [19, 25],
      "drawn": false
    },
    {
      "_id": "K4VfFUbqhlu87miQ",
      "flags": {},
      "type": 0,
      "text": "\tBrooch of Shielding",
      "weight": 12,
      "range": [26, 37],
      "drawn": false
    },
    {
      "_id": "f4JBrMipEN1QdGrf",
      "flags": {},
      "type": 0,
      "text": "\tNecklace of Fireballs (Type I)",
      "weight": 12,
      "range": [38, 49],
      "drawn": false
    },
    {
      "_id": "I0q4S4Q0kwvpAJMy",
      "flags": {},
      "type": 0,
      "text": "\tAmulet of Natural Armor +1",
      "weight": 14,
      "range": [50, 63],
      "drawn": false
    },
    {
      "_id": "s7U3mQZjjmwWpXmx",
      "flags": {},
      "type": 0,
      "text": "\tGolembane Scarab",
      "weight": 9,
      "range": [64, 72],
      "drawn": false
    },
    {
      "_id": "FLMVLzxzvaNbvOah",
      "flags": {},
      "type": 0,
      "text": "\tNecklace of Fireballs (Type II)",
      "weight": 10,
      "range": [73, 82],
      "drawn": false
    },
    {
      "_id": "dAvM3gqhGQifKDC9",
      "flags": {},
      "type": 0,
      "text": "\tSwarmbane Clasp",
      "weight": 7,
      "range": [83, 89],
      "drawn": false
    },
    {
      "_id": "RCQf4cKukvgIkYwd",
      "flags": {},
      "type": 0,
      "text": "\tMind Sentinel Medallion",
      "weight": 6,
      "range": [90, 95],
      "drawn": false
    },
    {
      "_id": "EZ672MljktPaD8Lf",
      "flags": {},
      "type": 0,
      "text": "\tMummer's Ruff",
      "weight": 5,
      "range": [96, 100],
      "drawn": false
    }
  ],
  "formula": "1d100",
  "replacement": true,
  "displayRoll": true,
  "_id": "F7Ktrb2HmQonmhhC",
  "ownership": {
    "default": 0
  }
}
