{
  "_id": "MeojVL0zujA6LKnp",
  "name": "Lesser Medium Armour and Shields",
  "flags": {},
  "description": "",
  "results": [
    {
      "_id": "Qg8sYoZC4J1GCrAI",
      "flags": {},
      "type": 0,
      "text": "+1",
      "img": "icons/svg/d20-black.svg",
      "resultId": "",
      "weight": 10,
      "range": [1, 7],
      "drawn": false
    },
    {
      "_id": "xxa7WHzR0LH0pSoH",
      "flags": {},
      "type": 2,
      "text": "Armour Type",
      "img": "icons/svg/d20-black.svg",
      "collection": "pf1.ultimate-equipment",
      "resultId": "epzojqBeYIGA9ZkT",
      "weight": 10,
      "range": [1, 60],
      "drawn": false
    },
    {
      "_id": "dMW83bJPUQAsgoxO",
      "flags": {},
      "type": 0,
      "text": "+2",
      "img": "icons/svg/d20-black.svg",
      "resultId": "",
      "weight": 10,
      "range": [8, 14],
      "drawn": false
    },
    {
      "_id": "QzgXxQ5KYfBDonJz",
      "flags": {},
      "type": 0,
      "text": "+3",
      "img": "icons/svg/d20-black.svg",
      "resultId": "",
      "weight": 12,
      "range": [15, 23],
      "drawn": false
    },
    {
      "_id": "pOCiScicmoc4dDaX",
      "flags": {},
      "type": 0,
      "text": "+1, with one +1 special ability:",
      "img": "icons/svg/d20-black.svg",
      "resultId": "",
      "weight": 12,
      "range": [24, 33],
      "drawn": false
    },
    {
      "_id": "HZ0UGBrNVzs5rBRE",
      "flags": {},
      "type": 2,
      "text": "+1 Armour Special Abilities",
      "img": "icons/svg/d20-black.svg",
      "collection": "pf1.ultimate-equipment",
      "resultId": "T3CFLxbmJCKB33Fq",
      "weight": 10,
      "range": [24, 51],
      "drawn": false
    },
    {
      "_id": "b4w2aPowCOfxW2Qb",
      "flags": {},
      "type": 0,
      "text": "+1, with two +1 special abilities:",
      "img": "icons/svg/d20-black.svg",
      "resultId": "",
      "weight": 12,
      "range": [34, 42],
      "drawn": false
    },
    {
      "_id": "U5x5UrUV6BZ4dPcC",
      "flags": {},
      "type": 2,
      "text": "+1 Armour Special Abilities",
      "img": "icons/svg/d20-black.svg",
      "collection": "pf1.ultimate-equipment",
      "resultId": "T3CFLxbmJCKB33Fq",
      "weight": 10,
      "range": [34, 42],
      "drawn": false
    },
    {
      "_id": "GvkEdZsDZQIWQyRm",
      "flags": {},
      "type": 0,
      "text": "+2, with one +1 special ability:",
      "img": "icons/svg/d20-black.svg",
      "resultId": "",
      "weight": 12,
      "range": [43, 51],
      "drawn": false
    },
    {
      "_id": "9jX028vWVG0AJDiJ",
      "flags": {},
      "type": 0,
      "text": "+1, with one +2 special ability:",
      "img": "icons/svg/d20-black.svg",
      "resultId": "",
      "weight": 12,
      "range": [52, 60],
      "drawn": false
    },
    {
      "_id": "zBaHhYliRTwCJUex",
      "flags": {},
      "type": 2,
      "text": "+2 Armour Special Abilities",
      "img": "icons/svg/d20-black.svg",
      "collection": "pf1.ultimate-equipment",
      "resultId": "YvQv6sJxSfsc3EDe",
      "weight": 10,
      "range": [52, 60],
      "drawn": false
    },
    {
      "_id": "CEr3nuAeUNsbHCVp",
      "flags": {},
      "type": 2,
      "text": "Shields",
      "img": "icons/svg/d20-black.svg",
      "collection": "pf1.ultimate-equipment",
      "resultId": "ssyKTRimRMVHtM0H",
      "weight": 10,
      "range": [61, 80],
      "drawn": false
    },
    {
      "_id": "dqEYXMhYvLRFXD26",
      "flags": {},
      "type": 0,
      "text": "+1",
      "img": "icons/svg/d20-black.svg",
      "resultId": "",
      "weight": 10,
      "range": [61, 64],
      "drawn": false
    },
    {
      "_id": "atGzec3EdmUnr1O3",
      "flags": {},
      "type": 0,
      "text": "+2",
      "img": "icons/svg/d20-black.svg",
      "resultId": "",
      "weight": 10,
      "range": [65, 67],
      "drawn": false
    },
    {
      "_id": "WE5hPO0I9l8lrED9",
      "flags": {},
      "type": 0,
      "text": "+3",
      "img": "icons/svg/d20-black.svg",
      "resultId": "",
      "weight": 10,
      "range": [68, 70],
      "drawn": false
    },
    {
      "_id": "Pt1LR2VeFT5SEyu3",
      "flags": {},
      "type": 0,
      "text": "+1, with one +1 special ability",
      "img": "icons/svg/d20-black.svg",
      "resultId": "",
      "weight": 10,
      "range": [71, 73],
      "drawn": false
    },
    {
      "_id": "LmO3DODNsIH3kF6J",
      "flags": {},
      "type": 2,
      "text": "+1 Shield Special Abilities",
      "img": "icons/svg/d20-black.svg",
      "collection": "pf1.ultimate-equipment",
      "resultId": "E4bXrk4chpUqf7Xe",
      "weight": 10,
      "range": [71, 78],
      "drawn": false
    },
    {
      "_id": "UU3LA7aIwqpAXBye",
      "flags": {},
      "type": 0,
      "text": "+1, with two +1 special abilities:",
      "img": "icons/svg/d20-black.svg",
      "resultId": "",
      "weight": 10,
      "range": [74, 76],
      "drawn": false
    },
    {
      "_id": "d475Ob0uSVvMZTxd",
      "flags": {},
      "type": 2,
      "text": "+1 Shield Special Abilities",
      "img": "icons/svg/d20-black.svg",
      "collection": "pf1.ultimate-equipment",
      "resultId": "E4bXrk4chpUqf7Xe",
      "weight": 10,
      "range": [74, 76],
      "drawn": false
    },
    {
      "_id": "kWKkENkfxXfot9UJ",
      "flags": {},
      "type": 0,
      "text": "+2, with one +1 special ability:",
      "img": "icons/svg/d20-black.svg",
      "resultId": "",
      "weight": 10,
      "range": [77, 78],
      "drawn": false
    },
    {
      "_id": "avZ6N6haRHq9Ke4v",
      "flags": {},
      "type": 0,
      "text": "+1, with one +2 special ability:",
      "img": "icons/svg/d20-black.svg",
      "resultId": "",
      "weight": 10,
      "range": [79, 80],
      "drawn": false
    },
    {
      "_id": "ZIfQPvoXBtMaiy4i",
      "flags": {},
      "type": 2,
      "text": "+2 Shield Special Abilities",
      "img": "icons/svg/d20-black.svg",
      "collection": "pf1.ultimate-equipment",
      "resultId": "oTf08HGIdHbf3gQP",
      "weight": 10,
      "range": [79, 80],
      "drawn": false
    },
    {
      "_id": "n7vJ5FrxINHFzki6",
      "flags": {},
      "type": 2,
      "text": "Lesser Medium Specific Armours",
      "img": "icons/svg/d20-black.svg",
      "collection": "pf1.ultimate-equipment",
      "resultId": "VuR6gkyqVdWknPOX",
      "weight": 10,
      "range": [81, 90],
      "drawn": false
    },
    {
      "_id": "dzqbq4YEVCkTtOkG",
      "flags": {},
      "type": 2,
      "text": "Lesser Medium Specific Shields",
      "img": "icons/svg/d20-black.svg",
      "collection": "pf1.ultimate-equipment",
      "resultId": "neIcvhnS81DfJ34d",
      "weight": 10,
      "range": [91, 100],
      "drawn": false
    }
  ],
  "formula": "1d100",
  "replacement": true,
  "displayRoll": true,
  "ownership": {
    "default": 0
  }
}
