{
  "name": "Lesser Minor Slotless",
  "flags": {},
  "description": "",
  "results": [
    {
      "_id": "CbFrECti0DX2Bqog",
      "flags": {},
      "type": 0,
      "text": "Feather Token (Anchor)",
      "img": "icons/svg/d20-black.svg",
      "resultId": "",
      "weight": 1,
      "range": [1, 1],
      "drawn": false
    },
    {
      "_id": "akoMMwAYkZh607Ni",
      "flags": {},
      "type": 0,
      "text": "Universal Solvent",
      "img": "icons/svg/d20-black.svg",
      "resultId": "",
      "weight": 1,
      "range": [2, 2],
      "drawn": false
    },
    {
      "_id": "PiNQirp9AvuPsG0H",
      "flags": {},
      "type": 0,
      "text": "Ioun Torch",
      "img": "icons/svg/d20-black.svg",
      "resultId": "",
      "weight": 2,
      "range": [3, 4],
      "drawn": false
    },
    {
      "_id": "LwrmtDYB81CJuxlc",
      "flags": {},
      "type": 0,
      "text": "Stubborn Nail",
      "img": "icons/svg/d20-black.svg",
      "resultId": "",
      "weight": 1,
      "range": [5, 5],
      "drawn": false
    },
    {
      "_id": "609A80uU06mV3cI9",
      "flags": {},
      "type": 0,
      "text": "War Paint of the Terrible Visage",
      "img": "icons/svg/d20-black.svg",
      "resultId": "",
      "weight": 1,
      "range": [6, 6],
      "drawn": false
    },
    {
      "_id": "pF3qIiXzz21Wyuju",
      "flags": {},
      "type": 0,
      "text": "Elixir of Love",
      "img": "icons/svg/d20-black.svg",
      "resultId": "",
      "weight": 1,
      "range": [7, 7],
      "drawn": false
    },
    {
      "_id": "zPqlS8Sxxg4kyGlo",
      "flags": {},
      "type": 0,
      "text": "Unguent of Timelessness",
      "img": "icons/svg/d20-black.svg",
      "resultId": "",
      "weight": 1,
      "range": [8, 8],
      "drawn": false
    },
    {
      "_id": "vusc0xzZ31gCfHh9",
      "flags": {},
      "type": 0,
      "text": "Feather Token (Fan)",
      "img": "icons/svg/d20-black.svg",
      "resultId": "",
      "weight": 1,
      "range": [9, 9],
      "drawn": false
    },
    {
      "_id": "DNLpjbV5zyY0ukN7",
      "flags": {},
      "type": 0,
      "text": "Formula Alembic",
      "img": "icons/svg/d20-black.svg",
      "resultId": "",
      "weight": 1,
      "range": [10, 10],
      "drawn": false
    },
    {
      "_id": "k2YuQHzXmfpvxl1S",
      "flags": {},
      "type": 0,
      "text": "Hybridization Funnel",
      "img": "icons/svg/d20-black.svg",
      "resultId": "",
      "weight": 1,
      "range": [11, 11],
      "drawn": false
    },
    {
      "_id": "BcnjFbgKvO1hBDsc",
      "flags": {},
      "type": 0,
      "text": "Soul Soap",
      "img": "icons/svg/d20-black.svg",
      "resultId": "",
      "weight": 1,
      "range": [12, 12],
      "drawn": false
    },
    {
      "_id": "HETtzoa0Qr0ojdAj",
      "flags": {},
      "type": 0,
      "text": "Dust of Tracelessness",
      "img": "icons/svg/d20-black.svg",
      "resultId": "",
      "weight": 1,
      "range": [13, 13],
      "drawn": false
    },
    {
      "_id": "EQtw3HhvFJiThWnR",
      "flags": {},
      "type": 0,
      "text": "Elixir of Hiding",
      "img": "icons/svg/d20-black.svg",
      "resultId": "",
      "weight": 3,
      "range": [14, 16],
      "drawn": false
    },
    {
      "_id": "48HSXxVZSbLz4ktZ",
      "flags": {},
      "type": 0,
      "text": "Elixir of Swimming",
      "img": "icons/svg/d20-black.svg",
      "resultId": "",
      "weight": 3,
      "range": [17, 19],
      "drawn": false
    },
    {
      "_id": "HlEuKgWHbVAxam05",
      "flags": {},
      "type": 0,
      "text": "Elixir of Tumbling",
      "img": "icons/svg/d20-black.svg",
      "resultId": "",
      "weight": 3,
      "range": [20, 22],
      "drawn": false
    },
    {
      "_id": "WI08iG3WAGjvLcL6",
      "flags": {},
      "type": 0,
      "text": "Elixir of Vision",
      "img": "icons/svg/d20-black.svg",
      "resultId": "",
      "weight": 3,
      "range": [23, 25],
      "drawn": false
    },
    {
      "_id": "4Shiq52B7Omm8FFE",
      "flags": {},
      "type": 0,
      "text": "Nightdrops",
      "img": "icons/svg/d20-black.svg",
      "resultId": "",
      "weight": 2,
      "range": [26, 27],
      "drawn": false
    },
    {
      "_id": "6RPsYChpPe7QMD9e",
      "flags": {},
      "type": 0,
      "text": "Oil of Silence",
      "img": "icons/svg/d20-black.svg",
      "resultId": "",
      "weight": 1,
      "range": [28, 28],
      "drawn": false
    },
    {
      "_id": "AkneY6gcspi8c5qH",
      "flags": {},
      "type": 0,
      "text": "Silversheen",
      "img": "icons/svg/d20-black.svg",
      "resultId": "",
      "weight": 3,
      "range": [29, 31],
      "drawn": false
    },
    {
      "_id": "qTCjVyESm7gYm7pN",
      "flags": {},
      "type": 0,
      "text": "Traveler's Any-Tool",
      "img": "icons/svg/d20-black.svg",
      "resultId": "",
      "weight": 1,
      "range": [32, 32],
      "drawn": false
    },
    {
      "_id": "uXKsSIHP4ZlvWst1",
      "flags": {},
      "type": 0,
      "text": "Bottle of Messages",
      "img": "icons/svg/d20-black.svg",
      "resultId": "",
      "weight": 2,
      "range": [33, 34],
      "drawn": false
    },
    {
      "_id": "KijaoYa8DMIqcA5C",
      "flags": {},
      "type": 0,
      "text": "Feather Token (Bird)",
      "img": "icons/svg/d20-black.svg",
      "resultId": "",
      "weight": 2,
      "range": [35, 36],
      "drawn": false
    },
    {
      "_id": "mgBK60liCIMAjST9",
      "flags": {},
      "type": 0,
      "text": "Origami Swarm",
      "img": "icons/svg/d20-black.svg",
      "resultId": "",
      "weight": 1,
      "range": [37, 37],
      "drawn": false
    },
    {
      "_id": "5sQlPqojV7BeJGW6",
      "flags": {},
      "type": 0,
      "text": "Alluring Golden Apple",
      "img": "icons/svg/d20-black.svg",
      "resultId": "",
      "weight": 1,
      "range": [38, 38],
      "drawn": false
    },
    {
      "_id": "B6vEuxNvbKE8uAWq",
      "flags": {},
      "type": 0,
      "text": "Feather Token (Tree)",
      "img": "icons/svg/d20-black.svg",
      "resultId": "",
      "weight": 1,
      "range": [39, 39],
      "drawn": false
    },
    {
      "_id": "dYZC2K1nWR7658o1",
      "flags": {},
      "type": 0,
      "text": "Key of Lock Jamming",
      "img": "icons/svg/d20-black.svg",
      "resultId": "",
      "weight": 1,
      "range": [40, 40],
      "drawn": false
    },
    {
      "_id": "pxjRR6Ax6xCdUDlq",
      "flags": {},
      "type": 0,
      "text": "Feather Token (Swan Boat)",
      "img": "icons/svg/d20-black.svg",
      "resultId": "",
      "weight": 2,
      "range": [41, 42],
      "drawn": false
    },
    {
      "_id": "gRZvSIz2RbRXxP2Q",
      "flags": {},
      "type": 0,
      "text": "Animated Portrait",
      "img": "icons/svg/d20-black.svg",
      "resultId": "",
      "weight": 1,
      "range": [43, 43],
      "drawn": false
    },
    {
      "_id": "VPCx0j7op8eCV36f",
      "flags": {},
      "type": 0,
      "text": "Bottled Misfortune",
      "img": "icons/svg/d20-black.svg",
      "resultId": "",
      "weight": 1,
      "range": [44, 44],
      "drawn": false
    },
    {
      "_id": "Uel9wvIKEzx07JXx",
      "flags": {},
      "type": 0,
      "text": "Elixir of Truth",
      "img": "icons/svg/d20-black.svg",
      "resultId": "",
      "weight": 2,
      "range": [45, 46],
      "drawn": false
    },
    {
      "_id": "Y3TYD8ocKlZvgND2",
      "flags": {},
      "type": 0,
      "text": "Feather Token (Whip)",
      "img": "icons/svg/d20-black.svg",
      "resultId": "",
      "weight": 2,
      "range": [47, 48],
      "drawn": false
    },
    {
      "_id": "pxyBW1JOxD9oZgs5",
      "flags": {},
      "type": 0,
      "text": "Scabbard of Honing",
      "img": "icons/svg/d20-black.svg",
      "resultId": "",
      "weight": 3,
      "range": [49, 51],
      "drawn": false
    },
    {
      "_id": "XoWL6LObyE6vIjVD",
      "flags": {},
      "type": 0,
      "text": "Seer's Tea",
      "img": "icons/svg/d20-black.svg",
      "resultId": "",
      "weight": 2,
      "range": [52, 53],
      "drawn": false
    },
    {
      "_id": "h22tsFk1C4KaJJUR",
      "flags": {},
      "type": 0,
      "text": "Abjurant Salt",
      "img": "icons/svg/d20-black.svg",
      "resultId": "",
      "weight": 4,
      "range": [54, 57],
      "drawn": false
    },
    {
      "_id": "gJpaJtR1GuDv9D9S",
      "flags": {},
      "type": 0,
      "text": "Arrow Magnet",
      "img": "icons/svg/d20-black.svg",
      "resultId": "",
      "weight": 4,
      "range": [58, 61],
      "drawn": false
    },
    {
      "_id": "OetEJkmYWuteS0Ng",
      "flags": {},
      "type": 0,
      "text": "Dust of Darkness",
      "img": "icons/svg/d20-black.svg",
      "resultId": "",
      "weight": 2,
      "range": [62, 63],
      "drawn": false
    },
    {
      "_id": "HY61ViNlBEJzupEO",
      "flags": {},
      "type": 0,
      "text": "Campfire Bead",
      "img": "icons/svg/d20-black.svg",
      "resultId": "",
      "weight": 6,
      "range": [64, 69],
      "drawn": false
    },
    {
      "_id": "ZabdAIy5jDfBliGZ",
      "flags": {},
      "type": 0,
      "text": "Archon's Torch",
      "img": "icons/svg/d20-black.svg",
      "resultId": "",
      "weight": 3,
      "range": [70, 72],
      "drawn": false
    },
    {
      "_id": "j5eTmjyHkZ5upEtq",
      "flags": {},
      "type": 0,
      "text": "Book of Extended Summoning (Lesser)",
      "img": "icons/svg/d20-black.svg",
      "resultId": "",
      "weight": 3,
      "range": [73, 75],
      "drawn": false
    },
    {
      "_id": "cNjsZvvUfQJH1P1D",
      "flags": {},
      "type": 0,
      "text": "Iron Rope",
      "img": "icons/svg/d20-black.svg",
      "resultId": "",
      "weight": 4,
      "range": [76, 79],
      "drawn": false
    },
    {
      "_id": "tiLHCu8jM8LFi25j",
      "flags": {},
      "type": 0,
      "text": "Snapleaf",
      "img": "icons/svg/d20-black.svg",
      "resultId": "",
      "weight": 4,
      "range": [80, 83],
      "drawn": false
    },
    {
      "_id": "scWyH6Qg47BTNvRQ",
      "flags": {},
      "type": 0,
      "text": "Bottled Yeti Fur",
      "img": "icons/svg/d20-black.svg",
      "resultId": "",
      "weight": 3,
      "range": [84, 86],
      "drawn": false
    },
    {
      "_id": "qxRIYBdsqkja2hPb",
      "flags": {},
      "type": 0,
      "text": "Defoliant Polish",
      "img": "icons/svg/d20-black.svg",
      "resultId": "",
      "weight": 3,
      "range": [87, 89],
      "drawn": false
    },
    {
      "_id": "oZm5HoUrrFmjVb0L",
      "flags": {},
      "type": 0,
      "text": "Dust of Emulation",
      "img": "icons/svg/d20-black.svg",
      "resultId": "",
      "weight": 3,
      "range": [90, 92],
      "drawn": false
    },
    {
      "_id": "t8o5362GR5PnfmeY",
      "flags": {},
      "type": 0,
      "text": "Steadfast Gut-Stone",
      "img": "icons/svg/d20-black.svg",
      "resultId": "",
      "weight": 5,
      "range": [93, 97],
      "drawn": false
    },
    {
      "_id": "sM807iiND64v1UB3",
      "flags": {},
      "type": 0,
      "text": "Dust of Dryness",
      "img": "icons/svg/d20-black.svg",
      "resultId": "",
      "weight": 3,
      "range": [98, 100],
      "drawn": false
    },
    {
      "_id": "r5GLswOI8wYe3lU3",
      "flags": {},
      "type": 0,
      "text": "Book of Extended Summoning (Lesser)",
      "img": "icons/svg/d20-black.svg",
      "resultId": "",
      "weight": 3,
      "range": [101, 103],
      "drawn": false
    },
    {
      "_id": "TmShyoLfJRpo67r6",
      "flags": {},
      "type": 0,
      "text": "Anatomy Doll",
      "img": "icons/svg/d20-black.svg",
      "resultId": "",
      "weight": 1,
      "range": [104, 104],
      "drawn": false
    },
    {
      "_id": "t6ahpQYNjUfCSYJC",
      "flags": {},
      "type": 0,
      "text": "Bead of Newt Prevention",
      "img": "icons/svg/d20-black.svg",
      "resultId": "",
      "weight": 1,
      "range": [105, 105],
      "drawn": false
    },
    {
      "_id": "GklYOcL9PLxQ8v8a",
      "flags": {},
      "type": 0,
      "text": "Beast-Bond Brand",
      "img": "icons/svg/d20-black.svg",
      "resultId": "",
      "weight": 1,
      "range": [106, 106],
      "drawn": false
    },
    {
      "_id": "K3NMr3ZfaaplyG3i",
      "flags": {},
      "type": 0,
      "text": "Bookplate of Recall",
      "img": "icons/svg/d20-black.svg",
      "resultId": "",
      "weight": 1,
      "range": [107, 107],
      "drawn": false
    },
    {
      "_id": "TCjPGKdczdjd4S2s",
      "flags": {},
      "type": 0,
      "text": "Boro Bead (1st)",
      "img": "icons/svg/d20-black.svg",
      "resultId": "",
      "weight": 2,
      "range": [108, 109],
      "drawn": false
    },
    {
      "_id": "laxEihRcsUJpWJol",
      "flags": {},
      "type": 0,
      "text": "Concealing Pocket",
      "img": "icons/svg/d20-black.svg",
      "resultId": "",
      "weight": 1,
      "range": [110, 110],
      "drawn": false
    },
    {
      "_id": "3998hdaKXGsdAq8B",
      "flags": {},
      "type": 0,
      "text": "Dowsing Syrup",
      "img": "icons/svg/d20-black.svg",
      "resultId": "",
      "weight": 1,
      "range": [111, 111],
      "drawn": false
    },
    {
      "_id": "kYSFSOwGP30rXGxk",
      "flags": {},
      "type": 0,
      "text": "Incense of Transcendence",
      "img": "icons/svg/d20-black.svg",
      "resultId": "",
      "weight": 1,
      "range": [112, 112],
      "drawn": false
    },
    {
      "_id": "pLAwHJcENS8SeRlJ",
      "flags": {},
      "type": 0,
      "text": "Page of Spell Knowledge (1st)",
      "img": "icons/svg/d20-black.svg",
      "resultId": "",
      "weight": 2,
      "range": [113, 114],
      "drawn": false
    },
    {
      "_id": "UadwLcH8j3kjuSIj",
      "flags": {},
      "type": 0,
      "text": "Pearl of Power (1st)",
      "img": "icons/svg/d20-black.svg",
      "resultId": "",
      "weight": 3,
      "range": [115, 117],
      "drawn": false
    },
    {
      "_id": "RAZSGoZOWevGn3wj",
      "flags": {},
      "type": 0,
      "text": "Preserving Flask (1st)",
      "img": "icons/svg/d20-black.svg",
      "resultId": "",
      "weight": 1,
      "range": [118, 118],
      "drawn": false
    },
    {
      "_id": "eIaBXhbKKFDlq1ZO",
      "flags": {},
      "type": 0,
      "text": "Pyxes of Redirected Focus",
      "img": "icons/svg/d20-black.svg",
      "resultId": "",
      "weight": 2,
      "range": [119, 120],
      "drawn": false
    },
    {
      "_id": "zQJismhefVPizQ5M",
      "flags": {},
      "type": 0,
      "text": "Salve of Slipperiness",
      "img": "icons/svg/d20-black.svg",
      "resultId": "",
      "weight": 2,
      "range": [121, 122],
      "drawn": false
    },
    {
      "_id": "v7t22TDxqXFNhFdd",
      "flags": {},
      "type": 0,
      "text": "Wasp Nest of Swarming",
      "img": "icons/svg/d20-black.svg",
      "resultId": "",
      "weight": 1,
      "range": [123, 123],
      "drawn": false
    },
    {
      "_id": "WUT7cEgtZTS1RJzL",
      "flags": {},
      "type": 0,
      "text": "Elixir of Fire Breath",
      "img": "icons/svg/d20-black.svg",
      "resultId": "",
      "weight": 3,
      "range": [124, 126],
      "drawn": false
    },
    {
      "_id": "A4plvE9IKHdiZJhi",
      "flags": {},
      "type": 0,
      "text": "Grave Salt",
      "img": "icons/svg/d20-black.svg",
      "resultId": "",
      "weight": 1,
      "range": [127, 127],
      "drawn": false
    },
    {
      "_id": "a4k6cuNYbBUelvgO",
      "flags": {},
      "type": 0,
      "text": "Pipes of the Sewers",
      "img": "icons/svg/d20-black.svg",
      "resultId": "",
      "weight": 2,
      "range": [128, 129],
      "drawn": false
    },
    {
      "_id": "qXJkCJMq6h2SNPFm",
      "flags": {},
      "type": 0,
      "text": "Dust of Illusion",
      "img": "icons/svg/d20-black.svg",
      "resultId": "",
      "weight": 2,
      "range": [130, 131],
      "drawn": false
    },
    {
      "_id": "1Zvlk8KMYf5q8ZJ0",
      "flags": {},
      "type": 0,
      "text": "Goblin Skull Bomb",
      "img": "icons/svg/d20-black.svg",
      "resultId": "",
      "weight": 2,
      "range": [132, 133],
      "drawn": false
    },
    {
      "_id": "VfYURgZu6GpCuZyU",
      "flags": {},
      "type": 0,
      "text": "Elixir of Dragon Breath",
      "img": "icons/svg/d20-black.svg",
      "resultId": "",
      "weight": 2,
      "range": [134, 135],
      "drawn": false
    },
    {
      "_id": "RkG6UQ3RsTIOLOPT",
      "flags": {},
      "type": 0,
      "text": "Bookmark of Deception",
      "img": "icons/svg/d20-black.svg",
      "resultId": "",
      "weight": 1,
      "range": [136, 136],
      "drawn": false
    },
    {
      "_id": "4qgDwQDbJ5SB8hOk",
      "flags": {},
      "type": 0,
      "text": "Word Bottle",
      "img": "icons/svg/d20-black.svg",
      "resultId": "",
      "weight": 1,
      "range": [137, 137],
      "drawn": false
    },
    {
      "_id": "jvRsAA02olc11qLY",
      "flags": {},
      "type": 0,
      "text": "Dust of Acid Consumption",
      "img": "icons/svg/d20-black.svg",
      "resultId": "",
      "weight": 1,
      "range": [138, 138],
      "drawn": false
    },
    {
      "_id": "AEgZQQefuuZBNIzu",
      "flags": {},
      "type": 0,
      "text": "Dust of Appearance",
      "img": "icons/svg/d20-black.svg",
      "resultId": "",
      "weight": 2,
      "range": [139, 140],
      "drawn": false
    },
    {
      "_id": "jS7f1OafHKYoneIS",
      "flags": {},
      "type": 0,
      "text": "Efficient Quiver",
      "img": "icons/svg/d20-black.svg",
      "resultId": "",
      "weight": 2,
      "range": [141, 142],
      "drawn": false
    },
    {
      "_id": "PUJKjqHPpHketUS9",
      "flags": {},
      "type": 0,
      "text": "Pipes of Sounding",
      "img": "icons/svg/d20-black.svg",
      "resultId": "",
      "weight": 1,
      "range": [143, 143],
      "drawn": false
    },
    {
      "_id": "bfrnFlE1LEHRmyPv",
      "flags": {},
      "type": 0,
      "text": "Scabbard of Vigor",
      "img": "icons/svg/d20-black.svg",
      "resultId": "",
      "weight": 1,
      "range": [144, 144],
      "drawn": false
    },
    {
      "_id": "FUG7Ph8IRGCDjOgn",
      "flags": {},
      "type": 0,
      "text": "Agile Alpenstock",
      "img": "icons/svg/d20-black.svg",
      "resultId": "",
      "weight": 1,
      "range": [145, 145],
      "drawn": false
    },
    {
      "_id": "qPoYtYdOecO2hiq5",
      "flags": {},
      "type": 0,
      "text": "Blood Reservoir of Physical Prowess",
      "img": "icons/svg/d20-black.svg",
      "resultId": "",
      "weight": 1,
      "range": [146, 146],
      "drawn": false
    },
    {
      "_id": "jOD3yvQQIU4DZ6p2",
      "flags": {},
      "type": 0,
      "text": "Clamor Box",
      "img": "icons/svg/d20-black.svg",
      "resultId": "",
      "weight": 1,
      "range": [147, 147],
      "drawn": false
    },
    {
      "_id": "VDbv1xlKvQrLSdkL",
      "flags": {},
      "type": 0,
      "text": "Dry Load Powder Horn",
      "img": "icons/svg/d20-black.svg",
      "resultId": "",
      "weight": 1,
      "range": [148, 148],
      "drawn": false
    },
    {
      "_id": "QrM5FthbozxjITuB",
      "flags": {},
      "type": 0,
      "text": "Goblin Fire Drum (Normal)",
      "img": "icons/svg/d20-black.svg",
      "resultId": "",
      "weight": 1,
      "range": [149, 149],
      "drawn": false
    },
    {
      "_id": "tOoODxHzUxiF0GhO",
      "flags": {},
      "type": 0,
      "text": "Handy Haversack",
      "img": "icons/svg/d20-black.svg",
      "resultId": "",
      "weight": 2,
      "range": [150, 151],
      "drawn": false
    },
    {
      "_id": "Qq60emZ1rLsSb2DG",
      "flags": {},
      "type": 0,
      "text": "Horn of Fog",
      "img": "icons/svg/d20-black.svg",
      "resultId": "",
      "weight": 2,
      "range": [152, 153],
      "drawn": false
    },
    {
      "_id": "wNeCs9uIUCXulLsd",
      "flags": {},
      "type": 0,
      "text": "Iron Spike of Safe Passage",
      "img": "icons/svg/d20-black.svg",
      "resultId": "",
      "weight": 1,
      "range": [154, 154],
      "drawn": false
    },
    {
      "_id": "h8A3t2nNPoCnkzdB",
      "flags": {},
      "type": 0,
      "text": "Knight's Pennon (Honor)",
      "img": "icons/svg/d20-black.svg",
      "resultId": "",
      "weight": 1,
      "range": [155, 155],
      "drawn": false
    },
    {
      "_id": "ydk5QBAq0ToyMTDE",
      "flags": {},
      "type": 0,
      "text": "Volatile Vaporizer (1st)",
      "img": "icons/svg/d20-black.svg",
      "resultId": "",
      "weight": 4,
      "range": [156, 159],
      "drawn": false
    },
    {
      "_id": "jqUbw4RMLXSv7R4A",
      "flags": {},
      "type": 0,
      "text": "Elemental Gem",
      "img": "icons/svg/d20-black.svg",
      "resultId": "",
      "weight": 3,
      "range": [160, 162],
      "drawn": false
    },
    {
      "_id": "dG4f6T7wbgGb0Gn8",
      "flags": {},
      "type": 0,
      "text": "Flying Ointment",
      "img": "icons/svg/d20-black.svg",
      "resultId": "",
      "weight": 2,
      "range": [163, 164],
      "drawn": false
    },
    {
      "_id": "slJWf34gqskGdWwF",
      "flags": {},
      "type": 0,
      "text": "Sovereign Glue",
      "img": "icons/svg/d20-black.svg",
      "resultId": "",
      "weight": 1,
      "range": [165, 165],
      "drawn": false
    },
    {
      "_id": "loI8wewSO1RMSNWy",
      "flags": {},
      "type": 0,
      "text": "Apple of Eternal Sleep",
      "img": "icons/svg/d20-black.svg",
      "resultId": "",
      "weight": 1,
      "range": [166, 166],
      "drawn": false
    },
    {
      "_id": "pZYoKp9yKFr2iG7S",
      "flags": {},
      "type": 0,
      "text": "Bag of Holding (Type I)",
      "img": "icons/svg/d20-black.svg",
      "resultId": "",
      "weight": 2,
      "range": [167, 168],
      "drawn": false
    },
    {
      "_id": "KvNmNlVxWfIgi6jb",
      "flags": {},
      "type": 0,
      "text": "Candle of Truth",
      "img": "icons/svg/d20-black.svg",
      "resultId": "",
      "weight": 1,
      "range": [169, 169],
      "drawn": false
    },
    {
      "_id": "HpAZaIBXjM2yMqlH",
      "flags": {},
      "type": 0,
      "text": "Hexing Doll",
      "img": "icons/svg/d20-black.svg",
      "resultId": "",
      "weight": 1,
      "range": [170, 170],
      "drawn": false
    },
    {
      "_id": "FSfvNcP3ezeKQx0F",
      "flags": {},
      "type": 0,
      "text": "Stone of Alarm",
      "img": "icons/svg/d20-black.svg",
      "resultId": "",
      "weight": 2,
      "range": [171, 172],
      "drawn": false
    },
    {
      "_id": "F5cZymr72sD52fSq",
      "flags": {},
      "type": 0,
      "text": "Book of Extended Summoning (Standard)",
      "img": "icons/svg/d20-black.svg",
      "resultId": "",
      "weight": 1,
      "range": [173, 173],
      "drawn": false
    },
    {
      "_id": "Frvsdgl06mgqyZfS",
      "flags": {},
      "type": 0,
      "text": "Bead of Force",
      "img": "icons/svg/d20-black.svg",
      "resultId": "",
      "weight": 4,
      "range": [174, 177],
      "drawn": false
    },
    {
      "_id": "1y70PNwhCAmrFZOY",
      "flags": {},
      "type": 0,
      "text": "Cauldron of Brewing",
      "img": "icons/svg/d20-black.svg",
      "resultId": "",
      "weight": 1,
      "range": [178, 178],
      "drawn": false
    },
    {
      "_id": "G1tRasGyyxM9nL4B",
      "flags": {},
      "type": 0,
      "text": "Chime of Opening",
      "img": "icons/svg/d20-black.svg",
      "resultId": "",
      "weight": 2,
      "range": [179, 180],
      "drawn": false
    },
    {
      "_id": "08mys9IgQp4J72oG",
      "flags": {},
      "type": 0,
      "text": "Philter of Love",
      "img": "icons/svg/d20-black.svg",
      "resultId": "",
      "weight": 1,
      "range": [181, 181],
      "drawn": false
    },
    {
      "_id": "rztX14QF6DIBUbmR",
      "flags": {},
      "type": 0,
      "text": "Rope of Climbing",
      "img": "icons/svg/d20-black.svg",
      "resultId": "",
      "weight": 5,
      "range": [182, 186],
      "drawn": false
    },
    {
      "_id": "Dmp1aPLNGfL5jQOU",
      "flags": {},
      "type": 0,
      "text": "Volatile Vaporizer (2nd)",
      "img": "icons/svg/d20-black.svg",
      "resultId": "",
      "weight": 2,
      "range": [187, 188],
      "drawn": false
    },
    {
      "_id": "mMXBTcuOkK6rbM92",
      "flags": {},
      "type": 0,
      "text": "Shroud of Disintegration",
      "img": "icons/svg/d20-black.svg",
      "resultId": "",
      "weight": 1,
      "range": [189, 189],
      "drawn": false
    },
    {
      "_id": "NgJjnASGpgKd9GVy",
      "flags": {},
      "type": 0,
      "text": "Bag of Tricks (Gray)",
      "img": "icons/svg/d20-black.svg",
      "resultId": "",
      "weight": 3,
      "range": [190, 192],
      "drawn": false
    },
    {
      "_id": "qDKVXqFVAhPRMdLB",
      "flags": {},
      "type": 0,
      "text": "Dust of Disappearance",
      "img": "icons/svg/d20-black.svg",
      "resultId": "",
      "weight": 3,
      "range": [193, 195],
      "drawn": false
    },
    {
      "_id": "mAUhpDIkLJXNW3et",
      "flags": {},
      "type": 0,
      "text": "Dust of Weighty Burdens",
      "img": "icons/svg/d20-black.svg",
      "resultId": "",
      "weight": 1,
      "range": [196, 196],
      "drawn": false
    },
    {
      "_id": "WpRkhC9ZZ9ZMMln2",
      "flags": {},
      "type": 0,
      "text": "Noble's Vigilant Pillbox",
      "img": "icons/svg/d20-black.svg",
      "resultId": "",
      "weight": 1,
      "range": [197, 197],
      "drawn": false
    },
    {
      "_id": "nffLYSmOnO2dWmoz",
      "flags": {},
      "type": 0,
      "text": "Figurine of Wondrous Power (Silver Raven)",
      "img": "icons/svg/d20-black.svg",
      "resultId": "",
      "weight": 2,
      "range": [198, 199],
      "drawn": false
    },
    {
      "_id": "Y2BJlripHZJdfyxB",
      "flags": {},
      "type": 0,
      "text": "Volatile Vaporizer (3rd)",
      "img": "icons/svg/d20-black.svg",
      "resultId": "",
      "weight": 1,
      "range": [200, 200],
      "drawn": false
    }
  ],
  "formula": "1d200",
  "replacement": true,
  "displayRoll": true,
  "_id": "bree7h1g8RFS7SAD",
  "ownership": {
    "default": 0
  }
}
