{
  "name": "Lesser Medium Rods",
  "flags": {},
  "description": "",
  "results": [
    {
      "_id": "mHu7GOq8asFMrt9s",
      "flags": {},
      "type": 0,
      "text": "Rod of Lesser Merciful Metamagic",
      "weight": 1,
      "range": [1, 1],
      "drawn": false
    },
    {
      "_id": "yqffuZ9KMlCH9PdM",
      "flags": {},
      "type": 0,
      "text": "Rod of Lesser Extend Metamagic",
      "weight": 33,
      "range": [2, 34],
      "drawn": false
    },
    {
      "_id": "rJilRWErjJYOqwXa",
      "flags": {},
      "type": 0,
      "text": "Immovable Rod",
      "weight": 15,
      "range": [35, 49],
      "drawn": false
    },
    {
      "_id": "Bk7ddWqINEtVwLk1",
      "flags": {},
      "type": 0,
      "text": "Rod of Thunderous Force",
      "weight": 10,
      "range": [50, 59],
      "drawn": false
    },
    {
      "_id": "XtoDrr6CAn2Q5jEc",
      "flags": {},
      "type": 0,
      "text": "Rod of Merciful Metamagic",
      "weight": 1,
      "range": [60, 60],
      "drawn": false
    },
    {
      "_id": "DrBH4EZ6MT2ox7aV",
      "flags": {},
      "type": 0,
      "text": "Rod of Ice",
      "weight": 1,
      "range": [61, 61],
      "drawn": false
    },
    {
      "_id": "UkRRC6Wl3XQTSTJz",
      "flags": {},
      "type": 0,
      "text": "Rod of Lesser Thanatopic Metamagic",
      "weight": 10,
      "range": [62, 71],
      "drawn": false
    },
    {
      "_id": "rnN6u9gOO0q2OnLG",
      "flags": {},
      "type": 0,
      "text": "Rod of Metal and Mineral Detection",
      "weight": 10,
      "range": [72, 81],
      "drawn": false
    },
    {
      "_id": "ZWqeCzAwbXmDR8du",
      "flags": {},
      "type": 0,
      "text": "Rod of Extend Metamagic",
      "weight": 5,
      "range": [82, 86],
      "drawn": false
    },
    {
      "_id": "gOY7Pwbs2ZO7QYfM",
      "flags": {},
      "type": 0,
      "text": "Rod of Cancellation",
      "weight": 14,
      "range": [87, 100],
      "drawn": false
    }
  ],
  "formula": "1d100",
  "replacement": true,
  "displayRoll": true,
  "_id": "T4z08jHo5bXw69iQ",
  "ownership": {
    "default": 0
  }
}
