{
  "name": "Light Melee",
  "flags": {},
  "description": "",
  "results": [
    {
      "_id": "tR58GIK2GL7bDLs9",
      "flags": {},
      "type": 0,
      "text": "Battle Aspergillum",
      "weight": 1,
      "range": [1, 1],
      "drawn": false
    },
    {
      "_id": "ofYLFSW0JZr2zjEs",
      "flags": {},
      "type": 0,
      "text": "Brass Knuckles",
      "weight": 1,
      "range": [2, 2],
      "drawn": false
    },
    {
      "_id": "4avBCQiNMbj1ZCBh",
      "flags": {},
      "type": 0,
      "text": "Cestus",
      "weight": 1,
      "range": [3, 3],
      "drawn": false
    },
    {
      "_id": "8YryUCbLPL8BgumL",
      "flags": {},
      "type": 0,
      "text": "Dagger",
      "weight": 1,
      "range": [4, 4],
      "drawn": false
    },
    {
      "_id": "Ulj2r6IDtR6wYezB",
      "flags": {},
      "type": 0,
      "text": "Gauntlet",
      "weight": 1,
      "range": [5, 5],
      "drawn": false
    },
    {
      "_id": "oPZRNzRPxRVhWXub",
      "flags": {},
      "type": 0,
      "text": "Light Mace",
      "weight": 1,
      "range": [6, 6],
      "drawn": false
    },
    {
      "_id": "7BHCWSCYowoUO36p",
      "flags": {},
      "type": 0,
      "text": "Punching Dagger",
      "weight": 1,
      "range": [7, 7],
      "drawn": false
    },
    {
      "_id": "cpuSIX90svf3tF6p",
      "flags": {},
      "type": 0,
      "text": "Sickle",
      "weight": 1,
      "range": [8, 8],
      "drawn": false
    },
    {
      "_id": "4DyUaE3nlcQ9IAJi",
      "flags": {},
      "type": 0,
      "text": "Spiked Gauntlet",
      "weight": 1,
      "range": [9, 9],
      "drawn": false
    },
    {
      "_id": "oWLzqFlzGqPI0CyR",
      "flags": {},
      "type": 0,
      "text": "Wooden Stake",
      "weight": 1,
      "range": [10, 10],
      "drawn": false
    },
    {
      "_id": "KYTRNhNEFjrWHwMV",
      "flags": {},
      "type": 0,
      "text": "Butterfly Sword (2)",
      "weight": 1,
      "range": [11, 11],
      "drawn": false
    },
    {
      "_id": "re3Q0HoQFO1o5VCk",
      "flags": {},
      "type": 0,
      "text": "Dogslicer",
      "weight": 1,
      "range": [12, 12],
      "drawn": false
    },
    {
      "_id": "Gao7iYo7LMkTTMdM",
      "flags": {},
      "type": 0,
      "text": "Gladius",
      "weight": 1,
      "range": [13, 13],
      "drawn": false
    },
    {
      "_id": "bhadzA3dx0tDitPV",
      "flags": {},
      "type": 0,
      "text": "Handaxe",
      "weight": 1,
      "range": [14, 14],
      "drawn": false
    },
    {
      "_id": "REqkI1mtbCQfln5t",
      "flags": {},
      "type": 0,
      "text": "Iron Brush",
      "weight": 1,
      "range": [15, 15],
      "drawn": false
    },
    {
      "_id": "BcSSD0y2wI9q5jzl",
      "flags": {},
      "type": 0,
      "text": "Jutte",
      "weight": 1,
      "range": [16, 16],
      "drawn": false
    },
    {
      "_id": "TTT8xSY5WGOkUWTa",
      "flags": {},
      "type": 0,
      "text": "Kerambit",
      "weight": 1,
      "range": [17, 17],
      "drawn": false
    },
    {
      "_id": "31pNpdf03BLHqmlq",
      "flags": {},
      "type": 0,
      "text": "Kukri",
      "weight": 1,
      "range": [18, 18],
      "drawn": false
    },
    {
      "_id": "oI7LEdYb67u3N7tF",
      "flags": {},
      "type": 0,
      "text": "Light Hammer",
      "weight": 1,
      "range": [19, 19],
      "drawn": false
    },
    {
      "_id": "2RpKYTaaVoY007z2",
      "flags": {},
      "type": 0,
      "text": "Light Pick",
      "weight": 1,
      "range": [20, 20],
      "drawn": false
    },
    {
      "_id": "8agAgMmBXWjXQ03X",
      "flags": {},
      "type": 0,
      "text": "Light Shield",
      "weight": 1,
      "range": [21, 21],
      "drawn": false
    },
    {
      "_id": "YTKnlooIjnDFCfz4",
      "flags": {},
      "type": 0,
      "text": "Lungchuan Tamo",
      "weight": 1,
      "range": [22, 22],
      "drawn": false
    },
    {
      "_id": "kBBvLrC99KAwqMh2",
      "flags": {},
      "type": 0,
      "text": "Sap",
      "weight": 1,
      "range": [23, 23],
      "drawn": false
    },
    {
      "_id": "Xl0yMTVNVUZZmz57",
      "flags": {},
      "type": 0,
      "text": "Shang Gou",
      "weight": 1,
      "range": [24, 24],
      "drawn": false
    },
    {
      "_id": "nhSDYmFUIXmuQucG",
      "flags": {},
      "type": 0,
      "text": "Shortsword",
      "weight": 1,
      "range": [25, 25],
      "drawn": false
    },
    {
      "_id": "SAT9cd7FCoNpjFuf",
      "flags": {},
      "type": 0,
      "text": "Spiked Armor",
      "weight": 1,
      "range": [26, 26],
      "drawn": false
    },
    {
      "_id": "CVfHzM1MdMlOqT42",
      "flags": {},
      "type": 0,
      "text": "Spiked Light Shield",
      "weight": 1,
      "range": [27, 27],
      "drawn": false
    },
    {
      "_id": "rrmoYLPMKl7oSans",
      "flags": {},
      "type": 0,
      "text": "Starknife",
      "weight": 1,
      "range": [28, 28],
      "drawn": false
    },
    {
      "_id": "CNHMQlUmPvR8wOFL",
      "flags": {},
      "type": 0,
      "text": "Throwing Axe",
      "weight": 1,
      "range": [29, 29],
      "drawn": false
    },
    {
      "_id": "ZQWUBMcv7fBp0n6P",
      "flags": {},
      "type": 0,
      "text": "Tonfa",
      "weight": 1,
      "range": [30, 30],
      "drawn": false
    },
    {
      "_id": "2pvL91kQbcmsO7Cs",
      "flags": {},
      "type": 0,
      "text": "Wushu Dart",
      "weight": 1,
      "range": [31, 31],
      "drawn": false
    },
    {
      "_id": "wWifhXMzS33lqNA9",
      "flags": {},
      "type": 0,
      "text": "Aklys",
      "weight": 1,
      "range": [32, 32],
      "drawn": false
    },
    {
      "_id": "BwplroGbiVSv2Fm9",
      "flags": {},
      "type": 0,
      "text": "Dan Bong",
      "weight": 1,
      "range": [33, 33],
      "drawn": false
    },
    {
      "_id": "HPLf7N7OPELsZxnR",
      "flags": {},
      "type": 0,
      "text": "Emei Piercer",
      "weight": 1,
      "range": [34, 34],
      "drawn": false
    },
    {
      "_id": "rEEDZPMJAla8Zoob",
      "flags": {},
      "type": 0,
      "text": "Fighting Fan",
      "weight": 1,
      "range": [35, 35],
      "drawn": false
    },
    {
      "_id": "cpBV2ZkkuLaxHqen",
      "flags": {},
      "type": 0,
      "text": "Kama",
      "weight": 1,
      "range": [36, 36],
      "drawn": false
    },
    {
      "_id": "dApORZIduUiZawdt",
      "flags": {},
      "type": 0,
      "text": "Knuckle Axe",
      "weight": 1,
      "range": [37, 37],
      "drawn": false
    },
    {
      "_id": "FAHA7VVFeCuquo54",
      "flags": {},
      "type": 0,
      "text": "Madu (Leather)",
      "weight": 1,
      "range": [38, 38],
      "drawn": false
    },
    {
      "_id": "fmCLOiapDYTiBtnk",
      "flags": {},
      "type": 0,
      "text": "Madu (Steel)",
      "weight": 1,
      "range": [39, 39],
      "drawn": false
    },
    {
      "_id": "qHlXgwKEekC4jqnh",
      "flags": {},
      "type": 0,
      "text": "Nunchaku",
      "weight": 1,
      "range": [40, 40],
      "drawn": false
    },
    {
      "_id": "81ziAFPrt3Q6E0sG",
      "flags": {},
      "type": 0,
      "text": "Pata",
      "weight": 1,
      "range": [41, 41],
      "drawn": false
    },
    {
      "_id": "sr56wcWWg7XBFx02",
      "flags": {},
      "type": 0,
      "text": "Quadrens",
      "weight": 1,
      "range": [42, 42],
      "drawn": false
    },
    {
      "_id": "Kws5peXQvCC3V1As",
      "flags": {},
      "type": 0,
      "text": "Sai",
      "weight": 1,
      "range": [43, 43],
      "drawn": false
    },
    {
      "_id": "uR8azBCBcG5OcJes",
      "flags": {},
      "type": 0,
      "text": "Scorpion Whip",
      "weight": 1,
      "range": [44, 44],
      "drawn": false
    },
    {
      "_id": "7MXs95WnyR9ltuns",
      "flags": {},
      "type": 0,
      "text": "Siangham",
      "weight": 1,
      "range": [45, 45],
      "drawn": false
    },
    {
      "_id": "LXLLKewL0yj2Z1UL",
      "flags": {},
      "type": 0,
      "text": "Sica",
      "weight": 1,
      "range": [46, 46],
      "drawn": false
    },
    {
      "_id": "Y1As1T2IkobAXg1S",
      "flags": {},
      "type": 0,
      "text": "Swordbreaker Dagger",
      "weight": 1,
      "range": [47, 47],
      "drawn": false
    },
    {
      "_id": "rePhmIlD8FovonfV",
      "flags": {},
      "type": 0,
      "text": "Tekko-Kagi",
      "weight": 1,
      "range": [48, 48],
      "drawn": false
    },
    {
      "_id": "TzCepjfUTxeB8Pi6",
      "flags": {},
      "type": 0,
      "text": "Wakizashi",
      "weight": 1,
      "range": [49, 49],
      "drawn": false
    }
  ],
  "formula": "1d49",
  "replacement": true,
  "displayRoll": true,
  "_id": "w3GqfgBGS0ccUFiR",
  "ownership": {
    "default": 0
  }
}
