{
  "_id": "kc4ZuOEIEx1ZlXgJ",
  "name": "Leather Madu",
  "type": "equipment",
  "img": "systems/pf1/icons/items/armor/madu.png",
  "effects": [],
  "folder": null,
  "sort": 0,
  "flags": {},
  "system": {
    "description": {
      "value": "<p>The madu is a round, light leather shield with two animal horns—usually from an antelope—extending from opposite edges of the shield. If you are proficient with the madu, you may use it to fight defensively with a –2 penalty instead of the normal –4, and your attack penalty for using Combat Expertise improves by +1 (minimum –1 penalty). You cannot hold anything else in the hand that bears a madu. If you are not proficient with the madu, treat it as a light spiked shield. A madu can’t be disarmed. While traditional madus are crafted from leather and animal horn, they can be made entirely out of metal. Whether leather or steel, a madu offers the same basic protection and attack benefits, though the two varieties respond differently to some spells and effects (such as&nbsp;rusting grasp). A druid can use a leather madu, but not a steel madu.</p>"
    },
    "tags": [],
    "weight": {
      "value": 5
    },
    "price": 40,
    "hp": {
      "max": 7,
      "value": 7
    },
    "hardness": 2,
    "changes": [],
    "contextNotes": [],
    "actions": [],
    "attackNotes": [],
    "effectNotes": [],
    "links": {
      "children": [],
      "charges": []
    },
    "flags": {
      "boolean": [],
      "dictionary": []
    },
    "scriptCalls": [],
    "equipmentType": "shield",
    "equipmentSubtype": "other",
    "armor": {
      "value": 1,
      "acp": 2
    },
    "spellFailure": 5,
    "slot": "shield"
  },
  "ownership": {
    "default": 0
  },
  "_stats": {
    "systemId": "pf1",
    "systemVersion": "0.82.1",
    "coreVersion": "10.285",
    "createdTime": 1663018757802,
    "modifiedTime": 1663018757988,
    "lastModifiedBy": "DbeAbHwpEqczKjsD"
  }
}
