{
  "_id": "6YCQkebsf4vR508H",
  "name": "Leather Armor",
  "type": "equipment",
  "img": "systems/pf1/icons/items/armor/leather.PNG",
  "effects": [],
  "folder": null,
  "sort": 0,
  "flags": {},
  "system": {
    "description": {
      "value": "<p>Leather armor is made up of multiple overlapping pieces of leather, boiled to increase their natural toughness and then deliberately stitched together. Although not as sturdy as metal armor, the flexibility it allows wearers makes it among the most widely used types of armor.</p>"
    },
    "tags": [],
    "weight": {
      "value": 15
    },
    "price": 10,
    "hardness": 2,
    "identifiedName": "Leather Armor",
    "changes": [],
    "contextNotes": [],
    "actions": [],
    "attackNotes": [],
    "effectNotes": [],
    "links": {
      "children": [],
      "charges": []
    },
    "flags": {
      "boolean": [],
      "dictionary": []
    },
    "scriptCalls": [],
    "armor": {
      "value": 2,
      "dex": 6
    },
    "spellFailure": 10,
    "slot": "armor"
  },
  "ownership": {
    "default": 0
  },
  "_stats": {
    "systemId": "pf1",
    "systemVersion": "0.82.1",
    "coreVersion": "10.285",
    "createdTime": 1663018757769,
    "modifiedTime": 1663018757983,
    "lastModifiedBy": "DbeAbHwpEqczKjsD"
  }
}
