{
  "_id": "mcDNhbR4RQ5Z1ckQ",
  "name": "Light Wooden Shield (Quickdraw)",
  "type": "equipment",
  "img": "systems/pf1/icons/items/armor/shield-light-wood.png",
  "effects": [],
  "folder": null,
  "sort": 0,
  "flags": {},
  "system": {
    "description": {
      "value": "<p>A light wooden shield is essentially the same as a light steel shield, except it responds differently to some spells and effects (such as&nbsp;rusting grasp). A druid can use a light wooden shield, but not a light steel shield.</p>"
    },
    "tags": [],
    "weight": {
      "value": 6
    },
    "price": 53,
    "hp": {
      "max": 7,
      "value": 7
    },
    "hardness": 5,
    "changes": [],
    "contextNotes": [],
    "actions": [],
    "attackNotes": [],
    "effectNotes": [],
    "links": {
      "children": [],
      "charges": []
    },
    "flags": {
      "boolean": [],
      "dictionary": []
    },
    "scriptCalls": [],
    "equipmentType": "shield",
    "equipmentSubtype": "lightShield",
    "armor": {
      "value": 1,
      "acp": 2
    },
    "spellFailure": 5,
    "slot": "shield"
  },
  "ownership": {
    "default": 0
  },
  "_stats": {
    "systemId": "pf1",
    "systemVersion": "0.82.1",
    "coreVersion": "10.285",
    "createdTime": 1663018757807,
    "modifiedTime": 1663018757989,
    "lastModifiedBy": "DbeAbHwpEqczKjsD"
  }
}
