{
  "_id": "6gpjknDwY1HNvQcU",
  "name": "Quilted Cloth",
  "type": "equipment",
  "img": "systems/pf1/icons/items/armor/quilted-cloth.PNG",
  "effects": [],
  "folder": null,
  "sort": 0,
  "flags": {},
  "system": {
    "description": {
      "value": "<p>This enhanced form of padded armor has internal layers specifically designed to trap arrows, bolts, darts, shuriken, thrown daggers, and other small ranged piercing weapons. When these kinds of weapons strike you, they tend to become snagged in these layers and fail to harm you. Wearing quilted cloth armor gives you DR 3/— against attacks of this kind. The special layers of the armor have no effect on other kinds of weapons.</p>"
    },
    "tags": [],
    "weight": {
      "value": 15
    },
    "price": 100,
    "hp": {
      "max": 5,
      "value": 5
    },
    "changes": [],
    "contextNotes": [],
    "actions": [],
    "attackNotes": [],
    "effectNotes": [],
    "links": {
      "children": [],
      "charges": []
    },
    "flags": {
      "boolean": [],
      "dictionary": []
    },
    "scriptCalls": [],
    "armor": {
      "value": 1,
      "dex": 8
    },
    "spellFailure": 10,
    "slot": "armor"
  },
  "ownership": {
    "default": 0
  },
  "_stats": {
    "systemId": "pf1",
    "systemVersion": "0.82.1",
    "coreVersion": "10.285",
    "createdTime": 1663018757769,
    "modifiedTime": 1663018757983,
    "lastModifiedBy": "DbeAbHwpEqczKjsD"
  }
}
