{
  "_id": "yLlOfnD759pfPms8",
  "name": "Wooden Armor",
  "type": "equipment",
  "img": "systems/pf1/icons/items/armor/wooden.png",
  "effects": [],
  "folder": null,
  "sort": 0,
  "flags": {},
  "system": {
    "description": {
      "value": "<p>This suit of leather armor has plates of fire-treated wood sewn over vital areas. Though not as effective as metal armor, it offers better protection than leather alone. Unlike metal armor, the wood is slightly buoyant, and the armor check penalty for swimming in this armor is 0.</p>"
    },
    "tags": [],
    "weight": {
      "value": 25
    },
    "price": 20,
    "hp": {
      "max": 15,
      "value": 15
    },
    "hardness": 2,
    "changes": [],
    "contextNotes": [],
    "actions": [],
    "attackNotes": [],
    "effectNotes": [],
    "links": {
      "children": [],
      "charges": []
    },
    "flags": {
      "boolean": [],
      "dictionary": []
    },
    "scriptCalls": [],
    "armor": {
      "value": 3,
      "dex": 3,
      "acp": 1
    },
    "spellFailure": 15,
    "slot": "armor"
  },
  "ownership": {
    "default": 0
  },
  "_stats": {
    "systemId": "pf1",
    "systemVersion": "0.82.1",
    "coreVersion": "10.285",
    "createdTime": 1663018757815,
    "modifiedTime": 1663018757990,
    "lastModifiedBy": "DbeAbHwpEqczKjsD"
  }
}
