{
  "_id": "TIsuPNyZbmvj0Jdx",
  "name": "Chthonic",
  "type": "feat",
  "img": "systems/pf1/icons/skills/violet_07.jpg",
  "effects": [],
  "folder": null,
  "sort": 0,
  "flags": {},
  "system": {
    "description": {
      "value": "<p><strong>Acquired/Inherited Template&nbsp;</strong>Acquired<br><strong>Simple Template</strong>&nbsp;Yes<br><strong>Usable with Summons</strong>&nbsp;Yes - Requires the feat Versatile Summon Monster or Versatile Summon Nature's Ally<br><br>Chthonic creatures are native denizens of the Elemental Planes of Earth. They produce acid, which they use to help them burrow quickly through the dense rock of their homes. This template can be applied only to a non-outsider that has none of the following subtypes: air, cold, earth, fire, or water. A chthonic creature’s CR increases by 1 only if the base creature has 5 or more HD.<br><br><strong>Rebuild Rules:</strong>&nbsp;Type&nbsp;The creature gains the earth subtype;&nbsp;Senses&nbsp;gains darkvision 60 ft.; Defensive Abilities gains DR and resistance to acid as noted on the table below;&nbsp;Speed&nbsp;gains a burrow speed equal to half its highest speed (its tunnels always collapse behind it, and never leave behind a usable passage);&nbsp;Attacks&nbsp;gains bonus acid damage as noted on the table below on attacks with natural weapons.</p>\n<p>&nbsp;</p>\n<table class=\"inner\" style=\"border-color: white; color: #ffffff; font-family: 'Century Gothic', CenturyGothic, AppleGothic, sans-serif; font-size: 15px; background-color: #0f0f0f;\">\n<tbody style=\"margin-top: 0px;\">\n<tr style=\"margin-top: 0px;\">\n<td style=\"margin: 0px; border: 1px solid white; padding: 1px 5px; text-align: center;\"><strong style=\"margin-top: 0px;\">Hit Dice</strong></td>\n<td style=\"border: 1px solid white; padding: 1px 5px; margin: 0px; text-align: center;\"><strong style=\"margin-top: 0px;\">DR</strong></td>\n<td style=\"border: 1px solid white; padding: 1px 5px; margin: 0px; text-align: center;\"><strong style=\"margin-top: 0px;\">Resist Acid</strong></td>\n<td style=\"border: 1px solid white; padding: 1px 5px; margin: 0px; text-align: center;\"><strong style=\"margin-top: 0px;\">Acid Damage</strong></td>\n</tr>\n<tr style=\"background: #3e3e3e;\">\n<td style=\"margin: 0px; border: 1px solid white; padding: 1px 5px; text-align: center;\">1-4</td>\n<td style=\"border: 1px solid white; padding: 1px 5px; margin: 0px; text-align: center;\">-</td>\n<td style=\"border: 1px solid white; padding: 1px 5px; margin: 0px; text-align: center;\">10</td>\n<td style=\"border: 1px solid white; padding: 1px 5px; margin: 0px; text-align: center;\">1 point</td>\n</tr>\n<tr>\n<td style=\"margin: 0px; border: 1px solid white; padding: 1px 5px; text-align: center;\">5-10</td>\n<td style=\"border: 1px solid white; padding: 1px 5px; margin: 0px; text-align: center;\">3/-</td>\n<td style=\"border: 1px solid white; padding: 1px 5px; margin: 0px; text-align: center;\">15</td>\n<td style=\"border: 1px solid white; padding: 1px 5px; margin: 0px; text-align: center;\">1d6</td>\n</tr>\n<tr style=\"background: #3e3e3e;\">\n<td style=\"margin: 0px; border: 1px solid white; padding: 1px 5px; text-align: center;\">11+</td>\n<td style=\"border: 1px solid white; padding: 1px 5px; margin: 0px; text-align: center;\">5/-</td>\n<td style=\"border: 1px solid white; padding: 1px 5px; margin: 0px; text-align: center;\">20</td>\n<td style=\"border: 1px solid white; padding: 1px 5px; margin: 0px; text-align: center;\">2d6</td>\n</tr>\n</tbody>\n</table>"
    },
    "tags": [],
    "actions": [],
    "attackNotes": [],
    "effectNotes": [],
    "changes": [],
    "contextNotes": [],
    "links": {
      "children": [],
      "charges": []
    },
    "armorProf": {
      "value": []
    },
    "weaponProf": {
      "value": []
    },
    "languages": {
      "value": []
    },
    "flags": {
      "boolean": [],
      "dictionary": []
    },
    "scriptCalls": [],
    "featType": "template",
    "associations": {
      "classes": []
    },
    "crOffset": "@attributes.hd.total >= 5 ? 1 : 0"
  },
  "ownership": {
    "default": 0
  },
  "_stats": {
    "systemId": "pf1",
    "systemVersion": "0.82.1",
    "coreVersion": "10.285",
    "createdTime": 1663018785490,
    "modifiedTime": 1663018786845,
    "lastModifiedBy": "DbeAbHwpEqczKjsD"
  }
}
