{
  "_id": "TSLnxMdrpIU98IFm",
  "name": "Cytillesh Zombie",
  "type": "feat",
  "img": "systems/pf1/icons/skills/violet_07.jpg",
  "effects": [],
  "folder": null,
  "sort": 0,
  "flags": {},
  "system": {
    "description": {
      "value": "<p><strong>Acquired/Inherited Template</strong>&nbsp;Acquired<br><strong>Simple Template</strong>&nbsp;No<br><strong>Usable with Summons</strong>&nbsp;Yes<br><br>The cytillesh zombies presented here use a hybrid monster template that is easy to duplicate. The base creature gains the fast zombie template presented on page 289 of the&nbsp;Pathfinder RPG Bestiary. It also gains +4 Turn Resistance and Cytillesh Symbiosis (see the Cytillesh Zombie stat block). The cytillesh zombie template increases a zombie’s challenge rating by 1. In the context of this adventure, this template can only be added to a creature suffering the effects of exposure to cytillesh fungus that imbibes concentrated cytillesh with caphorite and lazurite granules (see area&nbsp;B12).</p>"
    },
    "tags": [],
    "actions": [],
    "attackNotes": [],
    "effectNotes": [],
    "changes": [
      {
        "_id": "kyp8xkuv",
        "formula": "10",
        "operator": "+",
        "subTarget": "landSpeed",
        "modifier": "untyped",
        "priority": 0,
        "value": 0,
        "target": "speed"
      },
      {
        "_id": "efw02qdv",
        "formula": "2",
        "operator": "+",
        "subTarget": "dex",
        "modifier": "untyped",
        "priority": 0,
        "value": 0,
        "target": "ability"
      }
    ],
    "contextNotes": [],
    "links": {
      "children": [],
      "charges": []
    },
    "armorProf": {
      "value": []
    },
    "weaponProf": {
      "value": []
    },
    "languages": {
      "value": []
    },
    "flags": {
      "boolean": [],
      "dictionary": []
    },
    "scriptCalls": [],
    "featType": "template",
    "associations": {
      "classes": []
    },
    "crOffset": "1"
  },
  "ownership": {
    "default": 0
  },
  "_stats": {
    "systemId": "pf1",
    "systemVersion": "0.82.1",
    "coreVersion": "10.285",
    "createdTime": 1663018785492,
    "modifiedTime": 1663018786845,
    "lastModifiedBy": "DbeAbHwpEqczKjsD"
  }
}
