{
  "_id": "y6WppzM6841RW6a0",
  "name": "Fey Animal",
  "type": "feat",
  "img": "systems/pf1/icons/skills/violet_07.jpg",
  "effects": [],
  "folder": null,
  "sort": 0,
  "flags": {},
  "system": {
    "description": {
      "value": "<p><strong>Acquired/Inherited Template</strong>&nbsp;Both<br><strong>Simple Template</strong>&nbsp;No<br><strong>Usable with Summons</strong>&nbsp;Yes<br><br>“Fey animal” is an inherited or acquired template that can be added to a living, corporeal animal (referred to hereafter as the base creature). A fey animal uses all the base creature’s statistics and special abilities except as noted here.<br><br><strong>CR:</strong> Same as the base creature +1.<br><br><strong>Type: </strong>Creature type changes to fey. It gains the augmented subtype. Do not recalculate Hit Dice, Base Attack Bonus, skills, or saves.<br><br><strong>Alignment: </strong>Any chaotic.<br><br><strong>Armor Class:</strong> A fey creature’s natural armor bonus increases by +1.<br><br><strong>Special Qualities and Defenses:</strong> A fey animal gains darkvision 60 feet and low-light vision if it didn’t already possess it. It also gains DR 5/cold iron (DR 10/cold iron if it has 11 or more Hit Dice) and SR equal to its CR + 11.<br><br><strong>Speed:</strong> All of the fey creature’s movement speeds increase by 10 feet.<br><br><strong>Special Attacks:</strong> A fey animal gains the special attack described below. Save DCs are equal to 10 + 1/2 the fey animal’s Hit Dice + the fey animal’s Charisma modifier.<br><br><em>Death Curse (Su):</em> When a creature slays a fey animal, the slayer is cursed with ill luck unless it makes a successful Will saving throw to resist the curse. If it fails to resist, the victim takes a –2 penalty on all attack rolls, ability checks, skill checks, and saving throws until the curse is removed. The total penalty from multiple fey animal death curses stacks, but the multiple death curses count as a single curse overall for the purposes of removing its effects. A fey creature can see this curse on a creature as an angry red halo around the victim’s head.<br><br><strong>Spell-Like Abilities:</strong> A fey animal has a cumulative number of spell-like abilities set by its HD. Unless otherwise noted, an ability is usable 1/day. The CL equals the fey animal’s CR.<br><br><br><strong>Abilities: </strong>Dex +4, Int +10 (to a maximum score of 12), Wis +2, Cha +4.<br><br><strong>Skills:</strong> A fey animal gains a +4 racial bonus on Bluff and Stealth checks, and has skill points per racial Hit Die equal to 6 + its Intelligence modifier. Its racial class skills are Acrobatics, Bluff, Climb, Diplomacy, Fly, Knowledge (nature), Perception, Sense Motive, Stealth, and Swim.<br><br><strong>Languages:</strong> Fey animals speak Sylvan plus one other language common to the region.</p>\n<hr>\n<table class=\"inner\" style=\"border-color: white; color: #ffffff; font-family: 'Century Gothic', CenturyGothic, AppleGothic, sans-serif; font-size: 15px; background-color: #0f0f0f;\">\n<tbody style=\"margin-top: 0px;\">\n<tr style=\"margin-top: 0px;\">\n<td style=\"margin: 0px; border: 1px solid white; padding: 1px 5px; text-align: center;\"><strong style=\"margin-top: 0px;\">HD&nbsp;</strong><strong>Spell-Like Abilities</strong></td>\n</tr>\n<tr style=\"background: #3e3e3e;\">\n<td style=\"margin: 0px; border: 1px solid white; padding: 1px 5px; text-align: center;\">1–3</td>\n<td style=\"border: 1px solid white; padding: 1px 5px; margin: 0px; text-align: center;\"><em style=\"margin-top: 0px;\">charm person</em>,&nbsp;<em>faerie fire</em></td>\n</tr>\n<tr>\n<td style=\"margin: 0px; border: 1px solid white; padding: 1px 5px; text-align: center;\">4–6</td>\n<td style=\"border: 1px solid white; padding: 1px 5px; margin: 0px; text-align: center;\"><em style=\"margin-top: 0px;\">fly&nbsp;</em>(3/day),&nbsp;<em>tree shape</em></td>\n</tr>\n<tr style=\"background: #3e3e3e;\">\n<td style=\"margin: 0px; border: 1px solid white; padding: 1px 5px; text-align: center;\">7–9</td>\n<td style=\"border: 1px solid white; padding: 1px 5px; margin: 0px; text-align: center;\"><em style=\"margin-top: 0px;\">charm monster</em>,&nbsp;<em>hallucinatory terrain</em></td>\n</tr>\n<tr>\n<td style=\"margin: 0px; border: 1px solid white; padding: 1px 5px; text-align: center;\">10–13</td>\n<td style=\"border: 1px solid white; padding: 1px 5px; margin: 0px; text-align: center;\"><em style=\"margin-top: 0px;\">polymorph&nbsp;</em>(3/day),&nbsp;<em>summon nature’s ally IV</em></td>\n</tr>\n<tr style=\"background: #3e3e3e;\">\n<td style=\"margin: 0px; border: 1px solid white; padding: 1px 5px; text-align: center;\">14–16</td>\n<td style=\"border: 1px solid white; padding: 1px 5px; margin: 0px; text-align: center;\"><em style=\"margin-top: 0px;\">feeblemind</em>,&nbsp;<em>transport via plants</em></td>\n</tr>\n<tr>\n<td style=\"margin: 0px; border: 1px solid white; padding: 1px 5px; text-align: center;\">17 or higher</td>\n<td style=\"border: 1px solid white; padding: 1px 5px; margin: 0px; text-align: center;\"><em style=\"margin-top: 0px;\">mass charm monster</em>,&nbsp;<em>summon nature’s ally VIII</em></td>\n</tr>\n</tbody>\n</table>"
    },
    "tags": [],
    "actions": [],
    "attackNotes": [],
    "effectNotes": [],
    "changes": [
      {
        "_id": "mnorzz17",
        "formula": "1",
        "operator": "+",
        "subTarget": "nac",
        "modifier": "untyped",
        "priority": 0,
        "value": 0,
        "target": "ac"
      },
      {
        "_id": "kj9waap3",
        "formula": "4",
        "operator": "+",
        "subTarget": "dex",
        "modifier": "untyped",
        "priority": 0,
        "value": 0,
        "target": "ability"
      },
      {
        "_id": "tt6go7t2",
        "formula": "10",
        "operator": "+",
        "subTarget": "int",
        "modifier": "untyped",
        "priority": 0,
        "value": 0,
        "target": "ability"
      },
      {
        "_id": "khwn6jtp",
        "formula": "2",
        "operator": "+",
        "subTarget": "wis",
        "modifier": "untyped",
        "priority": 0,
        "value": 0,
        "target": "ability"
      },
      {
        "_id": "vtn5y0nl",
        "formula": "4",
        "operator": "+",
        "subTarget": "cha",
        "modifier": "untyped",
        "priority": 0,
        "value": 0,
        "target": "ability"
      },
      {
        "_id": "jup6amko",
        "formula": "10",
        "operator": "+",
        "subTarget": "allSpeeds",
        "modifier": "untyped",
        "priority": 0,
        "value": 0,
        "target": "speed"
      }
    ],
    "contextNotes": [],
    "links": {
      "children": [],
      "charges": []
    },
    "armorProf": {
      "value": []
    },
    "weaponProf": {
      "value": []
    },
    "languages": {
      "value": []
    },
    "flags": {
      "boolean": [],
      "dictionary": []
    },
    "scriptCalls": [],
    "featType": "template",
    "associations": {
      "classes": []
    },
    "crOffset": "1"
  },
  "ownership": {
    "default": 0
  },
  "_stats": {
    "systemId": "pf1",
    "systemVersion": "0.82.1",
    "coreVersion": "10.285",
    "createdTime": 1663018786102,
    "modifiedTime": 1663018786852,
    "lastModifiedBy": "DbeAbHwpEqczKjsD"
  }
}
