{
  "_id": "r4JTr4PeaaMmNOoM",
  "name": "Fleshwarped Creature (Quick)",
  "type": "feat",
  "img": "systems/pf1/icons/skills/violet_07.jpg",
  "effects": [],
  "folder": null,
  "sort": 0,
  "flags": {},
  "system": {
    "description": {
      "value": "<p><strong>Acquired/Inherited Template</strong>&nbsp;Acquired<br><strong>Simple Template</strong>&nbsp;Yes<br><strong>Usable with Summons</strong>&nbsp;No<br><br>These creatures are twisted by fleshwarping, grants horrific abilities by perverting creatures’ original forms. This template can be applied only to corporeal living creatures.<br><br><strong>Quick Rules:</strong> +2 to AC and CMD; +2 to attack rolls and damage rolls; +2 hp/HD; +2 on rolls based on Str and Dex; –2 on rolls based on Int and Cha; the creature gains a new movement mode (climb, burrow, fly [clumsy], or swim) with a speed of 30 ft.<br><br><strong>Rebuild Rules:</strong>&nbsp;AC&nbsp;increase natural armor bonus by 2;&nbsp;Movement&nbsp;The creature gains a movement new movement mode (climb, burrow, fly [clumsy], or swim) with a speed of 30 ft.;&nbsp;Ability Scores&nbsp;+4 Str, +4 Con, –4 Int, –4 Cha.</p>"
    },
    "tags": [],
    "actions": [],
    "attackNotes": [],
    "effectNotes": [],
    "changes": [
      {
        "_id": "7bal0mpp",
        "formula": "2",
        "operator": "+",
        "subTarget": "ac",
        "modifier": "untyped",
        "priority": 0,
        "value": 0,
        "target": "ac"
      },
      {
        "_id": "iducwqlo",
        "formula": "2",
        "operator": "+",
        "subTarget": "cmd",
        "modifier": "untyped",
        "priority": 0,
        "value": 0,
        "target": "misc"
      },
      {
        "_id": "qhc0x9hh",
        "formula": "2",
        "operator": "+",
        "subTarget": "attack",
        "modifier": "untyped",
        "priority": 0,
        "value": 0,
        "target": "attack"
      },
      {
        "_id": "h6xtdht7",
        "formula": "2",
        "operator": "+",
        "subTarget": "damage",
        "modifier": "untyped",
        "priority": 0,
        "value": 0,
        "target": "damage"
      },
      {
        "_id": "lnz8zmhe",
        "formula": "2",
        "operator": "+",
        "subTarget": "strSkills",
        "modifier": "untyped",
        "priority": 0,
        "value": 0,
        "target": "skills"
      },
      {
        "_id": "l1g4ob9i",
        "formula": "2",
        "operator": "+",
        "subTarget": "strChecks",
        "modifier": "untyped",
        "priority": 0,
        "value": 0,
        "target": "abilityChecks"
      },
      {
        "_id": "vzyo8p5i",
        "formula": "2",
        "operator": "+",
        "subTarget": "ref",
        "modifier": "untyped",
        "priority": 0,
        "value": 0,
        "target": "savingThrows"
      },
      {
        "_id": "u3c2o4jw",
        "formula": "2",
        "operator": "+",
        "subTarget": "dexChecks",
        "modifier": "untyped",
        "priority": 0,
        "value": 0,
        "target": "abilityChecks"
      },
      {
        "_id": "tl1rzogd",
        "formula": "2",
        "operator": "+",
        "subTarget": "dexSkills",
        "modifier": "untyped",
        "priority": 0,
        "value": 0,
        "target": "skills"
      },
      {
        "_id": "eu5m9z69",
        "formula": "-2",
        "operator": "+",
        "subTarget": "intSkills",
        "modifier": "untyped",
        "priority": 0,
        "value": 0,
        "target": "skills"
      },
      {
        "_id": "qj8i3nnf",
        "formula": "-2",
        "operator": "+",
        "subTarget": "intChecks",
        "modifier": "untyped",
        "priority": 0,
        "value": 0,
        "target": "abilityChecks"
      },
      {
        "_id": "fd0uii5q",
        "formula": "-2",
        "operator": "+",
        "subTarget": "chaSkills",
        "modifier": "untyped",
        "priority": 0,
        "value": 0,
        "target": "skills"
      },
      {
        "_id": "aijp1yha",
        "formula": "-2",
        "operator": "+",
        "subTarget": "chaChecks",
        "modifier": "untyped",
        "priority": 0,
        "value": 0,
        "target": "abilityChecks"
      }
    ],
    "contextNotes": [],
    "links": {
      "children": [],
      "charges": []
    },
    "armorProf": {
      "value": []
    },
    "weaponProf": {
      "value": []
    },
    "languages": {
      "value": []
    },
    "flags": {
      "boolean": [],
      "dictionary": []
    },
    "scriptCalls": [],
    "featType": "template",
    "associations": {
      "classes": []
    },
    "crOffset": "1"
  },
  "ownership": {
    "default": 0
  },
  "_stats": {
    "systemId": "pf1",
    "systemVersion": "0.82.1",
    "coreVersion": "10.285",
    "createdTime": 1663018786074,
    "modifiedTime": 1663018786850,
    "lastModifiedBy": "DbeAbHwpEqczKjsD"
  }
}
