{
  "_id": "TC0MAD0u4Dpc9m2T",
  "name": "Plagued Beast",
  "type": "feat",
  "img": "systems/pf1/icons/skills/violet_07.jpg",
  "effects": [],
  "folder": null,
  "sort": 0,
  "flags": {},
  "system": {
    "description": {
      "value": "<p><strong>Acquired/Inherited Template</strong>&nbsp;Acquired<br><strong>Simple Template</strong>&nbsp;No<br><strong>Usable with Summons</strong>&nbsp;No<br><br>When animals are stricken with demon plague, they may arise as undead and further spread the disease. Some demons and cultists are fond of using plagued horses as mounts.<br><br>“Plagued beast” is an acquired template that can be added to a living, corporeal creature with an Intelligence score of 1 or 2. A plagued beast uses all of the creature’s statistics and special abilities except as noted here.<br><br><strong>Challenge Rating:</strong> Base creature’s CR + 1.<br><br><strong>Alignment:</strong> Neutral evil.<br><br><strong>Type:</strong> The creature’s type changes to undead (augmented). It retains all subtypes except alignment subtypes and subtypes that indicate kind. Do not recalculate its saves, BAB, or skill ranks.<br><br><strong>Armor Class:</strong> Increase the base creature’s AC by 2.<br><br><strong>Hit Dice:</strong> Change all of the creature’s racial Hit Dice to d8s. As undead, plagued beasts use their Charisma modifiers to determine bonus hit points.<br><br><strong>Defensive Abilities:</strong> Plagued beasts gain darkvision 60 feet, channel resistance +2, and DR 5/slashing. They are immune to cold, and gain all of the standard undead traits.<br><br><strong>Melee: </strong>A plagued beast gains a bite attack that deals damage based on the plagued beast’s size. If the beast already has a bite attack, the bite’s damage increases by one step, as if it had increased one size category.<br><br><strong>Special Attacks: </strong>A plagued beast inflicts demon plague with each successful bite attack (DC = 10 + 1/2 the plagued beast’s Hit Dice + the plagued beast’s Charisma modifier).<br><br><strong>Ability Scores:</strong> +4 Strength, +2 Dexterity. A plagued beast has a minimum Charisma score of 15—if the base creature’s Charisma score is lower, increase it to 15. A plagued beast has no Constitution score; as an undead, it uses its Charisma when calculating its hit points, Fortitude saves, and any special abilities that rely on Constitution.<br><br><strong>Feats:</strong> A plagued beast gains&nbsp;<a href=\"https://aonprd.com/FeatDisplay.aspx?ItemName=Toughness\">Toughness</a>&nbsp;as a bonus feat.</p>"
    },
    "tags": [],
    "actions": [],
    "attackNotes": [],
    "effectNotes": [],
    "changes": [
      {
        "_id": "p32n5m9g",
        "formula": "2",
        "operator": "+",
        "subTarget": "nac",
        "modifier": "untyped",
        "priority": 0,
        "value": 0,
        "target": "ac"
      },
      {
        "_id": "6sangwbz",
        "formula": "2",
        "operator": "+",
        "subTarget": "str",
        "modifier": "untyped",
        "priority": 0,
        "value": 0,
        "target": "ability"
      },
      {
        "_id": "9zxmh9vw",
        "formula": "2",
        "operator": "+",
        "subTarget": "dex",
        "modifier": "untyped",
        "priority": 0,
        "value": 0,
        "target": "ability"
      }
    ],
    "contextNotes": [],
    "links": {
      "children": [],
      "charges": []
    },
    "armorProf": {
      "value": []
    },
    "weaponProf": {
      "value": []
    },
    "languages": {
      "value": []
    },
    "flags": {
      "boolean": [],
      "dictionary": []
    },
    "scriptCalls": [],
    "featType": "template",
    "associations": {
      "classes": []
    },
    "crOffset": "1"
  },
  "ownership": {
    "default": 0
  },
  "_stats": {
    "systemId": "pf1",
    "systemVersion": "0.82.1",
    "coreVersion": "10.285",
    "createdTime": 1663018785487,
    "modifiedTime": 1663018786845,
    "lastModifiedBy": "DbeAbHwpEqczKjsD"
  }
}
