{
  "_id": "QvlxYVVsBDlykPKe",
  "name": "Arcane Strike",
  "type": "feat",
  "img": "systems/pf1/icons/feats/arcane-strike.jpg",
  "effects": [],
  "folder": null,
  "sort": 0,
  "flags": {},
  "system": {
    "description": {
      "value": "\n                <i>You draw upon your arcane power to enhance your weapons with magical energy.</i>\n                <br />\n                <br />\n                \n                <p><b>Prerequisites</b></p>\n                <p> Ability to cast arcane spells.</p>\n                \n            <br />\n                <p><b>Benefits</b></p>\n                <p><p class=\"stat-block-1\"> As a swift action, you can imbue your weapons with a fraction of your power. For 1 round, your weapons deal +1 damage and are treated as magic for the purpose of overcoming damage reduction. For every five caster levels you possess, this bonus increases by +1, to a maximum of +5 at 20th level.</p></p>\n                \n            \n            "
    },
    "tags": [["Combat"], ["Weapon"], ["Magic"], ["Offensive"]],
    "actions": [],
    "attackNotes": [],
    "effectNotes": [],
    "changes": [],
    "contextNotes": [],
    "links": {
      "children": [],
      "charges": []
    },
    "tag": "feat_arcaneStrike",
    "useCustomTag": true,
    "armorProf": {
      "value": []
    },
    "weaponProf": {
      "value": []
    },
    "languages": {
      "value": []
    },
    "scriptCalls": [],
    "associations": {
      "classes": []
    }
  },
  "ownership": {
    "default": 0
  },
  "_stats": {
    "systemId": "pf1",
    "systemVersion": "0.82.1",
    "coreVersion": "10.285",
    "createdTime": 1663018751808,
    "modifiedTime": 1663018752333,
    "lastModifiedBy": "DbeAbHwpEqczKjsD"
  }
}
