{
  "_id": "4hNO4OAWYF5vXphH",
  "name": "Craft Magic Arms and Armor",
  "type": "feat",
  "img": "systems/pf1/icons/feats/craft-magic-arms-and-armor.jpg",
  "effects": [],
  "folder": null,
  "sort": 0,
  "flags": {},
  "system": {
    "description": {
      "value": "\n                <i>You can create magic armor, shields, and weapons.</i>\n                <br />\n                <br />\n                \n                <p><b>Prerequisites</b></p>\n                <p> Caster level 5th.</p>\n                \n            <br />\n                <p><b>Benefits</b></p>\n                <p><p class=\"stat-block-1\"> You can create magic weapons, armor, or shields. Enhancing a weapon, suit of armor, or shield takes 1 day for each 1,000 gp in the price of its magical features. To enhance a weapon, suit of armor, or shield, you must use up raw materials costing half of this total price. See the magic item creation rules in Magic Items for more information.</p><p class=\"stat-block-2\">The weapon, armor, or shield to be enhanced must be a masterwork item that you provide. Its cost is not included in the above cost.</p><p class=\"stat-block-2\">You can also mend a broken magic weapon, suit of armor, or shield if it is one that you could make. Doing so costs half the raw materials and half the time it would take to craft that item in the first place.</p></p>\n                \n            \n            "
    },
    "tags": [["General"], ["Item Creation"]],
    "actions": [],
    "attackNotes": [],
    "effectNotes": [],
    "changes": [],
    "contextNotes": [],
    "links": {
      "children": [],
      "charges": []
    },
    "tag": "feat_craftMagicArmsAndArmor",
    "useCustomTag": true,
    "armorProf": {
      "value": []
    },
    "weaponProf": {
      "value": []
    },
    "languages": {
      "value": []
    },
    "scriptCalls": [],
    "associations": {
      "classes": []
    }
  },
  "ownership": {
    "default": 0
  },
  "_stats": {
    "systemId": "pf1",
    "systemVersion": "0.82.1",
    "coreVersion": "10.285",
    "createdTime": 1663018751751,
    "modifiedTime": 1663018752329,
    "lastModifiedBy": "DbeAbHwpEqczKjsD"
  }
}
