{
  "_id": "LSykiaxYWzva2boF",
  "name": "Greater Spell Focus",
  "type": "feat",
  "img": "systems/pf1/icons/feats/greater-spell-focus.jpg",
  "effects": [],
  "folder": null,
  "sort": 0,
  "flags": {},
  "system": {
    "description": {
      "value": "\n                <i>Choose a school of magic to which you have already applied the Spell Focus feat. Any spells you cast of this school are very hard to resist. </i>\n                <br />\n                <br />\n                \n                <p><b>Prerequisites</b></p>\n                <p> Spell Focus.</p>\n                \n            <br />\n                <p><b>Benefits</b></p>\n                <p><p class=\"stat-block-1\"> Add +1 to the Difficulty Class for all saving throws against spells from the school of magic you select. This bonus stacks with the bonus from Spell Focus.</p></p>\n                \n            <br />\n                <p><b>Special</b></p>\n                <p><p class=\"stat-block-1\"> You can gain this feat multiple times. Its effects do not stack. Each time you take the feat, it applies to a new school to which you already have applied the Spell Focus feat.</p></p>\n                \n            \n            "
    },
    "tags": [["General"], ["Magic"]],
    "actions": [],
    "attackNotes": [],
    "effectNotes": [],
    "changes": [],
    "contextNotes": [],
    "links": {
      "children": [],
      "charges": []
    },
    "tag": "feat_greaterSpellFocus",
    "useCustomTag": true,
    "armorProf": {
      "value": []
    },
    "weaponProf": {
      "value": []
    },
    "languages": {
      "value": []
    },
    "scriptCalls": [],
    "associations": {
      "classes": []
    }
  },
  "ownership": {
    "default": 0
  },
  "_stats": {
    "systemId": "pf1",
    "systemVersion": "0.82.1",
    "coreVersion": "10.285",
    "createdTime": 1663018751797,
    "modifiedTime": 1663018752332,
    "lastModifiedBy": "DbeAbHwpEqczKjsD"
  }
}
