{
  "_id": "z5G64ZSUDNdgeICT",
  "name": "Improvised Weapon Mastery",
  "type": "feat",
  "img": "systems/pf1/icons/feats/improvised-weapon-mastery.jpg",
  "effects": [],
  "folder": null,
  "sort": 0,
  "flags": {},
  "system": {
    "description": {
      "value": "\n                <i>You can turn nearly any object into a deadly weapon, from a razor-sharp chair leg to a sack of flour.</i>\n                <br />\n                <br />\n                \n                <p><b>Prerequisites</b></p>\n                <p> Catch Off-Guard or Throw Anything, base attack bonus +8.</p>\n                \n            <br />\n                <p><b>Benefits</b></p>\n                <p><p class=\"stat-block-1\"> You do not suffer any penalties for using an improvised weapon. Increase the amount of damage dealt by the improvised weapon by one step (for example, 1d4 becomes 1d6) to a maximum of 1d8 (2d6 if the improvised weapon is two-handed). The improvised weapon has a critical threat range of 19&ndash;20, with a critical multiplier of &times;2.</p></p>\n                \n            \n            "
    },
    "tags": [["Combat"], ["Offensive"]],
    "actions": [],
    "attackNotes": [],
    "effectNotes": [],
    "changes": [],
    "contextNotes": [],
    "links": {
      "children": [],
      "charges": []
    },
    "tag": "feat_improvisedWeaponMastery",
    "useCustomTag": true,
    "armorProf": {
      "value": []
    },
    "weaponProf": {
      "value": []
    },
    "languages": {
      "value": []
    },
    "scriptCalls": [],
    "associations": {
      "classes": []
    }
  },
  "ownership": {
    "default": 0
  },
  "_stats": {
    "systemId": "pf1",
    "systemVersion": "0.82.1",
    "coreVersion": "10.285",
    "createdTime": 1663018751939,
    "modifiedTime": 1663018752346,
    "lastModifiedBy": "DbeAbHwpEqczKjsD"
  }
}
