{
  "_id": "711B9WNFgpdDKKf2",
  "name": "Improved Disarm",
  "type": "feat",
  "img": "systems/pf1/icons/feats/improved-disarm.png",
  "effects": [],
  "folder": null,
  "sort": 0,
  "flags": {},
  "system": {
    "description": {
      "value": "<em>You are skilled at knocking weapons from a foe's grasp.</em><br/><br/><b>Prerequisites</b><br/>Int 13, Combat Expertise.<br/><br/><b>Benefits</b><br/>You do not provoke an attack of opportunity when performing a disarm combat maneuver. In addition, you receive a +2 bonus on checks made to disarm a foe. You also receive a +2 bonus to your Combat Maneuver Defense whenever an opponent tries to disarm you.<br/><br/><b>Normal</b><br/>You provoke an attack of opportunity when performing a disarm combat maneuver.<br/><br/><b>Combat Trick</b><br/>You can select this feat even if you don't meet the ability score prerequisite (Intelligence 13). You gain the benefit of this feat only as long as you have at least 1 stamina point in your stamina pool. When you are the target of a disarm combat maneuver, you can spend a number of stamina points up to your Strength or Dexterity bonus, whichever is greater. Your CMD against that disarm attempt increases by that number."
    },
    "tags": [["PFS"], ["Combat"]],
    "actions": [],
    "attackNotes": [],
    "effectNotes": [],
    "changes": [],
    "contextNotes": [
      {
        "subTarget": "cmb",
        "text": "No AoO from Disarm. +2 to Disarm foe."
      },
      {
        "subTarget": "cmd",
        "text": "+2 CMD vs Disarm"
      }
    ],
    "links": {
      "children": [],
      "charges": []
    },
    "tag": "feat_improvedDisarm",
    "useCustomTag": true,
    "armorProf": {
      "value": []
    },
    "weaponProf": {
      "value": []
    },
    "languages": {
      "value": []
    },
    "scriptCalls": [],
    "associations": {
      "classes": []
    }
  },
  "ownership": {
    "default": 0
  },
  "_stats": {
    "systemId": "pf1",
    "systemVersion": "0.82.1",
    "coreVersion": "10.285",
    "createdTime": 1663018751755,
    "modifiedTime": 1663018752330,
    "lastModifiedBy": "DbeAbHwpEqczKjsD"
  }
}
