{
  "_id": "qYv70Ch9RQfi1LQQ",
  "name": "Improved Shield Bash",
  "type": "feat",
  "img": "systems/pf1/icons/feats/improved-shield-bash.jpg",
  "effects": [],
  "folder": null,
  "sort": 0,
  "flags": {},
  "system": {
    "description": {
      "value": "\n                <i>You can protect yourself with your shield, even if you use it to attack.</i>\n                <br />\n                <br />\n                \n                <p><b>Prerequisites</b></p>\n                <p> Shield Proficiency.</p>\n                \n            <br />\n                <p><b>Benefits</b></p>\n                <p><p class=\"stat-block-1\"> When you perform a shield bash, you may still apply the shield's shield bonus to your AC.</p></p>\n                \n            <br />\n                <p><b>Normal</b></p>\n                <p><p class=\"stat-block-1\"> Without this feat, a character that performs a shield bash loses the shield's shield bonus to AC until his next turn (see Equipment).</p></p>\n                \n            \n            "
    },
    "tags": [["Combat"], ["Shield"], ["Offensive"]],
    "actions": [],
    "attackNotes": [],
    "effectNotes": [],
    "changes": [],
    "contextNotes": [],
    "links": {
      "children": [],
      "charges": []
    },
    "tag": "feat_improvedShieldBash",
    "useCustomTag": true,
    "armorProf": {
      "value": []
    },
    "weaponProf": {
      "value": []
    },
    "languages": {
      "value": []
    },
    "scriptCalls": [],
    "associations": {
      "classes": []
    }
  },
  "ownership": {
    "default": 0
  },
  "_stats": {
    "systemId": "pf1",
    "systemVersion": "0.82.1",
    "coreVersion": "10.285",
    "createdTime": 1663018751908,
    "modifiedTime": 1663018752345,
    "lastModifiedBy": "DbeAbHwpEqczKjsD"
  }
}
