{
  "_id": "jKVhOxHu6VmUgFdp",
  "name": "Spirited Charge",
  "type": "feat",
  "img": "systems/pf1/icons/feats/spirited-charge.jpg",
  "effects": [],
  "folder": null,
  "sort": 0,
  "flags": {},
  "system": {
    "description": {
      "value": "\n                <i>Your mounted charge attacks deal a tremendous amount of damage.</i>\n                <br />\n                <br />\n                \n                <p><b>Prerequisites</b></p>\n                <p> Ride 1 rank, Mounted Combat, Ride-By Attack.</p>\n                \n            <br />\n                <p><b>Benefits</b></p>\n                <p><p class=\"stat-block-1\"> When mounted and using the charge action, you deal double damage with a melee weapon (or triple damage with a lance).</p></p>\n                \n            \n            "
    },
    "tags": [["Combat"], ["Mount"], ["Weapon"], ["Offensive"], ["Movement"]],
    "actions": [],
    "attackNotes": [],
    "effectNotes": [],
    "changes": [],
    "contextNotes": [],
    "links": {
      "children": [],
      "charges": []
    },
    "tag": "feat_spiritedCharge",
    "useCustomTag": true,
    "armorProf": {
      "value": []
    },
    "weaponProf": {
      "value": []
    },
    "languages": {
      "value": []
    },
    "scriptCalls": [],
    "associations": {
      "classes": []
    }
  },
  "ownership": {
    "default": 0
  },
  "_stats": {
    "systemId": "pf1",
    "systemVersion": "0.82.1",
    "coreVersion": "10.285",
    "createdTime": 1663018751877,
    "modifiedTime": 1663018752339,
    "lastModifiedBy": "DbeAbHwpEqczKjsD"
  }
}
