{
  "_id": "f5FPqAYWlKj3zCIY",
  "name": "Stealthy",
  "type": "feat",
  "img": "systems/pf1/icons/feats/stealthy.jpg",
  "effects": [],
  "folder": null,
  "sort": 0,
  "flags": {},
  "system": {
    "description": {
      "value": "\n                <i>You are good at avoiding unwanted attention and slipping out of bonds.</i>\n                <br />\n                <br />\n                \n                <p><b>Benefits</b></p>\n                <p><p class=\"stat-block-1\"> You get a +2 bonus on all Escape Artist and Stealth skill checks. If you have 10 or more ranks in one of these skills, the bonus increases to +4 for that skill.</p></p>\n                \n            \n            "
    },
    "tags": [["General"], ["Skill"]],
    "actions": [],
    "attackNotes": [],
    "effectNotes": [],
    "changes": [
      {
        "_id": "sij49210",
        "formula": "@skills.ste.rank>=10?4:2",
        "operator": "add",
        "subTarget": "skill.ste",
        "modifier": "untyped",
        "priority": 0,
        "value": 0,
        "target": "skill"
      },
      {
        "_id": "r8iwxuq0",
        "formula": "@skills.esc.rank>=10?4:2",
        "operator": "add",
        "subTarget": "skill.esc",
        "modifier": "untyped",
        "priority": 0,
        "value": 0,
        "target": "skill"
      }
    ],
    "contextNotes": [],
    "links": {
      "children": [],
      "charges": []
    },
    "tag": "feat_stealthy",
    "useCustomTag": true,
    "armorProf": {
      "value": []
    },
    "weaponProf": {
      "value": []
    },
    "languages": {
      "value": []
    },
    "scriptCalls": [],
    "associations": {
      "classes": []
    }
  },
  "ownership": {
    "default": 0
  },
  "_stats": {
    "systemId": "pf1",
    "systemVersion": "0.82.1",
    "coreVersion": "10.285",
    "createdTime": 1663018751849,
    "modifiedTime": 1663018752337,
    "lastModifiedBy": "DbeAbHwpEqczKjsD"
  }
}
