{
  "out": "docs",
  "tsconfig": "jsconfig.json",
  "name": "Pathfinder 1e for Foundry VTT",
  "logLevel": "Error",
  "emit": "docs",
  "basePath": ".",
  "externalPattern": ["@foundry/**/*.mjs", "node_modules/**/*"],
  "excludeExternals": true,
  "internalModule": "types",
  "entryPoints": ["pf1.mjs", "hooks.d.ts"]
}
