{
  "_id": "Z76GkfAvnzba4XDd",
  "name": "Deep One Hybrid",
  "type": "race",
  "img": "systems/pf1/icons/races/creature-types/construct.png",
  "effects": [],
  "folder": null,
  "sort": 0,
  "flags": {},
  "system": {
    "description": {
      "value": "<h2>Standard Racial Traits</h2>\n<ul>\n<li><strong>Ability Score Modifiers:</strong> Deep one hybrids are hearty and devout, but tend to be somewhat slow and awkward in their movements. They gain +2&nbsp;<a href=\"https://www.d20pfsrd.com/basics-ability-scores/ability-scores#TOC-Constitution-Con-\">Constitution</a>&nbsp;and +2&nbsp;<a href=\"https://www.d20pfsrd.com/basics-ability-scores/ability-scores#TOC-Wisdom-Wis-\">Wisdom</a>&nbsp;but suffer –2&nbsp;<a href=\"https://www.d20pfsrd.com/basics-ability-scores/ability-scores#TOC-Dexterity-Dex-\">Dexterity</a>.</li>\n<li><strong>Type:</strong> Deep One Hybrids are&nbsp;<a href=\"https://www.d20pfsrd.com/bestiary/rules-for-monsters/creature-types/#TOC-Humanoid\">Humanoids</a>&nbsp;with the&nbsp;<a href=\"https://www.d20pfsrd.com/races/core-races/human/\">Human&nbsp;</a>and&nbsp;<a href=\"https://www.d20pfsrd.com/bestiary/rules-for-monsters/creature-types/#TOC-Deep-One-Subtype\">Deep One</a>&nbsp;subtypes.</li>\n<li><strong>Size:</strong> Deep One Hybrids are Medium creatures and thus receive no bonuses or penalties due to their size.</li>\n<li><strong>Speed:</strong> A deep one hybrid’s base speed is 20 feet, as it walks with a shuffling gait. A deep one hybrid has a swim speed of 30 feet, and gains a +8&nbsp;<a href=\"https://www.d20pfsrd.com/basics-ability-scores/glossary#TOC-Racial-Bonus\">racial bonus</a>&nbsp;on all&nbsp;<a href=\"https://www.d20pfsrd.com/skills/swim\">Swim</a>&nbsp;checks.</li>\n<li><strong>Languages:</strong> Deep one hybrids begin play speaking Aklo and Common. Hybrids with high&nbsp;<a href=\"https://www.d20pfsrd.com/basics-ability-scores/ability-scores#TOC-Intelligence-Int-\">Intelligence</a>&nbsp;scores can choose from the following languages: Abyssal, Aquan, Dwarven, Elven, Giant, Gnome, Goblin, Halfling, Orc, and Undercommon. See the&nbsp;<a href=\"https://www.d20pfsrd.com/skills/linguistics\">Linguistics skill page</a>&nbsp;for more information about these languages.</li>\n</ul>\n<h4>Senses</h4>\n<ul>\n<li><strong>Low-Light Vision:</strong> A deep one hybrid can see twice as far as a&nbsp;<a href=\"https://www.d20pfsrd.com/races/core-races/human\">human</a>&nbsp;in starlight, moonlight, torchlight, and similar conditions of dim light.</li>\n</ul>\n<h4>Defensive Abilities</h4>\n<ul>\n<li><strong>Natural Armor:</strong> A deep one hybrid’s thick skin and dense fatty tissues grant it a +1&nbsp;<a href=\"https://www.d20pfsrd.com/basics-ability-scores/glossary#TOC-Natural-Armor-Bonus\">natural armor bonus</a>&nbsp;to AC.</li>\n</ul>\n<h4>Miscellaneous Abilities</h4>\n<ul>\n<li><strong>Final Change (Su):</strong>&nbsp;A deep one hybrid ages at the same rate as a&nbsp;<a href=\"https://www.d20pfsrd.com/races/core-races/half-orc\">half-orc</a>. A mere 1d12 months after a deep one hybrid reaches venerable age (at 60 years old), it dies a painful, agonizing death, only to have its body transform into that of a mature&nbsp;<a href=\"https://www.d20pfsrd.com/bestiary/monster-listings/monstrous-humanoids/deep-one/\">deep one</a>. This transformation functions as the&nbsp;<a href=\"https://www.d20pfsrd.com/magic/all-spells/r/reincarnate\">reincarnate</a>&nbsp;spell, with the newly formed&nbsp;<a href=\"https://www.d20pfsrd.com/bestiary/monster-listings/monstrous-humanoids/deep-one/\">deep one</a>&nbsp;gaining the following modifications to its physical ability scores: +6&nbsp;<a href=\"https://www.d20pfsrd.com/basics-ability-scores/ability-scores#TOC-Strength-Str-\">Strength</a>, –2&nbsp;<a href=\"https://www.d20pfsrd.com/basics-ability-scores/ability-scores#TOC-Dexterity-Dex-\">Dexterity</a>, and +6&nbsp;<a href=\"https://www.d20pfsrd.com/basics-ability-scores/ability-scores#TOC-Constitution-Con-\">Constitution</a>.</li>\n<li><strong>Sea Longing (Ex):</strong>&nbsp;Every 24 hours a deep one hybrid spends in an area more than 10 miles from the sea, it must succeed at a DC 20&nbsp;<a href=\"https://www.d20pfsrd.com/gamemastering/combat#TOC-Will\">Will</a>&nbsp;save or take 1 point of&nbsp;<a href=\"https://www.d20pfsrd.com/basics-ability-scores/ability-scores#TOC-Ability-Drain\">Wisdom drain</a>.</li>\n<li><strong>Take to the Water (Ex):</strong>&nbsp;A deep one hybrid can hold its breath 10 times longer than a&nbsp;<a href=\"https://www.d20pfsrd.com/races/core-races/human\">human</a>&nbsp;can, and gains a +2 bonus on&nbsp;<a href=\"https://www.d20pfsrd.com/gamemastering/combat#TOC-Initiative\">Initiative</a>&nbsp;checks and&nbsp;<a href=\"https://www.d20pfsrd.com/gamemastering/combat#TOC-Reflex\">Reflex</a>&nbsp;saving throws while swimming.</li>\n</ul>"
    },
    "tags": [],
    "changes": [
      {
        "_id": "9lxk5gy0",
        "formula": "2",
        "operator": "+",
        "subTarget": "wis",
        "modifier": "racial",
        "priority": 0,
        "value": 0,
        "target": "ability"
      },
      {
        "_id": "zxbipc32",
        "formula": "2",
        "operator": "+",
        "subTarget": "con",
        "modifier": "racial",
        "priority": 0,
        "value": 0,
        "target": "ability"
      },
      {
        "_id": "9dl89c5z",
        "formula": "-2",
        "operator": "+",
        "subTarget": "dex",
        "modifier": "racial",
        "priority": 0,
        "value": 0,
        "target": "ability"
      },
      {
        "_id": "odfol2so",
        "formula": "1",
        "operator": "+",
        "subTarget": "nac",
        "modifier": "base",
        "priority": 0,
        "value": 0,
        "target": "ac"
      }
    ],
    "contextNotes": [],
    "links": {
      "children": []
    },
    "armorProf": {
      "value": []
    },
    "weaponProf": {
      "value": []
    },
    "languages": {
      "value": ["common", "aklo"]
    },
    "flags": {
      "boolean": [],
      "dictionary": []
    },
    "scriptCalls": [],
    "subTypes": [["Human"], ["Deep One"]]
  },
  "ownership": {
    "default": 0
  },
  "_stats": {
    "systemId": "pf1",
    "systemVersion": "0.82.1",
    "coreVersion": "10.285",
    "createdTime": 1663018760946,
    "modifiedTime": 1663018761158,
    "lastModifiedBy": "DbeAbHwpEqczKjsD"
  }
}
