{
  "_id": "7aDvyO68K8hm58Qm",
  "name": "Lashunta (Female)",
  "type": "race",
  "img": "systems/pf1/icons/spells/air-burst-magenta-1.jpg",
  "effects": [],
  "folder": null,
  "sort": 0,
  "flags": {},
  "system": {
    "description": {
      "value": "<h2>Standard Racial Traits</h2>\n<ul>\n<li><strong>Ability Score Modifiers:</strong> Lashunta are almost universally intelligent and eager to learn. As a result, lashunta gain a +2 bonus to&nbsp;<a href=\"https://www.d20pfsrd.com/basics-ability-scores/ability-scores#TOC-Intelligence-Int-\">Intelligence</a>.</li>\n<li><strong>Sexual Dimorphism:</strong> Male and female lashunta have very different body and personality types, more so than most humanoid species. Male lashunta are muscular (+2&nbsp;<a href=\"https://www.d20pfsrd.com/basics-ability-scores/ability-scores#TOC-Strength-Str-\">Strength</a>) and often brash and unobservant (–2&nbsp;<a href=\"https://www.d20pfsrd.com/basics-ability-scores/ability-scores#TOC-Wisdom-Wis-\">Wisdom</a>). Female lashunta, though beautiful and commanding (+2&nbsp;<a href=\"https://www.d20pfsrd.com/basics-ability-scores/ability-scores#TOC-Charisma-Cha-\">Charisma</a>), lack the males’ rugged builds (–2&nbsp;<a href=\"https://www.d20pfsrd.com/basics-ability-scores/ability-scores#TOC-Constitution-Con-\">Constitution</a>).</li>\n<li><strong>Size:</strong> Lashunta are Medium creatures and have no bonuses or penalties due to their size.</li>\n<li><strong>Base Speed:</strong> Lashunta have a base speed of 30 feet.</li>\n<li><strong>Languages:</strong> Lashunta begin play speaking Elven and Lashunta. Lashunta with high&nbsp;<a href=\"https://www.d20pfsrd.com/basics-ability-scores/ability-scores#TOC-Intelligence-Int-\">Intelligence</a>&nbsp;scores can choose any languages they want (except Druidic and other secret languages). See the&nbsp;<a href=\"https://www.d20pfsrd.com/skills/linguistics\">Linguistics skill page</a>&nbsp;for more information about these languages.</li>\n</ul>\n<h3>Skill Racial Features</h3>\n<ul>\n<li><strong>Knowledgeable:</strong> A lashunta gains a +2&nbsp;<a href=\"https://www.d20pfsrd.com/basics-ability-scores/glossary#TOC-Racial-Bonus\">racial bonus</a>&nbsp;to any one&nbsp;<a href=\"https://www.d20pfsrd.com/skills/knowledge\">Knowledge</a>&nbsp;skill.</li>\n</ul>\n<h3>Spell-Like Abilities</h3>\n<ul>\n<li><strong>Lashunta Magic:</strong> A lashunta possessing an&nbsp;<a href=\"https://www.d20pfsrd.com/basics-ability-scores/ability-scores#TOC-Intelligence-Int-\">Intelligence</a>&nbsp;score of 11 or higher gains the following&nbsp;<a href=\"https://www.d20pfsrd.com/magic#TOC-Spell-Like-Abilities-Sp-\">spell-like abilities</a>:&nbsp;At will–<a href=\"https://www.d20pfsrd.com/magic/all-spells/d/daze\">daze</a>,&nbsp;<a href=\"https://www.d20pfsrd.com/magic/all-spells/m/mage-hand\">mage hand</a>;&nbsp;1/day–<a href=\"https://www.d20pfsrd.com/magic/all-spells/d/detect-thoughts\">detect thoughts</a>. The&nbsp;<a href=\"https://www.d20pfsrd.com/magic#TOC-Caster-Level\">caster level</a>&nbsp;for these effects is equal to the lashunta’s class levels.</li>\n</ul>\n<h3>Senses Racial Traits</h3>\n<ul>\n<li><strong>Limited Telepathy:</strong> A lashunta is able to mentally communicate with any creature within 30 feet with whom she shares a language. Otherwise this ability is identical to the&nbsp;<a href=\"https://www.d20pfsrd.com/bestiary/rules-for-monsters/universal-monster-rules#TOC-Telepathy-Su-\">telepathy</a>&nbsp;ability.</li>\n</ul>"
    },
    "tags": [],
    "changes": [
      {
        "_id": "jm1op2cc",
        "formula": "2",
        "operator": "+",
        "subTarget": "int",
        "modifier": "racial",
        "priority": 0,
        "value": 0,
        "target": "ability"
      },
      {
        "_id": "r6t4q16e",
        "formula": "2",
        "operator": "+",
        "subTarget": "cha",
        "modifier": "racial",
        "priority": 0,
        "value": 0,
        "target": "ability"
      },
      {
        "_id": "q90pjsvd",
        "formula": "-2",
        "operator": "+",
        "subTarget": "con",
        "modifier": "racial",
        "priority": 0,
        "value": 0,
        "target": "ability"
      }
    ],
    "contextNotes": [],
    "links": {
      "children": []
    },
    "armorProf": {
      "value": []
    },
    "weaponProf": {
      "value": []
    },
    "languages": {
      "value": ["elven"],
      "custom": "Lashunta"
    },
    "flags": {
      "boolean": [],
      "dictionary": []
    },
    "scriptCalls": [],
    "subTypes": [["Lashunta"]]
  },
  "ownership": {
    "default": 0
  },
  "_stats": {
    "systemId": "pf1",
    "systemVersion": "0.82.1",
    "coreVersion": "10.285",
    "createdTime": 1663018760909,
    "modifiedTime": 1663018761156,
    "lastModifiedBy": "DbeAbHwpEqczKjsD"
  }
}
