{
  "_id": "TbZmYyDUxRn9baWy",
  "name": "Sahuagin",
  "type": "race",
  "img": "systems/pf1/icons/races/creature-types/construct.png",
  "effects": [],
  "folder": null,
  "sort": 0,
  "flags": {},
  "system": {
    "description": {
      "value": "<h2>Standard Racial Traits</h2>\n<ul>\n<li><strong>Ability Scores:</strong> +2&nbsp;<a href=\"https://www.d20pfsrd.com/basics-ability-scores/ability-scores#TOC-Strength-Str-\">Strength</a>, +2&nbsp;<a href=\"https://www.d20pfsrd.com/basics-ability-scores/ability-scores#TOC-Wisdom-Wis-\">Wisdom</a>, –2&nbsp;<a href=\"https://www.d20pfsrd.com/basics-ability-scores/ability-scores#TOC-Charisma-Cha-\">Charisma</a>: While sahuagin are powerful and cunning, they are repulsive creatures.</li>\n<li><strong>Size:</strong> Sahuagin are Medium creatures and have no bonuses or penalties due to their size.</li>\n<li><strong>Type:</strong> Sahuagin are&nbsp;<a href=\"https://www.d20pfsrd.com/bestiary/rules-for-monsters/creature-types#TOC-Monstrous-Humanoid\">monstrous humanoids</a>&nbsp;with the&nbsp;<a href=\"https://www.d20pfsrd.com/bestiary/rules-for-monsters/creature-types#TOC-Aquatic\">aquatic</a>&nbsp;subtype.</li>\n<li><strong>Languages: </strong>Sahuagin begin play speaking Aquan and Common. Sahuagin with high&nbsp;<a href=\"https://www.d20pfsrd.com/basics-ability-scores/ability-scores#TOC-Intelligence-Int-\">Intelligence</a>&nbsp;scores can choose from the following: Aboleth, Abyssal, Aklo, Draconic, Giant, Goblin, and Infernal.</li>\n<li style=\"box-sizing: border-box;\"><span style=\"box-sizing: border-box; font-weight: bold;\">Normal Speed</span>: Sahuagin have a base speed of 30 feet.</li>\n<li style=\"box-sizing: border-box;\"><span style=\"box-sizing: border-box; font-weight: bold;\">Fast Swimmer (5 RP)</span>: Sahuagin have a swim speed of 60 feet.</li>\n</ul>\n<h3>Senses</h3>\n<ul>\n<li style=\"box-sizing: border-box;\"><span style=\"box-sizing: border-box; font-weight: bold;\">Blindsense</span>: Sahuagin have&nbsp;<a href=\"https://www.d20pfsrd.com/gamemastering/special-abilities#TOC-Blindsight-and-Blindsense\">blindsense</a>&nbsp;with a range of 30 feet.</li>\n<li style=\"box-sizing: border-box;\"><span style=\"box-sizing: border-box; font-weight: bold;\">Darkvision</span>: Sahuagin have&nbsp;<a href=\"https://www.d20pfsrd.com/gamemastering/special-abilities#TOC-Darkvision\">darkvision</a>&nbsp;with a range of 60 feet.</li>\n<li style=\"box-sizing: border-box;\"><strong>Light Blindness:</strong>&nbsp;Sahuagin have the&nbsp;<a href=\"https://www.d20pfsrd.com/bestiary/rules-for-monsters/universal-monster-rules#TOC-Light-Blindness-Ex-\">light blindness</a>&nbsp;trait.</li>\n</ul>\n<h3>Defensive Abilities</h3>\n<ul>\n<li><strong>Natural Armor:</strong> Sahuagin have a +3&nbsp;<a href=\"https://www.d20pfsrd.com/basics-ability-scores/glossary#TOC-Natural-Armor-Bonus\">natural armor bonus</a>.</li>\n</ul>\n<h3>Offensive Racial Abilities</h3>\n<ul>\n<li style=\"box-sizing: border-box;\"><span style=\"box-sizing: border-box; font-weight: bold;\">Bite</span>: Sahuagin have a natural bite attack that deals 1d4 points of damage. This bite is a primary attack, or a secondary attack if the creature is wielding manufactured weapons.</li>\n<li style=\"box-sizing: border-box;\"><span style=\"box-sizing: border-box; font-weight: bold;\">Claws</span>: Sahuagin have two claw attacks that deal 1d4 points of damage. These are primary&nbsp;<a href=\"https://www.d20pfsrd.com/bestiary/rules-for-monsters/universal-monster-rules#TOC-Natural-Attacks\">natural attacks</a>.</li>\n<li style=\"box-sizing: border-box;\">\n<h3><span style=\"box-sizing: border-box; font-weight: bold;\">Blood Frenzy</span>: Once per day, whenever a sahuagin takes damage, it can fly into a frenzy for 1 minute; gaining a +2&nbsp;<a href=\"https://www.d20pfsrd.com/basics-ability-scores/glossary#TOC-Racial-Bonus\">racial bonus</a>&nbsp;to&nbsp;<a href=\"https://www.d20pfsrd.com/basics-ability-scores/ability-scores#TOC-Constitution-Con-\">Constitution</a>&nbsp;and&nbsp;<a href=\"https://www.d20pfsrd.com/basics-ability-scores/ability-scores#TOC-Strength-Str-\">Strength</a>&nbsp;but a –2 penalty to AC.</h3>\n</li>\n</ul>\n<h3>Other Racial Traits</h3>\n<ul>\n<li><strong>Speak with Sharks:</strong> Sahuagin can communicate telepathically with&nbsp;<a href=\"https://www.d20pfsrd.com/bestiary/monster-listings/animals/shark/shark\">sharks</a>&nbsp;to a distance of 100 feet. This communication is limited to simple concepts, such as “attack,” “come,” and “defend.”</li>\n</ul>"
    },
    "tags": [],
    "changes": [
      {
        "_id": "hwuykuqm",
        "formula": "2",
        "operator": "+",
        "subTarget": "str",
        "modifier": "racial",
        "priority": 0,
        "value": 0,
        "target": "ability"
      },
      {
        "_id": "2fjyz0d4",
        "formula": "2",
        "operator": "+",
        "subTarget": "wis",
        "modifier": "racial",
        "priority": 0,
        "value": 0,
        "target": "ability"
      },
      {
        "_id": "pc4inehz",
        "formula": "-2",
        "operator": "+",
        "subTarget": "cha",
        "modifier": "racial",
        "priority": 0,
        "value": 0,
        "target": "ability"
      },
      {
        "_id": "j48hua2n",
        "formula": "3",
        "operator": "+",
        "subTarget": "nac",
        "modifier": "base",
        "priority": 0,
        "value": 0,
        "target": "ac"
      }
    ],
    "contextNotes": [],
    "links": {
      "children": []
    },
    "armorProf": {
      "value": []
    },
    "weaponProf": {
      "value": []
    },
    "languages": {
      "value": ["common", "aquan"]
    },
    "flags": {
      "boolean": [],
      "dictionary": []
    },
    "scriptCalls": [],
    "creatureType": "monstrousHumanoid",
    "subTypes": [["Aquatic"]]
  },
  "ownership": {
    "default": 0
  },
  "_stats": {
    "systemId": "pf1",
    "systemVersion": "0.82.1",
    "coreVersion": "10.285",
    "createdTime": 1663018760939,
    "modifiedTime": 1663018761158,
    "lastModifiedBy": "DbeAbHwpEqczKjsD"
  }
}
