{
  "_id": "sXIQ3MFLInN9SF7m",
  "name": "Yaddithian",
  "type": "race",
  "img": "systems/pf1/icons/races/creature-types/abberation.png",
  "effects": [],
  "folder": null,
  "sort": 0,
  "flags": {},
  "system": {
    "description": {
      "value": "<h2>Standard Racial Traits</h2>\n<ul>\n<li>\n<p><strong>Ability Scores:</strong> +2&nbsp;<a href=\"https://www.d20pfsrd.com/basics-ability-scores/ability-scores#TOC-Constitution-Con-\">Constitution</a>, +2&nbsp;<a href=\"https://www.d20pfsrd.com/basics-ability-scores/ability-scores#TOC-Intelligence-Int-\">Intelligence</a>, –2&nbsp;<a href=\"https://www.d20pfsrd.com/basics-ability-scores/ability-scores#TOC-Wisdom-Wis-\">Wisdom</a>.</p>\n</li>\n<li>\n<p><strong>Size:</strong> Yaddithians are Medium creatures and thus receive no bonuses or penalties due to their size.</p>\n</li>\n<li>\n<p><strong>Type:</strong> Yaddithians are Aberrations.</p>\n</li>\n<li>\n<p><strong>Speed:</strong> Yaddithians have a land speed of 20 feet.</p>\n</li>\n<li><strong>Languages:</strong> Yaddithians begin play speaking Yaddithian. Those with high&nbsp;<a href=\"https://www.d20pfsrd.com/basics-ability-scores/ability-scores#TOC-Intelligence-Int-\">Intelligence</a>&nbsp;scores can choose any language as a bonus language.</li>\n</ul>\n<h3>Senses</h3>\n<ul>\n<li><strong>Darkvision:</strong> Yaddithians can see in the dark up to 60 feet.</li>\n</ul>\n<h3>Offensive Racial Traits</h3>\n<ul>\n<li><strong>Claws:</strong> A Yaddithian has two claws that deal 1d4 points of damage each.</li>\n</ul>\n<h3>Defensive Racial Traits</h3>\n<ul>\n<li><strong>Defensive Abilities:</strong> Yaddithians have cold&nbsp;<a href=\"https://www.d20pfsrd.com/gamemastering/special-abilities#TOC-Energy-Resistance\">resistance</a>&nbsp;5 and the&nbsp;<a href=\"https://www.d20pfsrd.com/bestiary/rules-for-monsters/universal-monster-rules#TOC-No-Breath-Ex-\">no breath</a>&nbsp;ability.</li>\n<li><strong>Rugose:</strong> A Yaddithian gains a +1&nbsp;<a href=\"https://www.d20pfsrd.com/basics-ability-scores/glossary#TOC-Natural-Armor-Bonus\">natural armor bonus</a>.</li>\n</ul>\n<h3>Other Racial Traits</h3>\n<ul>\n<li>\n<h4><strong>Cosmic Mind (Ex): </strong>A Yaddithian gets a +2&nbsp;<a href=\"https://www.d20pfsrd.com/basics-ability-scores/glossary#TOC-Racial-Bonus\">racial bonus</a>&nbsp;on&nbsp;<a href=\"https://www.d20pfsrd.com/skills/knowledge\">Knowledge</a>&nbsp;and&nbsp;<a href=\"https://www.d20pfsrd.com/skills/spellcraft\">Spellcraft</a>&nbsp;checks. A yaddithian spellcaster who would store spells in a&nbsp;<a href=\"https://www.d20pfsrd.com/equipment/goods-and-services/books-paper-writing-supplies#TOC-Spellbook\">spellbook</a>&nbsp;or&nbsp;<a href=\"https://www.d20pfsrd.com/bestiary/monster-listings/animals/familiar\">familiar</a> instead stores those spells in its mind (but must expend the normal resources to learn new spells).</h4>\n</li>\n<li>\n<h4><strong><span id=\"Long-Lived_Ex\">Long-Lived (Ex):&nbsp;</span></strong>Yaddithians live for thousands of years; they gain no benefit or penalty from aging and are immune to magical aging effects.</h4>\n</li>\n</ul>"
    },
    "tags": [],
    "changes": [
      {
        "_id": "98zj9gl2",
        "formula": "2",
        "operator": "+",
        "subTarget": "con",
        "modifier": "racial",
        "priority": 0,
        "value": 0,
        "target": "ability"
      },
      {
        "_id": "6099nxwc",
        "formula": "2",
        "operator": "+",
        "subTarget": "int",
        "modifier": "racial",
        "priority": 0,
        "value": 0,
        "target": "ability"
      },
      {
        "_id": "os4rmk3g",
        "formula": "-2",
        "operator": "+",
        "subTarget": "wis",
        "modifier": "racial",
        "priority": 0,
        "value": 0,
        "target": "ability"
      },
      {
        "_id": "9b15p13d",
        "formula": "1",
        "operator": "+",
        "subTarget": "nac",
        "modifier": "base",
        "priority": 0,
        "value": 0,
        "target": "ac"
      },
      {
        "_id": "7qtnx2wd",
        "formula": "2",
        "operator": "+",
        "subTarget": "skill.kar",
        "modifier": "racial",
        "priority": 0,
        "value": 0,
        "target": "skill"
      },
      {
        "_id": "kygc6jl6",
        "formula": "2",
        "operator": "+",
        "subTarget": "skill.kdu",
        "modifier": "racial",
        "priority": 0,
        "value": 0,
        "target": "skill"
      },
      {
        "_id": "3v7zg6h2",
        "formula": "2",
        "operator": "+",
        "subTarget": "skill.ken",
        "modifier": "racial",
        "priority": 0,
        "value": 0,
        "target": "skill"
      },
      {
        "_id": "hrijl2vg",
        "formula": "2",
        "operator": "+",
        "subTarget": "skill.kge",
        "modifier": "racial",
        "priority": 0,
        "value": 0,
        "target": "skill"
      },
      {
        "_id": "54pugikv",
        "formula": "2",
        "operator": "+",
        "subTarget": "skill.khi",
        "modifier": "racial",
        "priority": 0,
        "value": 0,
        "target": "skill"
      },
      {
        "_id": "adiosrlh",
        "formula": "2",
        "operator": "+",
        "subTarget": "skill.klo",
        "modifier": "racial",
        "priority": 0,
        "value": 0,
        "target": "skill"
      },
      {
        "_id": "tz278l3k",
        "formula": "2",
        "operator": "+",
        "subTarget": "skill.kna",
        "modifier": "racial",
        "priority": 0,
        "value": 0,
        "target": "skill"
      },
      {
        "_id": "olntu3vg",
        "formula": "2",
        "operator": "+",
        "subTarget": "skill.kno",
        "modifier": "racial",
        "priority": 0,
        "value": 0,
        "target": "skill"
      },
      {
        "_id": "jf5ajvcz",
        "formula": "2",
        "operator": "+",
        "subTarget": "skill.kpl",
        "modifier": "racial",
        "priority": 0,
        "value": 0,
        "target": "skill"
      },
      {
        "_id": "krw4yj6d",
        "formula": "2",
        "operator": "+",
        "subTarget": "skill.kre",
        "modifier": "racial",
        "priority": 0,
        "value": 0,
        "target": "skill"
      },
      {
        "_id": "49umhs7d",
        "formula": "2",
        "operator": "+",
        "subTarget": "skill.spl",
        "modifier": "racial",
        "priority": 0,
        "value": 0,
        "target": "skill"
      }
    ],
    "contextNotes": [],
    "links": {
      "children": []
    },
    "armorProf": {
      "value": []
    },
    "weaponProf": {
      "value": []
    },
    "languages": {
      "value": [],
      "custom": "Yaddithian"
    },
    "flags": {
      "boolean": [],
      "dictionary": []
    },
    "scriptCalls": [],
    "creatureType": "aberration",
    "subTypes": []
  },
  "ownership": {
    "default": 0
  },
  "_stats": {
    "systemId": "pf1",
    "systemVersion": "0.82.1",
    "coreVersion": "10.285",
    "createdTime": 1663018760962,
    "modifiedTime": 1663018761160,
    "lastModifiedBy": "DbeAbHwpEqczKjsD"
  }
}
