{
  "_id": "FSflNkwWnEY8pJuQ",
  "name": "Acid Crossbow Bolt",
  "type": "loot",
  "img": "icons/weapons/ammunition/arrow-simple-brown.webp",
  "effects": [],
  "folder": null,
  "sort": 0,
  "flags": {},
  "system": {
    "description": {
      "value": "<p><strong>Source</strong> <em>Pathfinder #15: The Armageddon Echo pg. 18</em></p><h3 class=\"framing\"><img src=\"https://www.aonprd.com/images/ThreeFiveSymbol.gif\" title=\"3.5 Material\" style=\"margin: 3px 3px 0px 3px\">Statistics</h3><p><strong>Cost</strong> 40 gp <strong>Weight</strong> -</p><p><strong>Category</strong> Ammunition; <strong>Proficiency</strong> Ammunition</p><h3 class=\"framing\">Description</h3><p>These metal bolts have a glass section in the middle, filled with acid. On a successful hit, they deal normal damage and 1d4 points of additional acid damage. Acid bolts do not cause any splash damage.</p>"
    },
    "tags": [],
    "weight": {
      "value": 0.1
    },
    "price": 40,
    "equipped": false,
    "hp": {
      "max": "1",
      "value": "1"
    },
    "hardness": 5,
    "identifiedName": "Acid Crossbow Bolt",
    "changes": [],
    "contextNotes": [],
    "links": {
      "children": []
    },
    "tag": "acidBolt",
    "flags": {
      "boolean": [],
      "dictionary": []
    },
    "scriptCalls": [],
    "subType": "ammo",
    "extraType": "bolt"
  },
  "ownership": {
    "default": 0
  },
  "_stats": {
    "systemId": "pf1",
    "systemVersion": "0.82.1",
    "coreVersion": "10.285",
    "createdTime": 1663018758346,
    "modifiedTime": 1663018759921,
    "lastModifiedBy": "DbeAbHwpEqczKjsD"
  }
}
