{
  "_id": "aZ4tLZL0LIZAHnQ1",
  "name": "Armor Spikes",
  "type": "weapon",
  "img": "systems/pf1/icons/items/weapons/spiked-armor.png",
  "effects": [],
  "folder": null,
  "sort": 0,
  "flags": {},
  "system": {
    "description": {
      "value": "<p>You can have spikes added to your&nbsp;<a href=\"https://www.d20pfsrd.com/basics-ability-scores/glossary#TOC-Armor-Bonus\">armor</a>, which allow you to deal extra piercing damage on a successful grapple attack. If you are not proficient with martial weapons, you take a –4 penalty on grapple checks when you try to use armor spikes.</p>\n<p>You can also make a regular melee attack (or off-hand attack) with the spikes, and they count as a light weapon in this case. You can’t also make an attack with armor spikes if you have already made an attack with another off-hand weapon, and vice versa.</p>\n<p>An enhancement bonus to a suit of armor does not improve the spikes’ effectiveness, but the spikes can be made into magic weapons in their own right.</p>"
    },
    "tags": [],
    "weight": {
      "value": 10
    },
    "price": 50,
    "hp": {
      "max": 2,
      "value": 2
    },
    "hardness": 10,
    "changes": [],
    "actions": [
      {
        "_id": "ys3erpgs4lt5iszd",
        "name": "Attack",
        "img": "systems/pf1/icons/items/weapons/spiked-armor.png",
        "description": "",
        "tag": "",
        "activation": {
          "cost": 1,
          "type": "attack"
        },
        "unchainedAction": {
          "activation": {
            "cost": 1,
            "type": ""
          }
        },
        "duration": {
          "value": null,
          "units": "inst"
        },
        "target": {
          "value": ""
        },
        "range": {
          "value": null,
          "units": "melee",
          "maxIncrements": 1,
          "minValue": null,
          "minUnits": ""
        },
        "uses": {
          "autoDeductCharges": true,
          "autoDeductChargesCost": "1",
          "self": {
            "value": 0,
            "maxFormula": "",
            "per": null
          },
          "per": null,
          "value": 0,
          "maxFormula": ""
        },
        "measureTemplate": {
          "type": "",
          "size": "",
          "overrideColor": false,
          "customColor": "",
          "overrideTexture": false,
          "customTexture": ""
        },
        "attackName": "",
        "actionType": "mwak",
        "attackBonus": "",
        "critConfirmBonus": "",
        "damage": {
          "parts": [
            [
              "sizeRoll(1, 6, @size)",
              {
                "values": ["piercing"],
                "custom": ""
              }
            ]
          ],
          "critParts": [],
          "nonCritParts": []
        },
        "attackParts": [],
        "formulaicAttacks": {
          "count": {
            "formula": "min(3, ceil(@attributes.bab.total / 5) - 1)"
          },
          "bonus": {
            "formula": "@formulaicAttack * -5"
          },
          "label": null
        },
        "formula": "",
        "ability": {
          "attack": "str",
          "damage": "str",
          "damageMult": 1,
          "critRange": "20",
          "critMult": "2"
        },
        "save": {
          "dc": 0,
          "type": "",
          "description": ""
        },
        "effectNotes": [],
        "attackNotes": [],
        "soundEffect": "",
        "powerAttack": {
          "multiplier": "",
          "damageBonus": 2,
          "critMultiplier": 1
        },
        "naturalAttack": {
          "primaryAttack": true,
          "secondary": {
            "attackBonus": "-5",
            "damageMult": 0.5
          }
        },
        "nonlethal": false,
        "usesAmmo": false,
        "spellEffect": "",
        "spellArea": "",
        "conditionals": [],
        "enh": {
          "value": null
        }
      }
    ],
    "attackNotes": [],
    "effectNotes": [],
    "contextNotes": [],
    "links": {
      "children": []
    },
    "scriptCalls": [],
    "weaponGroups": {
      "value": ["close"]
    },
    "weaponType": "martial"
  },
  "ownership": {
    "default": 0
  },
  "_stats": {
    "systemId": "pf1",
    "systemVersion": "0.82.1",
    "coreVersion": "10.285",
    "createdTime": 1663018758634,
    "modifiedTime": 1663018759948,
    "lastModifiedBy": "DbeAbHwpEqczKjsD"
  }
}
