{
  "_id": "FWSxNZMxtRX1Ygqx",
  "name": "Atlatl Dart",
  "type": "loot",
  "img": "icons/weapons/ammunition/arrows-bodkin-yellow-red.webp",
  "effects": [],
  "folder": null,
  "sort": 0,
  "flags": {},
  "system": {
    "description": {
      "value": "<p><strong>Source</strong> <em>Ultimate Equipment pg. 22</em></p><h3 class=\"framing\"><img src=\"https://www.aonprd.com/images/PathfinderSocietySymbol.gif\" title=\"PFS Legal\" style=\"margin:3px 3px 0px 3px;\">Statistics</h3><p><strong>Cost</strong> 1 gp <strong>Weight</strong> 2 lbs.</p><p><strong>Category</strong> Ammunition; <strong>Proficiency</strong> Ammunition</p><h3 class=\"framing\">Description</h3><p>An atlatl dart is the equivalent of a javelin except it has fletching. If thrown without an atlatl, treat it as a javelin.</p>"
    },
    "tags": [],
    "weight": {
      "value": 2
    },
    "price": 1,
    "equipped": false,
    "hp": {
      "max": "1",
      "value": "1"
    },
    "hardness": 5,
    "identifiedName": "Atlatl Dart",
    "changes": [],
    "contextNotes": [],
    "links": {
      "children": []
    },
    "tag": "atlatlDart",
    "flags": {
      "boolean": [],
      "dictionary": []
    },
    "scriptCalls": [],
    "subType": "ammo"
  },
  "ownership": {
    "default": 0
  },
  "_stats": {
    "systemId": "pf1",
    "systemVersion": "0.82.1",
    "coreVersion": "10.285",
    "createdTime": 1663018758346,
    "modifiedTime": 1663018759921,
    "lastModifiedBy": "DbeAbHwpEqczKjsD"
  }
}
