{
  "_id": "ln9q7FY8sB7HxMVz",
  "name": "Bamboo Shaft Arrows",
  "type": "loot",
  "img": "icons/weapons/ammunition/arrow-simple-grey.webp",
  "effects": [],
  "folder": null,
  "sort": 0,
  "flags": {},
  "system": {
    "description": {
      "value": "<p><strong>Source</strong> <em>Ultimate Equipment pg. 22</em></p>\n<h3 class=\"framing\"><img style=\"margin: 3px 3px 0px 3px;\" title=\"PFS Legal\" src=\"https://www.aonprd.com/images/PathfinderSocietySymbol.gif\" />Statistics</h3>\n<p><strong>Cost</strong> 1 gp <strong>Weight</strong> 1/2 lb.</p>\n<p><strong>Category</strong> Ammunition; <strong>Proficiency</strong> Ammunition</p>\n<h3 class=\"framing\">Description</h3>\n<p>These foot-long arrows are used as ammunition for arrow tubes. As an improvised melee weapon, they deal damage equivalent to that of a spiked gauntlet.</p>\n<p>They come in a bamboo tube that holds 10 shafts.</p>"
    },
    "tags": [],
    "quantity": 10,
    "weight": {
      "value": 0.05
    },
    "price": 0.1,
    "equipped": false,
    "hp": {
      "max": "1",
      "value": "1"
    },
    "hardness": 5,
    "identifiedName": "Bamboo Shaft Arrows",
    "changes": [],
    "contextNotes": [],
    "links": {
      "children": []
    },
    "tag": "bambooShaftArrows",
    "flags": {
      "boolean": [],
      "dictionary": []
    },
    "scriptCalls": [],
    "subType": "ammo",
    "extraType": "arrow"
  },
  "ownership": {
    "default": 0
  },
  "_stats": {
    "systemId": "pf1",
    "systemVersion": "0.82.1",
    "coreVersion": "10.285",
    "createdTime": 1663018758710,
    "modifiedTime": 1663018759958,
    "lastModifiedBy": "DbeAbHwpEqczKjsD"
  }
}
