{
  "_id": "I4QMJ9pvFDdOyqve",
  "name": "Barbed Arrow",
  "type": "loot",
  "img": "icons/weapons/ammunition/arrow-simple-grey.webp",
  "effects": [],
  "folder": null,
  "sort": 0,
  "flags": {},
  "system": {
    "description": {
      "value": "<p><strong>Source</strong> <em>Ranged Tactics Toolbox pg. 19</em></p>\n<h3 class=\"framing\"><img style=\"margin: 3px 3px 0px 3px;\" title=\"PFS Legal\" src=\"https://www.aonprd.com/images/PathfinderSocietySymbol.gif\" />Statistics</h3>\n<p><strong>Cost</strong> 2 gp <strong>Weight</strong> 3 lbs.</p>\n<p><strong>Category</strong> Ammunition; <strong>Proficiency</strong> Ammunition</p>\n<h3 class=\"framing\">Description</h3>\n<p>The head of a barbed arrow resembles that of a harpoon.</p>\n<p>When a barbed arrow is attached to a length of silk rope and fired from a bow, the arrow's range increment is reduced to 30 feet, but it gains the <strong>grapple special weapon quality</strong> (<em>Pathfinder RPG Ultimate Equipment</em> 22).</p>\n<p>Barbed bolts exist for crossbows.</p>"
    },
    "tags": [],
    "quantity": 20,
    "weight": {
      "value": 0.15
    },
    "price": 0.1,
    "equipped": false,
    "hp": {
      "max": "1",
      "value": "1"
    },
    "hardness": 5,
    "identifiedName": "Barbed Arrow",
    "changes": [],
    "contextNotes": [],
    "links": {
      "children": []
    },
    "tag": "barbedArrow",
    "flags": {
      "boolean": [],
      "dictionary": []
    },
    "scriptCalls": [],
    "subType": "ammo",
    "extraType": "arrow"
  },
  "ownership": {
    "default": 0
  },
  "_stats": {
    "systemId": "pf1",
    "systemVersion": "0.82.1",
    "coreVersion": "10.285",
    "createdTime": 1663018758359,
    "modifiedTime": 1663018759923,
    "lastModifiedBy": "DbeAbHwpEqczKjsD"
  }
}
