{
  "_id": "bYvcTqrIQa3Y9Tvs",
  "name": "Breech-Loader",
  "type": "weapon",
  "img": "icons/weapons/guns/gun-pistol-wood.webp",
  "effects": [],
  "folder": null,
  "sort": 0,
  "flags": {},
  "system": {
    "description": {
      "value": "<p><strong>Source</strong> <em>Heroes of Golarion pg. 18</em></p>\n<h3 class=\"framing\"><img style=\"margin: 3px 3px 0px 3px;\" title=\"PFS Legal\" src=\"https://www.aonprd.com/images/PathfinderSocietySymbol.gif\" />Statistics</h3>\n<p><strong>Cost</strong> 3,000 gp <strong>Weight</strong> 4 lbs.</p>\n<p><strong>Damage</strong> 1d4 (small), 1d6 (medium); <strong>Critical</strong> x4; <strong>Range</strong> 20 ft.; <strong>Type</strong> B and P; <strong>Special</strong> -</p>\n<p><strong>Misfire</strong> 1 (5 ft.); <strong>Capacity</strong> 2</p>\n<p><strong>Category</strong> One-Handed; <strong>Proficiency</strong> Exotic</p>\n<h3 class=\"framing\">Description</h3>\n<p>This double-barreled pistol variant has its barrel attached to its stock by a hinge, enabling ammunition to be loaded quickly and easily. Reloading a breech-loader is a standard action that reloads both barrels; the @Compendium[pf1.feats.11ClnanF4PdEPd9g]{Rapid Reload}&nbsp;feat reduces this to a move action.</p>"
    },
    "tags": [],
    "weight": {
      "value": 4
    },
    "price": 3000,
    "hp": {
      "max": "10",
      "value": "10"
    },
    "hardness": 10,
    "identifiedName": "Breech-Loader",
    "changes": [],
    "actions": [
      {
        "_id": "c5jbyhiu0crlt394",
        "name": "Attack",
        "img": "icons/weapons/guns/gun-pistol-wood.webp",
        "description": "",
        "tag": "",
        "activation": {
          "cost": 1,
          "type": "attack"
        },
        "unchainedAction": {
          "activation": {
            "cost": 1,
            "type": ""
          }
        },
        "duration": {
          "value": null,
          "units": "inst"
        },
        "target": {
          "value": ""
        },
        "range": {
          "value": "20",
          "units": "ft",
          "maxIncrements": 1,
          "minValue": null,
          "minUnits": ""
        },
        "uses": {
          "autoDeductCharges": true,
          "autoDeductChargesCost": "1",
          "self": {
            "value": 0,
            "maxFormula": "",
            "per": null
          },
          "per": "",
          "value": 0,
          "maxFormula": ""
        },
        "measureTemplate": {
          "type": "",
          "size": "",
          "overrideColor": false,
          "customColor": "",
          "overrideTexture": false,
          "customTexture": ""
        },
        "attackName": "",
        "actionType": "mwak",
        "attackBonus": "",
        "critConfirmBonus": "",
        "damage": {
          "parts": [
            [
              "sizeRoll(1, 6, @size)",
              {
                "values": ["bludgeoning", "piercing"],
                "custom": ""
              }
            ]
          ],
          "critParts": [],
          "nonCritParts": []
        },
        "attackParts": [],
        "formulaicAttacks": {
          "count": {
            "formula": "min(3, ceil(@attributes.bab.total / 5) - 1)"
          },
          "bonus": {
            "formula": "@formulaicAttack * -5"
          },
          "label": null
        },
        "formula": "",
        "ability": {
          "attack": "dex",
          "damage": "",
          "damageMult": 1,
          "critRange": 20,
          "critMult": 4
        },
        "save": {
          "dc": "0",
          "type": "",
          "description": ""
        },
        "effectNotes": [],
        "attackNotes": [],
        "soundEffect": "",
        "powerAttack": {
          "multiplier": "",
          "damageBonus": 2,
          "critMultiplier": 1
        },
        "naturalAttack": {
          "primaryAttack": true,
          "secondary": {
            "attackBonus": "-5",
            "damageMult": 0.5
          }
        },
        "nonlethal": false,
        "usesAmmo": true,
        "spellEffect": "",
        "spellArea": "",
        "conditionals": [],
        "enh": {
          "value": null
        }
      }
    ],
    "uses": {
      "per": ""
    },
    "attackNotes": [],
    "effectNotes": [],
    "contextNotes": [],
    "links": {
      "children": []
    },
    "tag": "breechloader",
    "scriptCalls": [],
    "weaponGroups": {
      "value": ["firearms"]
    },
    "weaponType": "exotic",
    "weaponSubtype": "ranged",
    "ammoType": "gunBullet"
  },
  "ownership": {
    "default": 0
  },
  "_stats": {
    "systemId": "pf1",
    "systemVersion": "0.82.1",
    "coreVersion": "10.285",
    "createdTime": 1663018758646,
    "modifiedTime": 1663018759949,
    "lastModifiedBy": "DbeAbHwpEqczKjsD"
  }
}
