{
  "_id": "LLDsib72D95cjxi7",
  "name": "Earthmaul",
  "type": "weapon",
  "img": "systems/pf1/icons/feats/martial-weapon-proficiency.jpg",
  "effects": [],
  "folder": null,
  "sort": 0,
  "flags": {},
  "system": {
    "description": {
      "value": "<p><strong>Source</strong> <em>Belkzen, Hold of the Orc Hordes pg. 39</em></p><h3 class=\"framing\">Statistics</h3><p><strong>Cost</strong> 1,000 gp <strong>Weight</strong> -</p><p><strong>Damage</strong> 6d6; <strong>Critical</strong> -; <strong>Range</strong> -; <strong>Type</strong> B</p><p><strong>Crew</strong> 3; <strong>Aim</strong> 0; <strong>Load</strong> 3; <strong>Speed</strong> 0 ft.</p><p><strong>Category</strong> Close Assault; <strong>Proficiency</strong> Siege Engine</p><h3 class=\"framing\">Description</h3><p>This war machine is fitted with an enormous hammer. When dropped into the horizontal position, it functions like a sideways-mounted catapult, and is capable of clearing wide swaths of enemies. Although it doesn't use ammunition, the earthmaul must effectively be reloaded by winding the torsion. When the earthmaul is activated, creatures on the ground in a 15-foot cone take 6d6 points of damage, are knocked 10 feet in the direction of the swing, and fall prone. A successful DC 20 Reflex saving throw halves the damage and negates the additional effects. An earthmaul has a hardness of 5 and 100 hit points.</p><p></p><p>An earthmaul is a Huge siege engine.</p>"
    },
    "tags": [],
    "price": 1000,
    "hardness": 10,
    "changes": [],
    "actions": [
      {
        "_id": "afpr221wkoouds6b",
        "name": "Attack",
        "img": "systems/pf1/icons/feats/martial-weapon-proficiency.jpg",
        "description": "",
        "tag": "",
        "activation": {
          "cost": 1,
          "type": "attack"
        },
        "unchainedAction": {
          "activation": {
            "cost": 1,
            "type": ""
          }
        },
        "duration": {
          "value": null,
          "units": "inst"
        },
        "target": {
          "value": ""
        },
        "range": {
          "value": 0,
          "units": "melee",
          "maxIncrements": 1,
          "minValue": null,
          "minUnits": ""
        },
        "uses": {
          "autoDeductCharges": true,
          "autoDeductChargesCost": "1",
          "self": {
            "value": 0,
            "maxFormula": "",
            "per": null
          },
          "per": null,
          "value": 0,
          "maxFormula": ""
        },
        "measureTemplate": {
          "type": "",
          "size": "",
          "overrideColor": false,
          "customColor": "",
          "overrideTexture": false,
          "customTexture": ""
        },
        "attackName": "",
        "actionType": "mwak",
        "attackBonus": "",
        "critConfirmBonus": "",
        "damage": {
          "parts": [
            [
              "sizeRoll(6, 6, @size)",
              {
                "values": ["bludgeoning"],
                "custom": ""
              }
            ]
          ],
          "critParts": [],
          "nonCritParts": []
        },
        "attackParts": [],
        "formulaicAttacks": {
          "count": {
            "formula": "min(3, ceil(@attributes.bab.total / 5) - 1)"
          },
          "bonus": {
            "formula": "@formulaicAttack * -5"
          },
          "label": null
        },
        "formula": "",
        "ability": {
          "attack": "str",
          "damage": "str",
          "damageMult": 1,
          "critRange": "",
          "critMult": "2"
        },
        "save": {
          "dc": 0,
          "type": "",
          "description": ""
        },
        "effectNotes": [],
        "attackNotes": [],
        "soundEffect": "",
        "powerAttack": {
          "multiplier": "",
          "damageBonus": 2,
          "critMultiplier": 1
        },
        "naturalAttack": {
          "primaryAttack": true,
          "secondary": {
            "attackBonus": "-5",
            "damageMult": 0.5
          }
        },
        "nonlethal": false,
        "usesAmmo": false,
        "spellEffect": "",
        "spellArea": "",
        "conditionals": [],
        "enh": {
          "value": null
        }
      }
    ],
    "attackNotes": [],
    "effectNotes": [],
    "contextNotes": [],
    "links": {
      "children": []
    },
    "tag": "earthmaul",
    "scriptCalls": [],
    "weaponGroups": {
      "value": []
    },
    "weaponType": "misc",
    "weaponSubtype": "other"
  },
  "ownership": {
    "default": 0
  },
  "_stats": {
    "systemId": "pf1",
    "systemVersion": "0.82.1",
    "coreVersion": "10.285",
    "createdTime": 1663018758408,
    "modifiedTime": 1663018759932,
    "lastModifiedBy": "DbeAbHwpEqczKjsD"
  }
}
