{
  "_id": "Q17sFaNmXr2habPl",
  "name": "Smoke Arrow",
  "type": "loot",
  "img": "systems/pf1/icons/items/weapons/arrow-special.PNG",
  "effects": [],
  "folder": null,
  "sort": 0,
  "flags": {},
  "system": {
    "description": {
      "value": "<p><strong>Source</strong> <em>Ultimate Equipment pg. 22</em>, <em>Advanced Player's Guide pg. 176</em></p>\n<h3 class=\"framing\"><img style=\"margin: 3px 3px 0px 3px;\" title=\"PFS Legal\" src=\"https://www.aonprd.com/images/PathfinderSocietySymbol.gif\" />Statistics</h3>\n<p><strong>Cost</strong> 10 gp <strong>Weight</strong> -</p>\n<p><strong>Category</strong> Ammunition; <strong>Proficiency</strong> Ammunition</p>\n<h3 class=\"framing\">Description</h3>\n<p>This arrow is actually a specially-shaped smokestick that can be fired from a bow.</p>\n<p>It trails smoke as it flies, and creates a <strong>5-foot cube of smoke</strong> where it strikes. It otherwise functions like a normal arrow in terms of damage, range, and so on.</p>"
    },
    "tags": [],
    "price": 10,
    "equipped": false,
    "hp": {
      "max": "1",
      "value": "1"
    },
    "hardness": 5,
    "identifiedName": "Smoke Arrow",
    "changes": [],
    "contextNotes": [],
    "links": {
      "children": []
    },
    "tag": "smokeArrow",
    "flags": {
      "boolean": [],
      "dictionary": []
    },
    "scriptCalls": [],
    "subType": "ammo",
    "extraType": "arrow"
  },
  "ownership": {
    "default": 0
  },
  "_stats": {
    "systemId": "pf1",
    "systemVersion": "0.82.1",
    "coreVersion": "10.285",
    "createdTime": 1663018758452,
    "modifiedTime": 1663018759937,
    "lastModifiedBy": "DbeAbHwpEqczKjsD"
  }
}
