{
  "_id": "hvWgMofsY3heVbFo",
  "name": "Split-Blade Sword",
  "type": "weapon",
  "img": "systems/pf1/icons/items/weapons/split-blade-sword.png",
  "effects": [],
  "folder": null,
  "sort": 0,
  "flags": {},
  "system": {
    "description": {
      "value": "<p><strong>Source</strong> <em>Martial Arts Handbook pg. 30</em></p><h3 class=\"framing\">Statistics</h3><p><strong>Cost</strong> 200 gp <strong>Weight</strong> 8 lbs</p><p><strong>Damage</strong> 1d10 (small), 2d6 (medium); <strong>Critical</strong> x2; <strong>Range</strong> -; <strong>Type</strong> S; <strong>Special</strong> Disarm, trip, see text</p><p><strong>Category</strong> One-Handed; <strong>Proficiency</strong> Exotic</p><p><strong>Weapon Groups</strong> Blades, Heavy</p><h3 class=\"framing\">Description</h3><p>Patterned after the fiery blades masterfully wielded by Sarenite angels, the split-blade sword is both a holy symbol and a difficult-yet-effective weapon. A split-blade sword resembles a large scimitar whose blade splits into two about two-thirds of the way toward the tip. If your Dexterity score is less than 15, you take a -2 penalty on attacks rolls with a split-blade sword, as you're unable to maneuver its unusual blade.</p>"
    },
    "tags": [],
    "weight": {
      "value": 8
    },
    "price": 200,
    "hp": {
      "max": "5",
      "value": "5"
    },
    "hardness": 10,
    "identifiedName": "Split-Blade Sword",
    "changes": [],
    "actions": [
      {
        "_id": "rwahme3wypdqijp4",
        "name": "Attack",
        "img": "systems/pf1/icons/items/weapons/split-blade-sword.png",
        "description": "",
        "tag": "",
        "activation": {
          "cost": 1,
          "type": "attack"
        },
        "unchainedAction": {
          "activation": {
            "cost": 1,
            "type": ""
          }
        },
        "duration": {
          "value": null,
          "units": "inst"
        },
        "target": {
          "value": ""
        },
        "range": {
          "value": 0,
          "units": "melee",
          "maxIncrements": 1,
          "minValue": null,
          "minUnits": ""
        },
        "uses": {
          "autoDeductCharges": true,
          "autoDeductChargesCost": "1",
          "self": {
            "value": 0,
            "maxFormula": "",
            "per": null
          },
          "per": "",
          "value": 0,
          "maxFormula": ""
        },
        "measureTemplate": {
          "type": "",
          "size": "",
          "overrideColor": false,
          "customColor": "",
          "overrideTexture": false,
          "customTexture": ""
        },
        "attackName": "",
        "actionType": "mwak",
        "attackBonus": "",
        "critConfirmBonus": "",
        "damage": {
          "parts": [
            [
              "sizeRoll(2, 6, @size)",
              {
                "values": ["slashing"],
                "custom": ""
              }
            ]
          ],
          "critParts": [],
          "nonCritParts": []
        },
        "attackParts": [],
        "formulaicAttacks": {
          "count": {
            "formula": "min(3, ceil(@attributes.bab.total / 5) - 1)"
          },
          "bonus": {
            "formula": "@formulaicAttack * -5"
          },
          "label": null
        },
        "formula": "",
        "ability": {
          "attack": "str",
          "damage": "str",
          "damageMult": 1,
          "critRange": 20,
          "critMult": 2
        },
        "save": {
          "dc": "0",
          "type": "",
          "description": ""
        },
        "effectNotes": [],
        "attackNotes": [],
        "soundEffect": "",
        "powerAttack": {
          "multiplier": "",
          "damageBonus": 2,
          "critMultiplier": 1
        },
        "naturalAttack": {
          "primaryAttack": true,
          "secondary": {
            "attackBonus": "-5",
            "damageMult": 0.5
          }
        },
        "nonlethal": false,
        "usesAmmo": false,
        "spellEffect": "",
        "spellArea": "",
        "conditionals": [],
        "enh": {
          "value": null
        }
      }
    ],
    "uses": {
      "per": ""
    },
    "attackNotes": [],
    "effectNotes": [],
    "contextNotes": [],
    "links": {
      "children": []
    },
    "tag": "splitbladeSword",
    "scriptCalls": [],
    "weaponGroups": {
      "value": ["bladesHeavy"]
    },
    "weaponType": "exotic",
    "weaponSubtype": "1h"
  },
  "ownership": {
    "default": 0
  },
  "_stats": {
    "systemId": "pf1",
    "systemVersion": "0.82.1",
    "coreVersion": "10.285",
    "createdTime": 1663018758687,
    "modifiedTime": 1663018759955,
    "lastModifiedBy": "DbeAbHwpEqczKjsD"
  }
}
