{
  "_id": "v404qfv0Xg2VLhtZ",
  "name": "Spongestones Sling Bullet",
  "type": "loot",
  "img": "icons/weapons/ammunition/shot-round-silver.webp",
  "effects": [],
  "folder": null,
  "sort": 0,
  "flags": {},
  "system": {
    "description": {
      "value": "<p><strong>Source</strong> <em>Halflings of Golarion pg. 23</em></p><h3 class=\"framing\"><img src=\"https://www.aonprd.com/images/PathfinderSocietySymbol.gif\" title=\"PFS Legal\" style=\"margin:3px 3px 0px 3px;\">Statistics</h3><p><strong>Cost</strong> 10 gp <strong>Weight</strong> 2 lbs.</p><p><strong>Category</strong> Ammunition; <strong>Proficiency</strong> Ammunition</p><h3 class=\"framing\">Description</h3><p>These bullets are actually made from a porous stone or heavy wood that absorbs liquids and shatters on impact. Spongestones are often used to deliver poison or burning oil. A flask of oil completely saturates 10 spongestones. When ignited (a free action if fire is available), a burning, oil-soaked spongestone deals +1d2 fire damage and can ignite combustible materials (such as a thatched roof ). Allowing a spongestone to burn in a sling's cup for more than 1d3 rounds gives the sling the broken condition.</p>"
    },
    "tags": [],
    "quantity": 10,
    "weight": {
      "value": 0.2
    },
    "price": 1,
    "equipped": false,
    "hp": {
      "max": "1",
      "value": "1"
    },
    "hardness": 5,
    "identifiedName": "Spongestones Sling Bullet",
    "changes": [],
    "contextNotes": [],
    "links": {
      "children": []
    },
    "tag": "halflingSpongestones10",
    "flags": {
      "boolean": [],
      "dictionary": []
    },
    "scriptCalls": [],
    "subType": "ammo",
    "extraType": "slingBullet"
  },
  "ownership": {
    "default": 0
  },
  "_stats": {
    "systemId": "pf1",
    "systemVersion": "0.82.1",
    "coreVersion": "10.285",
    "createdTime": 1663018758802,
    "modifiedTime": 1663018759970,
    "lastModifiedBy": "DbeAbHwpEqczKjsD"
  }
}
