{
  "_id": "gxTN2rn0eYV4QsYJ",
  "name": "Tangleshot Arrow",
  "type": "loot",
  "img": "systems/pf1/icons/items/weapons/arrow-special.PNG",
  "effects": [],
  "folder": null,
  "sort": 0,
  "flags": {},
  "system": {
    "description": {
      "value": "<p><strong>Source</strong> <em>Alchemy Manual pg. 21</em>, <em>Elves of Golarion pg. 23</em><br /><strong>Price</strong> 20 gp; <strong>Weight</strong> -<br /><strong>Category</strong> Alchemical Weapons</p>\n<h2 class=\"framing\">Description</h2>\n<p>This arrow is tipped with a tiny vial of tanglefoot goo. Firing a tangleshot arrow is a ranged touch attack; the arrow deals no damage when it hits, but the target is splashed with the alchemical adhesive.</p>\n<p>This effect is similar to that of a @Compendium[pf1.items.utncinnlwzscpzbd]{Tanglefoot Bag}, but with the following adjustments: <strong>Reflex DC 10</strong>, <strong>Strength DC 12</strong> to break, 10 points of slashing damage to cut through, concentration DC 10 to cast spells.</p>\n<p>A tangleshot arrow imposes a <strong>-1 penalty on attack rolls</strong> because of its weight.</p>\n<h2 class=\"framing\">Alchemical Recipe</h2>\n<p><strong>Recipe</strong> (18 myrrh + 26 urea)/congelation; <strong>Craft</strong> 25<br /><strong>Time</strong> 10 minutes; <strong>Tools</strong> alchemist's lab; <strong>Type</strong> alchemical weapon</p>"
    },
    "tags": [],
    "price": 20,
    "equipped": false,
    "hp": {
      "max": "1",
      "value": "1"
    },
    "hardness": 5,
    "unidentified": {
      "price": 20
    },
    "identifiedName": "Tangleshot Arrow",
    "changes": [],
    "contextNotes": [],
    "links": {
      "children": []
    },
    "tag": "tangleshotArrow",
    "flags": {
      "boolean": [],
      "dictionary": []
    },
    "scriptCalls": [],
    "subType": "ammo",
    "extraType": "arrow"
  },
  "ownership": {
    "default": 0
  },
  "_stats": {
    "systemId": "pf1",
    "systemVersion": "0.82.1",
    "coreVersion": "10.285",
    "createdTime": 1663018758678,
    "modifiedTime": 1663018759954,
    "lastModifiedBy": "DbeAbHwpEqczKjsD"
  }
}
