{
  "_id": "qozwdcnkxulxsepe",
  "name": "Acid",
  "type": "weapon",
  "img": "systems/pf1/icons/items/potions/major-green.jpg",
  "effects": [],
  "folder": null,
  "sort": 0,
  "flags": {},
  "system": {
    "description": {
      "value": "<p class=\"source\" style=\"box-sizing: border-box; user-select: text; color: #191813; font-size: 13px;\"><strong style=\"box-sizing: border-box; user-select: text;\">Source</strong>&nbsp;<a style=\"box-sizing: border-box; user-select: text;\" title=\"PZO1110\" href=\"http://www.amazon.com/gp/product/1601251505/ref=as_li_qf_sp_asin_il_tl?ie=UTF8&amp;camp=1789&amp;creative=9325&amp;creativeASIN=1601251505&amp;linkCode=as2&amp;tag=httpwwwd20pfs-20\" target=\"_blank\" rel=\"noopener\">PZO1110</a></p>\n<p style=\"box-sizing: border-box; user-select: text; color: #191813; font-size: 13px;\">You can throw a flask of acid as a&nbsp;<a style=\"box-sizing: border-box; user-select: text;\" href=\"https://www.d20pfsrd.com/gamemastering/combat#TOC-Throw-Splash-Weapon\">splash weapon</a>&nbsp;with a range increment of 10 feet.</p>\n<p style=\"box-sizing: border-box; user-select: text; color: #191813; font-size: 13px;\">A direct hit deals 1d6 points of acid damage. Every creature within 5 feet of the point where the acid hits takes 1 point of acid damage from the splash.</p>\n<p style=\"box-sizing: border-box; user-select: text; color: #191813; font-size: 13px;\">Craft (alchemy) DC: 15</p>\n<p class=\"header\" style=\"box-sizing: border-box; user-select: text; color: #191813; font-size: 13px;\">Alchemical Power Component</p>\n<p class=\"source\" style=\"box-sizing: border-box; user-select: text; color: #191813; font-size: 13px;\"><strong style=\"box-sizing: border-box; user-select: text;\">Source</strong>&nbsp;<a style=\"box-sizing: border-box; user-select: text;\" title=\"PZO9410\" href=\"http://www.amazon.com/gp/product/1601252226/ref=as_li_qf_sp_asin_il_tl?ie=UTF8&amp;camp=1789&amp;creative=9325&amp;creativeASIN=1601252226&amp;linkCode=as2&amp;tag=httpwwwd20pfs-20\" target=\"_blank\" rel=\"noopener\">PZO9410</a></p>\n<p style=\"box-sizing: border-box; user-select: text; color: #191813; font-size: 13px;\">A common flask of acid has many uses as an alchemical power component, particularly with attack spells.</p>\n<ul style=\"box-sizing: border-box; user-select: text; color: #191813; font-size: 13px;\">\n<li style=\"box-sizing: border-box; user-select: text; align-items: center;\"><a class=\"spell\" style=\"box-sizing: border-box; user-select: text;\" href=\"https://www.d20pfsrd.com/magic/all-spells/a/acid-arrow\">Acid Arrow</a>&nbsp;(M): The spell's acid lasts 1 round longer than normal.</li>\n<li style=\"box-sizing: border-box; user-select: text; align-items: center;\"><a class=\"spell\" style=\"box-sizing: border-box; user-select: text;\" href=\"https://www.d20pfsrd.com/magic/all-spells/a/acid-fog\">Acid Fog</a>&nbsp;(M): The fog's radius and height increase by 5 feet.</li>\n<li style=\"box-sizing: border-box; user-select: text; align-items: center;\"><a class=\"spell\" style=\"box-sizing: border-box; user-select: text;\" href=\"https://www.d20pfsrd.com/magic/all-spells/a/acid-splash\">Acid Splash</a>&nbsp;(F): The spell deals +1 point of damage.</li>\n<li style=\"box-sizing: border-box; user-select: text; align-items: center;\"><a class=\"spell\" style=\"box-sizing: border-box; user-select: text;\" href=\"https://www.d20pfsrd.com/magic/all-spells/a/acid-splash\">Acid Splash</a>&nbsp;(M): The spell lasts 1 round longer than normal.</li>\n<li style=\"box-sizing: border-box; user-select: text; align-items: center;\"><a class=\"spell\" style=\"box-sizing: border-box; user-select: text;\" href=\"https://www.d20pfsrd.com/magic/all-spells/d/dispel-magic\">Dispel Magic</a>&nbsp;(M): Using acid as a material component while attempting to dispel or&nbsp;<a style=\"box-sizing: border-box; user-select: text;\" href=\"https://www.d20pfsrd.com/magic#TOC-Counterspells\">counterspell</a>&nbsp;a spell or effect with the earth subtype gives you a +2 bonus on your dispel check. This bonus applies whether you are using&nbsp;<a class=\"spell\" style=\"box-sizing: border-box; user-select: text;\" href=\"https://www.d20pfsrd.com/magic/all-spells/d/dispel-magic\">dispel magic</a>,&nbsp;<a class=\"spell\" style=\"box-sizing: border-box; user-select: text;\" href=\"https://www.d20pfsrd.com/magic/all-spells/d/dispel-magic\">greater dispel magic</a>, or some other spell that you can use for counterspelling (for example, if you have the&nbsp;<a style=\"box-sizing: border-box; user-select: text;\" href=\"https://www.d20pfsrd.com/feats/general-feats/improved-counterspell\">Improved Counterspell</a>&nbsp;feat).</li>\n<li style=\"box-sizing: border-box; user-select: text; align-items: center;\"><a class=\"spell\" style=\"box-sizing: border-box; user-select: text;\" href=\"https://www.d20pfsrd.com/magic/all-spells/g/grease\">Grease</a>&nbsp;(M): The grease is acidic and deals 1 point of acid damage per round to any creature in the area or holding the greased object.</li>\n<li style=\"box-sizing: border-box; user-select: text; align-items: center;\"><a class=\"spell\" style=\"box-sizing: border-box; user-select: text;\" href=\"https://www.d20pfsrd.com/magic/all-spells/w/wall-of-ice\">Wall of Ice</a>&nbsp;(M): For each flask of acid used as a power component, you may designate one 10-foot square of ice wall that, if&nbsp;<a style=\"box-sizing: border-box; user-select: text;\" href=\"https://www.d20pfsrd.com/gamemastering/conditions#TOC-Broken\">broken</a>&nbsp;through, deals 1d6 acid damage in addition to the normal cold damage.</li>\n</ul>"
    },
    "tags": [],
    "weight": {
      "value": 1
    },
    "price": 10,
    "hp": {
      "max": "10",
      "value": "10"
    },
    "identifiedName": "Acid",
    "changes": [],
    "actions": [
      {
        "_id": "g2rblzzkmv43el5f",
        "name": "Attack",
        "img": "systems/pf1/icons/items/potions/major-green.jpg",
        "description": "",
        "tag": "",
        "activation": {
          "cost": 1,
          "type": "attack"
        },
        "unchainedAction": {
          "activation": {
            "cost": 1,
            "type": ""
          }
        },
        "duration": {
          "value": null,
          "units": "inst"
        },
        "target": {
          "value": ""
        },
        "range": {
          "value": "10",
          "units": "ft",
          "maxIncrements": 5,
          "minValue": null,
          "minUnits": ""
        },
        "uses": {
          "autoDeductCharges": true,
          "autoDeductChargesCost": "1",
          "self": {
            "value": 0,
            "maxFormula": "",
            "per": null
          },
          "per": "single",
          "value": 0,
          "maxFormula": ""
        },
        "measureTemplate": {
          "type": "",
          "size": "",
          "overrideColor": false,
          "customColor": "",
          "overrideTexture": false,
          "customTexture": ""
        },
        "attackName": "",
        "actionType": "rwak",
        "attackBonus": "",
        "critConfirmBonus": "",
        "damage": {
          "parts": [
            [
              "1d6",
              {
                "values": ["acid"],
                "custom": ""
              }
            ]
          ],
          "critParts": [],
          "nonCritParts": []
        },
        "attackParts": [],
        "formulaicAttacks": {
          "count": {
            "formula": ""
          },
          "bonus": {
            "formula": ""
          },
          "label": ""
        },
        "formula": "",
        "ability": {
          "attack": "dex",
          "damage": "",
          "damageMult": 1,
          "critRange": 20,
          "critMult": 2
        },
        "save": {
          "dc": "0",
          "type": "",
          "description": ""
        },
        "effectNotes": [],
        "attackNotes": [],
        "soundEffect": "",
        "powerAttack": {
          "multiplier": "",
          "damageBonus": 2,
          "critMultiplier": 1
        },
        "naturalAttack": {
          "primaryAttack": true,
          "secondary": {
            "attackBonus": "-5",
            "damageMult": 0.5
          }
        },
        "nonlethal": false,
        "usesAmmo": false,
        "spellEffect": "",
        "spellArea": "",
        "conditionals": [],
        "enh": {
          "value": null
        }
      }
    ],
    "uses": {
      "per": "single"
    },
    "attackNotes": [],
    "effectNotes": [],
    "contextNotes": [],
    "links": {
      "children": [
        {
          "_index": 0,
          "dataType": "data",
          "hiddenLinks": {},
          "id": "VOIeK1O7fy1zwq7s",
          "img": "systems/pf1/icons/items/potions/unique-6.jpg",
          "name": "Alchemist's Fire"
        },
        {
          "_index": 1,
          "dataType": "data",
          "hiddenLinks": {},
          "id": "oaE0JqMAImcekCyU",
          "img": "systems/pf1/icons/items/potions/major-green.jpg",
          "name": "Acid"
        }
      ]
    },
    "tag": "acid",
    "scriptCalls": [],
    "weaponGroups": {
      "value": []
    },
    "weaponType": "misc",
    "weaponSubtype": "other"
  },
  "ownership": {
    "default": 0
  },
  "_stats": {
    "systemId": "pf1",
    "systemVersion": "0.82.1",
    "coreVersion": "10.285",
    "createdTime": 1663018753458,
    "modifiedTime": 1663018755705,
    "lastModifiedBy": "DbeAbHwpEqczKjsD"
  }
}
