{
  "_id": "cubhtyskecferwpv",
  "name": "Alchemist's Lab, Portable",
  "type": "loot",
  "img": "systems/pf1/icons/items/inventory/dice.jpg",
  "effects": [],
  "folder": null,
  "sort": 0,
  "flags": {},
  "system": {
    "description": {
      "value": "\r\n<p class=\"source\"><b>Source</b> <a title=\"PZO9410\" href=\"http://www.amazon.com/gp/product/1601252226/ref=as_li_qf_sp_asin_il_tl?ie=UTF8&amp;camp=1789&amp;creative=9325&amp;creativeASIN=1601252226&amp;linkCode=as2&amp;tag=httpwwwd20pfs-20\" target=\"_blank\" rel=\"noopener\">PZO9410</a></p>\r\n<p>This compact version of a full-sized alchemist's lab provides a +1 <a href=\"https://www.d20pfsrd.com/basics-ability-scores/glossary#TOC-Circumstance-Bonus\">circumstance bonus</a> on <a href=\"https://www.d20pfsrd.com/skills/craft\">Craft</a> (alchemy) checks.</p>\r\n"
    },
    "tags": [],
    "weight": {
      "value": 20
    },
    "price": 75,
    "equipped": false,
    "identifiedName": "Alchemist's Lab, Portable",
    "changes": [
      {
        "_id": "y4afj0c7",
        "formula": "1",
        "operator": "add",
        "subTarget": "crf",
        "modifier": "circumstance",
        "priority": null,
        "value": 1,
        "target": "skill"
      }
    ],
    "contextNotes": [],
    "links": {
      "children": []
    },
    "tag": "alchemistsLabPortable",
    "flags": {
      "boolean": [],
      "dictionary": []
    },
    "scriptCalls": [],
    "subType": "gear"
  },
  "ownership": {
    "default": 0
  },
  "_stats": {
    "systemId": "pf1",
    "systemVersion": "0.82.1",
    "coreVersion": "10.285",
    "createdTime": 1663018752964,
    "modifiedTime": 1663018755674,
    "lastModifiedBy": "DbeAbHwpEqczKjsD"
  }
}
