{
  "_id": "glpxtqnicsmuyngy",
  "name": "Alchemical Preserves",
  "type": "loot",
  "img": "systems/pf1/icons/items/inventory/dice.jpg",
  "effects": [],
  "folder": null,
  "sort": 0,
  "flags": {},
  "system": {
    "description": {
      "value": "\r\n<p class=\"source\"><b>Source</b> <a title=\"PZO1121\" href=\"http://www.amazon.com/gp/product/1601253907/ref=as_li_qf_sp_asin_il_tl?ie=UTF8&amp;camp=1789&amp;creative=9325&amp;creativeASIN=1601253907&amp;linkCode=as2&amp;tag=httpwwwd20pfs-20\" target=\"_blank\" rel=\"noopener\">PZO1121</a></p>\r\n<p>Each small tin of this specially treated jam contains just enough of the gooey stuff to provide a <a href=\"https://www.d20pfsrd.com/races/core-races/halfling\">halfling</a> with a single serving of revitalizing nourishment. While any creature can eat these preserves as a <a href=\"https://www.d20pfsrd.com/gamemastering/combat#TOC-Standard-Actions\">standard action</a>, it only affects halflings in a beneficial way. Halflings who eat the preserves recover from <a href=\"https://www.d20pfsrd.com/gamemastering/conditions#TOC-Fatigued\">fatigue</a>. Non-halflings who eat alchemical preserves become <a href=\"https://www.d20pfsrd.com/gamemastering/conditions#TOC-Sickened\">sickened</a> for 1 round.</p>\r\n"
    },
    "tags": [],
    "price": 50,
    "equipped": false,
    "changes": [],
    "contextNotes": [],
    "links": {
      "children": []
    },
    "flags": {
      "boolean": [],
      "dictionary": []
    },
    "scriptCalls": [],
    "subType": "gear"
  },
  "ownership": {
    "default": 0
  },
  "_stats": {
    "systemId": "pf1",
    "systemVersion": "0.82.1",
    "coreVersion": "10.285",
    "createdTime": 1663018753151,
    "modifiedTime": 1663018755682,
    "lastModifiedBy": "DbeAbHwpEqczKjsD"
  }
}
