{
  "_id": "gwralrsxzhkoacgw",
  "name": "Ale, Dwarven Stout",
  "type": "loot",
  "img": "systems/pf1/icons/items/inventory/dice.jpg",
  "effects": [],
  "folder": null,
  "sort": 0,
  "flags": {},
  "system": {
    "description": {
      "value": "<h4><span id=\"Ale_Dwarven_Stout\"><a name=\"TOC-Ale-Dwarven-Stout\"></a>Ale, Dwarven Stout</span></h4>\r\n<p class=\"source\"><b>Source</b> <a title=\"PPZO9410\" href=\"http://www.amazon.com/gp/product/1601252226/ref=as_li_qf_sp_asin_il_tl?ie=UTF8&amp;camp=1789&amp;creative=9325&amp;creativeASIN=1601252226&amp;linkCode=as2&amp;tag=httpwwwd20pfs-20\" target=\"_blank\" rel=\"noopener\">PPZO9410</a></p>\r\n<p>More a family of beers than one single drink, dwarven stout is known by different names around the Inner Sea. Dwarven stouts are dark beers characterized by a slightly burnt flavor and a foamy head; they are said to be as filling as a meal.</p>\r\n<p>The listed prices are for a tavern or restaurant in an average city.</p>\r\n"
    },
    "tags": [],
    "equipped": false,
    "changes": [],
    "contextNotes": [],
    "links": {
      "children": []
    },
    "flags": {
      "boolean": [],
      "dictionary": []
    },
    "scriptCalls": [],
    "subType": "gear"
  },
  "ownership": {
    "default": 0
  },
  "_stats": {
    "systemId": "pf1",
    "systemVersion": "0.82.1",
    "coreVersion": "10.285",
    "createdTime": 1663018753168,
    "modifiedTime": 1663018755684,
    "lastModifiedBy": "DbeAbHwpEqczKjsD"
  }
}
