{
  "_id": "jplmkdpgjrlouwzu",
  "name": "Alkali Flask",
  "type": "loot",
  "img": "systems/pf1/icons/items/inventory/dice.jpg",
  "effects": [],
  "folder": null,
  "sort": 0,
  "flags": {},
  "system": {
    "description": {
      "value": "\r\n<p class=\"source\"><b>Source</b> <a title=\"PZO1115\" href=\"http://www.amazon.com/gp/product/1601252463/ref=as_li_qf_sp_asin_il_tl?ie=UTF8&amp;camp=1789&amp;creative=9325&amp;creativeASIN=1601252463&amp;linkCode=as2&amp;tag=httpwwwd20pfs-20\" target=\"_blank\" rel=\"noopener\">PZO1115</a></p>\r\n<p>This flask of caustic liquid reacts with an <a href=\"https://www.d20pfsrd.com/bestiary/rules-for-monsters/creature-types#TOC-Ooze\">ooze's</a> <a href=\"https://www.d20pfsrd.com/basics-ability-scores/glossary#TOC-Bonus-Natural-Armor-\">natural</a> acids. You can throw an alkali flask as a <a href=\"https://www.d20pfsrd.com/gamemastering/combat#TOC-Throw-Splash-Weapon\">splash weapon</a> with a range increment of 10 feet. Against non-ooze creatures, an alkali flask functions as a normal flask of acid. Against <a href=\"https://www.d20pfsrd.com/bestiary/rules-for-monsters/creature-types#TOC-Ooze\">oozes</a> and other acid-based creatures, the alkali flask inflicts double damage.</p>\r\n<p><b>Create</b>: <a href=\"https://www.d20pfsrd.com/skills/craft\">Craft</a> (alchemy) DC 20</p>\r\n"
    },
    "tags": [],
    "weight": {
      "value": 1
    },
    "price": 15,
    "equipped": false,
    "changes": [],
    "contextNotes": [],
    "links": {
      "children": []
    },
    "flags": {
      "boolean": [],
      "dictionary": []
    },
    "scriptCalls": [],
    "subType": "gear"
  },
  "ownership": {
    "default": 0
  },
  "_stats": {
    "systemId": "pf1",
    "systemVersion": "0.82.1",
    "coreVersion": "10.285",
    "createdTime": 1663018753220,
    "modifiedTime": 1663018755688,
    "lastModifiedBy": "DbeAbHwpEqczKjsD"
  }
}
