{
  "_id": "blknkubnymqolakx",
  "name": "Alkali Salt",
  "type": "loot",
  "img": "systems/pf1/icons/items/inventory/dice.jpg",
  "effects": [],
  "folder": null,
  "sort": 0,
  "flags": {},
  "system": {
    "description": {
      "value": "\r\n<p class=\"source\"><b>Source</b> PZO9210</p>\r\n<p>These tiny granules can be dissolved in water, creating a slimy material used to coat metallic items such as weapons or armor. Such a coating neutralizes the metal-eating acid of <a href=\"https://www.d20pfsrd.com/bestiary/monster-listings/oozes/pudding-black\">black puddings</a> and gray <a href=\"https://www.d20pfsrd.com/bestiary/rules-for-monsters/creature-types#TOC-Ooze\">oozes</a>, protecting the item from 1d3 contacts with an ooze's acidic touch.</p>\r\n<p><b>Create</b>: <a href=\"https://www.d20pfsrd.com/skills/craft\">Craft</a> (alchemy) DC 20</p>\r\n"
    },
    "tags": [],
    "price": 30,
    "equipped": false,
    "changes": [],
    "contextNotes": [],
    "links": {
      "children": []
    },
    "flags": {
      "boolean": [],
      "dictionary": []
    },
    "scriptCalls": [],
    "subType": "gear"
  },
  "ownership": {
    "default": 0
  },
  "_stats": {
    "systemId": "pf1",
    "systemVersion": "0.82.1",
    "coreVersion": "10.285",
    "createdTime": 1663018752941,
    "modifiedTime": 1663018755673,
    "lastModifiedBy": "DbeAbHwpEqczKjsD"
  }
}
