{
  "_id": "lSCPUK5Ea6R0t4fz",
  "name": "Backpack",
  "type": "container",
  "img": "systems/pf1/icons/items/inventory/backpack.jpg",
  "effects": [],
  "folder": null,
  "sort": 0,
  "flags": {},
  "system": {
    "description": {
      "value": "<p>This leather knapsack has one large pocket that closes with a buckled strap and holds about 2 cubic feet of material. Some may have one or more smaller pockets on the sides.</p>"
    },
    "tags": [],
    "weight": {
      "value": 2
    },
    "price": 2,
    "identifiedName": "Backpack",
    "inventoryItems": [],
    "flags": {
      "boolean": [],
      "dictionary": []
    },
    "basePrice": 2
  },
  "ownership": {
    "default": 0
  },
  "_stats": {
    "systemId": "pf1",
    "systemVersion": "0.82.1",
    "coreVersion": "10.285",
    "createdTime": 1663018753255,
    "modifiedTime": 1663018755690,
    "lastModifiedBy": "DbeAbHwpEqczKjsD"
  }
}
