{
  "_id": "sqzkfzxohtxixble",
  "name": "Brimstone/Sulfur",
  "type": "loot",
  "img": "systems/pf1/icons/items/inventory/dice.jpg",
  "effects": [],
  "folder": null,
  "sort": 0,
  "flags": {},
  "system": {
    "description": {
      "value": "\r\n<p class=\"source\"><b>Source</b> <a href=\"http://www.amazon.com/gp/product/1601256051/ref=as_li_qf_sp_asin_il_tl?ie=UTF8&amp;camp=1789&amp;creative=9325&amp;creativeASIN=1601256051&amp;linkCode=as2&amp;tag=httpwwwd20pfs-20\" target=\"_blank\" rel=\"noopener\">PZO9445</a></p>\r\n<p><b>Price</b> 5 sp; <b>Weight</b> -</p>\r\n<p>Brimstone, also called sulfur, has a distinctive odor and caustic properties.</p>\r\n<p class=\"header\">Alchemical Power Component</p>\r\n<p><b>Doses</b> 2 (1 gp); <b>Spells</b> acid descriptor</p>\r\n<p>Spells with the [acid] descriptor deal +1 acid damage.</p>\r\n"
    },
    "tags": [],
    "price": 0.5,
    "equipped": false,
    "changes": [],
    "contextNotes": [],
    "links": {
      "children": []
    },
    "flags": {
      "boolean": [],
      "dictionary": []
    },
    "scriptCalls": [],
    "subType": "gear"
  },
  "ownership": {
    "default": 0
  },
  "_stats": {
    "systemId": "pf1",
    "systemVersion": "0.82.1",
    "coreVersion": "10.285",
    "createdTime": 1663018753525,
    "modifiedTime": 1663018755710,
    "lastModifiedBy": "DbeAbHwpEqczKjsD"
  }
}
