{
  "_id": "nXZp8sXFRVtkM1qK",
  "name": "Candle lamp",
  "type": "loot",
  "img": "systems/pf1/icons/items/inventory/dice.jpg",
  "effects": [],
  "folder": null,
  "sort": 0,
  "flags": {},
  "system": {
    "description": {
      "value": "<p>Source&nbsp;<a href=\"http://paizo.com/products/btpy8tmc?Pathfinder-Roleplaying-Game-Ultimate-Equipment\" target=\"_blank\" rel=\"noopener\">Ultimate Equipment pg. 56</a><br>Price&nbsp;5 gp;&nbsp;Weight&nbsp;1 lb.<br>Category&nbsp;Adventuring Gear</p>\n<h3>Description</h3>\n<p>A candle lamp is a small lanternlike device with glass panels and a slot to hold a candle. It protects the candle from drafts and catches wax drippings. It provides the same light as a candle, but can be shuttered such that it only illuminates 1 to 3 adjacent squares. You can use a candle lamp to keep your hands warm.</p>"
    },
    "tags": [],
    "weight": {
      "value": 1
    },
    "price": 5,
    "equipped": false,
    "identifiedName": "Candle lamp",
    "changes": [],
    "contextNotes": [],
    "links": {
      "children": []
    },
    "flags": {
      "boolean": [],
      "dictionary": []
    },
    "scriptCalls": [],
    "subType": "gear"
  },
  "ownership": {
    "default": 0
  },
  "_stats": {
    "systemId": "pf1",
    "systemVersion": "0.82.1",
    "coreVersion": "10.285",
    "createdTime": 1663018753300,
    "modifiedTime": 1663018755694,
    "lastModifiedBy": "DbeAbHwpEqczKjsD"
  }
}
