{
  "_id": "q8UJF3P0VkZLVyeD",
  "name": "Cards",
  "type": "loot",
  "img": "systems/pf1/icons/items/inventory/dice.jpg",
  "effects": [],
  "folder": null,
  "sort": 0,
  "flags": {},
  "system": {
    "description": {
      "value": "<p><span id=\"ctl00_MainContent_DataListTypes_ctl00_LabelName\">Source&nbsp;<a href=\"http://paizo.com/products/btpy8tmc?Pathfinder-Roleplaying-Game-Ultimate-Equipment\" target=\"_blank\" rel=\"noopener\">Ultimate Equipment pg. 92</a><br>Price&nbsp;1 sp–100 gp;&nbsp;Weight&nbsp;1 lb.<br>Category&nbsp;Entertainment</span></p>\n<h3>Description</h3>\n<p>Playing cards range from block-printed symbols on thick paper to elaborate, hand-painted works of art on waxed vellum, ivory, wood, or even metal.</p>"
    },
    "tags": [],
    "weight": {
      "value": 1
    },
    "price": 0.1,
    "equipped": false,
    "identifiedName": "Cards",
    "changes": [],
    "contextNotes": [],
    "links": {
      "children": []
    },
    "flags": {
      "boolean": [],
      "dictionary": []
    },
    "scriptCalls": [],
    "subType": "gear"
  },
  "ownership": {
    "default": 0
  },
  "_stats": {
    "systemId": "pf1",
    "systemVersion": "0.82.1",
    "coreVersion": "10.285",
    "createdTime": 1663018753356,
    "modifiedTime": 1663018755703,
    "lastModifiedBy": "DbeAbHwpEqczKjsD"
  }
}
