{
  "_id": "yolzowjpkcijjxha",
  "name": "Chest",
  "type": "loot",
  "img": "systems/pf1/icons/items/inventory/dice.jpg",
  "effects": [],
  "folder": null,
  "sort": 0,
  "flags": {},
  "system": {
    "description": {
      "value": " \n<p class=\"source\"><b>Source</b> <a title=\"PZO1115\" href=\"http://www.amazon.com/gp/product/1601252463/ref=as_li_qf_sp_asin_il_tl?ie=UTF8&amp;camp=1789&amp;creative=9325&amp;creativeASIN=1601252463&amp;linkCode=as2&amp;tag=httpwwwd20pfs-20\" target=\"_blank\" rel=\"noopener\">PZO1115</a></p> \n<p>The common wooden chest comes in several sizes, including small (2 cubic feet, 1 hit point, break DC 17), medium (4 cubic feet, 15 hp, break DC 23), large (6 cubic feet, 30 <a href=\"https://www.d20pfsrd.com/gamemastering/combat#TOC-Hit-Points\">hit points</a>, break DC 29), and huge (8 cubic feet, 50 <a href=\"https://www.d20pfsrd.com/gamemastering/combat#TOC-Hit-Points\">hit points</a>, break DC 35). Most include a simple inset lock.</p> \n<ul> \n <li><b>Small</b>: <i>Empty Weight</i>: 25 lb.; <i>Capacity</i>: 2 cubic ft./200 lb.</li> \n <li><b>Medium</b>: <i>Empty Weight</i>: 50 lb.; <i>Capacity</i>: 4 cubic ft./? lb.</li> \n <li><b>Large</b>: <i>Empty Weight</i>: 75 lb.; <i>Capacity</i>: 6 cubic ft./? lb.</li> \n <li><b>Huge</b>: <i>Empty Weight</i>: 100 lb.; <i>Capacity</i>: 8 cubic ft./? lb.</li> \n</ul> \n<div style=\"margin-left: 20px\"> \n <p style=\"font-weight: bold\">Treasure Chest</p> \n <p class=\"source\"><b>Source</b> <a title=\"PPC:PotIS\" href=\"http://www.amazon.com/gp/product/1601254059/ref=as_li_qf_sp_asin_il_tl?ie=UTF8&amp;camp=1789&amp;creative=9325&amp;creativeASIN=1601254059&amp;linkCode=as2&amp;tag=httpwwwd20pfs-20\" target=\"_blank\" rel=\"noopener\">PPC:PotIS</a></p> \n <p>A treasure chest begins as a common wooden chest, and is then treated with resin to make the wood water-resistant. Metal bands, usually bronze to prevent rusting, are strapped around the treasure chest for extra reinforcement, and the lock is also made of bronze. A treasure chest uses the same statistics as an ordinary wooden chest of its same size, but its <a href=\"https://www.d20pfsrd.com/gamemastering/combat#TOC-Hit-Points\">hit points</a> increase by 25% and its break DC increases by 2. Treasure chests stand up better to water travel and to being buried compared to ordinary chests.</p> \n</div> \n"
    },
    "tags": [],
    "weight": {
      "value": 25
    },
    "price": 2,
    "equipped": false,
    "changes": [],
    "contextNotes": [],
    "links": {
      "children": []
    },
    "flags": {
      "boolean": [],
      "dictionary": []
    },
    "scriptCalls": [],
    "subType": "gear"
  },
  "ownership": {
    "default": 0
  },
  "_stats": {
    "systemId": "pf1",
    "systemVersion": "0.82.1",
    "coreVersion": "10.285",
    "createdTime": 1663018753665,
    "modifiedTime": 1663018755719,
    "lastModifiedBy": "DbeAbHwpEqczKjsD"
  }
}
