{
  "_id": "lpayawzoidoyszqg",
  "name": "Cloak, Patchwork",
  "type": "loot",
  "img": "systems/pf1/icons/items/inventory/dice.jpg",
  "effects": [],
  "folder": null,
  "sort": 0,
  "flags": {},
  "system": {
    "description": {
      "value": " \n<p><b>Price</b> 5 gp; <b>Weight</b> 1/2 lb.</p> \n<p>These cloaks are popular among traveling <a href=\"https://www.d20pfsrd.com/classes/core-classes/bard\">bards</a>, and each patchwork cloak is unique. The patches represent where the traveler has been, and often the performer uses them to recall specific stories from his repertoire. When a <a href=\"https://www.d20pfsrd.com/classes/core-classes/bard\">bard</a> retires or dies, he often bequeaths his cloak to a young entertainer he mentored or admired.</p> \n"
    },
    "tags": [],
    "weight": {
      "value": 0.5
    },
    "price": 5,
    "equipped": false,
    "changes": [],
    "contextNotes": [],
    "links": {
      "children": []
    },
    "flags": {
      "boolean": [],
      "dictionary": []
    },
    "scriptCalls": [],
    "subType": "gear"
  },
  "ownership": {
    "default": 0
  },
  "_stats": {
    "systemId": "pf1",
    "systemVersion": "0.82.1",
    "coreVersion": "10.285",
    "createdTime": 1663018753270,
    "modifiedTime": 1663018755691,
    "lastModifiedBy": "DbeAbHwpEqczKjsD"
  }
}
