{
  "_id": "psbbhnycxkdaqmms",
  "name": "Coffee",
  "type": "loot",
  "img": "systems/pf1/icons/items/inventory/dice.jpg",
  "effects": [],
  "folder": null,
  "sort": 0,
  "flags": {},
  "system": {
    "description": {
      "value": "<h4><span id=\"Coffee\"><a name=\"TOC-Coffee\"></a>Coffee</span></h4>\r\n<p class=\"source\"><b>Source</b> <a title=\"PPZO9410\" href=\"http://www.amazon.com/gp/product/1601252226/ref=as_li_qf_sp_asin_il_tl?ie=UTF8&amp;camp=1789&amp;creative=9325&amp;creativeASIN=1601252226&amp;linkCode=as2&amp;tag=httpwwwd20pfs-20\" target=\"_blank\" rel=\"noopener\">PPZO9410</a></p>\r\n<p>This drink is brewed by pouring boiling water through crushed, roasted coffee beans. A very strong form is potent enough to reduce the penalties from the <a href=\"https://www.d20pfsrd.com/gamemastering/conditions#TOC-Fatigued\">fatigued</a> condition from -2 to -1 for 1 hour.</p>\r\n<p>Note that to gain any special benefits, a drinker typically must consume two cups.</p>\r\n<p>The listed prices are for a tavern or restaurant in an average city.</p>\r\n<h5>Special Blends and Varieties</h5>\r\n<p>The listed prices are for a tavern or restaurant in an average city.</p>\r\n<p><a name=\"TOC-Coffee-Desert\"></a>Coffee, Desert</p>\r\n<p class=\"source\"><b>Source</b> <a title=\"PPZO9410\" href=\"http://www.amazon.com/gp/product/1601252226/ref=as_li_qf_sp_asin_il_tl?ie=UTF8&amp;camp=1789&amp;creative=9325&amp;creativeASIN=1601252226&amp;linkCode=as2&amp;tag=httpwwwd20pfs-20\" target=\"_blank\" rel=\"noopener\">PPZO9410</a></p>\r\n<p>Desert coffee is served with generous helpings of milk, sugar, and spices to counteract its natural bitterness. This beverage is drunk throughout the day, both at home and at coffeehouses. The grounds left in the bottom of a cup are sometimes used for fortune-telling.</p>\r\n<p><a name=\"TOC-Coffee-Dragon-s-Blend\"></a>Coffee, Dragon's Blend</p>\r\n<p class=\"source\"><b>Source</b> <a href=\"https://amzn.to/2pCBzMR\" target=\"_blank\" rel=\"noopener\">PPC:MM</a></p>\r\n<p><b>Price</b> 1 gp; <b>Weight</b> -</p>\r\n<p>This aromatic blend fills the belly with the sensation of fire, warming the drinker's body. By drinking two cups of dragon's blend coffee, you gain cold <a href=\"https://www.d20pfsrd.com/gamemastering/special-abilities#TOC-Energy-Resistance\">resistance</a> 5 for 1 hour. Once the coffee has prevented 5 points of cold damage, the effect ends. You can benefit from dragon's blend coffee only once per day.</p>\r\n<p><a name=\"TOC-Coffee-Exotic\"></a>Coffee, Exotic</p>\r\n<p class=\"source\"><b>Source</b> <a title=\"PPZO9410\" href=\"http://www.amazon.com/gp/product/1601252226/ref=as_li_qf_sp_asin_il_tl?ie=UTF8&amp;camp=1789&amp;creative=9325&amp;creativeASIN=1601252226&amp;linkCode=as2&amp;tag=httpwwwd20pfs-20\" target=\"_blank\" rel=\"noopener\">PPZO9410</a></p>\r\n<p>This coffee brewed has a wine-like acid taste that is too strong for a novice palate.</p>\r\n<p><a name=\"TOC-Coffee-Hybrid\"></a>Coffee, Hybrid</p>\r\n<p class=\"source\"><b>Source</b> <a href=\"https://amzn.to/2pCBzMR\" target=\"_blank\" rel=\"noopener\">PPC:MM</a></p>\r\n<p><b>Price</b> 1 gp; <b>Weight</b> -</p>\r\n<p>This bitter coffee cultivar increases the drinker's alertness to nearby threats. For 1 hour after drinking two cups of hybrid coffee, you gain a +2 <a href=\"https://www.d20pfsrd.com/basics-ability-scores/glossary#TOC-Competence-Bonus\">competence bonus</a> on <a href=\"https://www.d20pfsrd.com/skills/perception\">Perception</a> checks to notice a creature that is using <a href=\"https://www.d20pfsrd.com/skills/stealth\">Stealth</a>. You can benefit from hybrid coffee only once per day.</p>\r\n<p><a name=\"TOC-Coffee-Marching\"></a>Coffee, Marching</p>\r\n<p class=\"source\"><b>Source</b> <a href=\"https://amzn.to/2pCBzMR\" target=\"_blank\" rel=\"noopener\">PPC:MM</a></p>\r\n<p><b>Price</b> 1 gp; <b>Weight</b> -</p>\r\n<p>This blend is notable for its acidity and smooth flavor. By drinking two cups of this coffee, you can walk for an additional hour before you must make a forced march. This additional hour counts as an hour of marching beyond the maximum for the purpose of determining the DC of <a href=\"https://www.d20pfsrd.com/basics-ability-scores/ability-scores#TOC-Constitution-Con-\">Constitution</a> checks for a subsequent forced march. You can benefit from this coffee only once per day.</p>\r\n"
    },
    "tags": [],
    "price": 1,
    "equipped": false,
    "changes": [],
    "contextNotes": [],
    "links": {
      "children": []
    },
    "flags": {
      "boolean": [],
      "dictionary": []
    },
    "scriptCalls": [],
    "subType": "gear"
  },
  "ownership": {
    "default": 0
  },
  "_stats": {
    "systemId": "pf1",
    "systemVersion": "0.82.1",
    "coreVersion": "10.285",
    "createdTime": 1663018753349,
    "modifiedTime": 1663018755702,
    "lastModifiedBy": "DbeAbHwpEqczKjsD"
  }
}
