{
  "_id": "eztmvxecbahvbash",
  "name": "Dancer's Garb",
  "type": "loot",
  "img": "systems/pf1/icons/items/inventory/dice.jpg",
  "effects": [],
  "folder": null,
  "sort": 0,
  "flags": {},
  "system": {
    "description": {
      "value": " \n<p class=\"source\"><b>Source</b> <a href=\"http://amzn.to/2eT3m9D\" target=\"_blank\" rel=\"noopener\">PPZO94102</a></p> \n<p><b>Price</b> 100 gp; <b>Weight</b> 5 lbs.</p> \n<p>This combination of loose-fitting sashes, veils, and ornamentation accentuates a dancer's form and movements.</p> \n<p>Dancer's garb provides a +2 <a href=\"https://www.d20pfsrd.com/basics-ability-scores/glossary#TOC-Circumstance-Bonus\">circumstance bonus</a> on <a href=\"https://www.d20pfsrd.com/skills/perform\">Perform</a> (dance) checks, similar to that provided by masterwork instruments for other <a href=\"https://www.d20pfsrd.com/skills/perform\">Perform</a> skills, but does not grant this benefit when worn with armor or other concealing clothing.</p> \n"
    },
    "tags": [],
    "weight": {
      "value": 5
    },
    "price": 100,
    "equipped": false,
    "changes": [],
    "contextNotes": [],
    "links": {
      "children": []
    },
    "flags": {
      "boolean": [],
      "dictionary": []
    },
    "scriptCalls": [],
    "subType": "gear"
  },
  "ownership": {
    "default": 0
  },
  "_stats": {
    "systemId": "pf1",
    "systemVersion": "0.82.1",
    "coreVersion": "10.285",
    "createdTime": 1663018753031,
    "modifiedTime": 1663018755679,
    "lastModifiedBy": "DbeAbHwpEqczKjsD"
  }
}
