{
  "_id": "ekzrmmeyjscnshzh",
  "name": "Fairy Cap",
  "type": "loot",
  "img": "systems/pf1/icons/items/inventory/dice.jpg",
  "effects": [],
  "folder": null,
  "sort": 0,
  "flags": {},
  "system": {
    "description": {
      "value": "\r\n<p class=\"source\"><b>Source</b> <a href=\"http://amzn.to/2z71S07\" target=\"_blank\" rel=\"noopener\">PZO1140</a></p>\r\n<p><b>Price</b> 250 gp</p>\r\n<p>This toadstool's pale-gray cap is stippled with yellow spots. Its presence often indicates ley lines or <a href=\"https://www.d20pfsrd.com/bestiary/rules-for-monsters/creature-types#TOC-Fey\">fey</a> bowers nearby.</p>\r\n<p><b>Gather</b> DC 20; <b>Yield</b> 1 dose</p>\r\n<p><b>Terrain</b> any near ley lines</p>\r\n<p><b>Preparation</b> A fairy cap must be gently simmered (not boiled) in a mixture of water and other natural ingredients for 1 hour; this requires a successful DC 20 <a href=\"https://www.d20pfsrd.com/skills/craft\">Craft</a> (alchemy) check. At the end of this preparation time, the yellow spots' color changes to bright orange or dark brown-there's a 50% chance of either development.</p>\r\n<p><b>Use</b> When eaten without proper preparation, a fairy cap is mildly poisonous (save <a href=\"https://www.d20pfsrd.com/gamemastering/combat#TOC-Fortitude\">Fort</a> DC 13, onset 1 minute, frequency 1/minute for 6 minutes, effect <a href=\"https://www.d20pfsrd.com/gamemastering/conditions#TOC-Nauseated\">nauseated</a> for 1 minute, cure 1 save), but when properly prepared, it takes on a not-unpleasant tangy flavor. The final color of a properly prepared fairy cap's spots determines its effect when consumed. A cap with orange spots causes a Large or smaller creature to grow one size category, while one with brown spots causes the eater to shrink one size category. These effects function as per <a class=\"spell\" href=\"https://www.d20pfsrd.com/magic/all-spells/e/enlarge-person\">enlarge person</a> or <a class=\"spell\" href=\"https://www.d20pfsrd.com/magic/all-spells/r/reduce-person\">reduce person</a>, except they can affect any Large or smaller living creature; the effects persist for 10 minutes in either case. Whether or not it is prepared, a fairy cap is quite chewy, and eating it is a <a href=\"https://www.d20pfsrd.com/gamemastering/combat#TOC-Full-Round-Actions\">full-round action</a>.</p>\r\n"
    },
    "tags": [],
    "price": 250,
    "equipped": false,
    "changes": [],
    "contextNotes": [],
    "links": {
      "children": []
    },
    "flags": {
      "boolean": [],
      "dictionary": []
    },
    "scriptCalls": [],
    "subType": "gear"
  },
  "ownership": {
    "default": 0
  },
  "_stats": {
    "systemId": "pf1",
    "systemVersion": "0.82.1",
    "coreVersion": "10.285",
    "createdTime": 1663018753015,
    "modifiedTime": 1663018755678,
    "lastModifiedBy": "DbeAbHwpEqczKjsD"
  }
}
