{
  "_id": "hwrgbauvnnirgqdy",
  "name": "Feed, Animal",
  "type": "loot",
  "img": "systems/pf1/icons/items/inventory/dice.jpg",
  "effects": [],
  "folder": null,
  "sort": 0,
  "flags": {},
  "system": {
    "description": {
      "value": "\r\n<p><b>Price</b> 5 cp/day; <b>Weight</b> 10 lbs.</p>\r\n<p><a href=\"https://www.d20pfsrd.com/bestiary/monster-listings/animals/horse\">Horses</a>, donkeys, mules, and <a href=\"https://www.d20pfsrd.com/bestiary/monster-listings/animals/horse/pony\">ponies</a> can graze to sustain themselves, but providing feed for them is better. If you have a <a href=\"https://www.d20pfsrd.com/bestiary/monster-listings/animals/dog/riding-dog\">riding dog</a>, you have to feed it meat.</p>\r\n\r\n"
    },
    "tags": [],
    "weight": {
      "value": 10
    },
    "price": 0.05,
    "equipped": false,
    "changes": [],
    "contextNotes": [],
    "links": {
      "children": []
    },
    "flags": {
      "boolean": [],
      "dictionary": []
    },
    "scriptCalls": [],
    "subType": "gear"
  },
  "ownership": {
    "default": 0
  },
  "_stats": {
    "systemId": "pf1",
    "systemVersion": "0.82.1",
    "coreVersion": "10.285",
    "createdTime": 1663018753196,
    "modifiedTime": 1663018755685,
    "lastModifiedBy": "DbeAbHwpEqczKjsD"
  }
}
