{
  "_id": "zurjburtycqobdwc",
  "name": "Feed, Carnivore",
  "type": "loot",
  "img": "systems/pf1/icons/items/inventory/dice.jpg",
  "effects": [],
  "folder": null,
  "sort": 0,
  "flags": {},
  "system": {
    "description": {
      "value": "\r\n<p class=\"source\"><b>Source</b> <a href=\"http://www.amazon.com/gp/product/1601254881/ref=as_li_qf_sp_asin_il_tl?ie=UTF8&amp;camp=1789&amp;creative=9325&amp;creativeASIN=1601254881&amp;linkCode=as2&amp;tag=httpwwwd20pfs-20\" target=\"_blank\" rel=\"noopener\">PPZO9410</a></p>\r\n<p><b>Price</b> 5 cp/day; <b>Weight</b> 5 lbs.</p>\r\n<p>Consisting of various kinds of raw meat that have been jerked, smoked, or salted for preservation, a day's worth of carnivore feed is adequate food for any Small or Medium meat-eating <a href=\"https://www.d20pfsrd.com/bestiary/rules-for-monsters/creature-types#TOC-Animal\">animal</a> such as a <a href=\"https://www.d20pfsrd.com/bestiary/monster-listings/animals/cat-great/tiger\">tiger</a>, <a href=\"https://www.d20pfsrd.com/bestiary/monster-listings/animals/bear\">bear</a>, or <a href=\"https://www.d20pfsrd.com/bestiary/monster-listings/animals/dog/dog\">dog</a>. Larger carnivores might require up to 2 to 4 days' worth of carnivore feed per day.</p>\r\n\r\n"
    },
    "tags": [],
    "weight": {
      "value": 5
    },
    "price": 0.05,
    "equipped": false,
    "changes": [],
    "contextNotes": [],
    "links": {
      "children": []
    },
    "flags": {
      "boolean": [],
      "dictionary": []
    },
    "scriptCalls": [],
    "subType": "gear"
  },
  "ownership": {
    "default": 0
  },
  "_stats": {
    "systemId": "pf1",
    "systemVersion": "0.82.1",
    "coreVersion": "10.285",
    "createdTime": 1663018753686,
    "modifiedTime": 1663018755721,
    "lastModifiedBy": "DbeAbHwpEqczKjsD"
  }
}
