{
  "_id": "nfrtucqtaepxmmdi",
  "name": "Flask",
  "type": "loot",
  "img": "systems/pf1/icons/items/inventory/dice.jpg",
  "effects": [],
  "folder": null,
  "sort": 0,
  "flags": {},
  "system": {
    "description": {
      "value": " \n<p class=\"source\"><b>Source</b> <a title=\"PZO1110\" href=\"http://www.amazon.com/gp/product/1601251505/ref=as_li_qf_sp_asin_il_tl?ie=UTF8&amp;camp=1789&amp;creative=9325&amp;creativeASIN=1601251505&amp;linkCode=as2&amp;tag=httpwwwd20pfs-20\" target=\"_blank\" rel=\"noopener\">PZO1110</a></p> \n<p>A flask holds 1 pint of liquid and weighs 1 lb. when full.</p> \n<p><b>Empty Weight</b>: &#8211; (1 lb. full); <b>Capacity</b>: 1 pint/1 lb.</p> \n"
    },
    "tags": [],
    "weight": {
      "value": 1
    },
    "price": 0.03,
    "equipped": false,
    "changes": [],
    "contextNotes": [],
    "links": {
      "children": []
    },
    "flags": {
      "boolean": [],
      "dictionary": []
    },
    "scriptCalls": [],
    "subType": "gear"
  },
  "ownership": {
    "default": 0
  },
  "_stats": {
    "systemId": "pf1",
    "systemVersion": "0.82.1",
    "coreVersion": "10.285",
    "createdTime": 1663018753302,
    "modifiedTime": 1663018755695,
    "lastModifiedBy": "DbeAbHwpEqczKjsD"
  }
}
