{
  "_id": "WWej7rMLpLLCHtJv",
  "name": "Headband of Vast Intelligence +6",
  "type": "equipment",
  "img": "systems/pf1/icons/items/equipment/belt-gems.jpg",
  "effects": [],
  "folder": null,
  "sort": 0,
  "flags": {},
  "system": {
    "description": {
      "value": "<p>This intricate gold headband is decorated with several small blue and deep purple gemstones.</p>\n<p>The headband grants the wearer an&nbsp;<a href=\"https://www.d20pfsrd.com/basics-ability-scores/glossary#TOC-Enhancement-Bonus\">enhancement bonus</a>&nbsp;to&nbsp;<a href=\"https://www.d20pfsrd.com/basics-ability-scores/ability-scores#TOC-Intelligence-Int-\">Intelligence</a>&nbsp;of +2, +4, or +6. Treat this as a temporary ability bonus for the first 24 hours the headband is worn. A&nbsp;headband of vast intelligence&nbsp;has one skill associated with it per +2 bonus it grants. After being worn for 24 hours, the headband grants a number of skill ranks in those skills equal to the wearer’s total&nbsp;<a href=\"https://www.d20pfsrd.com/basics-ability-scores/glossary#TOC-Hit-Dice-HD-\">Hit Dice</a>. These ranks do not stack with the ranks a creature already possesses. These skills are chosen when the headband is created. If no skill is listed, the headband is assumed to grant skill ranks in randomly determined&nbsp;<a href=\"https://www.d20pfsrd.com/skills/knowledge\">Knowledge</a>&nbsp;skills.</p>",
      "unidentified": "<p>This intricate gold headband is decorated with several small blue and deep purple gemstones.</p>"
    },
    "tags": [],
    "weight": {
      "value": 1
    },
    "price": 36000,
    "resizing": true,
    "unidentified": {
      "name": "Headband"
    },
    "identifiedName": "Headband of Vast Intelligence +6",
    "cl": 8,
    "aura": {
      "school": "trs"
    },
    "changes": [
      {
        "_id": "dzmxiaiz",
        "formula": "6",
        "operator": "add",
        "subTarget": "int",
        "modifier": "enh",
        "priority": 0,
        "value": 0,
        "target": "ability"
      }
    ],
    "contextNotes": [],
    "actions": [],
    "attackNotes": [],
    "effectNotes": [],
    "links": {
      "children": [],
      "charges": []
    },
    "flags": {
      "boolean": [],
      "dictionary": []
    },
    "scriptCalls": [],
    "equipmentType": "misc",
    "equipmentSubtype": "wondrous",
    "slot": "headband"
  },
  "ownership": {
    "default": 0
  },
  "_stats": {
    "systemId": "pf1",
    "systemVersion": "0.82.1",
    "coreVersion": "10.285",
    "createdTime": 1663018752892,
    "modifiedTime": 1663018755665,
    "lastModifiedBy": "DbeAbHwpEqczKjsD"
  }
}
