{
  "_id": "0il69Bzuhtm0jdrn",
  "name": "Holy symbol (Flask)",
  "type": "loot",
  "img": "systems/pf1/icons/items/inventory/dice.jpg",
  "effects": [],
  "folder": null,
  "sort": 0,
  "flags": {},
  "system": {
    "description": {
      "value": "<p>Source&nbsp;<a href=\"http://paizo.com/products/btpy8tmc?Pathfinder-Roleplaying-Game-Ultimate-Equipment\" target=\"_blank\" rel=\"noopener\">Ultimate Equipment pg. 57</a><br>Price&nbsp;+10 gp;&nbsp;Weight&nbsp;—<br>Category&nbsp;Adventuring Gear</p>\n<h3>Description</h3>\n<p>This version of a standard holy symbol is oversized and has a watertight compartment that can hold 1 pint (the same volume as a flask of holy water). Adventurers normally use the compartment to hold holy water or alcohol. A holy symbol flask is not meant for you to throw at enemies and is not fragile like a flask or vial. Like using holy water on incorporeal opponent, you unstopper the flask and pour the contents onto an adjacent target. Detecting the compartment requires a successful DC 10 Perception check.</p>"
    },
    "tags": [],
    "price": 10,
    "equipped": false,
    "identifiedName": "Holy symbol (Flask)",
    "changes": [],
    "contextNotes": [],
    "links": {
      "children": []
    },
    "flags": {
      "boolean": [],
      "dictionary": []
    },
    "scriptCalls": [],
    "subType": "gear"
  },
  "ownership": {
    "default": 0
  },
  "_stats": {
    "systemId": "pf1",
    "systemVersion": "0.82.1",
    "coreVersion": "10.285",
    "createdTime": 1663018752736,
    "modifiedTime": 1663018755648,
    "lastModifiedBy": "DbeAbHwpEqczKjsD"
  }
}
