{
  "_id": "fdfdwpuaqjjudyeo",
  "name": "Holy Text",
  "type": "loot",
  "img": "systems/pf1/icons/items/inventory/dice.jpg",
  "effects": [],
  "folder": null,
  "sort": 0,
  "flags": {},
  "system": {
    "description": {
      "value": "\r\n<p><b>Holy Text</b> This is the religious text of a particular religion, with a title, text, and detailed rites specific to that faith. The cheap variety is a small, light book with no illustrations, printed or written on thin paper, and with a cover made of <a href=\"https://www.d20pfsrd.com/equipment/goods-and-services/hunting-camping-survival-geaR/#TOC-Canvas-sq.-yd.-\">canvas</a> or thin leather. A typical <a href=\"https://www.d20pfsrd.com/equipment/goods-and-services/hunting-camping-survival-geaR/#TOC-Holy-Text\">holy text</a> for an experienced adventuring priest is durable, with a leather cover, chapter illustrations, quality paper; it costs 25 gp and weighs 2 pounds. The most expensive versions have detailed illustrations, gilded initials and border decorations, covers made of fine leather, wood, or even metal, and are often oversized and difficult to carry around. <b>Price</b> 1-100 gp; <b>Weight</b> 1-20 lbs.</p>\r\n"
    },
    "tags": [],
    "weight": {
      "value": 1
    },
    "price": 1,
    "equipped": false,
    "changes": [],
    "contextNotes": [],
    "links": {
      "children": []
    },
    "flags": {
      "boolean": [],
      "dictionary": []
    },
    "scriptCalls": [],
    "subType": "gear"
  },
  "ownership": {
    "default": 0
  },
  "_stats": {
    "systemId": "pf1",
    "systemVersion": "0.82.1",
    "coreVersion": "10.285",
    "createdTime": 1663018753037,
    "modifiedTime": 1663018755680,
    "lastModifiedBy": "DbeAbHwpEqczKjsD"
  }
}
