{
  "_id": "txkgvmomhompjpbr",
  "name": "Ink, Glowing",
  "type": "loot",
  "img": "systems/pf1/icons/items/inventory/dice.jpg",
  "effects": [],
  "folder": null,
  "sort": 0,
  "flags": {},
  "system": {
    "description": {
      "value": "\r\n<p><b>Price</b> 5 gp; <b>Weight</b> -</p>\r\n<p>Often extracted from phosphorescent insects, tiny marine plants, or subterranean fungi, glowing ink emits a faint but steady light (typically red or green) that allows you to read it in normal darkness-this includes darkness created by spells like darkness, but not the supernatural darkness created by deeper darkness. If there is glowing ink on an object, you have a +2 bonus on Perception checks to locate it. Mixing glowing ink with marker dye makes the dye glow in the dark until it fades.</p>\r\n"
    },
    "tags": [],
    "price": 5,
    "equipped": false,
    "identifiedName": "Ink, Glowing",
    "changes": [],
    "contextNotes": [],
    "links": {
      "children": []
    },
    "flags": {
      "boolean": [],
      "dictionary": []
    },
    "scriptCalls": [],
    "subType": "gear"
  },
  "ownership": {
    "default": 0
  },
  "_stats": {
    "systemId": "pf1",
    "systemVersion": "0.82.1",
    "coreVersion": "10.285",
    "createdTime": 1663018753552,
    "modifiedTime": 1663018755712,
    "lastModifiedBy": "DbeAbHwpEqczKjsD"
  }
}
