{
  "_id": "hdK27WBFJFUNODbx",
  "name": "Journal, blank",
  "type": "loot",
  "img": "systems/pf1/icons/items/inventory/book.jpg",
  "effects": [],
  "folder": null,
  "sort": 0,
  "flags": {},
  "system": {
    "description": {
      "value": "<p><span id=\"ctl00_MainContent_DataListTypes_ctl00_LabelName\"><strong>Source</strong>&nbsp;<a href=\"http://paizo.com/products/btpy8tmc?Pathfinder-Roleplaying-Game-Ultimate-Equipment\" target=\"_blank\" rel=\"noopener\">Ultimate Equipment pg. 57</a>,&nbsp;<a href=\"http://paizo.com/store/games/roleplayingGames/p/pathfinderRPG/paizo/pathfinderChronicles/v5748btpy8mfq\" target=\"_blank\" rel=\"noopener\">Pathfinder Society Field Guide pg. 47</a><br /></span></p>\n<h2>Description</h2>\n<p>This is a blank, lightweight book with an oilskin cover. It has 50 paper pages.</p>"
    },
    "tags": [],
    "weight": {
      "value": 1
    },
    "price": 10,
    "equipped": false,
    "identifiedName": "Journal, blank",
    "changes": [],
    "contextNotes": [],
    "links": {
      "children": []
    },
    "flags": {
      "boolean": [],
      "dictionary": []
    },
    "scriptCalls": [],
    "subType": "gear"
  },
  "ownership": {
    "default": 0
  },
  "_stats": {
    "systemId": "pf1",
    "systemVersion": "0.82.1",
    "coreVersion": "10.285",
    "createdTime": 1663018753180,
    "modifiedTime": 1663018755684,
    "lastModifiedBy": "DbeAbHwpEqczKjsD"
  }
}
