{
  "_id": "fwvexplwohpqmkdq",
  "name": "Kilt",
  "type": "loot",
  "img": "systems/pf1/icons/items/inventory/dice.jpg",
  "effects": [],
  "folder": null,
  "sort": 0,
  "flags": {},
  "system": {
    "description": {
      "value": " \n<p><b>Price</b> 2 sp; <b>Weight</b> 1 lb.</p> \n<p>This heavy pleated skirt is usually worn by men. Most have a specific design or pattern that represents allegiance to a particular clan or other social group.</p> \n"
    },
    "tags": [],
    "weight": {
      "value": 1
    },
    "price": 0.2,
    "equipped": false,
    "changes": [],
    "contextNotes": [],
    "links": {
      "children": []
    },
    "flags": {
      "boolean": [],
      "dictionary": []
    },
    "scriptCalls": [],
    "subType": "gear"
  },
  "ownership": {
    "default": 0
  },
  "_stats": {
    "systemId": "pf1",
    "systemVersion": "0.82.1",
    "coreVersion": "10.285",
    "createdTime": 1663018753045,
    "modifiedTime": 1663018755680,
    "lastModifiedBy": "DbeAbHwpEqczKjsD"
  }
}
