{
  "_id": "hbymhteghwtcsyoy",
  "name": "Kit, Climber's",
  "type": "loot",
  "img": "systems/pf1/icons/items/inventory/dice.jpg",
  "effects": [],
  "folder": null,
  "sort": 0,
  "flags": {},
  "system": {
    "description": {
      "value": "\r\n<p><b>Price</b> 80 gp; <b>Weight</b> 5 lbs.</p>\r\n<p>These crampons, pitons, ropes, and other tools give you a +2 <a href=\"https://www.d20pfsrd.com/basics-ability-scores/glossary#TOC-Circumstance-Bonus\">circumstance bonus</a> on <a href=\"https://www.d20pfsrd.com/skills/climb\">Climb</a> checks.</p>\r\n\r\n"
    },
    "tags": [],
    "weight": {
      "value": 5
    },
    "price": 80,
    "equipped": false,
    "identifiedName": "Kit, Climber's",
    "changes": [
      {
        "_id": "ppbnq9b3",
        "formula": "2",
        "operator": "add",
        "subTarget": "skill.clm",
        "modifier": "circumstance",
        "priority": 0,
        "value": 2
      }
    ],
    "contextNotes": [],
    "links": {
      "children": []
    },
    "flags": {
      "boolean": [],
      "dictionary": []
    },
    "scriptCalls": [],
    "subType": "gear"
  },
  "ownership": {
    "default": 0
  },
  "_stats": {
    "systemId": "pf1",
    "systemVersion": "0.82.1",
    "coreVersion": "10.285",
    "createdTime": 1663018753173,
    "modifiedTime": 1663018755684,
    "lastModifiedBy": "DbeAbHwpEqczKjsD"
  }
}
