{
  "_id": "snttvanvzvfrtbjj",
  "name": "Kit, Signal Kite",
  "type": "loot",
  "img": "systems/pf1/icons/items/inventory/dice.jpg",
  "effects": [],
  "folder": null,
  "sort": 0,
  "flags": {},
  "system": {
    "description": {
      "value": "\r\n<p class=\"source\"><b>Source</b>: <a title=\"PZO1121\" href=\"http://www.amazon.com/gp/product/1601253907/ref=as_li_qf_sp_asin_il_tl?ie=UTF8&amp;camp=1789&amp;creative=9325&amp;creativeASIN=1601253907&amp;linkCode=as2&amp;tag=httpwwwd20pfs-20\" target=\"_blank\" rel=\"noopener\">PZO1121</a></p>\r\n<p>Though wingless, tengus have long cast their thoughts toward the sky and flight. Built from paper glued to bamboo frames, their kites are painted with various colors and pictures. In addition to flying kites as a leisure activity, tengus also fly kites of various shades and patterns to send signal messages. Tengus have developed an extensive code of signals and can use their kites to display complex messages visible at great distances. A signal kite kit includes six small colored kites that can be hooked together in different patterns to facilitate complex messages. The kit also includes a spool and 300 feet of twine. Sending or interpreting a signal kite's message functions as described in the <a href=\"https://www.d20pfsrd.com/skills/bluff\">Bluff</a> skill, but the sender and anyone trying to understand the message must also know Tengu.</p>\r\n\r\n"
    },
    "tags": [],
    "equipped": false,
    "changes": [],
    "contextNotes": [],
    "links": {
      "children": []
    },
    "flags": {
      "boolean": [],
      "dictionary": []
    },
    "scriptCalls": [],
    "subType": "gear"
  },
  "ownership": {
    "default": 0
  },
  "_stats": {
    "systemId": "pf1",
    "systemVersion": "0.82.1",
    "coreVersion": "10.285",
    "createdTime": 1663018753521,
    "modifiedTime": 1663018755709,
    "lastModifiedBy": "DbeAbHwpEqczKjsD"
  }
}
