{
  "_id": "tpvlfvviwfiessso",
  "name": "Kit, Troll Slayer's",
  "type": "loot",
  "img": "systems/pf1/icons/items/inventory/dice.jpg",
  "effects": [],
  "folder": null,
  "sort": 0,
  "flags": {},
  "system": {
    "description": {
      "value": "\r\n<p><b>Price</b> 30 gp; <b>Weight</b> 17 lbs.</p>\r\n<p>This kit includes 1 vial of alchemist's fire, 1 flask of acid, 10 torches, one tindertwig, and 5 flasks of oil.</p>\r\n\r\n"
    },
    "tags": [],
    "weight": {
      "value": 17
    },
    "price": 30,
    "equipped": false,
    "changes": [],
    "contextNotes": [],
    "links": {
      "children": []
    },
    "flags": {
      "boolean": [],
      "dictionary": []
    },
    "scriptCalls": [],
    "subType": "gear"
  },
  "ownership": {
    "default": 0
  },
  "_stats": {
    "systemId": "pf1",
    "systemVersion": "0.82.1",
    "coreVersion": "10.285",
    "createdTime": 1663018753545,
    "modifiedTime": 1663018755711,
    "lastModifiedBy": "DbeAbHwpEqczKjsD"
  }
}
