{
  "_id": "xnpgylpylnxlmhlr",
  "name": "Manacle Barbs",
  "type": "loot",
  "img": "systems/pf1/icons/items/inventory/dice.jpg",
  "effects": [],
  "folder": null,
  "sort": 0,
  "flags": {},
  "system": {
    "description": {
      "value": "\r\n<p class=\"source\"><b>Source</b>: <a title=\"PZO1121\" href=\"http://www.amazon.com/gp/product/1601253907/ref=as_li_qf_sp_asin_il_tl?ie=UTF8&amp;camp=1789&amp;creative=9325&amp;creativeASIN=1601253907&amp;linkCode=as2&amp;tag=httpwwwd20pfs-20\" target=\"_blank\" rel=\"noopener\">PZO1121</a></p>\r\n<p>Barbs added to these manacles wound a captive who does more than move slowly and with care. A creature secured in barbed manacles takes 1 point of piercing damage if it takes more than a single <a href=\"https://www.d20pfsrd.com/gamemastering/combat#TOC-Move-Actions\">move action</a> during a round. Rough movement of any kind, such as being struck in combat or falling <a href=\"https://www.d20pfsrd.com/gamemastering/conditions#TOC-Prone\">prone</a>, likewise causes 1 point of damage. Attempting to break out of barbed manacles with a Strength check deals 1d4 points of piercing damage to the captive regardless of the success of the attempt.</p>\r\n<p>Fetters can also be fitted with barbs, but the wearer can avoid damage by not taking actions that involve moving its legs. Hobgoblins often use such fetters to secure artisans to their worktables. Securing a captive with multiple sets of manacles and/or fetters doesn't cause additional damage.</p>\r\n<p><a name=\"table-tools-kits\"></a></p>\r\n<p>Tool Kits</p>\r\n<p>This section includes several kits of preselected gear for each character class or for specific adventuring purposes (dungeoneering, spelunking, and so on). GMs can use these kits to quickly round out an NPC's gear. Players can use them to equip new PCs in a hurry or as a shorthand for providing gear for cohorts, followers, minions, and hirelings. The listed price for the kit includes a small discount for purchasing these items as a group. Items in a kit that are used up, destroyed, or lost cost the full price to replace.</p>\r\n\n\r\n"
    },
    "tags": [],
    "equipped": false,
    "changes": [],
    "contextNotes": [],
    "links": {
      "children": []
    },
    "flags": {
      "boolean": [],
      "dictionary": []
    },
    "scriptCalls": [],
    "subType": "gear"
  },
  "ownership": {
    "default": 0
  },
  "_stats": {
    "systemId": "pf1",
    "systemVersion": "0.82.1",
    "coreVersion": "10.285",
    "createdTime": 1663018753654,
    "modifiedTime": 1663018755718,
    "lastModifiedBy": "DbeAbHwpEqczKjsD"
  }
}
