{
  "_id": "cqykfjjwnfbmsimg",
  "name": "Meal",
  "type": "loot",
  "img": "systems/pf1/icons/items/inventory/dice.jpg",
  "effects": [],
  "folder": null,
  "sort": 0,
  "flags": {},
  "system": {
    "description": {
      "value": "<h4><span id=\"Meal\"><a name=\"TOC-Meal\"></a>Meal</span></h4>\r\n<p class=\"source\"><b>Source</b> <a title=\"PZO1110\" href=\"http://www.amazon.com/gp/product/1601251505/ref=as_li_qf_sp_asin_il_tl?ie=UTF8&amp;camp=1789&amp;creative=9325&amp;creativeASIN=1601251505&amp;linkCode=as2&amp;tag=httpwwwd20pfs-20\" target=\"_blank\" rel=\"noopener\">PZO1110</a></p>\r\n<p>Poor meals might be composed of bread, baked turnips, onions, and water. Common meals might consist of bread, chicken stew, carrots, and watered-down ale or wine. Good meals might be composed of bread and pastries, beef, peas, and ale or wine.</p>\r\n<ul>\r\n<li><b>Poor</b> meals might be composed of bread, baked turnips, onions, and water.</li>\r\n<li><b>Common</b> meals might consist of bread, chicken stew, carrots, and watered-down ale or wine.</li>\r\n<li><b>Good</b> meals might be composed of bread and pastries, beef, peas, and ale or wine.</li>\r\n<li><b>Banquet</b> A banquet meal includes several food courses, good drinks, and servants to bring the food and take away empty plates. The listed price is for having a banquet at a restaurant (though some restaurant owners can be hired to serve a banquet at a private location). The price listed above is per person. <b>Price</b> 10 gp; <b>Weight</b> -</li>\r\n</ul>\r\n<p>The listed prices are for a tavern or restaurant in an average city.</p>\r\n"
    },
    "tags": [],
    "price": 10,
    "equipped": false,
    "changes": [],
    "contextNotes": [],
    "links": {
      "children": []
    },
    "flags": {
      "boolean": [],
      "dictionary": []
    },
    "scriptCalls": [],
    "subType": "gear"
  },
  "ownership": {
    "default": 0
  },
  "_stats": {
    "systemId": "pf1",
    "systemVersion": "0.82.1",
    "coreVersion": "10.285",
    "createdTime": 1663018752962,
    "modifiedTime": 1663018755674,
    "lastModifiedBy": "DbeAbHwpEqczKjsD"
  }
}
