{
  "_id": "mxkedzpmekmthcay",
  "name": "Ointment, Armor",
  "type": "loot",
  "img": "systems/pf1/icons/items/inventory/dice.jpg",
  "effects": [],
  "folder": null,
  "sort": 0,
  "flags": {},
  "system": {
    "description": {
      "value": "\r\n<p><b>Price</b> 30 gp; <b>Weight</b> 1 lb.</p>\r\n<p>This thick lubricant makes the joints of armor move more freely. Applying the ointment takes 1 minute and reduces your armor's armor check penalty by 1 (to a minimum of -1) for 8 hours.</p>\r\n"
    },
    "tags": [],
    "weight": {
      "value": 1
    },
    "price": 30,
    "equipped": false,
    "changes": [],
    "contextNotes": [],
    "links": {
      "children": []
    },
    "flags": {
      "boolean": [],
      "dictionary": []
    },
    "scriptCalls": [],
    "subType": "gear"
  },
  "ownership": {
    "default": 0
  },
  "_stats": {
    "systemId": "pf1",
    "systemVersion": "0.82.1",
    "coreVersion": "10.285",
    "createdTime": 1663018753293,
    "modifiedTime": 1663018755693,
    "lastModifiedBy": "DbeAbHwpEqczKjsD"
  }
}
