{
  "_id": "ocDZAkhlICqCywXH",
  "name": "Outfit, Executioner's",
  "type": "equipment",
  "img": "systems/pf1/icons/items/equipment/cowl.jpg",
  "effects": [],
  "folder": null,
  "sort": 0,
  "flags": {},
  "system": {
    "description": {
      "value": "<p class=\"source\" style=\"box-sizing: border-box; user-select: text; color: #191813; font-size: 13px;\"><strong style=\"box-sizing: border-box; user-select: text;\">Source</strong>&nbsp;<a style=\"box-sizing: border-box; user-select: text;\" href=\"http://amzn.to/2eT3m9D\" target=\"_blank\" rel=\"noopener\">PPZO94102</a></p>\n<p style=\"box-sizing: border-box; user-select: text; color: #191813; font-size: 13px;\">Typically worn by jailers or executioners, this outfit includes a black woolen shirt, a tunic, pants, a belt, sturdy boots, a balaclava or hood, and a great cloak. This outfit is generally too intimidating and macabre to be worn in polite company.</p>\n<p style=\"box-sizing: border-box; user-select: text; color: #191813; font-size: 13px;\">Some executioner's outfits prominently bear the symbol of the government or law-enforcing institution the wearer serves, while others are left ragged and stained to appear all the more threatening.</p>"
    },
    "tags": [],
    "weight": {
      "value": 8
    },
    "price": 5,
    "identifiedName": "Outfit, Executioner's",
    "changes": [],
    "contextNotes": [],
    "actions": [],
    "attackNotes": [],
    "effectNotes": [],
    "links": {
      "children": [],
      "charges": []
    },
    "flags": {
      "boolean": [],
      "dictionary": []
    },
    "scriptCalls": [],
    "equipmentType": "misc",
    "equipmentSubtype": "clothing",
    "slot": "body"
  },
  "ownership": {
    "default": 0
  },
  "_stats": {
    "systemId": "pf1",
    "systemVersion": "0.82.1",
    "coreVersion": "10.285",
    "createdTime": 1663018753318,
    "modifiedTime": 1663018755696,
    "lastModifiedBy": "DbeAbHwpEqczKjsD"
  }
}
