{
  "_id": "gb6LCwqmJejAE3IQ",
  "name": "Outfit, Hot Weather",
  "type": "equipment",
  "img": "systems/pf1/icons/items/equipment/cloak-plain.jpg",
  "effects": [],
  "folder": null,
  "sort": 0,
  "flags": {},
  "system": {
    "description": {
      "value": "<p class=\"source\" style=\"box-sizing: border-box; user-select: text; color: #191813; font-size: 13px;\"><strong style=\"box-sizing: border-box; user-select: text;\">Source</strong>&nbsp;<a style=\"box-sizing: border-box; user-select: text;\" title=\"PZO1115\" href=\"http://www.amazon.com/gp/product/1601252463/ref=as_li_qf_sp_asin_il_tl?ie=UTF8&amp;camp=1789&amp;creative=9325&amp;creativeASIN=1601252463&amp;linkCode=as2&amp;tag=httpwwwd20pfs-20\" target=\"_blank\" rel=\"noopener\">PZO1115</a></p>\n<p style=\"box-sizing: border-box; user-select: text; color: #191813; font-size: 13px;\">Covering your body from head to foot in light, airy cloth keeps you cooler than baring your skin to the sun. This outfit typically consists of a loose linen robe and either a turban or loose head covering and veil. The outfit provides a +2 bonus on&nbsp;<a style=\"box-sizing: border-box; user-select: text;\" href=\"https://www.d20pfsrd.com/gamemastering/combat#TOC-Fortitude\">Fortitude</a> saves to resist warm or hot weather. This does not stack with any bonuses gained from the @Compendium[pf1.skills.TXrxgrB2sQjppZFY]{Survival}&nbsp;skill.</p>"
    },
    "tags": [],
    "weight": {
      "value": 4
    },
    "price": 8,
    "identifiedName": "Outfit, Hot Weather",
    "changes": [],
    "contextNotes": [
      {
        "text": "+[[2]] vs Hot Weather effects",
        "target": "savingThrows",
        "subTarget": "fort"
      }
    ],
    "actions": [],
    "attackNotes": [],
    "effectNotes": [],
    "links": {
      "children": [],
      "charges": []
    },
    "flags": {
      "boolean": [],
      "dictionary": []
    },
    "scriptCalls": [],
    "equipmentType": "misc",
    "equipmentSubtype": "clothing",
    "armor": {
      "dex": ""
    },
    "slot": "body"
  },
  "ownership": {
    "default": 0
  },
  "_stats": {
    "systemId": "pf1",
    "systemVersion": "0.82.1",
    "coreVersion": "10.285",
    "createdTime": 1663018753140,
    "modifiedTime": 1663018755681,
    "lastModifiedBy": "DbeAbHwpEqczKjsD"
  }
}
