{
  "_id": "LhUexHZ2l8Y2bsgD",
  "name": "Outfit, Burglar's",
  "type": "equipment",
  "img": "systems/pf1/icons/items/equipment/cowl.jpg",
  "effects": [],
  "folder": null,
  "sort": 0,
  "flags": {},
  "system": {
    "description": {
      "value": "<p class=\"source\" style=\"box-sizing: border-box; user-select: text; color: #191813; font-size: 13px;\"><strong style=\"box-sizing: border-box; user-select: text;\">Source</strong>&nbsp;<a style=\"box-sizing: border-box; user-select: text;\" href=\"http://amzn.to/2eT3m9D\" target=\"_blank\" rel=\"noopener\">PPZO94102</a></p>\n<p style=\"box-sizing: border-box; user-select: text; color: #191813; font-size: 13px;\">This outfit consists of fitted pants, a shirt, a hooded reversible cloak, soft leather boots, and a face&nbsp;<a style=\"box-sizing: border-box; user-select: text;\" href=\"https://www.d20pfsrd.com/equipment/goods-and-services/containers-bags-boxes-more#TOC-Mask\">mask</a>, all in dark or neutral colors. The outfit's few buttons and rivets are wrapped in dull, dark cloth to avoid jingling or reflecting light. A number of loops and shallow pockets are also worked into the outfit, providing ample spaces for stashing small tools or weapons.</p>"
    },
    "tags": [],
    "weight": {
      "value": 5
    },
    "price": 5,
    "identifiedName": "Outfit, Burglar's",
    "changes": [],
    "contextNotes": [],
    "actions": [],
    "attackNotes": [],
    "effectNotes": [],
    "links": {
      "children": [],
      "charges": []
    },
    "flags": {
      "boolean": [],
      "dictionary": []
    },
    "scriptCalls": [],
    "equipmentType": "misc",
    "equipmentSubtype": "clothing",
    "slot": "body"
  },
  "ownership": {
    "default": 0
  },
  "_stats": {
    "systemId": "pf1",
    "systemVersion": "0.82.1",
    "coreVersion": "10.285",
    "createdTime": 1663018752824,
    "modifiedTime": 1663018755658,
    "lastModifiedBy": "DbeAbHwpEqczKjsD"
  }
}
