{
  "_id": "69OvRQZBk0nhhpAK",
  "name": "Outfit, Dilettante's",
  "type": "equipment",
  "img": "systems/pf1/icons/items/equipment/boots-leather.jpg",
  "effects": [],
  "folder": null,
  "sort": 0,
  "flags": {},
  "system": {
    "description": {
      "value": "<p class=\"source\" style=\"box-sizing: border-box; user-select: text; color: #191813; font-size: 13px;\"><strong style=\"box-sizing: border-box; user-select: text;\">Source</strong>&nbsp;<a style=\"box-sizing: border-box; user-select: text;\" title=\"PZO1121\" href=\"http://www.amazon.com/gp/product/1601253907/ref=as_li_qf_sp_asin_il_tl?ie=UTF8&amp;camp=1789&amp;creative=9325&amp;creativeASIN=1601253907&amp;linkCode=as2&amp;tag=httpwwwd20pfs-20\" target=\"_blank\" rel=\"noopener\">PZO1121</a></p>\n<p style=\"box-sizing: border-box; user-select: text; color: #191813; font-size: 13px;\">These clothes are favored by @Compendium[pf1.races.efwHEwjvL9Z94MJI]{Gnome}&nbsp;inventors and wanderers, and consist of sturdy boots, a pair of stout linen pants or skirt, a cloth shirt, leather gloves, a hat and cloak, and numerous belts, straps, and accessories (such as scarves, a vest, bits of rope or twine, and bandoleers). These items are generally mismatched, each having been selected as \"superior\" from some other set of clothing, and are rife with pockets and small hidey-holes. It the wearer a +2&nbsp;<a style=\"box-sizing: border-box; user-select: text;\" href=\"https://www.d20pfsrd.com/basics-ability-scores/glossary#TOC-Circumstance-Bonus\">circumstance bonus</a> on @Compendium[pf1.skills.zK0CbvpYLZhTN5Wn]{Sleight of Hand}&nbsp;checks made to conceal a small object on her body.</p>\n<p style=\"box-sizing: border-box; user-select: text; color: #191813; font-size: 13px;\">As this outfit does not cost 10 gp or less, player characters can not choose this outfit for free when first beginning play.</p>"
    },
    "tags": [],
    "weight": {
      "value": 8
    },
    "price": 20,
    "identifiedName": "Outfit, Dilettante's",
    "changes": [],
    "contextNotes": [],
    "actions": [],
    "attackNotes": [],
    "effectNotes": [],
    "links": {
      "children": [],
      "charges": []
    },
    "flags": {
      "boolean": [],
      "dictionary": []
    },
    "scriptCalls": [],
    "equipmentType": "misc",
    "equipmentSubtype": "clothing",
    "armor": {
      "dex": ""
    },
    "slot": "body"
  },
  "ownership": {
    "default": 0
  },
  "_stats": {
    "systemId": "pf1",
    "systemVersion": "0.82.1",
    "coreVersion": "10.285",
    "createdTime": 1663018752746,
    "modifiedTime": 1663018755649,
    "lastModifiedBy": "DbeAbHwpEqczKjsD"
  }
}
