{
  "_id": "jsmojttndwmsxcws",
  "name": "Portrait Book",
  "type": "loot",
  "img": "systems/pf1/icons/items/inventory/dice.jpg",
  "effects": [],
  "folder": null,
  "sort": 0,
  "flags": {},
  "system": {
    "description": {
      "value": "\r\n<p><b>Portrait Book</b> This 100-page book contains face drawings of male and female dwarves, elves, gnomes, half-elves, half-orcs, halflings, and humans. By selecting an appropriate drawing and adding hair, beard, or other small features such as moles or scars, even a poor artist can quickly create a reasonable likeness of a specific person- for example, an inquisitor making wanted posters of a half-elven witch. <b>Price</b> 10 gp; <b>Weight</b> 3 lbs. <b>Source</b> <a title=\"PZO1115\" href=\"http://www.amazon.com/gp/product/1601252463/ref=as_li_qf_sp_asin_il_tl?ie=UTF8&amp;camp=1789&amp;creative=9325&amp;creativeASIN=1601252463&amp;linkCode=as2&amp;tag=httpwwwd20pfs-20\" target=\"_blank\" rel=\"noopener\">PZO1115</a></p>\r\n"
    },
    "tags": [],
    "weight": {
      "value": 3
    },
    "price": 10,
    "equipped": false,
    "changes": [],
    "contextNotes": [],
    "links": {
      "children": []
    },
    "flags": {
      "boolean": [],
      "dictionary": []
    },
    "scriptCalls": [],
    "subType": "gear"
  },
  "ownership": {
    "default": 0
  },
  "_stats": {
    "systemId": "pf1",
    "systemVersion": "0.82.1",
    "coreVersion": "10.285",
    "createdTime": 1663018753223,
    "modifiedTime": 1663018755688,
    "lastModifiedBy": "DbeAbHwpEqczKjsD"
  }
}
