{
  "_id": "nmnyrrzzysftbzul",
  "name": "Realgar",
  "type": "loot",
  "img": "systems/pf1/icons/items/inventory/dice.jpg",
  "effects": [],
  "folder": null,
  "sort": 0,
  "flags": {},
  "system": {
    "description": {
      "value": "\r\n<p class=\"source\"><b>Source</b> <a href=\"http://www.amazon.com/gp/product/1601256051/ref=as_li_qf_sp_asin_il_tl?ie=UTF8&amp;camp=1789&amp;creative=9325&amp;creativeASIN=1601256051&amp;linkCode=as2&amp;tag=httpwwwd20pfs-20\" target=\"_blank\" rel=\"noopener\">PZO9445</a></p>\r\n<p><b>Price</b> 3 gp; <b>Weight</b> -</p>\r\n<p>Realgar, also called ruby of arsenic, is a red crystal useful in creating poisons and medicines. It is commonly purified into arsenic, a crystalline metal known as the \"king of poisons\" for its popularity among nobles seeking to poison their rivals.</p>\r\n<p class=\"header\">Alchemical Power Component</p>\r\n<p><b>Doses</b> 1 (3 gp); <b>Spells</b> poison descriptor</p>\r\n<p>The DC to identify or neutralize spells with the [poison] descriptor is increased by +2.</p>\r\n"
    },
    "tags": [],
    "price": 3,
    "equipped": false,
    "changes": [],
    "contextNotes": [],
    "links": {
      "children": []
    },
    "flags": {
      "boolean": [],
      "dictionary": []
    },
    "scriptCalls": [],
    "subType": "gear"
  },
  "ownership": {
    "default": 0
  },
  "_stats": {
    "systemId": "pf1",
    "systemVersion": "0.82.1",
    "coreVersion": "10.285",
    "createdTime": 1663018753306,
    "modifiedTime": 1663018755695,
    "lastModifiedBy": "DbeAbHwpEqczKjsD"
  }
}
