{
  "_id": "xjfbxyldsnrkffpt",
  "name": "Repellent, Vermin",
  "type": "loot",
  "img": "systems/pf1/icons/items/inventory/dice.jpg",
  "effects": [],
  "folder": null,
  "sort": 0,
  "flags": {},
  "system": {
    "description": {
      "value": "\r\n<p class=\"source\"><b>Source</b> <a title=\"PZO9410\" href=\"http://www.amazon.com/gp/product/1601252226/ref=as_li_qf_sp_asin_il_tl?ie=UTF8&amp;camp=1789&amp;creative=9325&amp;creativeASIN=1601252226&amp;linkCode=as2&amp;tag=httpwwwd20pfs-20\" target=\"_blank\" rel=\"noopener\">PZO9410</a></p>\r\n<p>This vile-smelling white paste keeps <a href=\"https://www.d20pfsrd.com/bestiary/rules-for-monsters/creature-types#TOC-Vermin\">vermin</a> at bay if spread on the skin. Normal-sized (Fine) <a href=\"https://www.d20pfsrd.com/bestiary/rules-for-monsters/creature-types#TOC-Vermin\">vermin</a> avoid you. Swarms of <a href=\"https://www.d20pfsrd.com/bestiary/rules-for-monsters/creature-types#TOC-Vermin\">vermin</a> must make a DC 15 <a href=\"https://www.d20pfsrd.com/gamemastering/combat#TOC-Fortitude\">Fortitude</a> <a href=\"https://www.d20pfsrd.com/gamemastering/combat#TOC-Saving-Throws\">saving throw</a> in order to enter your square. Once applied, <a href=\"https://www.d20pfsrd.com/bestiary/rules-for-monsters/creature-types#TOC-Vermin\">vermin</a> repellent remains effective for 4 hours or until you spend 1 round washing it off.</p>\r\n<p><b>Create</b>: <a href=\"https://www.d20pfsrd.com/skills/craft\">Craft</a> (alchemy) DC 20</p>\r\n"
    },
    "tags": [],
    "price": 5,
    "equipped": false,
    "changes": [],
    "contextNotes": [],
    "links": {
      "children": []
    },
    "flags": {
      "boolean": [],
      "dictionary": []
    },
    "scriptCalls": [],
    "subType": "gear"
  },
  "ownership": {
    "default": 0
  },
  "_stats": {
    "systemId": "pf1",
    "systemVersion": "0.82.1",
    "coreVersion": "10.285",
    "createdTime": 1663018753651,
    "modifiedTime": 1663018755718,
    "lastModifiedBy": "DbeAbHwpEqczKjsD"
  }
}
