{
  "_id": "KgDc9RWXqD5kjKvV",
  "name": "Ring of Protection +5",
  "type": "equipment",
  "img": "systems/pf1/icons/items/jewelry/ring-iron.jpg",
  "effects": [],
  "folder": null,
  "sort": 0,
  "flags": {},
  "system": {
    "description": {
      "value": "<p style=\"box-sizing: border-box; user-select: text; color: #191813; font-size: 13px;\">This ring offers continual magical protection in the form of a&nbsp;<a style=\"box-sizing: border-box; user-select: text;\" href=\"https://www.d20pfsrd.com/basics-ability-scores/glossary#TOC-Bonus-Deflection-\">deflection</a>&nbsp;bonus of +1 to +5 to&nbsp;<a style=\"box-sizing: border-box; user-select: text;\" href=\"https://www.d20pfsrd.com/gamemastering/combat#TOC-Armor-Class\" rel=\"nofollow\">AC</a>.</p>"
    },
    "tags": [],
    "price": 50000,
    "resizing": true,
    "unidentified": {
      "name": "Ring"
    },
    "identifiedName": "Ring of Protection +5",
    "cl": 15,
    "aura": {
      "school": "abj"
    },
    "changes": [
      {
        "_id": "it9emhmn",
        "formula": "5",
        "operator": "add",
        "subTarget": "ac",
        "modifier": "deflection",
        "priority": 0,
        "value": 0,
        "target": "ac"
      }
    ],
    "contextNotes": [],
    "actions": [],
    "attackNotes": [],
    "effectNotes": [],
    "links": {
      "children": [],
      "charges": []
    },
    "tag": "ringOfProtection5",
    "flags": {
      "boolean": [],
      "dictionary": []
    },
    "scriptCalls": [],
    "equipmentType": "misc",
    "equipmentSubtype": "wondrous",
    "slot": "ring"
  },
  "ownership": {
    "default": 0
  },
  "_stats": {
    "systemId": "pf1",
    "systemVersion": "0.82.1",
    "coreVersion": "10.285",
    "createdTime": 1663018752822,
    "modifiedTime": 1663018755658,
    "lastModifiedBy": "DbeAbHwpEqczKjsD"
  }
}
