{
  "_id": "cegkskqzbdwnqwez",
  "name": "Salve Exemplar Weapon",
  "type": "loot",
  "img": "systems/pf1/icons/items/inventory/dice.jpg",
  "effects": [],
  "folder": null,
  "sort": 0,
  "flags": {},
  "system": {
    "description": {
      "value": "\r\n<p class=\"source\"><b>Source</b> <a title=\"PZO9455\" href=\"http://www.amazon.com/gp/product/1601257325/ref=as_li_qf_sp_asin_il_tl?ie=UTF8&amp;camp=1789&amp;creative=9325&amp;creativeASIN=1601257325&amp;linkCode=as2&amp;tag=httpwwwd20pfs-20&amp;linkId=RTYNEYJM7WKLVCFB\" target=\"_blank\" rel=\"noopener\">PZO9455</a></p>\r\n<p><b>Price</b> 350 gp; <b>Weight</b> 1 lb.</p>\r\n<p style=\"font-size: 12px;font-weight: bold;border-top: thin solid;border-bottom: thin solid\">DESCRIPTION</p>\r\n<p>This alchemical salve strengthens the material of a weapon, improves its balance, gives it greater flexibility without sacrificing resilience, and enhances its ability to hold an edge or point and survive an impact. An application turns a typical non-magical melee weapon into a masterwork weapon. A double weapon requires 2 doses of exemplar weapon salve, and 50 arrows, bolts, or similar ammunition can be enhanced by a single application.</p>\r\n"
    },
    "tags": [],
    "equipped": false,
    "changes": [],
    "contextNotes": [],
    "links": {
      "children": []
    },
    "flags": {
      "boolean": [],
      "dictionary": []
    },
    "scriptCalls": [],
    "subType": "gear"
  },
  "ownership": {
    "default": 0
  },
  "_stats": {
    "systemId": "pf1",
    "systemVersion": "0.82.1",
    "coreVersion": "10.285",
    "createdTime": 1663018752953,
    "modifiedTime": 1663018755673,
    "lastModifiedBy": "DbeAbHwpEqczKjsD"
  }
}
