{
  "_id": "mioexvfndsvhtkgn",
  "name": "Stabling",
  "type": "loot",
  "img": "systems/pf1/icons/items/inventory/dice.jpg",
  "effects": [],
  "folder": null,
  "sort": 0,
  "flags": {},
  "system": {
    "description": {
      "value": "\r\n<p><b>Price</b> 5 sp/day; <b>Weight</b> -</p>\r\n<p>This is the amount it costs to stable a single creature that is Large or smaller for one day, at a typical stable or hostler. Particularly fancy stables may cost more, and larger or more exotic creatures cost double.</p>\r\n\r\n"
    },
    "tags": [],
    "price": 0.5,
    "equipped": false,
    "changes": [],
    "contextNotes": [],
    "links": {
      "children": []
    },
    "flags": {
      "boolean": [],
      "dictionary": []
    },
    "scriptCalls": [],
    "subType": "gear"
  },
  "ownership": {
    "default": 0
  },
  "_stats": {
    "systemId": "pf1",
    "systemVersion": "0.82.1",
    "coreVersion": "10.285",
    "createdTime": 1663018753285,
    "modifiedTime": 1663018755692,
    "lastModifiedBy": "DbeAbHwpEqczKjsD"
  }
}
