{
  "_id": "dpakeysfhdqijytc",
  "name": "Stationery",
  "type": "loot",
  "img": "systems/pf1/icons/items/inventory/dice.jpg",
  "effects": [],
  "folder": null,
  "sort": 0,
  "flags": {},
  "system": {
    "description": {
      "value": "\r\n<p class=\"source\"><b>Source</b> <a title=\"PZO9410\" href=\"http://www.amazon.com/gp/product/1601252226/ref=as_li_qf_sp_asin_il_tl?ie=UTF8&amp;camp=1789&amp;creative=9325&amp;creativeASIN=1601252226&amp;linkCode=as2&amp;tag=httpwwwd20pfs-20\" target=\"_blank\" rel=\"noopener\">PZO9410</a></p>\r\n<p><b>Price</b> 1 gp; <b>Weight</b> -</p>\r\n<p>Generally used only by the wealthy, fancy stationery is a finer-quality 9-inch-by-6-inch paper, often embossed or engraved with the owner's personal seal.</p>\r\n"
    },
    "tags": [],
    "price": 1,
    "equipped": false,
    "changes": [],
    "contextNotes": [],
    "links": {
      "children": []
    },
    "flags": {
      "boolean": [],
      "dictionary": []
    },
    "scriptCalls": [],
    "subType": "gear"
  },
  "ownership": {
    "default": 0
  },
  "_stats": {
    "systemId": "pf1",
    "systemVersion": "0.82.1",
    "coreVersion": "10.285",
    "createdTime": 1663018752987,
    "modifiedTime": 1663018755676,
    "lastModifiedBy": "DbeAbHwpEqczKjsD"
  }
}
