{
  "_id": "odosbxmfnybnudah",
  "name": "Vial, Iron",
  "type": "loot",
  "img": "systems/pf1/icons/items/inventory/dice.jpg",
  "effects": [],
  "folder": null,
  "sort": 0,
  "flags": {},
  "system": {
    "description": {
      "value": " \n<p class=\"source\"><b>Source</b> <a title=\"PZO9410\" href=\"http://www.amazon.com/gp/product/1601252226/ref=as_li_qf_sp_asin_il_tl?ie=UTF8&amp;camp=1789&amp;creative=9325&amp;creativeASIN=1601252226&amp;linkCode=as2&amp;tag=httpwwwd20pfs-20\" target=\"_blank\" rel=\"noopener\">PZO9410</a></p> \n<p>This metal <a style=\"font-style: italic\" href=\"https://www.d20pfsrd.com/magic-items/potions\">potion</a> bottle has <a href=\"https://www.d20pfsrd.com/equipment/damaging-objects#TOC-Hardness\">hardness</a> 5, 3 <a href=\"https://www.d20pfsrd.com/gamemastering/combat#TOC-Hit-Points\">hit points</a>, and break DC 14.</p> \n"
    },
    "tags": [],
    "weight": {
      "value": 1
    },
    "price": 0.1,
    "equipped": false,
    "changes": [],
    "contextNotes": [],
    "links": {
      "children": []
    },
    "flags": {
      "boolean": [],
      "dictionary": []
    },
    "scriptCalls": [],
    "subType": "gear"
  },
  "ownership": {
    "default": 0
  },
  "_stats": {
    "systemId": "pf1",
    "systemVersion": "0.82.1",
    "coreVersion": "10.285",
    "createdTime": 1663018753320,
    "modifiedTime": 1663018755697,
    "lastModifiedBy": "DbeAbHwpEqczKjsD"
  }
}
