{
  "_id": "zbatwdzffpwkuimf",
  "name": "Wine, Sangwine",
  "type": "loot",
  "img": "systems/pf1/icons/items/inventory/dice.jpg",
  "effects": [],
  "folder": null,
  "sort": 0,
  "flags": {},
  "system": {
    "description": {
      "value": "<h4><span id=\"Wine_Sangwine\"><a name=\"TOC-Wine-Sangwine\"></a>Wine, Sangwine</span></h4>\r\n<p class=\"source\"><b>Source</b> <a href=\"https://amzn.to/2pCBzMR\" target=\"_blank\" rel=\"noopener\">PPC:MM</a></p>\r\n<p><b>Price</b> 200 gp; <b>Weight</b> 2 lbs.</p>\r\n<p>This deep red wine is highly tannic and has notes of currants and cocoa and an aroma of cedar.</p>\r\n<p>Sangwine is a favorite of the elite, who associate drinking it with long life.</p>\r\n<p>Drinking a glass of sangwine takes at least 1 round, though many imbibers take longer to savor the <a href=\"https://www.d20pfsrd.com/equipment/goods-and-services/hunting-camping-survival-gear#TOC-Wine\">wine's</a> complex flavors. After drinking a glass, the wine gives the drinker's blood a bitter flavor for 1 hour, causing any creature that deals damage using the <a href=\"https://www.d20pfsrd.com/bestiary/rules-for-monsters/universal-monster-rules#TOC-Blood-Drain-Ex-\">blood drain</a> extraordinary ability to become <a href=\"https://www.d20pfsrd.com/gamemastering/conditions#TOC-Sickened\">sickened</a> for a number of rounds equal to the points of <a href=\"https://www.d20pfsrd.com/basics-ability-scores/ability-scores#TOC-Ability-Score-Damage\">Constitution damage</a> dealt (this effect is not subject to the poison immunity of <a href=\"https://www.d20pfsrd.com/bestiary/monster-listings/templates/vampire/vampire\">vampires</a> and other <a href=\"https://www.d20pfsrd.com/bestiary/rules-for-monsters/creature-types#TOC-Undead\">undead</a>). Repeated uses of the <a href=\"https://www.d20pfsrd.com/bestiary/rules-for-monsters/universal-monster-rules#TOC-Blood-Drain-Ex-\">blood drain</a> ability on a creature that has imbibed at least one glass of sangwine extends the duration of the <a href=\"https://www.d20pfsrd.com/gamemastering/conditions#TOC-Sickened\">sickened</a> condition.</p>\r\n<p>The price listed is for a <a href=\"https://www.d20pfsrd.com/equipment/goods-and-services/containers-bags-boxes-more#TOC-Bottle\">bottle</a>, which contains six glasses' worth of sangwine.</p>\r\n"
    },
    "tags": [],
    "weight": {
      "value": 2
    },
    "price": 200,
    "equipped": false,
    "changes": [],
    "contextNotes": [],
    "links": {
      "children": []
    },
    "flags": {
      "boolean": [],
      "dictionary": []
    },
    "scriptCalls": [],
    "subType": "gear"
  },
  "ownership": {
    "default": 0
  },
  "_stats": {
    "systemId": "pf1",
    "systemVersion": "0.82.1",
    "coreVersion": "10.285",
    "createdTime": 1663018753671,
    "modifiedTime": 1663018755720,
    "lastModifiedBy": "DbeAbHwpEqczKjsD"
  }
}
