{
  "_id": "tOgQ6z0xqVCRv1eB",
  "name": "Wire saw",
  "type": "loot",
  "img": "systems/pf1/icons/items/inventory/dice.jpg",
  "effects": [],
  "folder": null,
  "sort": 0,
  "flags": {},
  "system": {
    "description": {
      "value": "<p>Source&nbsp;<a href=\"http://paizo.com/products/btpy8tmc?Pathfinder-Roleplaying-Game-Ultimate-Equipment\" target=\"_blank\" rel=\"noopener\">Ultimate Equipment pg. 58</a><br>Price&nbsp;150 gp (adamantine), 30 gp (common);&nbsp;Weight&nbsp;— (adamantine), — (common)</p>\n<h3>Description</h3>\n<p>This flexible saw consists of an abrasive wire hooked to two metal rings. By feeding the wire around a deadbolt or small door bar, you can use the rings to quietly saw through the obstruction. The saw takes 10 minutes to cut through a 2-inch piece of wood or a 1-inch iron bar. A wire saw can cut through items with hardness 10 or less. After five uses, the abrasive wire is worn smooth and must be replaced (costing 25 gp).<br><br>Adamantine Wire Saw: This works twice as fast as a normal saw when cutting materials with hardness 10 or less, or at normal speed when cutting materials with hardness 11–20. Replacing an adamantine wire saw’s wire costs 145 gp.</p>"
    },
    "tags": [],
    "price": 30,
    "equipped": false,
    "identifiedName": "Wire saw",
    "changes": [],
    "contextNotes": [],
    "links": {
      "children": []
    },
    "flags": {
      "boolean": [],
      "dictionary": []
    },
    "scriptCalls": [],
    "subType": "gear"
  },
  "ownership": {
    "default": 0
  },
  "_stats": {
    "systemId": "pf1",
    "systemVersion": "0.82.1",
    "coreVersion": "10.285",
    "createdTime": 1663018753534,
    "modifiedTime": 1663018755710,
    "lastModifiedBy": "DbeAbHwpEqczKjsD"
  }
}
