{
  "_id": "pWELX6ZgwkxnXcL8",
  "name": "Wire",
  "type": "loot",
  "img": "systems/pf1/icons/items/inventory/dice.jpg",
  "effects": [],
  "folder": null,
  "sort": 0,
  "flags": {},
  "system": {
    "description": {
      "value": "<p>Source&nbsp;<a href=\"http://paizo.com/products/btpy8tmc?Pathfinder-Roleplaying-Game-Ultimate-Equipment\" target=\"_blank\" rel=\"noopener\">Ultimate Equipment pg. 58</a><br>Price&nbsp;5 gp;&nbsp;Weight&nbsp;1/2 lb.<br>Category&nbsp;Adventuring Gear</p>\n<h3>Description</h3>\n<p>This 6-foot length of copper wire is strong and flexible. By attaching it to two pitons or iron spikes across an area, you can create a simple tripwire trap.</p>\n<h3>Tripwire Trap - CR 1/3</h3>\n<p>Type&nbsp;mechanical;&nbsp;Perception&nbsp;DC 15;&nbsp;Disable Device&nbsp;DC 10</p>\n<h3>Effects</h3>\n<p>Trigger&nbsp;location;&nbsp;Reset&nbsp;automatic<br>Effect&nbsp;trip combat maneuver +5 (+10 if the target is running)</p>"
    },
    "tags": [],
    "weight": {
      "value": 0.5
    },
    "price": 5,
    "equipped": false,
    "identifiedName": "Wire",
    "changes": [],
    "contextNotes": [],
    "links": {
      "children": []
    },
    "flags": {
      "boolean": [],
      "dictionary": []
    },
    "scriptCalls": [],
    "subType": "gear"
  },
  "ownership": {
    "default": 0
  },
  "_stats": {
    "systemId": "pf1",
    "systemVersion": "0.82.1",
    "coreVersion": "10.285",
    "createdTime": 1663018753335,
    "modifiedTime": 1663018755701,
    "lastModifiedBy": "DbeAbHwpEqczKjsD"
  }
}
