{
  "_id": "ribzueaayiedcene",
  "name": "Wolfsbane",
  "type": "loot",
  "img": "systems/pf1/icons/items/inventory/dice.jpg",
  "effects": [],
  "folder": null,
  "sort": 0,
  "flags": {},
  "system": {
    "description": {
      "value": "\r\n<p class=\"source\"><b>Source</b> <a title=\"PZO9410\" href=\"http://www.amazon.com/gp/product/1601252226/ref=as_li_qf_sp_asin_il_tl?ie=UTF8&amp;camp=1789&amp;creative=9325&amp;creativeASIN=1601252226&amp;linkCode=as2&amp;tag=httpwwwd20pfs-20\" target=\"_blank\" rel=\"noopener\">PZO9410</a></p>\r\n<p>The root of this tall plant with blue flowers is toxic, but herbalists use it in low doses to reduce pain and regulate the heart. Folklore says it can help a victim of lycanthropy throw off the curse.</p>\r\n<h3 style=\"margin-top: 30px;border-bottom-style: solid;border-bottom-width: thin\"><span id=\"Hunting_Aids\"><a name=\"TOC-Hunting-Aids\"></a>Hunting Aids</span></h3>\r\n"
    },
    "tags": [],
    "price": 0.5,
    "equipped": false,
    "changes": [],
    "contextNotes": [],
    "links": {
      "children": []
    },
    "flags": {
      "boolean": [],
      "dictionary": []
    },
    "scriptCalls": [],
    "subType": "gear"
  },
  "ownership": {
    "default": 0
  },
  "_stats": {
    "systemId": "pf1",
    "systemVersion": "0.82.1",
    "coreVersion": "10.285",
    "createdTime": 1663018753486,
    "modifiedTime": 1663018755707,
    "lastModifiedBy": "DbeAbHwpEqczKjsD"
  }
}
