{
  "_id": "axEpMHL2UesfGucF",
  "name": "Adaptive Strike",
  "type": "feat",
  "img": "systems/pf1/icons/items/inventory/banner-red.jpg",
  "effects": [],
  "folder": null,
  "sort": 0,
  "flags": {},
  "system": {
    "description": {
      "value": "<p>At 2nd level, the cavalier receives @Compendium[pf1.feats.bZ1YdzkT8NtRIEJ4]{Catch Off-Guard}&nbsp;as a bonus feat. As a swift action, he can cause an armed opponent to become flat-footed against any attacks he makes during that round with an improvised weapon. This ability can be used once per combat.</p>"
    },
    "tags": [],
    "actions": [],
    "attackNotes": [],
    "effectNotes": [],
    "changes": [],
    "contextNotes": [],
    "links": {
      "children": [],
      "charges": []
    },
    "tag": "classFeat_adaptiveStrike",
    "useCustomTag": true,
    "armorProf": {
      "value": []
    },
    "weaponProf": {
      "value": []
    },
    "languages": {
      "value": []
    },
    "scriptCalls": [],
    "featType": "classFeat",
    "associations": {
      "classes": [["Cavalier"]]
    },
    "abilityType": "ex"
  },
  "ownership": {
    "default": 0
  },
  "_stats": {
    "systemId": "pf1",
    "systemVersion": "0.82.1",
    "coreVersion": "10.285",
    "createdTime": 1663018766649,
    "modifiedTime": 1663018778373,
    "lastModifiedBy": "DbeAbHwpEqczKjsD"
  }
}
