{
  "_id": "tQAWkVNHvpZ3a98j",
  "name": "Aid Allies",
  "type": "feat",
  "img": "systems/pf1/icons/items/inventory/banner-red.jpg",
  "effects": [],
  "folder": null,
  "sort": 0,
  "flags": {},
  "system": {
    "description": {
      "value": "<p>At 2nd level, whenever an order of the dragon cavalier uses the aid another action to assist one of his allies, the ally receives a +3 bonus to his Armor Class, attack roll, saving throw, or skill check. At 8th level, and every six levels thereafter, this bonus increases by an additional +1.</p>"
    },
    "tags": [],
    "actions": [],
    "attackNotes": [],
    "effectNotes": [],
    "changes": [],
    "contextNotes": [],
    "links": {
      "children": [],
      "charges": []
    },
    "tag": "classFeat_aidAllies",
    "useCustomTag": true,
    "armorProf": {
      "value": []
    },
    "weaponProf": {
      "value": []
    },
    "languages": {
      "value": []
    },
    "scriptCalls": [],
    "featType": "classFeat",
    "associations": {
      "classes": [["Cavalier"]]
    },
    "abilityType": "ex"
  },
  "ownership": {
    "default": 0
  },
  "_stats": {
    "systemId": "pf1",
    "systemVersion": "0.82.1",
    "coreVersion": "10.285",
    "createdTime": 1663018769208,
    "modifiedTime": 1663018778538,
    "lastModifiedBy": "DbeAbHwpEqczKjsD"
  }
}
