{
  "_id": "5Osd9WqxOQ0wpgMv",
  "name": "Ancestor Totem, Greater",
  "type": "feat",
  "img": "systems/pf1/icons/feats/deafening-critical.jpg",
  "effects": [],
  "folder": null,
  "sort": 0,
  "flags": {},
  "system": {
    "description": {
      "value": "<p>The barbarian’s insight bonus to her chosen skill increases to +6. Once per rage, she can spend one round of rage as an immediate action to reroll a skill check in the chosen skill. She must take the result of the second roll, even if it is lower.</p>\n<p>A barbarian must have the ancestor totem rage power and be at least 10th level to select this rage power.</p>"
    },
    "tags": [],
    "actions": [],
    "attackNotes": [],
    "effectNotes": [],
    "changes": [],
    "contextNotes": [],
    "links": {
      "children": [],
      "charges": []
    },
    "tag": "classFeat_ancestorTotemGreater",
    "useCustomTag": true,
    "armorProf": {
      "value": []
    },
    "weaponProf": {
      "value": []
    },
    "languages": {
      "value": []
    },
    "scriptCalls": [],
    "featType": "classFeat",
    "associations": {
      "classes": [["Barbarian"], ["Skald"]]
    },
    "abilityType": "su"
  },
  "ownership": {
    "default": 0
  },
  "_stats": {
    "systemId": "pf1",
    "systemVersion": "0.82.1",
    "coreVersion": "10.285",
    "createdTime": 1663018762479,
    "modifiedTime": 1663018778106,
    "lastModifiedBy": "DbeAbHwpEqczKjsD"
  }
}
