{
  "_id": "KXca3uHPFc8wVNNl",
  "name": "Ancient Tactics",
  "type": "feat",
  "img": "systems/pf1/icons/skills/red_05.jpg",
  "effects": [],
  "folder": null,
  "sort": 0,
  "flags": {},
  "system": {
    "description": {
      "value": "<p>At 4th level, while you are bloodraging, whenever you or an ally within 30 feet of you would gain a bonus on attack rolls or to AC due to battlefield position (such as flanking or cover), that bonus is increased by 1. Allies must be able to see and hear you to gain this bonus. You can expend a spell slot as an immediate action to further increase this bonus by 1 per level of the spell slot expended until the beginning of your next turn.</p>"
    },
    "tags": [],
    "actions": [],
    "attackNotes": [],
    "effectNotes": [],
    "changes": [],
    "contextNotes": [],
    "links": {
      "children": [],
      "charges": []
    },
    "tag": "classFeat_ancientTactics",
    "useCustomTag": true,
    "armorProf": {
      "value": []
    },
    "weaponProf": {
      "value": []
    },
    "languages": {
      "value": []
    },
    "scriptCalls": [],
    "featType": "classFeat",
    "associations": {
      "classes": [["Bloodrager"]]
    },
    "abilityType": "su"
  },
  "ownership": {
    "default": 0
  },
  "_stats": {
    "systemId": "pf1",
    "systemVersion": "0.82.1",
    "coreVersion": "10.285",
    "createdTime": 1663018764393,
    "modifiedTime": 1663018778219,
    "lastModifiedBy": "DbeAbHwpEqczKjsD"
  }
}
