{
  "_id": "69dUpKtkRF0zv5xT",
  "name": "Animal Patron",
  "type": "feat",
  "img": "systems/pf1/icons/skills/shadow_20.jpg",
  "effects": [],
  "folder": null,
  "sort": 0,
  "flags": {},
  "system": {
    "description": {
      "value": "<p>The vigilante gains the benefits of one&nbsp;<a href=\"https://www.aonprd.com/ShifterAspects.aspx?ItemName=ALL\">minor shifter aspect</a>&nbsp;for a number of minutes per day equal to 1 + half his vigilante level. He can shift into this minor aspect as a swift action.</p>\n<p>The vigilante must be at least 5th level to select this talent.</p>"
    },
    "tags": [],
    "actions": [],
    "attackNotes": [],
    "effectNotes": [],
    "changes": [],
    "contextNotes": [],
    "links": {
      "children": [],
      "charges": []
    },
    "tag": "classFeat_animalPatron",
    "useCustomTag": true,
    "armorProf": {
      "value": []
    },
    "weaponProf": {
      "value": []
    },
    "languages": {
      "value": []
    },
    "scriptCalls": [],
    "featType": "classFeat",
    "associations": {
      "classes": [["Vigilante"]]
    },
    "abilityType": "ex"
  },
  "ownership": {
    "default": 0
  },
  "_stats": {
    "systemId": "pf1",
    "systemVersion": "0.82.1",
    "coreVersion": "10.285",
    "createdTime": 1663018762533,
    "modifiedTime": 1663018778115,
    "lastModifiedBy": "DbeAbHwpEqczKjsD"
  }
}
