{
  "_id": "Na1SRF3HDC9lfj76",
  "name": "Apocalypse Mystery",
  "type": "feat",
  "img": "systems/pf1/icons/spells/light-magenta-2.jpg",
  "effects": [],
  "folder": null,
  "sort": 0,
  "flags": {},
  "system": {
    "description": {
      "value": "<p><strong>Class Skills: </strong>An oracle with the apocalypse mystery adds Bluff, Disguise, Survival, and Stealth to her list of class skills.<br><br><strong>Bonus Spells:</strong>&nbsp;</p>\n<ul>\n<li>@Compendium[pf1.spells.1hjxxr3k62rcpb5c]{Deathwatch} (2nd),&nbsp;</li>\n<li>@Compendium[pf1.spells.vxi9c3xwa83xthka]{Summon Swarm} (4th),&nbsp;</li>\n<li>@Compendium[pf1.spells.o4ywdvsm1oty8blq]{Explosive Runes} (6th),</li>\n<li>@Compendium[pf1.spells.t1uhggjfimtabp4v]{Ice Storm} (8th),&nbsp;</li>\n<li>@Compendium[pf1.spells.jdp0mts5razk0qms]{Insect Plague} (10th),&nbsp;</li>\n<li>@Compendium[pf1.spells.3a162m66toj22fpa]{Circle Of Death} (12th),&nbsp;</li>\n<li>@Compendium[pf1.spells.aqeaxoaozlv9vg35]{Vision} (14th),&nbsp;</li>\n<li>@Compendium[pf1.spells.iq0as5470o8q9y39]{Incendiary Cloud} (16th),&nbsp;</li>\n<li>@Compendium[pf1.spells.xhzme0v6tjq95fg6]{Meteor Swarm} (18th).</li>\n</ul>"
    },
    "tags": [],
    "actions": [],
    "attackNotes": [],
    "effectNotes": [],
    "changes": [],
    "contextNotes": [],
    "links": {
      "children": [],
      "charges": []
    },
    "tag": "classFeat_apocalypseMystery",
    "useCustomTag": true,
    "armorProf": {
      "value": []
    },
    "weaponProf": {
      "value": []
    },
    "languages": {
      "value": []
    },
    "scriptCalls": [],
    "featType": "classFeat",
    "associations": {
      "classes": [["Oracle"]]
    }
  },
  "ownership": {
    "default": 0
  },
  "_stats": {
    "systemId": "pf1",
    "systemVersion": "0.82.1",
    "coreVersion": "10.285",
    "createdTime": 1663018764876,
    "modifiedTime": 1663018778240,
    "lastModifiedBy": "DbeAbHwpEqczKjsD"
  }
}
