{
  "_id": "MNpMVakwjOvfz3jU",
  "name": "Arcane Bloodrage",
  "type": "feat",
  "img": "systems/pf1/icons/skills/red_05.jpg",
  "effects": [],
  "folder": null,
  "sort": 0,
  "flags": {},
  "system": {
    "description": {
      "value": "<p>At 4th level, when entering a bloodrage you can choose one of the following spells and apply its effects to yourself:</p>\n<ul>\n<li>@Compendium[pf1.spells.18kryvj2dfuymk9d]{Blur}</li>\n<li>@Compendium[pf1.spells.00wyen2uho8firph]{Protection From Arrows}</li>\n<li>@Compendium[pf1.spells.tkjnm3lw7ni82tag]{Resist Energy}&nbsp;&nbsp;</li>\n<li>@Compendium[pf1.spells.3mfmhx8avu7h3iom]{Spider Climb}</li>\n</ul>\n<p>These effects last for as long as you continue bloodraging, regardless of the spell’s normal duration.</p>"
    },
    "tags": [],
    "actions": [],
    "attackNotes": [],
    "effectNotes": [],
    "changes": [],
    "contextNotes": [],
    "links": {
      "children": [],
      "charges": []
    },
    "tag": "classFeat_arcaneBloodrage",
    "useCustomTag": true,
    "armorProf": {
      "value": []
    },
    "weaponProf": {
      "value": []
    },
    "languages": {
      "value": []
    },
    "scriptCalls": [],
    "featType": "classFeat",
    "associations": {
      "classes": [["Bloodrager"]]
    },
    "abilityType": "sp"
  },
  "ownership": {
    "default": 0
  },
  "_stats": {
    "systemId": "pf1",
    "systemVersion": "0.82.1",
    "coreVersion": "10.285",
    "createdTime": 1663018764800,
    "modifiedTime": 1663018778229,
    "lastModifiedBy": "DbeAbHwpEqczKjsD"
  }
}
