{
  "_id": "T5b0GYEe9lhu4G5U",
  "name": "Basic Phytokinesis",
  "type": "feat",
  "img": "systems/pf1/icons/spells/vines-jade-3.jpg",
  "effects": [],
  "folder": null,
  "sort": 0,
  "flags": {},
  "system": {
    "description": {
      "value": "<p><strong>Element&nbsp;</strong>wood;&nbsp;<strong>Type&nbsp;</strong>utility (Sp);&nbsp;<strong>Level&nbsp;</strong>1;&nbsp;<strong>Burn&nbsp;</strong>0</p>\n<p>You can prune and otherwise tend plants within 30 feet without using gardening tools. You can search wooded areas and other plant-heavy areas from a distance as if using the sift cantrip. By concentrating, you can detect plants within 120 feet as if using @Compendium[pf1.spells.65i0wc0e6fq0evk5]{Detect Animals or Plants}.</p>"
    },
    "tags": [],
    "actions": [],
    "attackNotes": [],
    "effectNotes": [],
    "changes": [],
    "contextNotes": [],
    "links": {
      "children": [],
      "charges": []
    },
    "tag": "classFeat_basicPhytokinesis",
    "useCustomTag": true,
    "armorProf": {
      "value": []
    },
    "weaponProf": {
      "value": []
    },
    "languages": {
      "value": []
    },
    "scriptCalls": [],
    "featType": "classFeat",
    "associations": {
      "classes": [["Kineticist"]]
    },
    "abilityType": "sp"
  },
  "ownership": {
    "default": 0
  },
  "_stats": {
    "systemId": "pf1",
    "systemVersion": "0.82.1",
    "coreVersion": "10.285",
    "createdTime": 1663018765670,
    "modifiedTime": 1663018778272,
    "lastModifiedBy": "DbeAbHwpEqczKjsD"
  }
}
