{
  "_id": "IzEbgdNCpVPYvDLY",
  "name": "Black Blood Resistances",
  "type": "feat",
  "img": "systems/pf1/icons/skills/red_05.jpg",
  "effects": [],
  "folder": null,
  "sort": 0,
  "flags": {},
  "system": {
    "description": {
      "value": "<p>At 8th level, you gain resistance 5 to cold and a +2 bonus on saving throws against ability drain, death effects, disease, energy drain, paralysis, and poison.</p>\n<p>At 16th level, this resistance increases to 10 and the saving throw bonus increases to +4.</p>"
    },
    "tags": [],
    "actions": [],
    "attackNotes": [],
    "effectNotes": [],
    "changes": [],
    "contextNotes": [],
    "links": {
      "children": [],
      "charges": []
    },
    "tag": "classFeat_blackBloodResistances",
    "useCustomTag": true,
    "armorProf": {
      "value": []
    },
    "weaponProf": {
      "value": []
    },
    "languages": {
      "value": []
    },
    "scriptCalls": [],
    "featType": "classFeat",
    "associations": {
      "classes": [["Bloodrager"]]
    },
    "abilityType": "su"
  },
  "ownership": {
    "default": 0
  },
  "_stats": {
    "systemId": "pf1",
    "systemVersion": "0.82.1",
    "coreVersion": "10.285",
    "createdTime": 1663018764310,
    "modifiedTime": 1663018778208,
    "lastModifiedBy": "DbeAbHwpEqczKjsD"
  }
}
