{
  "_id": "2r8AwvN20K1fmRr3",
  "name": "Bleed (1 pt)",
  "type": "feat",
  "img": "systems/pf1/icons/skills/blue_26.jpg",
  "effects": [],
  "folder": null,
  "sort": 0,
  "flags": {},
  "system": {
    "description": {
      "value": "<p>An eidolon gains the ability to inflict bleeding wounds. Select one type of attack. Attacks of that type deal 1d6 points of bleed damage.</p>\n<p>This evolution can be selected more than once. Each time an eidolon selects this evolution, it applies to a different attack. The bleed effect doesn’t stack.</p>"
    },
    "tags": [],
    "actions": [],
    "attackNotes": [],
    "effectNotes": [],
    "changes": [],
    "contextNotes": [],
    "links": {
      "children": [],
      "charges": []
    },
    "tag": "classFeat_bleed1Pt",
    "useCustomTag": true,
    "armorProf": {
      "value": []
    },
    "weaponProf": {
      "value": []
    },
    "languages": {
      "value": []
    },
    "scriptCalls": [],
    "featType": "classFeat",
    "associations": {
      "classes": [["Eidolon"]]
    },
    "abilityType": "ex"
  },
  "ownership": {
    "default": 0
  },
  "_stats": {
    "systemId": "pf1",
    "systemVersion": "0.82.1",
    "coreVersion": "10.285",
    "createdTime": 1663018762049,
    "modifiedTime": 1663018778088,
    "lastModifiedBy": "DbeAbHwpEqczKjsD"
  }
}
