{
  "_id": "yrRTYcudngiApDvg",
  "name": "Bomber",
  "type": "feat",
  "img": "systems/pf1/icons/items/weapons/dagger.PNG",
  "effects": [],
  "folder": null,
  "sort": 0,
  "flags": {},
  "system": {
    "description": {
      "value": "<p>A rogue with this talent can make a number of bombs per day equal to her Intelligence modifier (minimum 1). These bombs act as alchemist’s bombs (Pathfinder RPG Advanced Player’s Guide&nbsp;28), except they deal damage equal to the damage dealt by the rogue’s sneak attack (the rogue doesn’t add her Intelligence modifier to this damage).</p>"
    },
    "tags": [],
    "actions": [],
    "attackNotes": [],
    "effectNotes": [],
    "changes": [],
    "contextNotes": [],
    "links": {
      "children": [],
      "charges": []
    },
    "tag": "classFeat_bomber",
    "useCustomTag": true,
    "armorProf": {
      "value": []
    },
    "weaponProf": {
      "value": []
    },
    "languages": {
      "value": []
    },
    "scriptCalls": [],
    "featType": "classFeat",
    "associations": {
      "classes": [["Rogue"]]
    },
    "abilityType": "su"
  },
  "ownership": {
    "default": 0
  },
  "_stats": {
    "systemId": "pf1",
    "systemVersion": "0.82.1",
    "coreVersion": "10.285",
    "createdTime": 1663018770075,
    "modifiedTime": 1663018778575,
    "lastModifiedBy": "DbeAbHwpEqczKjsD"
  }
}
