{
  "_id": "VNAsksfmUCMQsoZE",
  "name": "Bonus Tricks",
  "type": "feat",
  "img": "systems/pf1/icons/spells/wild-eerie-2.jpg",
  "effects": [],
  "folder": null,
  "sort": 0,
  "flags": {},
  "system": {
    "description": {
      "value": "<p>At 7th level and every 6 levels thereafter, a hunter’s animal companion learns a bonus trick (in addition to the bonus tricks gained from the hunter’s effective druid level).</p>"
    },
    "tags": [],
    "actions": [],
    "attackNotes": [],
    "effectNotes": [],
    "changes": [],
    "contextNotes": [],
    "links": {
      "children": [],
      "charges": []
    },
    "tag": "classFeat_bonusTricks",
    "useCustomTag": true,
    "armorProf": {
      "value": []
    },
    "weaponProf": {
      "value": []
    },
    "languages": {
      "value": []
    },
    "scriptCalls": [],
    "featType": "classFeat",
    "associations": {
      "classes": [["Hunter"]]
    },
    "abilityType": "ex"
  },
  "ownership": {
    "default": 0
  },
  "_stats": {
    "systemId": "pf1",
    "systemVersion": "0.82.1",
    "coreVersion": "10.285",
    "createdTime": 1663018765796,
    "modifiedTime": 1663018778284,
    "lastModifiedBy": "DbeAbHwpEqczKjsD"
  }
}
