{
  "_id": "7ORiNdGyLzGddgNK",
  "name": "Brawler's Strike",
  "type": "feat",
  "img": "systems/pf1/icons/feats/stunning-fist.jpg",
  "effects": [],
  "folder": null,
  "sort": 0,
  "flags": {},
  "system": {
    "description": {
      "value": "<p>At 5th level, a brawler’s unarmed strikes are treated as magic weapons for the purpose of overcoming damage reduction.</p>\n<p>At 9th level, her unarmed attacks are also treated as cold iron and silver for the purpose of overcoming damage reduction.</p>\n<p>At 12th level, she chooses one alignment component: chaotic, evil, good, or lawful; her unarmed strikes also count as this alignment for the purpose of overcoming damage reduction. (This alignment component cannot be the opposite of the brawler’s actual alignment, such as a good brawler choosing evil strikes.)</p>\n<p>At 17th level, her unarmed attacks are also treated as adamantine weapons for the purpose of overcoming damage reduction and bypassing hardness.</p>"
    },
    "tags": [],
    "actions": [],
    "attackNotes": [],
    "effectNotes": [],
    "changes": [],
    "contextNotes": [],
    "links": {
      "children": [],
      "charges": []
    },
    "tag": "classFeat_brawlersStrike",
    "useCustomTag": true,
    "armorProf": {
      "value": []
    },
    "weaponProf": {
      "value": []
    },
    "languages": {
      "value": []
    },
    "scriptCalls": [],
    "featType": "classFeat",
    "associations": {
      "classes": [["Brawler"]]
    },
    "abilityType": "ex"
  },
  "ownership": {
    "default": 0
  },
  "_stats": {
    "systemId": "pf1",
    "systemVersion": "0.82.1",
    "coreVersion": "10.285",
    "createdTime": 1663018762881,
    "modifiedTime": 1663018778124,
    "lastModifiedBy": "DbeAbHwpEqczKjsD"
  }
}
