{
  "_id": "yeH8WXsYDMJw23K6",
  "name": "Catastrophe Subdomain",
  "type": "feat",
  "img": "systems/pf1/icons/skills/emerald_01.jpg",
  "effects": [],
  "folder": null,
  "sort": 0,
  "flags": {},
  "system": {
    "description": {
      "value": "<p><strong>Replacement Domain Spells:</strong></p>\n<ul>\n<li>2nd—@Compendium[pf1.spells.cnuin981hdq7ryit]{Gust Of Wind}</li>\n<li>3rd—@Compendium[pf1.spells.rrheoc0h80mbss7z]{Call Lightning}</li>\n<li>7th—@Compendium[pf1.spells.578t0lra5ll3aifs]{Control Weather}</li>\n</ul>"
    },
    "tags": [],
    "actions": [],
    "attackNotes": [],
    "effectNotes": [],
    "changes": [],
    "contextNotes": [],
    "links": {
      "children": [],
      "charges": []
    },
    "tag": "classFeat_catastropheSubdomain",
    "useCustomTag": true,
    "armorProf": {
      "value": []
    },
    "weaponProf": {
      "value": []
    },
    "languages": {
      "value": []
    },
    "scriptCalls": [],
    "featType": "classFeat",
    "associations": {
      "classes": [["Cleric"]]
    }
  },
  "ownership": {
    "default": 0
  },
  "_stats": {
    "systemId": "pf1",
    "systemVersion": "0.82.1",
    "coreVersion": "10.285",
    "createdTime": 1663018770068,
    "modifiedTime": 1663018778574,
    "lastModifiedBy": "DbeAbHwpEqczKjsD"
  }
}
