{
  "_id": "ZWZLjQZqOCnmrVDs",
  "name": "Catfolk Rogue Talent",
  "type": "feat",
  "img": "systems/pf1/icons/items/weapons/rhoka.PNG",
  "effects": [],
  "folder": null,
  "sort": 0,
  "flags": {},
  "system": {
    "description": {
      "value": "<p>A catfolk slayer can select one of the following catfolk rogue talents (Pathfinder RPG Advanced Race Guide&nbsp;92) in place of a slayer talent:</p>\n<ul>\n<li>@Compendium[pf1.class-abilities.gSRBNwvD3ooZ895d]{Deadly Scratch}</li>\n<li>@Compendium[pf1.class-abilities.kzjPnNt5iNWMyAQD]{Graceful Faller}</li>\n<li>@Compendium[pf1.class-abilities.YuSHmEqdkDqQ08Hx]{Nimble Climber}</li>\n<li>@Compendium[pf1.class-abilities.fsolfNh28jx9C33e]{Vicious Claws}</li>\n</ul>\n<p>Any talent effects based on rogue level use the slayer’s class level. The slayer must fulfill any prerequisites.</p>"
    },
    "tags": [],
    "actions": [],
    "attackNotes": [],
    "effectNotes": [],
    "changes": [],
    "contextNotes": [],
    "links": {
      "children": [],
      "charges": []
    },
    "tag": "classFeat_catfolkRogueTalent",
    "useCustomTag": true,
    "armorProf": {
      "value": []
    },
    "weaponProf": {
      "value": []
    },
    "languages": {
      "value": []
    },
    "scriptCalls": [],
    "featType": "classFeat",
    "associations": {
      "classes": [["Slayer"]]
    },
    "abilityType": "ex"
  },
  "ownership": {
    "default": 0
  },
  "_stats": {
    "systemId": "pf1",
    "systemVersion": "0.82.1",
    "coreVersion": "10.285",
    "createdTime": 1663018766562,
    "modifiedTime": 1663018778336,
    "lastModifiedBy": "DbeAbHwpEqczKjsD"
  }
}
