{
  "_id": "uNH2DrbuNZ6iV9P6",
  "name": "Celestial Totem, Greater",
  "type": "feat",
  "img": "systems/pf1/icons/feats/deafening-critical.jpg",
  "effects": [],
  "folder": null,
  "sort": 0,
  "flags": {},
  "system": {
    "description": {
      "value": "<p>While raging, the barbarian gains spell resistance equal to 11 + the barbarian’s class level against spells with the evil descriptor. She also gains a +2 bonus on all saving throws against spells and effects from evil creatures.</p>\n<p>A barbarian must have the celestial totem rage power and be at least 12th level to select this rage power.</p>"
    },
    "tags": [],
    "actions": [],
    "attackNotes": [],
    "effectNotes": [],
    "changes": [],
    "contextNotes": [],
    "links": {
      "children": [],
      "charges": []
    },
    "tag": "classFeat_celestialTotemGreater",
    "useCustomTag": true,
    "armorProf": {
      "value": []
    },
    "weaponProf": {
      "value": []
    },
    "languages": {
      "value": []
    },
    "scriptCalls": [],
    "featType": "classFeat",
    "associations": {
      "classes": [["Barbarian"], ["Skald"]]
    },
    "abilityType": "su"
  },
  "ownership": {
    "default": 0
  },
  "_stats": {
    "systemId": "pf1",
    "systemVersion": "0.82.1",
    "coreVersion": "10.285",
    "createdTime": 1663018769262,
    "modifiedTime": 1663018778544,
    "lastModifiedBy": "DbeAbHwpEqczKjsD"
  }
}
