{
  "_id": "wLecnO73QE7Se9uv",
  "name": "Conspiracies Patron",
  "type": "feat",
  "img": "systems/pf1/icons/feats/improved-familiar.jpg",
  "effects": [],
  "folder": null,
  "sort": 0,
  "flags": {},
  "system": {
    "description": {
      "value": "<ul>\n<li>2nd — @Compendium[pf1.spells.afoxrj4mjkhq0cp1]{Lock Gaze}</li>\n<li>4th — @Compendium[pf1.spells.80f89nrksbofs5vx]{Disguise Other}</li>\n<li>6th — @Compendium[pf1.spells.m1rmcpcaixcpz9ib]{Tongues}</li>\n<li>8th — @Compendium[pf1.spells.pyr472hvqn8c8es2]{Hypercognition}</li>\n<li>10th — @Compendium[pf1.spells.q070n0zoq3zojpas]{Dominate Person}</li>\n<li>12th — @Compendium[pf1.spells.1m5rpvirt48brv71]{Symbol of Persuasion}</li>\n<li>14th — @Compendium[pf1.spells.aqeaxoaozlv9vg35]{Vision}</li>\n<li>16th — @Compendium[pf1.spells.ukacuu0cvdjkqxwu]{Frightful Aspect}</li>\n<li>18th — @Compendium[pf1.spells.xuuzj9lr2xbwaim4]{Overwhelming Presence}</li>\n</ul>"
    },
    "tags": [],
    "actions": [],
    "attackNotes": [],
    "effectNotes": [],
    "changes": [],
    "contextNotes": [],
    "links": {
      "children": [],
      "charges": []
    },
    "tag": "classFeat_conspiraciesPatron",
    "useCustomTag": true,
    "armorProf": {
      "value": []
    },
    "weaponProf": {
      "value": []
    },
    "languages": {
      "value": []
    },
    "scriptCalls": [],
    "featType": "classFeat",
    "associations": {
      "classes": [["Witch"]]
    }
  },
  "ownership": {
    "default": 0
  },
  "_stats": {
    "systemId": "pf1",
    "systemVersion": "0.82.1",
    "coreVersion": "10.285",
    "createdTime": 1663018769652,
    "modifiedTime": 1663018778561,
    "lastModifiedBy": "DbeAbHwpEqczKjsD"
  }
}
