{
  "_id": "6as0xicfWFdSV58T",
  "name": "Critical Reflexes",
  "type": "feat",
  "img": "systems/pf1/icons/skills/blood_02.jpg",
  "effects": [],
  "folder": null,
  "sort": 0,
  "flags": {},
  "system": {
    "description": {
      "value": "<p>At 17th level, upon confirming a&nbsp;<a href=\"https://www.d20pfsrd.com/gamemastering/combat#TOC-Critical-Hits\">critical hit</a>&nbsp;against an&nbsp;<a href=\"https://www.d20pfsrd.com/bestiary/rules-for-monsters/creature-types#TOC-Undead\">undead</a>&nbsp;creature, the vampire hunter can attempt a special&nbsp;<a href=\"https://www.d20pfsrd.com/gamemastering/combat#TOC-Combat-Maneuvers\">combat maneuver</a>&nbsp;check to produce an item and immediately use it upon that foe. The vampire hunter decides whether or not to use this ability after dealing additional damage for his&nbsp;<a href=\"https://www.d20pfsrd.com/gamemastering/combat#TOC-Critical-Hits\">critical hit</a>. At that point, he can attempt a&nbsp;<a href=\"https://www.d20pfsrd.com/gamemastering/combat#TOC-Combat-Maneuvers\">combat maneuver</a>&nbsp;check against the target’s&nbsp;<a href=\"https://www.d20pfsrd.com/gamemastering/combat#TOC-Combat-Maneuver-Defense\">CMD</a>&nbsp;(the target is denied its&nbsp;<a href=\"https://www.d20pfsrd.com/basics-ability-scores/ability-scores#TOC-Dexterity-Dex-\">Dexterity</a>&nbsp;modifier to resist this attack). If the vampire hunter succeeds, he produces a piece of equipment he has on his person and immediately uses that item upon the target creature. This ability does not provoke an&nbsp;<a href=\"https://www.d20pfsrd.com/gamemastering/combat#TOC-Attacks-of-Opportunity\">attack of opportunity</a>.</p>\n<p>Items used in this manner are typically alchemical items, such as&nbsp;<a href=\"https://www.d20pfsrd.com/equipment/goods-and-services/herbs-oils-other-substances#TOC-Acid\">acid</a>&nbsp;or&nbsp;<a href=\"https://www.d20pfsrd.com/equipment/goods-and-services/toys-games-puzzles#TOC-Holy-Water\">holy water</a>. Items that require attacks against the target automatically hit and deal damage as normal (potentially to the vampire hunter, as well, if the item affects an area). Items that would have no direct effect against the target (such as a fishing hook or a&nbsp;<a href=\"https://www.d20pfsrd.com/equipment/goods-and-services/hunting-camping-survival-gear#TOC-Lantern\">lantern</a>) or that require another&nbsp;<a href=\"https://www.d20pfsrd.com/gamemastering/combat#TOC-Combat-Maneuvers\">combat maneuver</a>&nbsp;to use (such as a&nbsp;<a href=\"https://www.d20pfsrd.com/equipment/goods-and-services/hunting-camping-survival-gear#TOC-Rope\">rope</a>&nbsp;or&nbsp;<a href=\"https://www.d20pfsrd.com/equipment/goods-and-services/tools-kits#TOC-Manacles\">manacles</a>) cannot be used as part of this ability. Other melee and ranged weapons cannot be used with this ability (with the exception of using a stake against a&nbsp;<a href=\"https://www.d20pfsrd.com/bestiary/monster-listings/templates/vampire\">vampire</a>; see below).</p>\n<p>This ability can be used against&nbsp;<a href=\"https://www.d20pfsrd.com/bestiary/rules-for-monsters/creature-types#TOC-Incorporeal\">incorporeal</a>&nbsp;creatures.</p>\n<p>If the target creature is a&nbsp;<a href=\"https://www.d20pfsrd.com/bestiary/monster-listings/templates/vampire\">vampire</a>&nbsp;and the vampire hunter has a&nbsp;<a href=\"https://www.d20pfsrd.com/equipment/weapons/weapon-descriptions/stake-wooden\">wooden stake</a>&nbsp;in his possession (or a similar item affected by his stake ability), he can drive the stake through the vampire’s heart as though it were&nbsp;<a href=\"https://www.d20pfsrd.com/gamemastering/conditions#TOC-Helpless\">helpless</a>, slaying it immediately. If the creature is not a&nbsp;<a href=\"https://www.d20pfsrd.com/bestiary/monster-listings/templates/vampire\">vampire</a>, this attempt fails at the last moment; the vampire hunter realizes that the target is not a&nbsp;<a href=\"https://www.d20pfsrd.com/bestiary/monster-listings/templates/vampire\">vampire</a>. A vampire hunter cannot drive a stake through the heart of a non-<a href=\"https://www.d20pfsrd.com/bestiary/monster-listings/templates/vampire\">vampire</a>&nbsp;using this ability.</p>"
    },
    "tags": [],
    "actions": [],
    "attackNotes": [],
    "effectNotes": [],
    "changes": [],
    "contextNotes": [],
    "links": {
      "children": [],
      "charges": []
    },
    "tag": "classFeat_criticalReflexes",
    "useCustomTag": true,
    "armorProf": {
      "value": []
    },
    "weaponProf": {
      "value": []
    },
    "languages": {
      "value": []
    },
    "scriptCalls": [],
    "featType": "classFeat",
    "associations": {
      "classes": [["Vampire Hunter"]]
    },
    "abilityType": "su"
  },
  "ownership": {
    "default": 0
  },
  "_stats": {
    "systemId": "pf1",
    "systemVersion": "0.82.1",
    "coreVersion": "10.285",
    "createdTime": 1663018762575,
    "modifiedTime": 1663018778118,
    "lastModifiedBy": "DbeAbHwpEqczKjsD"
  }
}
