{
  "_id": "C7tHVkvYhD9THmQx",
  "name": "Dark Rider",
  "type": "feat",
  "img": "systems/pf1/icons/items/inventory/banner-red.jpg",
  "effects": [],
  "folder": null,
  "sort": 0,
  "flags": {},
  "system": {
    "description": {
      "value": "<p>At 2nd level, whenever the samurai is on his mount, both he and his mount share any of the following senses if either of them possesses it: darkvision, low-light vision, scent, and see in darkness. This applies regardless of the source of the sense (including senses gained from spells or magic items), but only while the samurai is mounted. If the samurai and mount both have a sense but one has an improved version (such as a samurai with darkvision with a range of 60 feet riding a mount that has darkvision with a range of 90 feet), both receive the improved version of the sense.</p>"
    },
    "tags": [],
    "actions": [],
    "attackNotes": [],
    "effectNotes": [],
    "changes": [],
    "contextNotes": [],
    "links": {
      "children": [],
      "charges": []
    },
    "tag": "classFeat_darkRider",
    "useCustomTag": true,
    "armorProf": {
      "value": []
    },
    "weaponProf": {
      "value": []
    },
    "languages": {
      "value": []
    },
    "scriptCalls": [],
    "featType": "classFeat",
    "associations": {
      "classes": [["Samurai"]]
    },
    "abilityType": "su"
  },
  "ownership": {
    "default": 0
  },
  "_stats": {
    "systemId": "pf1",
    "systemVersion": "0.82.1",
    "coreVersion": "10.285",
    "createdTime": 1663018763426,
    "modifiedTime": 1663018778159,
    "lastModifiedBy": "DbeAbHwpEqczKjsD"
  }
}
