{
  "_id": "7HBmv5FWqBF1bJ4D",
  "name": "Day Subdomain",
  "type": "feat",
  "img": "systems/pf1/icons/spells/light-air-fire-1.jpg",
  "effects": [],
  "folder": null,
  "sort": 0,
  "flags": {},
  "system": {
    "description": {
      "value": "<p><strong>Replacement Domain Spells:</strong></p>\n<ul>\n<li>2nd—@Compendium[pf1.spells.b8vp8fgt1o6pq1qc]{Continual Flame}</li>\n<li>3rd—@Compendium[pf1.spells.7x2z0i8rcx7s81fk]{Daylight}</li>\n</ul>"
    },
    "tags": [],
    "actions": [],
    "attackNotes": [],
    "effectNotes": [],
    "changes": [],
    "contextNotes": [],
    "links": {
      "children": [],
      "charges": []
    },
    "tag": "classFeat_daySubdomain",
    "useCustomTag": true,
    "armorProf": {
      "value": []
    },
    "weaponProf": {
      "value": []
    },
    "languages": {
      "value": []
    },
    "scriptCalls": [],
    "featType": "classFeat",
    "associations": {
      "classes": [["Cleric"]]
    }
  },
  "ownership": {
    "default": 0
  },
  "_stats": {
    "systemId": "pf1",
    "systemVersion": "0.82.1",
    "coreVersion": "10.285",
    "createdTime": 1663018762868,
    "modifiedTime": 1663018778123,
    "lastModifiedBy": "DbeAbHwpEqczKjsD"
  }
}
