{
  "_id": "1QHWLASLsNmKgAke",
  "name": "Deadly Excretions",
  "type": "feat",
  "img": "systems/pf1/icons/items/potions/unique-3.jpg",
  "effects": [],
  "folder": null,
  "sort": 0,
  "flags": {},
  "system": {
    "description": {
      "value": "<p>When using his toxic skin ability, the alchemist can choose to excrete a Constitution poison instead of a Dexterity poison. This poison works the same as the normal grippli toxic skin poison except that a failed save deals 1 point of Constitution damage.</p>\n<p>The alchemist must be at least 8th level and must have the&nbsp;<a href=\"https://aonprd.com/RacesDisplay.aspx?ItemName=Grippli\">toxic skin racial trait</a>&nbsp;before selecting this discovery.</p>"
    },
    "tags": [],
    "actions": [],
    "attackNotes": [],
    "effectNotes": [],
    "changes": [],
    "contextNotes": [],
    "links": {
      "children": [],
      "charges": []
    },
    "tag": "classFeat_deadlyExcretions",
    "useCustomTag": true,
    "armorProf": {
      "value": []
    },
    "weaponProf": {
      "value": []
    },
    "languages": {
      "value": []
    },
    "scriptCalls": [],
    "featType": "classFeat",
    "associations": {
      "classes": [["Alchemist"]]
    },
    "abilityType": "ex"
  },
  "ownership": {
    "default": 0
  },
  "_stats": {
    "systemId": "pf1",
    "systemVersion": "0.82.1",
    "coreVersion": "10.285",
    "createdTime": 1663018761952,
    "modifiedTime": 1663018778073,
    "lastModifiedBy": "DbeAbHwpEqczKjsD"
  }
}
