{
  "_id": "s3h50s2xPbmmW8CX",
  "name": "Death Patron",
  "type": "feat",
  "img": "systems/pf1/icons/feats/improved-familiar.jpg",
  "effects": [],
  "folder": null,
  "sort": 0,
  "flags": {},
  "system": {
    "description": {
      "value": "<ul>\n<li>2nd — @Compendium[pf1.spells.1hjxxr3k62rcpb5c]{Deathwatch}</li>\n<li>4th — @Compendium[pf1.spells.272szq5d556toqgc]{Blessing of Courage and Life}</li>\n<li>6th — @Compendium[pf1.spells.byn5q46du0ck592a]{Speak with Dead}</li>\n<li>8th — @Compendium[pf1.spells.zaw5yh1c7ftk45tf]{Rest Eternal}</li>\n<li>10th — @Compendium[pf1.spells.ggt7q1ds0fvxxjgx]{Suffocation}</li>\n<li>12th — @Compendium[pf1.spells.3a162m66toj22fpa]{Circle Of Death}</li>\n<li>14th — @Compendium[pf1.spells.7toeli7vcq5a7tv1]{Finger Of Death}</li>\n<li>16th — @Compendium[pf1.spells.g0x2fnktg1553wv1]{Symbol of Death}</li>\n<li>18th — @Compendium[pf1.spells.51ob5y7phwlhcuzz]{Power Word Kill}</li>\n</ul>"
    },
    "tags": [],
    "actions": [],
    "attackNotes": [],
    "effectNotes": [],
    "changes": [],
    "contextNotes": [],
    "links": {
      "children": [],
      "charges": []
    },
    "tag": "classFeat_deathPatron",
    "useCustomTag": true,
    "armorProf": {
      "value": []
    },
    "weaponProf": {
      "value": []
    },
    "languages": {
      "value": []
    },
    "scriptCalls": [],
    "featType": "classFeat",
    "associations": {
      "classes": [["Witch"]]
    }
  },
  "ownership": {
    "default": 0
  },
  "_stats": {
    "systemId": "pf1",
    "systemVersion": "0.82.1",
    "coreVersion": "10.285",
    "createdTime": 1663018769141,
    "modifiedTime": 1663018778529,
    "lastModifiedBy": "DbeAbHwpEqczKjsD"
  }
}
