{
  "_id": "l52geoeGQcQz84AE",
  "name": "Defensive Instinct",
  "type": "feat",
  "img": "systems/pf1/icons/skills/weapon_13.jpg",
  "effects": [],
  "folder": null,
  "sort": 0,
  "flags": {},
  "system": {
    "description": {
      "value": "<p>At 2nd level, when unarmored, not using a shield, unencumbered, and conscious, the shifter adds her Wisdom bonus (if any) to her AC and CMD. If she is wearing nonmetal armor or using a nonmetal shield, she instead adds half her Wisdom bonus to her AC (minimum 0). In addition, the shifter gains a +1 bonus to her AC and CMD at 4th level. This bonus increases by 1 for every 4 shifter levels thereafter (up to a maximum of +5 at 20th level).<br><br>These bonuses to AC apply even against touch attacks and when the shifter is flatfooted. She loses these bonuses when she is immobilized or helpless. These bonuses do not stack with the monk AC bonus class feature.</p>"
    },
    "tags": [],
    "actions": [
      {
        "_id": "103vckoiv4z89y0f",
        "name": "Use",
        "img": "systems/pf1/icons/skills/weapon_13.jpg",
        "description": "",
        "tag": "",
        "activation": {
          "cost": 1,
          "type": "passive"
        },
        "unchainedAction": {
          "activation": {
            "cost": 1,
            "type": "passive"
          }
        },
        "duration": {
          "value": null,
          "units": ""
        },
        "target": {
          "value": ""
        },
        "range": {
          "value": null,
          "units": "",
          "maxIncrements": 1,
          "minValue": null,
          "minUnits": ""
        },
        "uses": {
          "autoDeductCharges": true,
          "autoDeductChargesCost": "1",
          "self": {
            "value": 0,
            "maxFormula": "",
            "per": null
          },
          "per": "",
          "value": 0,
          "maxFormula": ""
        },
        "measureTemplate": {
          "type": "",
          "size": "0",
          "overrideColor": false,
          "customColor": "",
          "overrideTexture": false,
          "customTexture": ""
        },
        "attackName": "",
        "actionType": "",
        "attackBonus": "",
        "critConfirmBonus": "",
        "damage": {
          "parts": [],
          "critParts": [],
          "nonCritParts": []
        },
        "attackParts": [],
        "formulaicAttacks": {
          "count": {
            "formula": ""
          },
          "bonus": {
            "formula": ""
          },
          "label": null
        },
        "formula": "",
        "ability": {
          "attack": null,
          "damage": null,
          "damageMult": 1,
          "critRange": 20,
          "critMult": 2
        },
        "save": {
          "dc": 0,
          "type": "",
          "description": ""
        },
        "effectNotes": [],
        "attackNotes": [],
        "soundEffect": "",
        "powerAttack": {
          "multiplier": "",
          "damageBonus": 2,
          "critMultiplier": 1
        },
        "naturalAttack": {
          "primaryAttack": true,
          "secondary": {
            "attackBonus": "-5",
            "damageMult": 0.5
          }
        },
        "nonlethal": false,
        "usesAmmo": false,
        "spellEffect": "",
        "spellArea": "",
        "conditionals": [],
        "enh": {
          "value": null
        }
      }
    ],
    "uses": {
      "per": ""
    },
    "attackNotes": [],
    "effectNotes": [],
    "changes": [
      {
        "_id": "98mux6b3",
        "formula": "@abilities.wis.mod",
        "operator": "add",
        "subTarget": "ac",
        "modifier": "untyped",
        "priority": 0,
        "value": 0,
        "target": "ac"
      },
      {
        "_id": "gt7tjv6l",
        "formula": "@abilities.wis.mod",
        "operator": "add",
        "subTarget": "cmd",
        "modifier": "untyped",
        "priority": 0,
        "value": 0,
        "target": "misc"
      }
    ],
    "contextNotes": [],
    "links": {
      "children": [],
      "charges": []
    },
    "tag": "classFeat_defensiveInstinct",
    "useCustomTag": true,
    "armorProf": {
      "value": []
    },
    "weaponProf": {
      "value": []
    },
    "languages": {
      "value": []
    },
    "scriptCalls": [],
    "featType": "classFeat",
    "associations": {
      "classes": [["Shifter"]]
    },
    "abilityType": "ex"
  },
  "ownership": {
    "default": 0
  },
  "_stats": {
    "systemId": "pf1",
    "systemVersion": "0.82.1",
    "coreVersion": "10.285",
    "createdTime": 1663018768165,
    "modifiedTime": 1663018778483,
    "lastModifiedBy": "DbeAbHwpEqczKjsD"
  }
}
