{
  "_id": "S7UVH8q3s6SNETrU",
  "name": "Defense Subdomain",
  "type": "feat",
  "img": "systems/pf1/icons/skills/blue_23.jpg",
  "effects": [],
  "folder": null,
  "sort": 0,
  "flags": {},
  "system": {
    "description": {
      "value": "<p><strong>Replacement Domain Spells:</strong></p>\n<ul>\n<li>1st—@Compendium[pf1.spells.sz7j540uypmqqvti]{Shield}</li>\n<li>2nd—@Compendium[pf1.spells.la7kuehewu85ybnt]{Barkskin}</li>\n<li>7th—@Compendium[pf1.spells.oldkskjzzxe6383i]{Deflection}</li>\n</ul>"
    },
    "tags": [],
    "actions": [],
    "attackNotes": [],
    "effectNotes": [],
    "changes": [],
    "contextNotes": [],
    "links": {
      "children": [],
      "charges": []
    },
    "tag": "classFeat_defenseSubdomain",
    "useCustomTag": true,
    "armorProf": {
      "value": []
    },
    "weaponProf": {
      "value": []
    },
    "languages": {
      "value": []
    },
    "scriptCalls": [],
    "featType": "classFeat",
    "associations": {
      "classes": [["Cleric"]]
    }
  },
  "ownership": {
    "default": 0
  },
  "_stats": {
    "systemId": "pf1",
    "systemVersion": "0.82.1",
    "coreVersion": "10.285",
    "createdTime": 1663018765630,
    "modifiedTime": 1663018778268,
    "lastModifiedBy": "DbeAbHwpEqczKjsD"
  }
}
