{
  "_id": "j6zhUWW6CvRSfgdC",
  "name": "Demonic Bulk",
  "type": "feat",
  "img": "systems/pf1/icons/skills/red_05.jpg",
  "effects": [],
  "folder": null,
  "sort": 0,
  "flags": {},
  "system": {
    "description": {
      "value": "<p>At 4th level, when entering a bloodrage, you can choose to grow one size category larger than your base size (as @Compendium[pf1.spells.jnlr9cuepka1l26e]{Enlarge Person}) even if you aren’t humanoid.</p>"
    },
    "tags": [],
    "actions": [],
    "attackNotes": [],
    "effectNotes": [],
    "changes": [],
    "contextNotes": [],
    "links": {
      "children": [],
      "charges": []
    },
    "tag": "classFeat_demonicBulk",
    "useCustomTag": true,
    "armorProf": {
      "value": []
    },
    "weaponProf": {
      "value": []
    },
    "languages": {
      "value": []
    },
    "scriptCalls": [],
    "featType": "classFeat",
    "associations": {
      "classes": [["Bloodrager"]]
    },
    "abilityType": "su"
  },
  "ownership": {
    "default": 0
  },
  "_stats": {
    "systemId": "pf1",
    "systemVersion": "0.82.1",
    "coreVersion": "10.285",
    "createdTime": 1663018767759,
    "modifiedTime": 1663018778472,
    "lastModifiedBy": "DbeAbHwpEqczKjsD"
  }
}
