{
  "_id": "ft9NPARfbXr3SRMY",
  "name": "Designer Poison",
  "type": "feat",
  "img": "systems/pf1/icons/items/potions/unique-3.jpg",
  "effects": [],
  "folder": null,
  "sort": 0,
  "flags": {},
  "system": {
    "description": {
      "value": "<p>The alchemist can create special poisons that are more effective against certain creatures. When crafting a poison, the alchemist can choose a single creature type (and subtype, if appropriate) from the&nbsp;<a href=\"https://aonprd.com/ClassDisplay.aspx?ItemName=Ranger\">ranger’s favored enemy list</a>. Against creatures of the chosen type, the poison’s saving throw DC is increased by 4. Against all other creatures, it is reduced by 2. The alchemist must choose the creature type and subtype (if appropriate) while crafting the poison and afterward cannot change this choice.</p>"
    },
    "tags": [],
    "actions": [],
    "attackNotes": [],
    "effectNotes": [],
    "changes": [],
    "contextNotes": [],
    "links": {
      "children": [],
      "charges": []
    },
    "tag": "classFeat_designerPoison",
    "useCustomTag": true,
    "armorProf": {
      "value": []
    },
    "weaponProf": {
      "value": []
    },
    "languages": {
      "value": []
    },
    "scriptCalls": [],
    "featType": "classFeat",
    "associations": {
      "classes": [["Alchemist"]]
    },
    "abilityType": "ex"
  },
  "ownership": {
    "default": 0
  },
  "_stats": {
    "systemId": "pf1",
    "systemVersion": "0.82.1",
    "coreVersion": "10.285",
    "createdTime": 1663018767199,
    "modifiedTime": 1663018778452,
    "lastModifiedBy": "DbeAbHwpEqczKjsD"
  }
}
