{
  "_id": "QnmdZNxzIHWL7Pkt",
  "name": "Div Bloodline",
  "type": "feat",
  "img": "systems/pf1/icons/races/ifrit.png",
  "effects": [],
  "folder": null,
  "sort": 0,
  "flags": {},
  "system": {
    "description": {
      "value": "<p><em>You can trace your ancestry to one of the foul, corrupted genies known as divs.</em></p>\n<p><strong>Class Skill:</strong>&nbsp;<a href=\"https://www.d20pfsrd.com/skills/knowledge\">Knowledge</a>&nbsp;(planes).</p>\n<p><strong>Bonus Spells:</strong></p>\n<ul>\n<li>@Compendium[pf1.spells.oj36nfak6jc2s5ky]{Disguise Self} (3rd),</li>\n<li>@Compendium[pf1.spells.648x72rflah0ggyz]{Touch of Idiocy} (5th),</li>\n<li>@Compendium[pf1.spells.jdsvncnna6oy189a]{Deeper Darkness} (7th),</li>\n<li>@Compendium[pf1.spells.lsboosfk26m0ycqv]{Bestow Curse} (9th),</li>\n<li>@Compendium[pf1.spells.jdp0mts5razk0qms]{Insect Plague} (11th),</li>\n<li>@Compendium[pf1.spells.sxyiwj0z95piv96i]{Disintegrate} (13th),</li>\n<li>@Compendium[pf1.spells.s6q72tw2zra9sycu]{Insanity} (15th),</li>\n<li>@Compendium[pf1.spells.a5gcbpwfhu4hh5ic]{Earthquake} (17th),</li>\n<li>@Compendium[pf1.spells.nnj51dwfkwd15ngj]{Wish}&nbsp;(19th).</li>\n</ul>\n<p><strong>Bonus Feats:</strong></p>\n<ul>\n<li>@Compendium[pf1.feats.pmAO1Sni8xx71pLF]{Blind-Fight},</li>\n<li>@Compendium[pf1.feats.SUACufUXl12sUvnQ]{Deceitful},</li>\n<li>@Compendium[pf1.feats.77gXSucrxfrE9yWk]{Empower Spell},</li>\n<li>@Compendium[pf1.feats.Uuiu3p982omhMEPj]{Improved Initiative},</li>\n<li>@Compendium[pf1.feats.iAbIGhm7T2OK9Brt]{Iron Will},</li>\n<li>@Compendium[pf1.feats.0bZf3SDkvVOe2ujH]{Lightning Reflexes},</li>\n<li>@Compendium[pf1.feats.L10V7jTzmMYz62zz]{Persuasive},</li>\n<li>@Compendium[pf1.feats.FUW5mIXHNBBIQ1Sq]{Power Attack}.</li>\n</ul>\n<p><strong>Bloodline Arcana:</strong> Whenever you deal damage to more than one creature with a spell that affects an area, the save DCs of your spells increase by 1 for 1d4 rounds.</p>"
    },
    "tags": [],
    "actions": [],
    "attackNotes": [],
    "effectNotes": [],
    "changes": [],
    "contextNotes": [],
    "links": {
      "children": [],
      "charges": []
    },
    "tag": "classFeat_divBloodline",
    "useCustomTag": true,
    "armorProf": {
      "value": []
    },
    "weaponProf": {
      "value": []
    },
    "languages": {
      "value": []
    },
    "scriptCalls": [],
    "featType": "classFeat",
    "associations": {
      "classes": [["Sorcerer"]]
    }
  },
  "ownership": {
    "default": 0
  },
  "_stats": {
    "systemId": "pf1",
    "systemVersion": "0.82.1",
    "coreVersion": "10.285",
    "createdTime": 1663018765294,
    "modifiedTime": 1663018778257,
    "lastModifiedBy": "DbeAbHwpEqczKjsD"
  }
}
