{
  "_id": "2PNDwkKxemIJhSM6",
  "name": "Dragon Final Revelation",
  "type": "feat",
  "img": "systems/pf1/icons/spells/light-royal-1.jpg",
  "effects": [],
  "folder": null,
  "sort": 0,
  "flags": {},
  "system": {
    "description": {
      "value": "<p>Upon reaching 20th level, your draconic destiny unfolds. You gain immunity to paralysis, sleep, and damage of your energy type. You count as a dragon for the purposes of spells and magical effects. If you have the breath weapon revelation, you can use your breath weapon an unlimited number of times per day, though no more often than once every 1d4+1 rounds.</p>"
    },
    "tags": [],
    "actions": [],
    "attackNotes": [],
    "effectNotes": [],
    "changes": [],
    "contextNotes": [],
    "links": {
      "children": [],
      "charges": []
    },
    "tag": "classFeat_dragonFinalRevelation",
    "useCustomTag": true,
    "armorProf": {
      "value": []
    },
    "weaponProf": {
      "value": []
    },
    "languages": {
      "value": []
    },
    "scriptCalls": [],
    "featType": "classFeat",
    "associations": {
      "classes": [["Oracle"]]
    }
  },
  "ownership": {
    "default": 0
  },
  "_stats": {
    "systemId": "pf1",
    "systemVersion": "0.82.1",
    "coreVersion": "10.285",
    "createdTime": 1663018762014,
    "modifiedTime": 1663018778083,
    "lastModifiedBy": "DbeAbHwpEqczKjsD"
  }
}
