{
  "_id": "MdApSQ6WTlfavex0",
  "name": "Dragonfly Aspect",
  "type": "feat",
  "img": "systems/pf1/icons/skills/blue_29.jpg",
  "effects": [],
  "folder": null,
  "sort": 0,
  "flags": {},
  "system": {
    "description": {
      "value": "<p><em>The aspect of the dragonfly offers the ability to make quick, darting attacks at foes.</em><br><br><strong>Minor Form:</strong> You gain an enhancement bonus of +10 feet to your base speed when charging.</p>\n<p>This bonus increases to +20 feet at 8th level and +30 feet at 15th level.<br><br><strong>Major Form:</strong> Your shape changes to that of a&nbsp;<a href=\"https://www.aonprd.com/MonsterDisplay.aspx?ItemName=Giant%20Dragonfly\">giant dragonfly</a>. While in this form, you gain a fly speed of 60 feet (average), darkvision with a range of 60 feet, and a bite attack (2d6) with the&nbsp;<a href=\"https://www.aonprd.com/UMR.aspx?ItemName=Grab\">grab</a>&nbsp;ability.</p>\n<p>At 8th level, you gain&nbsp;<a href=\"https://www.aonprd.com/FeatDisplay.aspx?ItemName=Flyby%20Attack\">Flyby Attack</a>&nbsp;as a bonus feat, and your fly speed improves to 60 feet (good).</p>\n<p>At 15th level, your fly speed increases to 80 feet (perfect), and if you charge while flying, you gain a +4 bonus on grapple combat maneuver checks for 1 round.<br><br><strong>Alternate Natural Attacks:</strong> Bite (B, P, S), wing (B)</p>"
    },
    "tags": [],
    "actions": [],
    "attackNotes": [],
    "effectNotes": [],
    "changes": [],
    "contextNotes": [],
    "links": {
      "children": [],
      "charges": []
    },
    "tag": "classFeat_dragonflyAspect",
    "useCustomTag": true,
    "armorProf": {
      "value": []
    },
    "weaponProf": {
      "value": []
    },
    "languages": {
      "value": []
    },
    "scriptCalls": [],
    "featType": "classFeat",
    "associations": {
      "classes": [["Shifter"]]
    }
  },
  "ownership": {
    "default": 0
  },
  "_stats": {
    "systemId": "pf1",
    "systemVersion": "0.82.1",
    "coreVersion": "10.285",
    "createdTime": 1663018764825,
    "modifiedTime": 1663018778232,
    "lastModifiedBy": "DbeAbHwpEqczKjsD"
  }
}
