{
  "_id": "LmH1qQLC1Thq0mgj",
  "name": "Earth Walk",
  "type": "feat",
  "img": "systems/pf1/icons/spells/rock-sky-3.jpg",
  "effects": [],
  "folder": null,
  "sort": 0,
  "flags": {},
  "system": {
    "description": {
      "value": "<p><strong>Element&nbsp;</strong>earth;&nbsp;<strong>Type&nbsp;</strong>utility (Su);&nbsp;<strong>Level&nbsp;</strong>1;&nbsp;<strong>Burn&nbsp;</strong>—</p>\n<p>Because you meld very slightly into the earth, when you are standing on an earthen surface, you ignore difficult terrain caused by rocks, earth, or mud, and while on such surfaces you add your elemental overflow bonus to your CMD against being moved or tripped and on Acrobatics checks to balance.</p>"
    },
    "tags": [],
    "actions": [],
    "attackNotes": [],
    "effectNotes": [],
    "changes": [],
    "contextNotes": [],
    "links": {
      "children": [],
      "charges": []
    },
    "tag": "classFeat_earthWalk",
    "useCustomTag": true,
    "armorProf": {
      "value": []
    },
    "weaponProf": {
      "value": []
    },
    "languages": {
      "value": []
    },
    "scriptCalls": [],
    "featType": "classFeat",
    "associations": {
      "classes": [["Kineticist"]]
    },
    "abilityType": "su"
  },
  "ownership": {
    "default": 0
  },
  "_stats": {
    "systemId": "pf1",
    "systemVersion": "0.82.1",
    "coreVersion": "10.285",
    "createdTime": 1663018764769,
    "modifiedTime": 1663018778226,
    "lastModifiedBy": "DbeAbHwpEqczKjsD"
  }
}
