{
  "_id": "52a1zms2sSPXQsf9",
  "name": "Earth Climb",
  "type": "feat",
  "img": "systems/pf1/icons/spells/rock-sky-3.jpg",
  "effects": [],
  "folder": null,
  "sort": 0,
  "flags": {},
  "system": {
    "description": {
      "value": "<p><strong>Element&nbsp;</strong>earth;&nbsp;<strong>Type&nbsp;</strong>utility (Su);&nbsp;<strong>Level&nbsp;</strong>2;&nbsp;<strong>Burn&nbsp;</strong>0</p>\n<p>You use your connection to earth to meld slightly into stone and earthen surfaces, granting you a climb speed equal to your base land speed when climbing such surfaces.</p>"
    },
    "tags": [],
    "actions": [],
    "attackNotes": [],
    "effectNotes": [],
    "changes": [],
    "contextNotes": [],
    "links": {
      "children": [],
      "charges": []
    },
    "tag": "classFeat_earthClimb",
    "useCustomTag": true,
    "armorProf": {
      "value": []
    },
    "weaponProf": {
      "value": []
    },
    "languages": {
      "value": []
    },
    "scriptCalls": [],
    "featType": "classFeat",
    "associations": {
      "classes": [["Kineticist"]]
    },
    "abilityType": "su"
  },
  "ownership": {
    "default": 0
  },
  "_stats": {
    "systemId": "pf1",
    "systemVersion": "0.82.1",
    "coreVersion": "10.285",
    "createdTime": 1663018762453,
    "modifiedTime": 1663018778104,
    "lastModifiedBy": "DbeAbHwpEqczKjsD"
  }
}
