{
  "_id": "W0aYzpFsFwSh5Gj4",
  "name": "Ectoplasmic Damage Reduction",
  "type": "feat",
  "img": "systems/pf1/icons/skills/blood_12.jpg",
  "effects": [],
  "folder": null,
  "sort": 0,
  "flags": {},
  "system": {
    "description": {
      "value": "<p>A phantom manifested in ectoplasmic form has DR 5/slashing.</p>\n<p>When the spiritualist reaches 5th level, the phantom gains DR 5/magic.</p>\n<p>At 10th level, the damage resistance increases to 10/magic.</p>\n<p>At 15th level, it increases to 15/magic, and at 20th level, the damage reduction becomes DR 15/—.</p>"
    },
    "tags": [],
    "actions": [],
    "attackNotes": [],
    "effectNotes": [],
    "changes": [],
    "contextNotes": [],
    "links": {
      "children": [],
      "charges": []
    },
    "tag": "classFeat_ectoplasmicDamageReduction",
    "useCustomTag": true,
    "armorProf": {
      "value": []
    },
    "weaponProf": {
      "value": []
    },
    "languages": {
      "value": []
    },
    "scriptCalls": [],
    "featType": "classFeat",
    "associations": {
      "classes": [["Spiritualist"], ["Phantom"]]
    }
  },
  "ownership": {
    "default": 0
  },
  "_stats": {
    "systemId": "pf1",
    "systemVersion": "0.82.1",
    "coreVersion": "10.285",
    "createdTime": 1663018766095,
    "modifiedTime": 1663018778287,
    "lastModifiedBy": "DbeAbHwpEqczKjsD"
  }
}
