{
  "_id": "poEUzzjCcYfWjEHA",
  "name": "Elemental Whispers",
  "type": "feat",
  "img": "systems/pf1/icons/spells/runes-blue-1.jpg",
  "effects": [],
  "folder": null,
  "sort": 0,
  "flags": {},
  "system": {
    "description": {
      "value": "<p><strong>Element&nbsp;</strong>universal;&nbsp;<strong>Type&nbsp;</strong>utility (Su);&nbsp;<strong>Level&nbsp;</strong>1;&nbsp;<strong>Burn&nbsp;</strong>0</p>\n<p>You form a friendship with a fragment of your element. The element speaks back to you empathically, like a familiar. Pick a type of creature usually allowed as a familiar when you gain this wild talent. You gain the Alertness feat and the special abilities granted by a familiar of that type. As a standard action, you can give the voice of the element the body of such a creature, using elemental matter of the appropriate element within 30 feet.</p>\n<p>As long as you concentrate, the familiar can take actions as a normal animal of its type, and it can move any distance away from you, though if it takes any damage or you cease concentrating, it returns to your mind. You lose Alertness while the familiar is manifested in this way. The familiar gains abilities as usual for a familiar of its type, though it never gains the ability to speak with animals of its kind.</p>"
    },
    "tags": [],
    "actions": [],
    "attackNotes": [],
    "effectNotes": [],
    "changes": [],
    "contextNotes": [],
    "links": {
      "children": [],
      "charges": []
    },
    "tag": "classFeat_elementalWhispers",
    "useCustomTag": true,
    "armorProf": {
      "value": []
    },
    "weaponProf": {
      "value": []
    },
    "languages": {
      "value": []
    },
    "scriptCalls": [],
    "featType": "classFeat",
    "associations": {
      "classes": [["Kineticist"]]
    },
    "abilityType": "su"
  },
  "ownership": {
    "default": 0
  },
  "_stats": {
    "systemId": "pf1",
    "systemVersion": "0.82.1",
    "coreVersion": "10.285",
    "createdTime": 1663018768731,
    "modifiedTime": 1663018778512,
    "lastModifiedBy": "DbeAbHwpEqczKjsD"
  }
}
