{
  "_id": "4SnRYolTwZqq5Nbw",
  "name": "Energy Resistance",
  "type": "feat",
  "img": "systems/pf1/icons/feats/deafening-critical.jpg",
  "effects": [],
  "folder": null,
  "sort": 0,
  "flags": {},
  "system": {
    "description": {
      "value": "<p>While raging, the barbarian gains resistance to one energy type (acid, cold, electricity, fire, or sonic) equal to 1/2 her barbarian level (minimum 1). The energy type is chosen when this rage power is selected and it cannot be changed. This rage power can be selected more than once. Its effects do not stack. Each time is applies to a different energy type.</p>"
    },
    "tags": [],
    "actions": [],
    "attackNotes": [],
    "effectNotes": [],
    "changes": [],
    "contextNotes": [],
    "links": {
      "children": [],
      "charges": []
    },
    "tag": "classFeat_energyResistance",
    "useCustomTag": true,
    "armorProf": {
      "value": []
    },
    "weaponProf": {
      "value": []
    },
    "languages": {
      "value": []
    },
    "scriptCalls": [],
    "featType": "classFeat",
    "associations": {
      "classes": [["Barbarian"], ["Skald"]]
    },
    "abilityType": "ex"
  },
  "ownership": {
    "default": 0
  },
  "_stats": {
    "systemId": "pf1",
    "systemVersion": "0.82.1",
    "coreVersion": "10.285",
    "createdTime": 1663018762409,
    "modifiedTime": 1663018778099,
    "lastModifiedBy": "DbeAbHwpEqczKjsD"
  }
}
