{
  "_id": "8GVwxb8WviIeUq0L",
  "name": "Entropy Subdomain",
  "type": "feat",
  "img": "systems/pf1/icons/skills/emerald_09.jpg",
  "effects": [],
  "folder": null,
  "sort": 0,
  "flags": {},
  "system": {
    "description": {
      "value": "<p><strong>Replacement Domain Spells:</strong></p>\n<ul>\n<li>1st—@Compendium[pf1.spells.ja005kj1gh7g0dnk]{Entropic Shield}</li>\n<li>3rd— @Compendium[pf1.spells.gmgwyjfpeuuc4t4o]{Dispel Magic}</li>\n<li>5th—@Compendium[pf1.spells.n0bsyxchnigkkuqo]{Confusion}</li>\n<li>7th—@Compendium[pf1.spells.rlfd7f64wgjfvg6e]{Destruction}</li>\n</ul>"
    },
    "tags": [],
    "actions": [],
    "attackNotes": [],
    "effectNotes": [],
    "changes": [],
    "contextNotes": [],
    "links": {
      "children": [],
      "charges": []
    },
    "tag": "classFeat_entropySubdomain",
    "useCustomTag": true,
    "armorProf": {
      "value": []
    },
    "weaponProf": {
      "value": []
    },
    "languages": {
      "value": []
    },
    "scriptCalls": [],
    "featType": "classFeat",
    "associations": {
      "classes": [["Cleric"]]
    }
  },
  "ownership": {
    "default": 0
  },
  "_stats": {
    "systemId": "pf1",
    "systemVersion": "0.82.1",
    "coreVersion": "10.285",
    "createdTime": 1663018762934,
    "modifiedTime": 1663018778130,
    "lastModifiedBy": "DbeAbHwpEqczKjsD"
  }
}
