{
  "_id": "pMWfISpp18FX3gDk",
  "name": "Erratic Charge, Greater",
  "type": "feat",
  "img": "systems/pf1/icons/feats/deafening-critical.jpg",
  "effects": [],
  "folder": null,
  "sort": 0,
  "flags": {},
  "system": {
    "description": {
      "value": "<p>The barbarian can move 10 feet when using erratic charge. If she does so, the creature she is charging must be at least 20 feet away and the movement reduces the maximum distance of her charge by 20 feet.</p>\n<p>A barbarian must be at least 8th level and must have the erratic charge rage power before selecting this power.</p>"
    },
    "tags": [],
    "actions": [],
    "attackNotes": [],
    "effectNotes": [],
    "changes": [],
    "contextNotes": [],
    "links": {
      "children": [],
      "charges": []
    },
    "tag": "classFeat_erraticChargeGreater",
    "useCustomTag": true,
    "armorProf": {
      "value": []
    },
    "weaponProf": {
      "value": []
    },
    "languages": {
      "value": []
    },
    "scriptCalls": [],
    "featType": "classFeat",
    "associations": {
      "classes": [["Barbarian"], ["Skald"]]
    },
    "abilityType": "ex"
  },
  "ownership": {
    "default": 0
  },
  "_stats": {
    "systemId": "pf1",
    "systemVersion": "0.82.1",
    "coreVersion": "10.285",
    "createdTime": 1663018768706,
    "modifiedTime": 1663018778510,
    "lastModifiedBy": "DbeAbHwpEqczKjsD"
  }
}
