{
  "_id": "LRJHEM4lrlOVWt7V",
  "name": "Everyman",
  "type": "feat",
  "img": "systems/pf1/icons/skills/light_07.jpg",
  "effects": [],
  "folder": null,
  "sort": 0,
  "flags": {},
  "system": {
    "description": {
      "value": "<p>The vigilante can take on the appearance of a specific individual whenever he assumes a mundane guise using his many guises social talent. The individual must be a farmer, laborer, or peasant. While disguised as this individual, the vigilante receives a +20 circumstance bonus on Disguise checks to appear as that individual. Any spell or ability designed to locate the individual has a 50% chance of finding the vigilante instead of the actual individual, and divination spells and abilities used on the vigilante give results as if he were the actual individual. Although this doesn’t grant the vigilante any special knowledge of the individual, the vigilante’s training grants him a +10 circumstance bonus on Bluff checks to properly play the part of the individual.</p>\n<p>A vigilante must be at least 11th level and have the many guises social talent to select this talent.</p>"
    },
    "tags": [],
    "actions": [],
    "attackNotes": [],
    "effectNotes": [],
    "changes": [],
    "contextNotes": [],
    "links": {
      "children": [],
      "charges": []
    },
    "tag": "classFeat_everyman",
    "useCustomTag": true,
    "armorProf": {
      "value": []
    },
    "weaponProf": {
      "value": []
    },
    "languages": {
      "value": []
    },
    "scriptCalls": [],
    "featType": "classFeat",
    "associations": {
      "classes": [["Vigilante"]]
    },
    "abilityType": "ex"
  },
  "ownership": {
    "default": 0
  },
  "_stats": {
    "systemId": "pf1",
    "systemVersion": "0.82.1",
    "coreVersion": "10.285",
    "createdTime": 1663018764748,
    "modifiedTime": 1663018778224,
    "lastModifiedBy": "DbeAbHwpEqczKjsD"
  }
}
