{
  "_id": "6aiPH3iI5bqykMOC",
  "name": "Exploration Subdomain",
  "type": "feat",
  "img": "systems/pf1/icons/items/inventory/map-xmark.jpg",
  "effects": [],
  "folder": null,
  "sort": 0,
  "flags": {},
  "system": {
    "description": {
      "value": "<p><strong>Replacement Domain Spells: </strong></p>\n<ul>\n<li>1st—@Compendium[pf1.spells.pysrx5kxfjvsjjsi]{Expeditious Retreat}</li>\n<li>4th—@Compendium[pf1.spells.vl2mznu91c3efcam]{Locate Creature}</li>\n<li>9th—@Compendium[pf1.spells.refg1teqkrdtxllg]{World Wave}</li>\n</ul>"
    },
    "tags": [],
    "actions": [],
    "attackNotes": [],
    "effectNotes": [],
    "changes": [],
    "contextNotes": [],
    "links": {
      "children": [],
      "charges": []
    },
    "tag": "classFeat_explorationSubdomain",
    "useCustomTag": true,
    "armorProf": {
      "value": []
    },
    "weaponProf": {
      "value": []
    },
    "languages": {
      "value": []
    },
    "scriptCalls": [],
    "featType": "classFeat",
    "associations": {
      "classes": [["Cleric"]]
    }
  },
  "ownership": {
    "default": 0
  },
  "_stats": {
    "systemId": "pf1",
    "systemVersion": "0.82.1",
    "coreVersion": "10.285",
    "createdTime": 1663018762573,
    "modifiedTime": 1663018778118,
    "lastModifiedBy": "DbeAbHwpEqczKjsD"
  }
}
