{
  "_id": "CJt6AlnYI8tiRV5l",
  "name": "False Attacker",
  "type": "feat",
  "img": "systems/pf1/icons/items/weapons/dagger.PNG",
  "effects": [],
  "folder": null,
  "sort": 0,
  "flags": {},
  "system": {
    "description": {
      "value": "<p>Whenever the rogue strikes a foe from hiding, she can attempt a Bluff check as an immediate action (opposed by the target’s Sense Motive or Perception check, whichever has a higher bonus) before rolling damage to convince the foe that another creature was the attacker. This Bluff check applies the normal modifiers for convincing a creature of a falsehood, but can be accomplished with just physical trickery (a shared language is not required). If the Bluff is successful, and the rogue maintains concealment or cover, the rogue’s stealth does not end.</p>"
    },
    "tags": [],
    "actions": [],
    "attackNotes": [],
    "effectNotes": [],
    "changes": [],
    "contextNotes": [],
    "links": {
      "children": [],
      "charges": []
    },
    "tag": "classFeat_falseAttacker",
    "useCustomTag": true,
    "armorProf": {
      "value": []
    },
    "weaponProf": {
      "value": []
    },
    "languages": {
      "value": []
    },
    "scriptCalls": [],
    "featType": "classFeat",
    "associations": {
      "classes": [["Rogue"]]
    },
    "abilityType": "ex"
  },
  "ownership": {
    "default": 0
  },
  "_stats": {
    "systemId": "pf1",
    "systemVersion": "0.82.1",
    "coreVersion": "10.285",
    "createdTime": 1663018763440,
    "modifiedTime": 1663018778162,
    "lastModifiedBy": "DbeAbHwpEqczKjsD"
  }
}
