{
  "_id": "nwSHa3n3z9DWNlj4",
  "name": "Fascinate (SOR)",
  "type": "feat",
  "img": "systems/pf1/icons/skills/shadow_20.jpg",
  "effects": [],
  "folder": null,
  "sort": 0,
  "flags": {},
  "system": {
    "description": {
      "value": "<p>At 3rd level, you gain the ability to use a&nbsp;<a href=\"https://www.d20pfsrd.com/skills/perform\">Perform</a>&nbsp;skill to cause one or more creatures to become&nbsp;<a href=\"https://www.d20pfsrd.com/gamemastering/conditions#TOC-Fascinated\">fascinated</a>&nbsp;with you. This acts as the&nbsp;<a href=\"https://www.d20pfsrd.com/classes/core-classes/bard#TOC-Fascinate-Su-\">fascinate</a>&nbsp;bardic perform ability, except the save DC is 10 + 1/2 your sorcerer level + your&nbsp;<a href=\"https://www.d20pfsrd.com/basics-ability-scores/ability-scores#TOC-Charisma-Cha-\">Charisma</a>&nbsp;bonus, and it lasts 1 round/level. You may use this ability once per day at 3rd level, twice per day at 8th level, three times per day at 13th level, and four times per day at 18th level.</p>"
    },
    "tags": [],
    "actions": [
      {
        "_id": "r7w4kv7poamme2fo",
        "name": "Use",
        "img": "systems/pf1/icons/skills/shadow_20.jpg",
        "description": "",
        "tag": "",
        "activation": {
          "cost": 1,
          "type": "standard"
        },
        "unchainedAction": {
          "activation": {
            "cost": 2,
            "type": "action"
          }
        },
        "duration": {
          "value": null,
          "units": ""
        },
        "target": {
          "value": ""
        },
        "range": {
          "value": null,
          "units": "",
          "maxIncrements": 1,
          "minValue": null,
          "minUnits": ""
        },
        "uses": {
          "autoDeductCharges": true,
          "autoDeductChargesCost": "1",
          "self": {
            "value": 0,
            "maxFormula": "",
            "per": null
          },
          "per": "day",
          "value": 0,
          "maxFormula": "1 + floor((@classes.sorcerer.level - 3) / 5)"
        },
        "measureTemplate": {
          "type": "",
          "size": "0",
          "overrideColor": false,
          "customColor": "",
          "overrideTexture": false,
          "customTexture": ""
        },
        "attackName": "",
        "actionType": "",
        "attackBonus": "",
        "critConfirmBonus": "",
        "damage": {
          "parts": [],
          "critParts": [],
          "nonCritParts": []
        },
        "attackParts": [],
        "formulaicAttacks": {
          "count": {
            "formula": ""
          },
          "bonus": {
            "formula": ""
          },
          "label": null
        },
        "formula": "",
        "ability": {
          "attack": null,
          "damage": null,
          "damageMult": 1,
          "critRange": 20,
          "critMult": 2
        },
        "save": {
          "dc": 0,
          "type": "",
          "description": ""
        },
        "effectNotes": [],
        "attackNotes": [],
        "soundEffect": "",
        "powerAttack": {
          "multiplier": "",
          "damageBonus": 2,
          "critMultiplier": 1
        },
        "naturalAttack": {
          "primaryAttack": true,
          "secondary": {
            "attackBonus": "-5",
            "damageMult": 0.5
          }
        },
        "nonlethal": false,
        "usesAmmo": false,
        "spellEffect": "",
        "spellArea": "",
        "conditionals": [],
        "enh": {
          "value": null
        }
      }
    ],
    "uses": {
      "per": "day",
      "maxFormula": "1 + floor((@classes.sorcerer.level - 3) / 5)"
    },
    "attackNotes": [],
    "effectNotes": [],
    "changes": [],
    "contextNotes": [],
    "links": {
      "children": [],
      "charges": []
    },
    "tag": "classFeat_fascinateSor",
    "useCustomTag": true,
    "armorProf": {
      "value": []
    },
    "weaponProf": {
      "value": []
    },
    "languages": {
      "value": []
    },
    "scriptCalls": [],
    "featType": "classFeat",
    "associations": {
      "classes": []
    },
    "abilityType": "ex",
    "classSkills": {
      "acr": false,
      "apr": false,
      "art": false,
      "blf": false,
      "clm": false,
      "crf": false,
      "dip": false,
      "dev": false,
      "dis": false,
      "esc": false,
      "fly": false,
      "han": false,
      "hea": false,
      "int": false,
      "kar": false,
      "kdu": false,
      "ken": false,
      "kge": false,
      "khi": false,
      "klo": false,
      "kna": false,
      "kno": false,
      "kpl": false,
      "kre": false,
      "lin": false,
      "lor": false,
      "per": false,
      "prf": false,
      "pro": false,
      "rid": false,
      "sen": false,
      "slt": false,
      "spl": false,
      "ste": false,
      "sur": false,
      "swm": false,
      "umd": false
    }
  },
  "ownership": {
    "default": 0
  },
  "_stats": {
    "systemId": "pf1",
    "systemVersion": "0.82.1",
    "coreVersion": "10.285",
    "createdTime": 1663018768637,
    "modifiedTime": 1663018778503,
    "lastModifiedBy": "DbeAbHwpEqczKjsD"
  }
}
