{
  "_id": "jqwaprIJkMorI8Dp",
  "name": "Ferocious Beast",
  "type": "feat",
  "img": "systems/pf1/icons/feats/deafening-critical.jpg",
  "effects": [],
  "folder": null,
  "sort": 0,
  "flags": {},
  "system": {
    "description": {
      "value": "<p>While the barbarian is raging, her animal companion also gains the benefits of rage (including greater rage, mighty rage, and tireless rage), though the barbarian must spend 1 additional round of rage per round if her companion begins or ends its turn adjacent to her, and 2 additional rounds of rage per round if not.</p>"
    },
    "tags": [],
    "actions": [],
    "attackNotes": [],
    "effectNotes": [],
    "changes": [],
    "contextNotes": [],
    "links": {
      "children": [],
      "charges": []
    },
    "tag": "classFeat_ferociousBeast",
    "useCustomTag": true,
    "armorProf": {
      "value": []
    },
    "weaponProf": {
      "value": []
    },
    "languages": {
      "value": []
    },
    "scriptCalls": [],
    "featType": "classFeat",
    "associations": {
      "classes": [["Barbarian"], ["Skald"]]
    },
    "abilityType": "ex"
  },
  "ownership": {
    "default": 0
  },
  "_stats": {
    "systemId": "pf1",
    "systemVersion": "0.82.1",
    "coreVersion": "10.285",
    "createdTime": 1663018767802,
    "modifiedTime": 1663018778476,
    "lastModifiedBy": "DbeAbHwpEqczKjsD"
  }
}
