{
  "_id": "zWzFGGYmK02jwRav",
  "name": "Flame Shield",
  "type": "feat",
  "img": "systems/pf1/icons/spells/fireball-red-3.jpg",
  "effects": [],
  "folder": null,
  "sort": 0,
  "flags": {},
  "system": {
    "description": {
      "value": "<p><strong>Element&nbsp;</strong>fire;&nbsp;<strong>Type&nbsp;</strong>utility (Sp);&nbsp;<strong>Level&nbsp;</strong>5;&nbsp;<strong>Burn&nbsp;</strong>1<br><strong>Prerequisite&nbsp;</strong>searing flesh</p>\n<p>Flickering flames surround you until the next time your burn is removed. While your searing flesh infusion is active, any creature that strikes you with a melee attack takes an amount of fire damage equal to 1/2 your kineticist level unless it is using a reach weapon. If the creature also takes damage from your searing flesh, it applies fire resistance only once against the total damage from both effects.</p>\n<p>You also gain the protection from cold of a warm&nbsp;fire shield. An attack that would deal an amount of cold damage equal to at least double your kineticist level (before you applied the protection) freezes away your flame shield after you apply its protection, ending the flame shield early.</p>"
    },
    "tags": [],
    "actions": [],
    "attackNotes": [],
    "effectNotes": [],
    "changes": [],
    "contextNotes": [],
    "links": {
      "children": [],
      "charges": []
    },
    "tag": "classFeat_flameShield",
    "useCustomTag": true,
    "armorProf": {
      "value": []
    },
    "weaponProf": {
      "value": []
    },
    "languages": {
      "value": []
    },
    "scriptCalls": [],
    "featType": "classFeat",
    "associations": {
      "classes": [["Kineticist"]]
    },
    "abilityType": "sp"
  },
  "ownership": {
    "default": 0
  },
  "_stats": {
    "systemId": "pf1",
    "systemVersion": "0.82.1",
    "coreVersion": "10.285",
    "createdTime": 1663018770103,
    "modifiedTime": 1663018778580,
    "lastModifiedBy": "DbeAbHwpEqczKjsD"
  }
}
