{
  "_id": "TXGAg84E7T6MFA8v",
  "name": "Flawless Mind (UC)",
  "type": "feat",
  "img": "systems/pf1/icons/skills/blue_35.jpg",
  "effects": [],
  "folder": null,
  "sort": 0,
  "flags": {},
  "system": {
    "description": {
      "value": "<p>At 19th level, a monk gains total control over his mental faculties. Whenever he attempts a Will save, he can roll twice and take the better result. If he fails a Will saving throw against a spell or effect that has a duration longer than 1 hour, the monk can attempt a new saving throw at the end of each hour to end the effect.</p>"
    },
    "tags": [],
    "actions": [],
    "attackNotes": [],
    "effectNotes": [],
    "changes": [],
    "contextNotes": [],
    "links": {
      "children": [],
      "charges": []
    },
    "tag": "classFeat_flawlessMindUc",
    "useCustomTag": true,
    "armorProf": {
      "value": []
    },
    "weaponProf": {
      "value": []
    },
    "languages": {
      "value": []
    },
    "scriptCalls": [],
    "featType": "classFeat",
    "associations": {
      "classes": [["Monk (Unchained)"]]
    }
  },
  "ownership": {
    "default": 0
  },
  "_stats": {
    "systemId": "pf1",
    "systemVersion": "0.82.1",
    "coreVersion": "10.285",
    "createdTime": 1663018765698,
    "modifiedTime": 1663018778275,
    "lastModifiedBy": "DbeAbHwpEqczKjsD"
  }
}
