{
  "_id": "eSBAqJV9AZLiWdux",
  "name": "Force Barrier",
  "type": "feat",
  "img": "systems/pf1/icons/spells/link-blue-2.jpg",
  "effects": [],
  "folder": null,
  "sort": 0,
  "flags": {},
  "system": {
    "description": {
      "value": "<p><strong>Element&nbsp;</strong>aether;&nbsp;<strong>Type&nbsp;</strong>utility (Sp);&nbsp;<strong>Level&nbsp;</strong>5;&nbsp;<strong>Burn&nbsp;</strong>0<br><strong>Prerequisite&nbsp;</strong>force ward</p>\n<p>You create an immobile sphere or hemisphere of force around your square or squares. The force barrier functions as a&nbsp;wall of force&nbsp;in all other ways. Activating this ability is a standard action, and the barrier lasts until the beginning of your next turn.</p>\n<p>Each round, just before the barrier would disappear, you can extend its duration by accepting 1 point of burn. If an attack manages to destroy the force barrier, you immediately take 1 point of burn.</p>"
    },
    "tags": [],
    "actions": [],
    "attackNotes": [],
    "effectNotes": [],
    "changes": [],
    "contextNotes": [],
    "links": {
      "children": [],
      "charges": []
    },
    "tag": "classFeat_forceBarrier",
    "useCustomTag": true,
    "armorProf": {
      "value": []
    },
    "weaponProf": {
      "value": []
    },
    "languages": {
      "value": []
    },
    "scriptCalls": [],
    "featType": "classFeat",
    "associations": {
      "classes": [["Kineticist"]]
    },
    "abilityType": "sp"
  },
  "ownership": {
    "default": 0
  },
  "_stats": {
    "systemId": "pf1",
    "systemVersion": "0.82.1",
    "coreVersion": "10.285",
    "createdTime": 1663018767125,
    "modifiedTime": 1663018778438,
    "lastModifiedBy": "DbeAbHwpEqczKjsD"
  }
}
