{
  "_id": "EclIoodZh17RhZul",
  "name": "Foresight Subschool",
  "type": "feat",
  "img": "systems/pf1/icons/spells/wind-grasp-acid-1.jpg",
  "effects": [],
  "folder": null,
  "sort": 0,
  "flags": {},
  "system": {
    "description": {
      "value": "<p><strong>Associated School:</strong>&nbsp;<a href=\"https://www.d20pfsrd.com/magic#TOC-Divination\">Divination</a>.</p>\n<p><strong>Replacement Powers:</strong> This subschool replaces the diviner’s fortune and scrying adept powers of the&nbsp;<a href=\"https://www.d20pfsrd.com/magic#TOC-Divination\">divination</a>&nbsp;school.</p>"
    },
    "tags": [],
    "actions": [],
    "attackNotes": [],
    "effectNotes": [],
    "changes": [],
    "contextNotes": [],
    "links": {
      "children": [],
      "charges": []
    },
    "tag": "classFeat_foresightSubschool",
    "useCustomTag": true,
    "armorProf": {
      "value": []
    },
    "weaponProf": {
      "value": []
    },
    "languages": {
      "value": []
    },
    "scriptCalls": [],
    "featType": "classFeat",
    "associations": {
      "classes": [["Wizard"]]
    }
  },
  "ownership": {
    "default": 0
  },
  "_stats": {
    "systemId": "pf1",
    "systemVersion": "0.82.1",
    "coreVersion": "10.285",
    "createdTime": 1663018763831,
    "modifiedTime": 1663018778179,
    "lastModifiedBy": "DbeAbHwpEqczKjsD"
  }
}
