{
  "_id": "3JVlCaM9bCNgyerV",
  "name": "Furious Draw",
  "type": "feat",
  "img": "systems/pf1/icons/feats/deafening-critical.jpg",
  "effects": [],
  "folder": null,
  "sort": 0,
  "flags": {},
  "system": {
    "description": {
      "value": "<p>The barbarian is treated as having the @Compendium[pf1.feats.WKIVfdosc5SqYzmP]{Quick Draw}&nbsp;feat.</p>"
    },
    "tags": [],
    "actions": [],
    "attackNotes": [],
    "effectNotes": [],
    "changes": [],
    "contextNotes": [],
    "links": {
      "children": [],
      "charges": []
    },
    "tag": "classFeat_furiousDraw",
    "useCustomTag": true,
    "armorProf": {
      "value": []
    },
    "weaponProf": {
      "value": []
    },
    "languages": {
      "value": []
    },
    "scriptCalls": [],
    "featType": "classFeat",
    "associations": {
      "classes": [["Barbarian"], ["Skald"]]
    }
  },
  "ownership": {
    "default": 0
  },
  "_stats": {
    "systemId": "pf1",
    "systemVersion": "0.82.1",
    "coreVersion": "10.285",
    "createdTime": 1663018762077,
    "modifiedTime": 1663018778091,
    "lastModifiedBy": "DbeAbHwpEqczKjsD"
  }
}
