{
  "_id": "NSzzBmnzVrETYFRA",
  "name": "Gator Wrangle",
  "type": "feat",
  "img": "systems/pf1/icons/feats/deceitful.jpg",
  "effects": [],
  "folder": null,
  "sort": 0,
  "flags": {},
  "system": {
    "description": {
      "value": "<p>The vigilante gains a +8 bonus to his CMD against grapple combat maneuvers when using the grab ability, and he halves all damage from constrict attacks. When attacking a creature that is grappling him, an avenger vigilante deals an additional amount of damage equal to half his vigilante level.</p>"
    },
    "tags": [],
    "actions": [],
    "attackNotes": [],
    "effectNotes": [],
    "changes": [],
    "contextNotes": [],
    "links": {
      "children": [],
      "charges": []
    },
    "tag": "classFeat_gatorWrangle",
    "useCustomTag": true,
    "armorProf": {
      "value": []
    },
    "weaponProf": {
      "value": []
    },
    "languages": {
      "value": []
    },
    "scriptCalls": [],
    "featType": "classFeat",
    "associations": {
      "classes": [["Vigilante"]]
    },
    "abilityType": "ex"
  },
  "ownership": {
    "default": 0
  },
  "_stats": {
    "systemId": "pf1",
    "systemVersion": "0.82.1",
    "coreVersion": "10.285",
    "createdTime": 1663018764866,
    "modifiedTime": 1663018778236,
    "lastModifiedBy": "DbeAbHwpEqczKjsD"
  }
}
