{
  "_id": "5sajXn9N2R2owlHi",
  "name": "Ghost Blade",
  "type": "feat",
  "img": "systems/pf1/icons/spells/enchant-red-3.jpg",
  "effects": [],
  "folder": null,
  "sort": 0,
  "flags": {},
  "system": {
    "description": {
      "value": "<p>Whenever the magus enchants his weapon using his arcane pool, he may spend 1 additional point from his arcane pool to add the&nbsp;brilliant energy&nbsp;and&nbsp;ghost touch&nbsp;special abilities to the list of available options.</p>\n<p>The magus must be at least 9th level before selecting this arcana.</p>"
    },
    "tags": [],
    "actions": [],
    "attackNotes": [],
    "effectNotes": [],
    "changes": [],
    "contextNotes": [],
    "links": {
      "children": [],
      "charges": []
    },
    "tag": "classFeat_ghostBlade",
    "useCustomTag": true,
    "armorProf": {
      "value": []
    },
    "weaponProf": {
      "value": []
    },
    "languages": {
      "value": []
    },
    "scriptCalls": [],
    "featType": "classFeat",
    "associations": {
      "classes": [["Magus"]]
    },
    "abilityType": "su"
  },
  "ownership": {
    "default": 0
  },
  "_stats": {
    "systemId": "pf1",
    "systemVersion": "0.82.1",
    "coreVersion": "10.285",
    "createdTime": 1663018762518,
    "modifiedTime": 1663018778114,
    "lastModifiedBy": "DbeAbHwpEqczKjsD"
  }
}
