{
  "_id": "IMsKesltS2DScHt8",
  "name": "Ghost Rager",
  "type": "feat",
  "img": "systems/pf1/icons/feats/deafening-critical.jpg",
  "effects": [],
  "folder": null,
  "sort": 0,
  "flags": {},
  "system": {
    "description": {
      "value": "<p>While raging, the barbarian deals normal damage to incorporeal creatures even when using nonmagical weapons. She also gains a +3 morale bonus to touch AC, which increases by 1 at 8th level and every 4 levels thereafter (to a maximum of +7 at 20th level). This can’t raise her touch AC above her full AC..</p>\n<p>A barbarian must be at least 6th level before selecting this rage power.</p>"
    },
    "tags": [],
    "actions": [],
    "attackNotes": [],
    "effectNotes": [],
    "changes": [],
    "contextNotes": [],
    "links": {
      "children": [],
      "charges": []
    },
    "tag": "classFeat_ghostRager",
    "useCustomTag": true,
    "armorProf": {
      "value": []
    },
    "weaponProf": {
      "value": []
    },
    "languages": {
      "value": []
    },
    "scriptCalls": [],
    "featType": "classFeat",
    "associations": {
      "classes": [["Barbarian"], ["Skald"]]
    },
    "abilityType": "su"
  },
  "ownership": {
    "default": 0
  },
  "_stats": {
    "systemId": "pf1",
    "systemVersion": "0.82.1",
    "coreVersion": "10.285",
    "createdTime": 1663018764279,
    "modifiedTime": 1663018778205,
    "lastModifiedBy": "DbeAbHwpEqczKjsD"
  }
}
