{
  "_id": "RoVlSrqC0DzCgjnJ",
  "name": "Glorious Presence",
  "type": "feat",
  "img": "systems/pf1/icons/feats/leadership.jpg",
  "effects": [],
  "folder": null,
  "sort": 0,
  "flags": {},
  "system": {
    "description": {
      "value": "<p>The implement invokes the presence of those who have worn it in the past. The implement’s wearer gains a +1 competence bonus on all Charisma-based skill checks and ability checks for every 2 points of mental focus invested in the implement, to a maximum bonus of 1 + 1 for every 4 occultist levels you possess.</p>"
    },
    "tags": [],
    "actions": [],
    "attackNotes": [],
    "effectNotes": [],
    "changes": [],
    "contextNotes": [],
    "links": {
      "children": [],
      "charges": []
    },
    "tag": "classFeat_gloriousPresence",
    "useCustomTag": true,
    "armorProf": {
      "value": []
    },
    "weaponProf": {
      "value": []
    },
    "languages": {
      "value": []
    },
    "scriptCalls": [],
    "featType": "classFeat",
    "associations": {
      "classes": [["Occultist"]]
    },
    "abilityType": "su"
  },
  "ownership": {
    "default": 0
  },
  "_stats": {
    "systemId": "pf1",
    "systemVersion": "0.82.1",
    "coreVersion": "10.285",
    "createdTime": 1663018765360,
    "modifiedTime": 1663018778263,
    "lastModifiedBy": "DbeAbHwpEqczKjsD"
  }
}
