{
  "_id": "zdmYebdmKdhB8w43",
  "name": "Got Your Back",
  "type": "feat",
  "img": "systems/pf1/icons/items/weapons/dagger.PNG",
  "effects": [],
  "folder": null,
  "sort": 0,
  "flags": {},
  "system": {
    "description": {
      "value": "<p>Once per round as an immediate action, you may expend an attack of opportunity to attempt an aid another check to improve an ally’s attack. You and your ally must both be flanking the same opponent. This counts as an attack of opportunity.</p>"
    },
    "tags": [],
    "actions": [],
    "attackNotes": [],
    "effectNotes": [],
    "changes": [],
    "contextNotes": [],
    "links": {
      "children": [],
      "charges": []
    },
    "tag": "classFeat_gotYourBack",
    "useCustomTag": true,
    "armorProf": {
      "value": []
    },
    "weaponProf": {
      "value": []
    },
    "languages": {
      "value": []
    },
    "scriptCalls": [],
    "featType": "classFeat",
    "associations": {
      "classes": [["Rogue"]]
    },
    "abilityType": "ex"
  },
  "ownership": {
    "default": 0
  },
  "_stats": {
    "systemId": "pf1",
    "systemVersion": "0.82.1",
    "coreVersion": "10.285",
    "createdTime": 1663018770109,
    "modifiedTime": 1663018778581,
    "lastModifiedBy": "DbeAbHwpEqczKjsD"
  }
}
