{
  "_id": "IMhG1JjaWP6p9ORe",
  "name": "Grand Hex",
  "type": "feat",
  "img": "systems/pf1/icons/skills/affliction_05.jpg",
  "effects": [],
  "folder": null,
  "sort": 0,
  "flags": {},
  "system": {
    "description": {
      "value": "<p>Starting at 18th level, and every two levels thereafter, a witch can choose one of the following grand hexes whenever she could select a new hex.</p>"
    },
    "tags": [],
    "actions": [],
    "attackNotes": [],
    "effectNotes": [],
    "changes": [],
    "contextNotes": [],
    "links": {
      "children": [],
      "charges": []
    },
    "tag": "classFeat_grandHex",
    "useCustomTag": true,
    "armorProf": {
      "value": []
    },
    "weaponProf": {
      "value": []
    },
    "languages": {
      "value": []
    },
    "scriptCalls": [],
    "featType": "classFeat",
    "associations": {
      "classes": [["Witch"]]
    }
  },
  "ownership": {
    "default": 0
  },
  "_stats": {
    "systemId": "pf1",
    "systemVersion": "0.82.1",
    "coreVersion": "10.285",
    "createdTime": 1663018764279,
    "modifiedTime": 1663018778205,
    "lastModifiedBy": "DbeAbHwpEqczKjsD"
  }
}
