{
  "_id": "MXPUiuEpsBWcW0Vh",
  "name": "Grand Cognatogen",
  "type": "feat",
  "img": "systems/pf1/icons/items/potions/unique-3.jpg",
  "effects": [],
  "folder": null,
  "sort": 0,
  "flags": {},
  "system": {
    "description": {
      "value": "<p>The alchemist’s cognatogen now grants a +6 natural armor bonus, a +8 alchemical bonus to one mental ability score (Intelligence, Wisdom, or Charisma), a +6 alchemical bonus to a second mental ability score, and a +4 alchemical bonus to a third mental ability score. The alchemist takes a –2 penalty to his Strength, Dexterity, and Constitution as long as the cognatogen persists, and takes 2 points of ability damage to each physical ability score when the cognatogen ends.</p>\n<p>An alchemist must be at least 16th level and must have the greater cognatogen discovery or class ability before selecting this discovery.</p>"
    },
    "tags": [],
    "actions": [],
    "attackNotes": [],
    "effectNotes": [],
    "changes": [],
    "contextNotes": [],
    "links": {
      "children": [],
      "charges": []
    },
    "tag": "classFeat_grandCognatogen",
    "useCustomTag": true,
    "armorProf": {
      "value": []
    },
    "weaponProf": {
      "value": []
    },
    "languages": {
      "value": []
    },
    "scriptCalls": [],
    "featType": "classFeat",
    "associations": {
      "classes": [["Alchemist"]]
    },
    "abilityType": "su"
  },
  "ownership": {
    "default": 0
  },
  "_stats": {
    "systemId": "pf1",
    "systemVersion": "0.82.1",
    "coreVersion": "10.285",
    "createdTime": 1663018764815,
    "modifiedTime": 1663018778231,
    "lastModifiedBy": "DbeAbHwpEqczKjsD"
  }
}
