{
  "_id": "C2aOEHE9Hw9xVrkW",
  "name": "Greater Inspiring Cognatogen",
  "type": "feat",
  "img": "systems/pf1/icons/items/potions/unique-3.jpg",
  "effects": [],
  "folder": null,
  "sort": 0,
  "flags": {},
  "system": {
    "description": {
      "value": "<p>The alchemist’s inspiring cognatogen now grants a +2 dodge bonus to AC and a +2 bonus to Reflex saving throws; a –4 penalty to Strength and Constitution; and the effects of having the&nbsp;<a href=\"https://aonprd.com/InvestigatorTalents.aspx?ItemName=\">amazing inspiration, eidetic recollection, and expanded inspiration investigator discoveries</a>.</p>\n<p>An alchemist must be at least 12th level and must have the inspiring cognatogen discovery or class feature to select this discovery.</p>"
    },
    "tags": [],
    "actions": [],
    "attackNotes": [],
    "effectNotes": [],
    "changes": [],
    "contextNotes": [],
    "links": {
      "children": [],
      "charges": []
    },
    "tag": "classFeat_greaterInspiringCognatogen",
    "useCustomTag": true,
    "armorProf": {
      "value": []
    },
    "weaponProf": {
      "value": []
    },
    "languages": {
      "value": []
    },
    "scriptCalls": [],
    "featType": "classFeat",
    "associations": {
      "classes": [["Alchemist"]]
    },
    "abilityType": "su"
  },
  "ownership": {
    "default": 0
  },
  "_stats": {
    "systemId": "pf1",
    "systemVersion": "0.82.1",
    "coreVersion": "10.285",
    "createdTime": 1663018763423,
    "modifiedTime": 1663018778159,
    "lastModifiedBy": "DbeAbHwpEqczKjsD"
  }
}
