{
  "_id": "U89JqoNUbCHGuAk3",
  "name": "Greater Mutagen",
  "type": "feat",
  "img": "systems/pf1/icons/items/potions/unique-3.jpg",
  "effects": [],
  "folder": null,
  "sort": 0,
  "flags": {},
  "system": {
    "description": {
      "value": "<p>The alchemist's mutagen now grants a +4 natural armor bonus, a +6 alchemical bonus to one physical ability score (Strength, Dexterity, or Constitution), and a +4 alchemical bonus to a second physical ability score. The alchemist takes a –2 penalty on both associated mental ability scores as long as the mutagen persists.</p>\n<p>An alchemist must be at least 12th level before selecting this discovery.</p>"
    },
    "tags": [],
    "actions": [],
    "attackNotes": [],
    "effectNotes": [],
    "changes": [],
    "contextNotes": [],
    "links": {
      "children": [],
      "charges": []
    },
    "tag": "classFeat_greaterMutagen",
    "useCustomTag": true,
    "armorProf": {
      "value": []
    },
    "weaponProf": {
      "value": []
    },
    "languages": {
      "value": []
    },
    "scriptCalls": [],
    "featType": "classFeat",
    "associations": {
      "classes": [["Alchemist"]]
    }
  },
  "ownership": {
    "default": 0
  },
  "_stats": {
    "systemId": "pf1",
    "systemVersion": "0.82.1",
    "coreVersion": "10.285",
    "createdTime": 1663018765728,
    "modifiedTime": 1663018778278,
    "lastModifiedBy": "DbeAbHwpEqczKjsD"
  }
}
