{
  "_id": "hM1UPXko7kLCHm17",
  "name": "Greater Counterspell",
  "type": "feat",
  "img": "systems/pf1/icons/spells/runes-blue-3.jpg",
  "effects": [],
  "folder": null,
  "sort": 0,
  "flags": {},
  "system": {
    "description": {
      "value": "<p>Whenever the arcanist uses the counterspell exploit, she can expend any arcanist spell slot of the same level or greater than the spell to be countered (instead of the spell level +1).</p>\n<p>The arcanist must have the counterspell exploit to select this exploit.</p>"
    },
    "tags": [],
    "actions": [],
    "attackNotes": [],
    "effectNotes": [],
    "changes": [],
    "contextNotes": [],
    "links": {
      "children": [],
      "charges": []
    },
    "tag": "classFeat_greaterCounterspell",
    "useCustomTag": true,
    "armorProf": {
      "value": []
    },
    "weaponProf": {
      "value": []
    },
    "languages": {
      "value": []
    },
    "scriptCalls": [],
    "featType": "classFeat",
    "associations": {
      "classes": [["Arcanist"]]
    },
    "abilityType": "su"
  },
  "ownership": {
    "default": 0
  },
  "_stats": {
    "systemId": "pf1",
    "systemVersion": "0.82.1",
    "coreVersion": "10.285",
    "createdTime": 1663018767666,
    "modifiedTime": 1663018778462,
    "lastModifiedBy": "DbeAbHwpEqczKjsD"
  }
}
