{
  "_id": "RID8zmI4GcmlU7yy",
  "name": "Greater Combat Inspiration",
  "type": "feat",
  "img": "systems/pf1/icons/items/weapons/sword-cane.png",
  "effects": [],
  "folder": null,
  "sort": 0,
  "flags": {},
  "system": {
    "description": {
      "value": "<p>Choose a single weapon type (such as sword cane or short sword). As long as the investigator has at least 1 inspiration point in his inspiration pool, he no longer has to expend a use of inspiration to use that ability with attacks made with this weapon.</p>\n<p>An investigator must have the combat inspiration investigator talent and be at least 19th level to select this talent.</p>"
    },
    "tags": [],
    "actions": [],
    "attackNotes": [],
    "effectNotes": [],
    "changes": [],
    "contextNotes": [],
    "links": {
      "children": [],
      "charges": []
    },
    "tag": "classFeat_greaterCombatInspiration",
    "useCustomTag": true,
    "armorProf": {
      "value": []
    },
    "weaponProf": {
      "value": []
    },
    "languages": {
      "value": []
    },
    "scriptCalls": [],
    "featType": "classFeat",
    "associations": {
      "classes": [["Investigator"]]
    },
    "abilityType": "ex"
  },
  "ownership": {
    "default": 0
  },
  "_stats": {
    "systemId": "pf1",
    "systemVersion": "0.82.1",
    "coreVersion": "10.285",
    "createdTime": 1663018765331,
    "modifiedTime": 1663018778261,
    "lastModifiedBy": "DbeAbHwpEqczKjsD"
  }
}
