{
  "_id": "bXxt8L2PITMstpka",
  "name": "Greater Chimeric Aspect",
  "type": "feat",
  "img": "systems/pf1/icons/skills/blue_34.jpg",
  "effects": [],
  "folder": null,
  "sort": 0,
  "flags": {},
  "system": {
    "description": {
      "value": "<p>At 14th level, when a shifter uses her shifter aspect ability to take on a minor form, she can choose up to three aspects and assume the minor form of each aspect.</p>"
    },
    "tags": [],
    "actions": [],
    "attackNotes": [],
    "effectNotes": [],
    "changes": [],
    "contextNotes": [],
    "links": {
      "children": [],
      "charges": []
    },
    "tag": "classFeat_greaterChimericAspect",
    "useCustomTag": true,
    "armorProf": {
      "value": []
    },
    "weaponProf": {
      "value": []
    },
    "languages": {
      "value": []
    },
    "scriptCalls": [],
    "featType": "classFeat",
    "associations": {
      "classes": [["Shifter"]]
    },
    "abilityType": "su"
  },
  "ownership": {
    "default": 0
  },
  "_stats": {
    "systemId": "pf1",
    "systemVersion": "0.82.1",
    "coreVersion": "10.285",
    "createdTime": 1663018766670,
    "modifiedTime": 1663018778396,
    "lastModifiedBy": "DbeAbHwpEqczKjsD"
  }
}
