{
  "_id": "8dr9E7AG9E6gJnNi",
  "name": "Greater Fire Steed",
  "type": "feat",
  "img": "systems/pf1/icons/spells/fireball-red-3.jpg",
  "effects": [],
  "folder": null,
  "sort": 0,
  "flags": {},
  "system": {
    "description": {
      "value": "<p><strong>Element&nbsp;</strong>fire;&nbsp;<strong>Type&nbsp;</strong>utility (Sp);&nbsp;<strong>Level&nbsp;</strong>8;&nbsp;<strong>Burn&nbsp;</strong>0<br><strong>Prerequisite&nbsp;</strong><a href=\"https://aonprd.com/KineticistTalentsDisplay.aspx?ItemName=Fire%20Steed\">fire steed</a>,&nbsp;<a href=\"https://aonprd.com/KineticistTalentsDisplay.aspx?ItemName=Improved%20Fire%20Steed\">improved fire steed</a></p>\n<p>When using&nbsp;<a href=\"https://aonprd.com/KineticistTalentsDisplay.aspx?ItemName=Fire%20Steed\">fire steed</a>, the mount gains immunity to fire and its speed increases by an additional 10 feet. In addition, when the mount takes a run action, it can run up steep slopes at its normal speed and down steep slopes without its rider needing to attempt a Ride check.</p>"
    },
    "tags": [],
    "actions": [],
    "attackNotes": [],
    "effectNotes": [],
    "changes": [],
    "contextNotes": [],
    "links": {
      "children": [],
      "charges": []
    },
    "tag": "classFeat_greaterFireSteed",
    "useCustomTag": true,
    "armorProf": {
      "value": []
    },
    "weaponProf": {
      "value": []
    },
    "languages": {
      "value": []
    },
    "scriptCalls": [],
    "featType": "classFeat",
    "associations": {
      "classes": [["Kineticist"]]
    },
    "abilityType": "sp"
  },
  "ownership": {
    "default": 0
  },
  "_stats": {
    "systemId": "pf1",
    "systemVersion": "0.82.1",
    "coreVersion": "10.285",
    "createdTime": 1663018762952,
    "modifiedTime": 1663018778132,
    "lastModifiedBy": "DbeAbHwpEqczKjsD"
  }
}
