{
  "_id": "kgFOpFrVPIw9vfWf",
  "name": "Greed Subdomain",
  "type": "feat",
  "img": "systems/pf1/icons/skills/gray_05.jpg",
  "effects": [],
  "folder": null,
  "sort": 0,
  "flags": {},
  "system": {
    "description": {
      "value": "<p><strong>Replacement Domain Spells:</strong></p>\n<ul>\n<li>2nd—@Compendium[pf1.spells.g17ayjso7j8s8l2l]{Masterwork Transformation}</li>\n<li>6th—@Compendium[pf1.spells.8z4tlk1fojr9t9yb]{Guards and Wards}</li>\n<li>8th—@Compendium[pf1.spells.wniqskqkk0cubu9u]{Create Demiplane}</li>\n</ul>"
    },
    "tags": [],
    "actions": [],
    "attackNotes": [],
    "effectNotes": [],
    "changes": [],
    "contextNotes": [],
    "links": {
      "children": [],
      "charges": []
    },
    "tag": "classFeat_greedSubdomain",
    "useCustomTag": true,
    "armorProf": {
      "value": []
    },
    "weaponProf": {
      "value": []
    },
    "languages": {
      "value": []
    },
    "scriptCalls": [],
    "featType": "classFeat",
    "associations": {
      "classes": [["Cleric"]]
    }
  },
  "ownership": {
    "default": 0
  },
  "_stats": {
    "systemId": "pf1",
    "systemVersion": "0.82.1",
    "coreVersion": "10.285",
    "createdTime": 1663018768153,
    "modifiedTime": 1663018778481,
    "lastModifiedBy": "DbeAbHwpEqczKjsD"
  }
}
