{
  "_id": "QJN5jBqmxOBMAn32",
  "name": "Grounding Goo",
  "type": "feat",
  "img": "systems/pf1/icons/items/potions/unique-3.jpg",
  "effects": [],
  "folder": null,
  "sort": 0,
  "flags": {},
  "system": {
    "description": {
      "value": "<p>The alchemist’s bomb applies a sticky residue after any damage from the bomb is resolved. If a creature damaged by the bomb has a nonmagical fly speed, its flight is severely impaired, and it takes a penalty equal to the alchemist’s level on Fly checks for 1 minute.</p>"
    },
    "tags": [],
    "actions": [],
    "attackNotes": [],
    "effectNotes": [],
    "changes": [],
    "contextNotes": [],
    "links": {
      "children": [],
      "charges": []
    },
    "tag": "classFeat_groundingGoo",
    "useCustomTag": true,
    "armorProf": {
      "value": []
    },
    "weaponProf": {
      "value": []
    },
    "languages": {
      "value": []
    },
    "scriptCalls": [],
    "featType": "classFeat",
    "associations": {
      "classes": [["Alchemist"]]
    },
    "abilityType": "su"
  },
  "ownership": {
    "default": 0
  },
  "_stats": {
    "systemId": "pf1",
    "systemVersion": "0.82.1",
    "coreVersion": "10.285",
    "createdTime": 1663018765263,
    "modifiedTime": 1663018778254,
    "lastModifiedBy": "DbeAbHwpEqczKjsD"
  }
}
