{
  "_id": "CLwSK8W2wInHRYow",
  "name": "Guileful Polyglot",
  "type": "feat",
  "img": "systems/pf1/icons/items/weapons/dagger.PNG",
  "effects": [],
  "folder": null,
  "sort": 0,
  "flags": {},
  "system": {
    "description": {
      "value": "<p>A rogue with this talent who has at least one rank in Linguistics gains four additional languages. A rogue with this talent who does not have any ranks in Linguistics gains two additional languages. If the rogue later gains ranks in Linguistics, she gains two additional languages, to a total of four additional languages above those granted by the Linguistics skill itself.</p>"
    },
    "tags": [],
    "actions": [],
    "attackNotes": [],
    "effectNotes": [],
    "changes": [],
    "contextNotes": [],
    "links": {
      "children": [],
      "charges": []
    },
    "tag": "classFeat_guilefulPolyglot",
    "useCustomTag": true,
    "armorProf": {
      "value": []
    },
    "weaponProf": {
      "value": []
    },
    "languages": {
      "value": []
    },
    "scriptCalls": [],
    "featType": "classFeat",
    "associations": {
      "classes": [["Rogue"]]
    },
    "abilityType": "ex"
  },
  "ownership": {
    "default": 0
  },
  "_stats": {
    "systemId": "pf1",
    "systemVersion": "0.82.1",
    "coreVersion": "10.285",
    "createdTime": 1663018763441,
    "modifiedTime": 1663018778162,
    "lastModifiedBy": "DbeAbHwpEqczKjsD"
  }
}
