{
  "_id": "4uYyhf9QAG9reToq",
  "name": "Hag-Called Discipline",
  "type": "feat",
  "img": "systems/pf1/icons/spells/slice-spirit-3.jpg",
  "effects": [],
  "folder": null,
  "sort": 0,
  "flags": {},
  "system": {
    "description": {
      "value": "<p>A hag’s call echoes through your mind like a siren’s song, enticing you to surrender and become something horrible. Even after you’ve resisted the call or even killed your hag mother, those echoes remain, shaping your mind into something else and telling you who you were meant to be. While you’re almost certainly a changeling, you might be a latent psychic who came into accidental psychic contact with a hag’s call through a changeling associate, or your dreams might have long been infested by a night hag’s machinations.<br><br><strong>Phrenic Pool Ability:</strong> Charisma<br><br><strong>Bonus Spells:</strong>&nbsp;</p>\n<ul>\n<li>@Compendium[pf1.spells.wjdhmfdgwrevax3w]{Ill Omen} (1st),&nbsp;</li>\n<li>@Compendium[pf1.spells.v3d3lnjj7ks0ztii]{Enthrall} (4th),&nbsp;</li>\n<li>@Compendium[pf1.spells.lsboosfk26m0ycqv]{Bestow Curse} (6th),&nbsp;</li>\n<li>@Compendium[pf1.spells.smbkd2yobhshbpqf]{Charm Monster} (8th),&nbsp;</li>\n<li>@Compendium[pf1.spells.w2yf0ksu14e91uae]{Threefold Aspect} (10th),&nbsp;</li>\n<li>@Compendium[pf1.spells.fxwycv6d7xwzua4t]{Veil} (12th),&nbsp;</li>\n<li>@Compendium[pf1.spells.578t0lra5ll3aifs]{Control Weather} (14th),&nbsp;</li>\n<li>@Compendium[pf1.spells.xmkvpl56appk20cl]{Trap the Soul} (16th),&nbsp;</li>\n<li>@Compendium[pf1.spells.66s5qm8kwycgobce]{Dominate Monster} (18th).</li>\n</ul>"
    },
    "tags": [],
    "actions": [],
    "attackNotes": [],
    "effectNotes": [],
    "changes": [],
    "contextNotes": [],
    "links": {
      "children": [],
      "charges": []
    },
    "tag": "classFeat_hagcalledDiscipline",
    "useCustomTag": true,
    "armorProf": {
      "value": []
    },
    "weaponProf": {
      "value": []
    },
    "languages": {
      "value": []
    },
    "scriptCalls": [],
    "featType": "classFeat",
    "associations": {
      "classes": [["Psychic"]]
    }
  },
  "ownership": {
    "default": 0
  },
  "_stats": {
    "systemId": "pf1",
    "systemVersion": "0.82.1",
    "coreVersion": "10.285",
    "createdTime": 1663018762447,
    "modifiedTime": 1663018778103,
    "lastModifiedBy": "DbeAbHwpEqczKjsD"
  }
}
