{
  "_id": "1VcnvSG8gegTdC6z",
  "name": "Hard to Fool",
  "type": "feat",
  "img": "systems/pf1/icons/items/weapons/dagger.PNG",
  "effects": [],
  "folder": null,
  "sort": 0,
  "flags": {},
  "system": {
    "description": {
      "value": "<p>Once per day, a rogue with this talent can roll two dice while making a Sense Motive check, and take the better result. She must choose to use this talent before making the Sense Motive check. A rogue can use this ability one additional time per day for every 5 rogue levels she possesses.</p>"
    },
    "tags": [],
    "actions": [],
    "attackNotes": [],
    "effectNotes": [],
    "changes": [],
    "contextNotes": [],
    "links": {
      "children": [],
      "charges": []
    },
    "tag": "classFeat_hardToFool",
    "useCustomTag": true,
    "armorProf": {
      "value": []
    },
    "weaponProf": {
      "value": []
    },
    "languages": {
      "value": []
    },
    "scriptCalls": [],
    "featType": "classFeat",
    "associations": {
      "classes": [["Rogue"]]
    },
    "abilityType": "ex"
  },
  "ownership": {
    "default": 0
  },
  "_stats": {
    "systemId": "pf1",
    "systemVersion": "0.82.1",
    "coreVersion": "10.285",
    "createdTime": 1663018761960,
    "modifiedTime": 1663018778073,
    "lastModifiedBy": "DbeAbHwpEqczKjsD"
  }
}
