{
  "_id": "MMzblKaO4G5vayvK",
  "name": "Hatred Subdomain",
  "type": "feat",
  "img": "systems/pf1/icons/skills/red_10.jpg",
  "effects": [],
  "folder": null,
  "sort": 0,
  "flags": {},
  "system": {
    "description": {
      "value": "<p><strong>Replacement Domain Spells:</strong></p>\n<ul>\n<li>1st—@Compendium[pf1.spells.jdj4sfwksjgy2mqf]{Murderous Command}</li>\n<li>2nd—@Compendium[pf1.spells.1gz3zdpxu7uic5ky]{Wrathful Mantle}</li>\n</ul>"
    },
    "tags": [],
    "actions": [],
    "attackNotes": [],
    "effectNotes": [],
    "changes": [],
    "contextNotes": [],
    "links": {
      "children": [],
      "charges": []
    },
    "tag": "classFeat_hatredSubdomain",
    "useCustomTag": true,
    "armorProf": {
      "value": []
    },
    "weaponProf": {
      "value": []
    },
    "languages": {
      "value": []
    },
    "scriptCalls": [],
    "featType": "classFeat",
    "associations": {
      "classes": [["Cleric"]]
    }
  },
  "ownership": {
    "default": 0
  },
  "_stats": {
    "systemId": "pf1",
    "systemVersion": "0.82.1",
    "coreVersion": "10.285",
    "createdTime": 1663018764799,
    "modifiedTime": 1663018778229,
    "lastModifiedBy": "DbeAbHwpEqczKjsD"
  }
}
