{
  "_id": "4jOYr4Rm6j6IGA3q",
  "name": "Haunted Discipline",
  "type": "feat",
  "img": "systems/pf1/icons/spells/slice-spirit-3.jpg",
  "effects": [],
  "folder": null,
  "sort": 0,
  "flags": {},
  "system": {
    "description": {
      "value": "<p>You attract the attention of spirits as naturally as a lodestone attracts iron filings. Testing your power leads you to develop some control over undead forces, despite the inherent defenses such creatures have against psychic abilities. Meanwhile, those spirits clinging to your life essence become increasingly protective, channeling their abilities to aid you and warn of threats. Psychics of this discipline are most common in Ustalav and Shenmen, where so many spirits are stuck in the transition between life and death.<br><br><strong>Phrenic Pool Ability:</strong> Charisma<br><br><strong>Bonus Spells:&nbsp;</strong></p>\n<ul>\n<li>@Compendium[pf1.spells.aa0w7tk852iqn3ni]{Detect Undead} (1st),&nbsp;</li>\n<li>@Compendium[pf1.spells.y4ztvvswf2uuwuqo]{Calm Spirit} (4th),&nbsp;</li>\n<li>@Compendium[pf1.spells.f98kluovmjf6w7d5]{Halt Undead} (6th),&nbsp;</li>\n<li>@Compendium[pf1.spells.ykb7nby9eovw8jyo]{Speak With Haunt} (8th),&nbsp;</li>\n<li>@Compendium[pf1.spells.wr96kbh0sqxecx63]{Disrupting Weapon} (10th),&nbsp;</li>\n<li>@Compendium[pf1.spells.lllhr9py6w44cxjm]{Undeath to Death} (12th),&nbsp;</li>\n<li>@Compendium[pf1.spells.btccs4sjo2nog1a0]{Ethereal Jaunt} (14th),&nbsp;</li>\n<li>@Compendium[pf1.spells.0j2cb0iv0695a45i]{Possession, Greater} (16th),&nbsp;</li>\n<li>@Compendium[pf1.spells.gw9bes9othfqm7mi]{Etherealness} (18th).</li>\n</ul>"
    },
    "tags": [],
    "actions": [],
    "attackNotes": [],
    "effectNotes": [],
    "changes": [],
    "contextNotes": [],
    "links": {
      "children": [],
      "charges": []
    },
    "tag": "classFeat_hauntedDiscipline",
    "useCustomTag": true,
    "armorProf": {
      "value": []
    },
    "weaponProf": {
      "value": []
    },
    "languages": {
      "value": []
    },
    "scriptCalls": [],
    "featType": "classFeat",
    "associations": {
      "classes": [["Psychic"]]
    }
  },
  "ownership": {
    "default": 0
  },
  "_stats": {
    "systemId": "pf1",
    "systemVersion": "0.82.1",
    "coreVersion": "10.285",
    "createdTime": 1663018762439,
    "modifiedTime": 1663018778102,
    "lastModifiedBy": "DbeAbHwpEqczKjsD"
  }
}
