{
  "_id": "Q6nL5pL41d7LzJWr",
  "name": "Hidden Master",
  "type": "feat",
  "img": "systems/pf1/icons/feats/stealthy.jpg",
  "effects": [],
  "folder": null,
  "sort": 0,
  "flags": {},
  "system": {
    "description": {
      "value": "<p>At 20th level, a ninja becomes a true master of her art. She can, as a standard action, cast&nbsp;greater invisibility&nbsp;on herself. While invisible in this way, she cannot be detected by any means, and not even&nbsp;invisibility purge,&nbsp;see invisibility, and&nbsp;true seeing&nbsp;can reveal her. She uses her ninja level as her caster level for this ability. Using this ability consumes 3&nbsp;ki&nbsp;points from her&nbsp;ki&nbsp;pool. In addition, whenever the ninja deals sneak attack damage, she can sacrifice additional damage dice to apply a penalty to one ability score of the target equal to the number of dice sacrificed for 1 minute. This penalty does not stack with itself and cannot reduce an ability score below 1.</p>"
    },
    "tags": [],
    "actions": [],
    "attackNotes": [],
    "effectNotes": [],
    "changes": [],
    "contextNotes": [],
    "links": {
      "children": [],
      "charges": []
    },
    "tag": "classFeat_hiddenMaster",
    "useCustomTag": true,
    "armorProf": {
      "value": []
    },
    "weaponProf": {
      "value": []
    },
    "languages": {
      "value": []
    },
    "scriptCalls": [],
    "featType": "classFeat",
    "associations": {
      "classes": [["Ninja"]]
    },
    "abilityType": "su"
  },
  "ownership": {
    "default": 0
  },
  "_stats": {
    "systemId": "pf1",
    "systemVersion": "0.82.1",
    "coreVersion": "10.285",
    "createdTime": 1663018765252,
    "modifiedTime": 1663018778253,
    "lastModifiedBy": "DbeAbHwpEqczKjsD"
  }
}
