{
  "_id": "eUqLGyU8jR5vIhgE",
  "name": "Home Subdomain",
  "type": "feat",
  "img": "systems/pf1/icons/skills/shadow_09.jpg",
  "effects": [],
  "folder": null,
  "sort": 0,
  "flags": {},
  "system": {
    "description": {
      "value": "<p><strong>Replacement Domain Spells:</strong></p>\n<ul>\n<li>1st—@Compendium[pf1.spells.nee6cxpoekp3aklq]{Alarm}</li>\n<li>3rd—@Compendium[pf1.spells.53dyu81yaw4y0nz4]{Glyph Of Warding}</li>\n<li>7th—@Compendium[pf1.spells.8z4tlk1fojr9t9yb]{Guards and Wards}</li>\n</ul>"
    },
    "tags": [],
    "actions": [],
    "attackNotes": [],
    "effectNotes": [],
    "changes": [],
    "contextNotes": [],
    "links": {
      "children": [],
      "charges": []
    },
    "tag": "classFeat_homeSubdomain",
    "useCustomTag": true,
    "armorProf": {
      "value": []
    },
    "weaponProf": {
      "value": []
    },
    "languages": {
      "value": []
    },
    "scriptCalls": [],
    "featType": "classFeat",
    "associations": {
      "classes": [["Cleric"]]
    }
  },
  "ownership": {
    "default": 0
  },
  "_stats": {
    "systemId": "pf1",
    "systemVersion": "0.82.1",
    "coreVersion": "10.285",
    "createdTime": 1663018767125,
    "modifiedTime": 1663018778438,
    "lastModifiedBy": "DbeAbHwpEqczKjsD"
  }
}
