{
  "_id": "ewjMYgahwB8hGIlN",
  "name": "Ice Sculptor",
  "type": "feat",
  "img": "systems/pf1/icons/spells/ice-blue-2.jpg",
  "effects": [],
  "folder": null,
  "sort": 0,
  "flags": {},
  "system": {
    "description": {
      "value": "<p><strong>Element&nbsp;</strong>water;&nbsp;<strong>Type&nbsp;</strong>utility (Sp);&nbsp;<strong>Level&nbsp;</strong>4;&nbsp;<strong>Burn&nbsp;</strong>0</p>\n<p>You can sculpt ice and snow into new shapes, as the spell @Compendium[pf1.spells.g1evszmk8wfgnsv5]{Stone Shape} but affecting ice and snow instead of stone.</p>"
    },
    "tags": [],
    "actions": [],
    "attackNotes": [],
    "effectNotes": [],
    "changes": [],
    "contextNotes": [],
    "links": {
      "children": [],
      "charges": []
    },
    "tag": "classFeat_iceSculptor",
    "useCustomTag": true,
    "armorProf": {
      "value": []
    },
    "weaponProf": {
      "value": []
    },
    "languages": {
      "value": []
    },
    "scriptCalls": [],
    "featType": "classFeat",
    "associations": {
      "classes": [["Kineticist"]]
    },
    "abilityType": "sp"
  },
  "ownership": {
    "default": 0
  },
  "_stats": {
    "systemId": "pf1",
    "systemVersion": "0.82.1",
    "coreVersion": "10.285",
    "createdTime": 1663018767150,
    "modifiedTime": 1663018778447,
    "lastModifiedBy": "DbeAbHwpEqczKjsD"
  }
}
