{
  "_id": "PWoBziNvlV4T1ocG",
  "name": "Illuminating Answers",
  "type": "feat",
  "img": "systems/pf1/icons/spells/slice-spirit-3.jpg",
  "effects": [],
  "folder": null,
  "sort": 0,
  "flags": {},
  "system": {
    "description": {
      "value": "<p>You can glean deeper truths from advice you magically obtain, even if the information itself is specious. When you use a spell or spell-like ability that allows you to get answers to questions (such as augury, blood biography, or contact other plane) and get at least one answer, you regain 1 point in your phrenic pool. You regain this point even if the answer is false or vague.</p>\n<p>The maximum number of points you can regain in this way per day is equal to your Wisdom modifier.</p>"
    },
    "tags": [],
    "actions": [],
    "attackNotes": [],
    "effectNotes": [],
    "changes": [],
    "contextNotes": [],
    "links": {
      "children": [],
      "charges": []
    },
    "tag": "classFeat_illuminatingAnswers",
    "useCustomTag": true,
    "armorProf": {
      "value": []
    },
    "weaponProf": {
      "value": []
    },
    "languages": {
      "value": []
    },
    "scriptCalls": [],
    "featType": "classFeat",
    "associations": {
      "classes": [["Psychic"]]
    },
    "abilityType": "su"
  },
  "ownership": {
    "default": 0
  },
  "_stats": {
    "systemId": "pf1",
    "systemVersion": "0.82.1",
    "coreVersion": "10.285",
    "createdTime": 1663018765218,
    "modifiedTime": 1663018778250,
    "lastModifiedBy": "DbeAbHwpEqczKjsD"
  }
}
