{
  "_id": "xyoyofs7FzZ5GtFU",
  "name": "Infernal Blood, Lesser",
  "type": "feat",
  "img": "systems/pf1/icons/feats/deafening-critical.jpg",
  "effects": [],
  "folder": null,
  "sort": 0,
  "flags": {},
  "system": {
    "description": {
      "value": "<p>While raging, up to three times a day as a swift action, the barbarian can infuse her attacks with hellfire for 1 round. During this time, all of her melee attacks gain the&nbsp;<a href=\"https://aonprd.com/MagicWeaponsDisplay.aspx?ItemName=Flaming\">flaming</a>&nbsp;magic weapon special ability.</p>"
    },
    "tags": [],
    "actions": [],
    "attackNotes": [],
    "effectNotes": [],
    "changes": [],
    "contextNotes": [],
    "links": {
      "children": [],
      "charges": []
    },
    "tag": "classFeat_infernalBloodLesser",
    "useCustomTag": true,
    "armorProf": {
      "value": []
    },
    "weaponProf": {
      "value": []
    },
    "languages": {
      "value": []
    },
    "scriptCalls": [],
    "featType": "classFeat",
    "associations": {
      "classes": [["Barbarian"], ["Skald"]]
    },
    "abilityType": "su"
  },
  "ownership": {
    "default": 0
  },
  "_stats": {
    "systemId": "pf1",
    "systemVersion": "0.82.1",
    "coreVersion": "10.285",
    "createdTime": 1663018769735,
    "modifiedTime": 1663018778570,
    "lastModifiedBy": "DbeAbHwpEqczKjsD"
  }
}
