{
  "_id": "nKbyztRQCU5XMbbs",
  "name": "Inspiration",
  "type": "feat",
  "img": "systems/pf1/icons/skills/emerald_11.jpg",
  "effects": [],
  "folder": null,
  "sort": 0,
  "flags": {},
  "system": {
    "description": {
      "value": "<p>An investigator is beyond knowledgeable and skilled—he also possesses keen powers of observation and deduction that far surpass the abilities of others. An investigator typically uses these powers to aid in their investigations, but can also use these f lashes of inspiration in other situations.<br><br>An investigator has the ability to augment skill checks and ability checks through his brilliant inspiration. The investigator has an inspiration pool equal to 1/2 his investigator level + his Intelligence modifier (minimum 1). An investigator’s inspiration pool refreshes each day, typically after he gets a restful night’s sleep. As a free action, he can expend one use of inspiration from his pool to add 1d6 to the result of that check, including any on which he takes 10 or 20. This choice is made after the check is rolled and before the results are revealed. An investigator can only use inspiration once per check or roll. The investigator can use inspiration on any Knowledge, Linguistics, or Spellcraft skill checks without expending a use of inspiration, provided he’s trained in the skill.<br><br>Inspiration can also be used on attack rolls and saving throws, at the cost of expending two uses of inspiration each time from the investigator’s pool. In the case of saving throws, using inspiration is an immediate action rather than a free action.</p>"
    },
    "tags": [],
    "actions": [
      {
        "_id": "didgk77lyb52bgl9",
        "name": "Use",
        "img": "systems/pf1/icons/skills/emerald_11.jpg",
        "description": "",
        "tag": "",
        "activation": {
          "cost": 1,
          "type": "special"
        },
        "unchainedAction": {
          "activation": {
            "cost": 1,
            "type": "special"
          }
        },
        "duration": {
          "value": null,
          "units": ""
        },
        "target": {
          "value": ""
        },
        "range": {
          "value": null,
          "units": "",
          "maxIncrements": 1,
          "minValue": null,
          "minUnits": ""
        },
        "uses": {
          "autoDeductCharges": true,
          "autoDeductChargesCost": "1",
          "self": {
            "value": 0,
            "maxFormula": "",
            "per": null
          },
          "per": "day",
          "value": 0,
          "maxFormula": "@abilities.int.mod + floor(@classes.investigator.level / 2)"
        },
        "measureTemplate": {
          "type": "",
          "size": "",
          "overrideColor": false,
          "customColor": "",
          "overrideTexture": false,
          "customTexture": ""
        },
        "attackName": "",
        "actionType": "",
        "attackBonus": "",
        "critConfirmBonus": "",
        "damage": {
          "parts": [],
          "critParts": [],
          "nonCritParts": []
        },
        "attackParts": [],
        "formulaicAttacks": {
          "count": {
            "formula": ""
          },
          "bonus": {
            "formula": ""
          },
          "label": null
        },
        "formula": "",
        "ability": {
          "attack": null,
          "damage": null,
          "damageMult": 1,
          "critRange": 20,
          "critMult": 2
        },
        "save": {
          "dc": 0,
          "type": "",
          "description": ""
        },
        "effectNotes": [],
        "attackNotes": [],
        "soundEffect": "",
        "powerAttack": {
          "multiplier": "",
          "damageBonus": 2,
          "critMultiplier": 1
        },
        "naturalAttack": {
          "primaryAttack": true,
          "secondary": {
            "attackBonus": "-5",
            "damageMult": 0.5
          }
        },
        "nonlethal": false,
        "usesAmmo": false,
        "spellEffect": "",
        "spellArea": "",
        "conditionals": [],
        "enh": {
          "value": null
        }
      }
    ],
    "uses": {
      "per": "day",
      "maxFormula": "@abilities.int.mod + floor(@classes.investigator.level / 2)"
    },
    "attackNotes": [],
    "effectNotes": [],
    "changes": [],
    "contextNotes": [],
    "links": {
      "children": [],
      "charges": []
    },
    "tag": "classFeat_inspiration",
    "useCustomTag": true,
    "armorProf": {
      "value": []
    },
    "weaponProf": {
      "value": []
    },
    "languages": {
      "value": []
    },
    "scriptCalls": [],
    "featType": "classFeat",
    "associations": {
      "classes": [["Investigator"]]
    },
    "abilityType": "ex"
  },
  "ownership": {
    "default": 0
  },
  "_stats": {
    "systemId": "pf1",
    "systemVersion": "0.82.1",
    "coreVersion": "10.285",
    "createdTime": 1663018768325,
    "modifiedTime": 1663018778499,
    "lastModifiedBy": "DbeAbHwpEqczKjsD"
  }
}
