{
  "_id": "2M56kfIOws5yYtxq",
  "name": "Inspire Competence",
  "type": "feat",
  "img": "systems/pf1/icons/feats/tiring-critical.jpg",
  "effects": [],
  "folder": null,
  "sort": 0,
  "flags": {},
  "system": {
    "description": {
      "value": "<p>A bard of 3rd level or higher can use his performance to help an ally succeed at a task. The ally must be within 30 feet and able to see and hear the bard. The ally gets a +2&nbsp;<a href=\"https://www.d20pfsrd.com/basics-ability-scores/glossary#TOC-Competence-Bonus\">competence bonus</a>&nbsp;on skill checks with a particular skill as long as she continues to hear the bard’s performance. This bonus increases by +1 for every four levels the bard has attained beyond 3rd (+3 at 7th, +4 at 11th, +5 at 15th, and +6 at 19th).</p>\n<p>Certain uses of this ability are infeasible, such as&nbsp;<a href=\"https://www.d20pfsrd.com/skills/stealth\">Stealth</a>, and may be disallowed at the GM’s discretion. A bard can’t inspire competence in himself. inspire competence relies on audible components.</p>"
    },
    "tags": [],
    "actions": [],
    "attackNotes": [],
    "effectNotes": [],
    "changes": [],
    "contextNotes": [],
    "links": {
      "children": [],
      "charges": []
    },
    "tag": "classFeat_inspireCompetence",
    "useCustomTag": true,
    "armorProf": {
      "value": []
    },
    "weaponProf": {
      "value": []
    },
    "languages": {
      "value": []
    },
    "scriptCalls": [],
    "featType": "classFeat",
    "associations": {
      "classes": [["Bard"]]
    },
    "abilityType": "su"
  },
  "ownership": {
    "default": 0
  },
  "_stats": {
    "systemId": "pf1",
    "systemVersion": "0.82.1",
    "coreVersion": "10.285",
    "createdTime": 1663018762008,
    "modifiedTime": 1663018778083,
    "lastModifiedBy": "DbeAbHwpEqczKjsD"
  }
}
