{
  "_id": "7BfYNNkYjjBevun8",
  "name": "Ki Pool (UC)",
  "type": "feat",
  "img": "systems/pf1/icons/skills/red_09.jpg",
  "effects": [],
  "folder": null,
  "sort": 0,
  "flags": {},
  "system": {
    "description": {
      "value": "<p>At 3rd level, a monk gains a pool of ki points, supernatural energy he can use to accomplish amazing feats. The number of points in a monk’s ki pool is equal to 1/2 his monk level + his Wisdom modifier. As long as he has at least 1 point in his ki pool, he can make a ki strike.</p>\n<p>At 3rd level, ki strike allows his unarmed attacks to be treated as magic weapons for the purpose of overcoming damage reduction.</p>\n<p>At 7th level, his unarmed attacks are also treated as cold iron and silver for the purpose of overcoming damage reduction.</p>\n<p>At 10th level, his unarmed attacks are also treated as lawful weapons for the purpose of overcoming damage reduction.</p>\n<p>At 16th level, his unarmed attacks are treated as adamantine weapons for the purpose of overcoming damage reduction and bypassing hardness.<br><br>By spending 1 point from his ki pool as a swift action, a monk can make one additional unarmed strike at his highest attack bonus when making a flurry of blows attack. This bonus attack stacks with all bonus attacks gained from flurry of blows, as well as those from haste and similar effects.</p>\n<p>A monk gains additional powers that consume points from his ki pool as he gains levels.<br><br>The ki pool is replenished each morning after 8 hours of rest or meditation; these hours do not need to be consecutive.</p>"
    },
    "tags": [],
    "actions": [
      {
        "_id": "6lp1gpd4sui72ufu",
        "name": "Use",
        "img": "systems/pf1/icons/skills/red_09.jpg",
        "description": "",
        "tag": "",
        "activation": {
          "cost": 1,
          "type": "special"
        },
        "unchainedAction": {
          "activation": {
            "cost": 1,
            "type": "special"
          }
        },
        "duration": {
          "value": null,
          "units": ""
        },
        "target": {
          "value": ""
        },
        "range": {
          "value": null,
          "units": "",
          "maxIncrements": 1,
          "minValue": null,
          "minUnits": ""
        },
        "uses": {
          "autoDeductCharges": true,
          "autoDeductChargesCost": "1",
          "self": {
            "value": 0,
            "maxFormula": "",
            "per": null
          },
          "per": "day",
          "value": 0,
          "maxFormula": "floor(@classes.monkUnchained.level / 2) + @abilities.wis.mod"
        },
        "measureTemplate": {
          "type": "",
          "size": "",
          "overrideColor": false,
          "customColor": "",
          "overrideTexture": false,
          "customTexture": ""
        },
        "attackName": "",
        "actionType": "",
        "attackBonus": "",
        "critConfirmBonus": "",
        "damage": {
          "parts": [],
          "critParts": [],
          "nonCritParts": []
        },
        "attackParts": [],
        "formulaicAttacks": {
          "count": {
            "formula": ""
          },
          "bonus": {
            "formula": ""
          },
          "label": null
        },
        "formula": "",
        "ability": {
          "attack": null,
          "damage": null,
          "damageMult": 1,
          "critRange": 20,
          "critMult": 2
        },
        "save": {
          "dc": 0,
          "type": "",
          "description": ""
        },
        "effectNotes": [],
        "attackNotes": [],
        "soundEffect": "",
        "powerAttack": {
          "multiplier": "",
          "damageBonus": 2,
          "critMultiplier": 1
        },
        "naturalAttack": {
          "primaryAttack": true,
          "secondary": {
            "attackBonus": "-5",
            "damageMult": 0.5
          }
        },
        "nonlethal": false,
        "usesAmmo": false,
        "spellEffect": "",
        "spellArea": "",
        "conditionals": [],
        "enh": {
          "value": null
        }
      }
    ],
    "uses": {
      "per": "day",
      "maxFormula": "floor(@classes.monkUnchained.level / 2) + @abilities.wis.mod"
    },
    "attackNotes": [],
    "effectNotes": [],
    "changes": [],
    "contextNotes": [],
    "links": {
      "children": [],
      "charges": []
    },
    "tag": "classFeat_kiPoolUc",
    "useCustomTag": true,
    "armorProf": {
      "value": []
    },
    "weaponProf": {
      "value": []
    },
    "languages": {
      "value": []
    },
    "scriptCalls": [],
    "featType": "classFeat",
    "associations": {
      "classes": [["Monk (Unchained)"]]
    },
    "abilityType": "su"
  },
  "ownership": {
    "default": 0
  },
  "_stats": {
    "systemId": "pf1",
    "systemVersion": "0.82.1",
    "coreVersion": "10.285",
    "createdTime": 1663018762852,
    "modifiedTime": 1663018778122,
    "lastModifiedBy": "DbeAbHwpEqczKjsD"
  }
}
