{
  "_id": "mO0pMgYsKx98oiHg",
  "name": "Legislation Subdomain",
  "type": "feat",
  "img": "systems/pf1/icons/items/inventory/note-sealed.jpg",
  "effects": [],
  "folder": null,
  "sort": 0,
  "flags": {},
  "system": {
    "description": {
      "value": "<p><strong>Replacement Domain Spells:</strong></p>\n<ul>\n<li>1st—@Compendium[pf1.spells.mmdypasgl5us00wb]{Forbid Action}</li>\n<li>5th—@Compendium[pf1.spells.gn1u9cjc9phsczec]{Forbid Action, Greater}</li>\n<li>9th—@Compendium[pf1.spells.fjekm39re35y3kot]{Hold Monster, Mass}</li>\n</ul>"
    },
    "tags": [],
    "actions": [],
    "attackNotes": [],
    "effectNotes": [],
    "changes": [],
    "contextNotes": [],
    "links": {
      "children": [],
      "charges": []
    },
    "tag": "classFeat_legislationSubdomain",
    "useCustomTag": true,
    "armorProf": {
      "value": []
    },
    "weaponProf": {
      "value": []
    },
    "languages": {
      "value": []
    },
    "scriptCalls": [],
    "featType": "classFeat",
    "associations": {
      "classes": [["Cleric"]]
    }
  },
  "ownership": {
    "default": 0
  },
  "_stats": {
    "systemId": "pf1",
    "systemVersion": "0.82.1",
    "coreVersion": "10.285",
    "createdTime": 1663018768232,
    "modifiedTime": 1663018778494,
    "lastModifiedBy": "DbeAbHwpEqczKjsD"
  }
}
