{
  "_id": "A2QwQvCzSZY5UPxV",
  "name": "Light Patron",
  "type": "feat",
  "img": "systems/pf1/icons/feats/improved-familiar.jpg",
  "effects": [],
  "folder": null,
  "sort": 0,
  "flags": {},
  "system": {
    "description": {
      "value": "<ul>\n<li>2nd — @Compendium[pf1.spells.0j43l3u9eqj5gvnp]{Dancing Lantern}</li>\n<li>4th — @Compendium[pf1.spells.b8vp8fgt1o6pq1qc]{Continual Flame}</li>\n<li>6th — @Compendium[pf1.spells.7x2z0i8rcx7s81fk]{Daylight}</li>\n<li>8th — @Compendium[pf1.spells.6lebv7569xsypp8u]{Rainbow Pattern}</li>\n<li>10th — @Compendium[pf1.spells.d3a93wcwatqhywqy]{Fire Snake}</li>\n<li>12th — @Compendium[pf1.spells.nk37t5em8q4v1djs]{Sirocco}</li>\n<li>14th — @Compendium[pf1.spells.vax8ojz8g3oovwzu]{Sunbeam}</li>\n<li>16th — @Compendium[pf1.spells.j2mwv9wfxhqch10g]{Sunburst}</li>\n<li>18th — @Compendium[pf1.spells.qk3oeq4awbc1smjw]{Fiery Body}</li>\n</ul>"
    },
    "tags": [],
    "actions": [],
    "attackNotes": [],
    "effectNotes": [],
    "changes": [],
    "contextNotes": [],
    "links": {
      "children": [],
      "charges": []
    },
    "tag": "classFeat_lightPatron",
    "useCustomTag": true,
    "armorProf": {
      "value": []
    },
    "weaponProf": {
      "value": []
    },
    "languages": {
      "value": []
    },
    "scriptCalls": [],
    "featType": "classFeat",
    "associations": {
      "classes": [["Witch"]]
    }
  },
  "ownership": {
    "default": 0
  },
  "_stats": {
    "systemId": "pf1",
    "systemVersion": "0.82.1",
    "coreVersion": "10.285",
    "createdTime": 1663018763080,
    "modifiedTime": 1663018778141,
    "lastModifiedBy": "DbeAbHwpEqczKjsD"
  }
}
