{
  "_id": "ENTbXHyWUs1xTml6",
  "name": "Light Steps (UC)",
  "type": "feat",
  "img": "systems/pf1/icons/skills/fire_07.jpg",
  "effects": [],
  "folder": null,
  "sort": 0,
  "flags": {},
  "system": {
    "description": {
      "value": "<p>A monk with this ki power can move effortlessly across nearly any surface. Whenever the monk activates his feather balance ki power, he can also ignore all difficult terrain. In addition, while active, he can cross any solid surface, even if it would normally not support his weight. This does not allow him to walk on liquids.</p>\n<p>A monk must be at least 8th level and have the feather balance ki power before selecting this ki power.</p>"
    },
    "tags": [],
    "actions": [],
    "attackNotes": [],
    "effectNotes": [],
    "changes": [],
    "contextNotes": [],
    "links": {
      "children": [],
      "charges": []
    },
    "tag": "classFeat_lightStepsUc",
    "useCustomTag": true,
    "armorProf": {
      "value": []
    },
    "weaponProf": {
      "value": []
    },
    "languages": {
      "value": []
    },
    "scriptCalls": [],
    "featType": "classFeat",
    "associations": {
      "classes": [["Monk (Unchained)"]]
    },
    "abilityType": "ex"
  },
  "ownership": {
    "default": 0
  },
  "_stats": {
    "systemId": "pf1",
    "systemVersion": "0.82.1",
    "coreVersion": "10.285",
    "createdTime": 1663018763819,
    "modifiedTime": 1663018778177,
    "lastModifiedBy": "DbeAbHwpEqczKjsD"
  }
}
