{
  "_id": "ZjKColLdXHKtFBwq",
  "name": "Linnorm Death Curse, Tarn",
  "type": "feat",
  "img": "systems/pf1/icons/feats/deafening-critical.jpg",
  "effects": [],
  "folder": null,
  "sort": 0,
  "flags": {},
  "system": {
    "description": {
      "value": "<p>The character channels the power of a&nbsp;<a href=\"https://aonprd.com/MonsterDisplay.aspx?ItemName=Tarn%20Linnorm\">tarn linnorm</a>. The character’s melee attacks deal an additional 1 point of acid damage. If the character is knocked unconscious or killed by an attack or spell, the attacker suffers the curse of death (Will negates).</p>\n<p>A character must be at least 4th level to select this rage power.&nbsp;Curse of Death:&nbsp;save&nbsp;Will DC 10 + 1/2 character’s level + character’s Charisma bonus;&nbsp;effect&nbsp;target is no longer affected by healing spells and can’t heal damage naturally by resting.</p>"
    },
    "tags": [],
    "actions": [],
    "attackNotes": [],
    "effectNotes": [],
    "changes": [],
    "contextNotes": [],
    "links": {
      "children": [],
      "charges": []
    },
    "tag": "classFeat_linnormDeathCurseTarn",
    "useCustomTag": true,
    "armorProf": {
      "value": []
    },
    "weaponProf": {
      "value": []
    },
    "languages": {
      "value": []
    },
    "scriptCalls": [],
    "featType": "classFeat",
    "associations": {
      "classes": [["Barbarian"], ["Skald"]]
    },
    "abilityType": "su"
  },
  "ownership": {
    "default": 0
  },
  "_stats": {
    "systemId": "pf1",
    "systemVersion": "0.82.1",
    "coreVersion": "10.285",
    "createdTime": 1663018766576,
    "modifiedTime": 1663018778340,
    "lastModifiedBy": "DbeAbHwpEqczKjsD"
  }
}
