{
  "_id": "rPkX4zqc8CrnS7a4",
  "name": "Lunar Final Revelation",
  "type": "feat",
  "img": "systems/pf1/icons/spells/light-royal-1.jpg",
  "effects": [],
  "folder": null,
  "sort": 0,
  "flags": {},
  "system": {
    "description": {
      "value": "<p>Upon reaching 20th level, you become an avatar of the primal world—part humanoid, part beast. Once per day, you can transform into a lycanthrope of your choice for a number of hours equal to your Charisma modifier, gaining all the powers of a natural lycanthrope of that type, including the ability to change shape between human, animal, and hybrid form. In addition, you become immune to mind-affecting and language-dependent effects, as well as effects that specifically target only humanoids.</p>"
    },
    "tags": [],
    "actions": [],
    "attackNotes": [],
    "effectNotes": [],
    "changes": [],
    "contextNotes": [],
    "links": {
      "children": [],
      "charges": []
    },
    "tag": "classFeat_lunarFinalRevelation",
    "useCustomTag": true,
    "armorProf": {
      "value": []
    },
    "weaponProf": {
      "value": []
    },
    "languages": {
      "value": []
    },
    "scriptCalls": [],
    "featType": "classFeat",
    "associations": {
      "classes": [["Oracle"]]
    }
  },
  "ownership": {
    "default": 0
  },
  "_stats": {
    "systemId": "pf1",
    "systemVersion": "0.82.1",
    "coreVersion": "10.285",
    "createdTime": 1663018769109,
    "modifiedTime": 1663018778525,
    "lastModifiedBy": "DbeAbHwpEqczKjsD"
  }
}
