{
  "_id": "LbyxhGErnoNzaQkd",
  "name": "Magic Attacks (UC) (1 pt)",
  "type": "feat",
  "img": "systems/pf1/icons/skills/blue_26.jpg",
  "effects": [],
  "folder": null,
  "sort": 0,
  "flags": {},
  "system": {
    "description": {
      "value": "<p>The eidolon is infused with magic, allowing it to treat all of its natural attacks as if they were magic for the purpose of overcoming damage reduction.</p>\n<p>If the summoner is 10th level or higher, all of the eidolon’s natural attacks are treated as the alignment of the eidolon for the purpose of overcoming damage reduction.</p>"
    },
    "tags": [],
    "actions": [],
    "attackNotes": [],
    "effectNotes": [],
    "changes": [],
    "contextNotes": [],
    "links": {
      "children": [],
      "charges": []
    },
    "tag": "classFeat_magicAttacksUc1Pt",
    "useCustomTag": true,
    "armorProf": {
      "value": []
    },
    "weaponProf": {
      "value": []
    },
    "languages": {
      "value": []
    },
    "scriptCalls": [],
    "featType": "classFeat",
    "associations": {
      "classes": [["Eidolon (Unchained)"]]
    },
    "abilityType": "su"
  },
  "ownership": {
    "default": 0
  },
  "_stats": {
    "systemId": "pf1",
    "systemVersion": "0.82.1",
    "coreVersion": "10.285",
    "createdTime": 1663018764759,
    "modifiedTime": 1663018778225,
    "lastModifiedBy": "DbeAbHwpEqczKjsD"
  }
}
