{
  "_id": "LS4i0151JSVw6zzE",
  "name": "Magnetism, Greater",
  "type": "feat",
  "img": "systems/pf1/icons/spells/wind-sky-3.jpg",
  "effects": [],
  "folder": null,
  "sort": 0,
  "flags": {},
  "system": {
    "description": {
      "value": "<p><strong>Element&nbsp;</strong>air, earth;&nbsp;<strong>Type&nbsp;</strong>utility (Sp);&nbsp;<strong>Level&nbsp;</strong>9;&nbsp;<strong>Burn&nbsp;</strong>0<br><strong>Prerequisite&nbsp;</strong>magnetic infusion, magnetism<br><strong>Saving Throw&nbsp;</strong>none;&nbsp;<strong>SR&nbsp;</strong>no</p>\n<p>You can repel or attract metal objects in a vast line with a magnetism so strong that there is no hope of escaping. This functions as @Compendium[pf1.spells.oeemcnfjod9zd7my]{Repel Metal or Stone}, except only for metal objects, and you can also pull the objects toward you instead of pushing them away. The effect lasts for 1 round, and the pulling version of the effect can’t pull objects into the air unless they are already airborne.</p>\n<p>You can accept 1 point of burn to increase the duration to 1 round per kineticist level you have.</p>"
    },
    "tags": [],
    "actions": [],
    "attackNotes": [],
    "effectNotes": [],
    "changes": [],
    "contextNotes": [],
    "links": {
      "children": [],
      "charges": []
    },
    "tag": "classFeat_magnetismGreater",
    "useCustomTag": true,
    "armorProf": {
      "value": []
    },
    "weaponProf": {
      "value": []
    },
    "languages": {
      "value": []
    },
    "scriptCalls": [],
    "featType": "classFeat",
    "associations": {
      "classes": [["Kineticist"]]
    },
    "abilityType": "sp"
  },
  "ownership": {
    "default": 0
  },
  "_stats": {
    "systemId": "pf1",
    "systemVersion": "0.82.1",
    "coreVersion": "10.285",
    "createdTime": 1663018764750,
    "modifiedTime": 1663018778224,
    "lastModifiedBy": "DbeAbHwpEqczKjsD"
  }
}
