{
  "_id": "HJ2vLLDYkihPxFkD",
  "name": "Magus Arcana",
  "type": "feat",
  "img": "systems/pf1/icons/spells/runes-magenta-1.jpg",
  "effects": [],
  "folder": null,
  "sort": 0,
  "flags": {},
  "system": {
    "description": {
      "value": "<p>As he gains levels, a magus learns arcane secrets tailored to his specific way of blending martial puissance and magical skill. Starting at 3rd level, a magus gains one magus arcana. He gains an additional magus arcana for every three levels of magus attained after 3rd level.</p>\n<p>Unless specifically noted in a magus arcana's description, a magus cannot select a particular magus arcana more than once.</p>\n<p>Magus arcana that affect spells can only be used to modify spells from the magus spell list unless otherwise noted.</p>"
    },
    "tags": [],
    "actions": [],
    "attackNotes": [],
    "effectNotes": [],
    "changes": [],
    "contextNotes": [],
    "links": {
      "children": [],
      "charges": []
    },
    "tag": "classFeat_magusArcana",
    "useCustomTag": true,
    "armorProf": {
      "value": []
    },
    "weaponProf": {
      "value": []
    },
    "languages": {
      "value": []
    },
    "scriptCalls": [],
    "featType": "classFeat",
    "associations": {
      "classes": [["Magus"]]
    }
  },
  "ownership": {
    "default": 0
  },
  "_stats": {
    "systemId": "pf1",
    "systemVersion": "0.82.1",
    "coreVersion": "10.285",
    "createdTime": 1663018763984,
    "modifiedTime": 1663018778199,
    "lastModifiedBy": "DbeAbHwpEqczKjsD"
  }
}
