{
  "_id": "agVFqf3mfxf0l8oT",
  "name": "Martial Training",
  "type": "feat",
  "img": "systems/pf1/icons/skills/blue_23.jpg",
  "effects": [],
  "folder": null,
  "sort": 0,
  "flags": {},
  "system": {
    "description": {
      "value": "<p>At 1st level, a brawler counts her total brawler levels as both fighter levels and monk levels for the purpose of qualifying for feats. She also counts as both a fighter and a monk for feats and magic items that have different effects based on whether the character has levels in those classes (such as @Compendium[pf1.feats.GsjouI6B8X7BA5wN]{Stunning Fist} and a monk’s robe). This ability does not automatically grant feats normally granted to fighters and monks based on class level, namely @Compendium[pf1.feats.GsjouI6B8X7BA5wN]{Stunning Fist}.&lt;/magic.wondrous%monk's&gt;</p>"
    },
    "tags": [],
    "actions": [],
    "attackNotes": [],
    "effectNotes": [],
    "changes": [],
    "contextNotes": [],
    "links": {
      "children": [],
      "charges": []
    },
    "tag": "classFeat_martialTraining",
    "useCustomTag": true,
    "armorProf": {
      "value": []
    },
    "weaponProf": {
      "value": []
    },
    "languages": {
      "value": []
    },
    "scriptCalls": [],
    "featType": "classFeat",
    "associations": {
      "classes": [["Brawler"]]
    },
    "abilityType": "ex"
  },
  "ownership": {
    "default": 0
  },
  "_stats": {
    "systemId": "pf1",
    "systemVersion": "0.82.1",
    "coreVersion": "10.285",
    "createdTime": 1663018766632,
    "modifiedTime": 1663018778359,
    "lastModifiedBy": "DbeAbHwpEqczKjsD"
  }
}
