{
  "_id": "52sdtdkBoRICEFaU",
  "name": "Memory Subdomain",
  "type": "feat",
  "img": "systems/pf1/icons/skills/light_01.jpg",
  "effects": [],
  "folder": null,
  "sort": 0,
  "flags": {},
  "system": {
    "description": {
      "value": "<p><strong>Replacement Domain Spells:</strong></p>\n<ul>\n<li>2nd&mdash;@Compendium[pf1.spells.5eg2f7nek9cjmv0n]{Memory Lapse}</li>\n<li>6th&mdash;@Compendium[pf1.spells.5ll7q13p0skbgonc]{Modify Memory}</li>\n<li>8th&mdash;@Compendium[pf1.spells.2vb5orfcy57lrfmc]{Moment of Prescience}</li>\n</ul>"
    },
    "tags": [],
    "actions": [],
    "attackNotes": [],
    "effectNotes": [],
    "changes": [],
    "contextNotes": [],
    "links": {
      "children": [],
      "charges": []
    },
    "tag": "classFeat_memorySubdomain",
    "useCustomTag": true,
    "armorProf": {
      "value": []
    },
    "weaponProf": {
      "value": []
    },
    "languages": {
      "value": []
    },
    "scriptCalls": [],
    "featType": "classFeat",
    "associations": {
      "classes": [["Cleric"]]
    }
  },
  "ownership": {
    "default": 0
  },
  "_stats": {
    "systemId": "pf1",
    "systemVersion": "0.82.1",
    "coreVersion": "10.285",
    "createdTime": 1663018762454,
    "modifiedTime": 1663018778104,
    "lastModifiedBy": "DbeAbHwpEqczKjsD"
  }
}
