{
  "_id": "WsTeyXwNCOSvvcoU",
  "name": "Monsoon Subdomain",
  "type": "feat",
  "img": "systems/pf1/icons/spells/air-burst-sky-3.jpg",
  "effects": [],
  "folder": null,
  "sort": 0,
  "flags": {},
  "system": {
    "description": {
      "value": "<p><strong>Replacement Domain Spells: </strong></p>\n<ul>\n<li>3rd—@Compendium[pf1.spells.478jgozgfbt20u0q]{Hydraulic Torrent}</li>\n<li>4th—@Compendium[pf1.spells.7yf67b7y4byj96w7]{Control Water}</li>\n<li>5th—@Compendium[pf1.spells.9s5oseou738k2qif]{Fickle Winds}</li>\n<li>9th—@Compendium[pf1.spells.ltda70etgwje43x6]{Tsunami}</li>\n</ul>"
    },
    "tags": [],
    "actions": [],
    "attackNotes": [],
    "effectNotes": [],
    "changes": [],
    "contextNotes": [],
    "links": {
      "children": [],
      "charges": []
    },
    "tag": "classFeat_monsoonSubdomain",
    "useCustomTag": true,
    "armorProf": {
      "value": []
    },
    "weaponProf": {
      "value": []
    },
    "languages": {
      "value": []
    },
    "scriptCalls": [],
    "featType": "classFeat",
    "associations": {
      "classes": [["Cleric"]]
    }
  },
  "ownership": {
    "default": 0
  },
  "_stats": {
    "systemId": "pf1",
    "systemVersion": "0.82.1",
    "coreVersion": "10.285",
    "createdTime": 1663018766146,
    "modifiedTime": 1663018778300,
    "lastModifiedBy": "DbeAbHwpEqczKjsD"
  }
}
