{
  "_id": "ZuFI7iaKeWv3n5pA",
  "name": "Necromancy School",
  "type": "feat",
  "img": "systems/pf1/icons/skills/affliction_08.jpg",
  "effects": [],
  "folder": null,
  "sort": 0,
  "flags": {},
  "system": {
    "description": {
      "value": "<p>The dread and feared necromancer commands undead and uses the foul power of unlife against his enemies.</p>"
    },
    "tags": [],
    "actions": [],
    "attackNotes": [],
    "effectNotes": [],
    "changes": [],
    "contextNotes": [],
    "links": {
      "children": [],
      "charges": []
    },
    "tag": "classFeat_necromancySchool",
    "useCustomTag": true,
    "armorProf": {
      "value": []
    },
    "weaponProf": {
      "value": []
    },
    "languages": {
      "value": []
    },
    "scriptCalls": [],
    "featType": "classFeat",
    "associations": {
      "classes": [["Wizard"]]
    }
  },
  "ownership": {
    "default": 0
  },
  "_stats": {
    "systemId": "pf1",
    "systemVersion": "0.82.1",
    "coreVersion": "10.285",
    "createdTime": 1663018766583,
    "modifiedTime": 1663018778342,
    "lastModifiedBy": "DbeAbHwpEqczKjsD"
  }
}
