{
  "_id": "urXu5dQ1C5sxOnto",
  "name": "Nimble Climber (UC)",
  "type": "feat",
  "img": "systems/pf1/icons/items/weapons/hunga-munga.PNG",
  "effects": [],
  "folder": null,
  "sort": 0,
  "flags": {},
  "system": {
    "description": {
      "value": "<p>Whenever the rogue fails a Climb check by 5 or more, she can attempt a Reflex save (using the same DC as the Climb check) to catch herself and avoid falling.</p>"
    },
    "tags": [],
    "actions": [],
    "attackNotes": [],
    "effectNotes": [],
    "changes": [],
    "contextNotes": [],
    "links": {
      "children": [],
      "charges": []
    },
    "tag": "classFeat_nimbleClimberUc",
    "useCustomTag": true,
    "armorProf": {
      "value": []
    },
    "weaponProf": {
      "value": []
    },
    "languages": {
      "value": []
    },
    "scriptCalls": [],
    "featType": "classFeat",
    "associations": {
      "classes": [["Rogue (Unchained)"]]
    },
    "abilityType": "ex"
  },
  "ownership": {
    "default": 0
  },
  "_stats": {
    "systemId": "pf1",
    "systemVersion": "0.82.1",
    "coreVersion": "10.285",
    "createdTime": 1663018769578,
    "modifiedTime": 1663018778549,
    "lastModifiedBy": "DbeAbHwpEqczKjsD"
  }
}
