{
  "_id": "YTtE4znGtflUxUEj",
  "name": "Occult Mystery",
  "type": "feat",
  "img": "systems/pf1/icons/spells/light-magenta-2.jpg",
  "effects": [],
  "folder": null,
  "sort": 0,
  "flags": {},
  "system": {
    "description": {
      "value": "<p><strong>Class Skills:</strong> An oracle with the occult mystery adds Bluff, Disguise, Knowledge (arcana), and Use Magic Device to her list of class skills.<br><br><strong>Bonus Spells:</strong>&nbsp;</p>\n<ul>\n<li>@Compendium[pf1.spells.jhyb2ana8jrk2lut]{Unseen Servant} (2nd),&nbsp;</li>\n<li>@Compendium[pf1.spells.oplskt3tgws8ujv8]{Spectral Hand}(4th),&nbsp;</li>\n<li>@Compendium[pf1.spells.6kmkxepwgsbta6ui]{Clairaudience/Clairvoyance} (6th),&nbsp;</li>\n<li>@Compendium[pf1.spells.g66w32kdup1f43bp]{Scrying} (8th),&nbsp;</li>\n<li>@Compendium[pf1.spells.68ngvzmzvadhf6vs]{Contact Other Plane} (10th),&nbsp;</li>\n<li>@Compendium[pf1.spells.0w3hvcp3gb2bhtv5]{Project Image} (12th),&nbsp;</li>\n<li>@Compendium[pf1.spells.aqeaxoaozlv9vg35]{Vision} (14th),&nbsp;</li>\n<li>@Compendium[pf1.spells.2vb5orfcy57lrfmc]{Moment of Prescience} (16th),&nbsp;</li>\n<li>@Compendium[pf1.spells.lnahlmp5mih2ongh]{Astral Projection} (18th).</li>\n</ul>"
    },
    "tags": [],
    "actions": [],
    "attackNotes": [],
    "effectNotes": [],
    "changes": [],
    "contextNotes": [],
    "links": {
      "children": [],
      "charges": []
    },
    "tag": "classFeat_occultMystery",
    "useCustomTag": true,
    "armorProf": {
      "value": []
    },
    "weaponProf": {
      "value": []
    },
    "languages": {
      "value": []
    },
    "scriptCalls": [],
    "featType": "classFeat",
    "associations": {
      "classes": [["Oracle"]]
    }
  },
  "ownership": {
    "default": 0
  },
  "_stats": {
    "systemId": "pf1",
    "systemVersion": "0.82.1",
    "coreVersion": "10.285",
    "createdTime": 1663018766230,
    "modifiedTime": 1663018778316,
    "lastModifiedBy": "DbeAbHwpEqczKjsD"
  }
}
