{
  "_id": "uFSLnLZkYJycxB6b",
  "name": "Oceans Subdomain",
  "type": "feat",
  "img": "systems/pf1/icons/skills/blue_15.jpg",
  "effects": [],
  "folder": null,
  "sort": 0,
  "flags": {},
  "system": {
    "description": {
      "value": "<p><strong>Replacement Domain Spells:</strong></p>\n<ul>\n<li>2nd—@Compendium[pf1.spells.7fvsn0gbv6ynlp63]{Slipstream}</li>\n<li>3rd—@Compendium[pf1.spells.g2obld7y0lpyztes]{Water Walk}</li>\n<li>9th—@Compendium[pf1.spells.ltda70etgwje43x6]{Tsunami}</li>\n</ul>"
    },
    "tags": [],
    "actions": [],
    "attackNotes": [],
    "effectNotes": [],
    "changes": [],
    "contextNotes": [],
    "links": {
      "children": [],
      "charges": []
    },
    "tag": "classFeat_oceansSubdomain",
    "useCustomTag": true,
    "armorProf": {
      "value": []
    },
    "weaponProf": {
      "value": []
    },
    "languages": {
      "value": []
    },
    "scriptCalls": [],
    "featType": "classFeat",
    "associations": {
      "classes": [["Cleric"]]
    }
  },
  "ownership": {
    "default": 0
  },
  "_stats": {
    "systemId": "pf1",
    "systemVersion": "0.82.1",
    "coreVersion": "10.285",
    "createdTime": 1663018769255,
    "modifiedTime": 1663018778543,
    "lastModifiedBy": "DbeAbHwpEqczKjsD"
  }
}
