{
  "_id": "zlNHK8p4dMoOUiOw",
  "name": "One Purpose",
  "type": "feat",
  "img": "systems/pf1/icons/items/inventory/banner-red.jpg",
  "effects": [],
  "folder": null,
  "sort": 0,
  "flags": {},
  "system": {
    "description": {
      "value": "<p>At 15th level, the cavalier’s mount shares the benefits of the cavalier’s guarded ability as long as both are wearing light or no armor and carrying no more than a light load. The cavalier must fight defensively or use @Compendium[pf1.feats.NFxHebU1XhEs5WJh]{Combat Expertise}&nbsp;to grant these benefits, but the mount need not. In addition, the mount gains all the benefits of the cavalier’s challenge, regardless of what barding it wears.</p>"
    },
    "tags": [],
    "actions": [],
    "attackNotes": [],
    "effectNotes": [],
    "changes": [],
    "contextNotes": [],
    "links": {
      "children": [],
      "charges": []
    },
    "tag": "classFeat_onePurpose",
    "useCustomTag": true,
    "armorProf": {
      "value": []
    },
    "weaponProf": {
      "value": []
    },
    "languages": {
      "value": []
    },
    "scriptCalls": [],
    "featType": "classFeat",
    "associations": {
      "classes": [["Cavalier"]]
    },
    "abilityType": "ex"
  },
  "ownership": {
    "default": 0
  },
  "_stats": {
    "systemId": "pf1",
    "systemVersion": "0.82.1",
    "coreVersion": "10.285",
    "createdTime": 1663018770116,
    "modifiedTime": 1663018778582,
    "lastModifiedBy": "DbeAbHwpEqczKjsD"
  }
}
