{
  "_id": "kkVnlOkjhww8MoHc",
  "name": "Oracle's Curse",
  "type": "feat",
  "img": "systems/pf1/icons/skills/affliction_03.jpg",
  "effects": [],
  "folder": null,
  "sort": 0,
  "flags": {},
  "system": {
    "description": {
      "value": "<p>Each oracle is cursed, but this curse comes with a benefit as well as a hindrance. This choice is made at 1st level, and once made, it cannot be changed. The oracle’s curse cannot be removed or dispelled without the aid of a deity. An oracle’s curse is based on her oracle level plus one for every two levels or Hit Dice other than oracle. Each oracle must a single curse.</p>"
    },
    "tags": [],
    "actions": [],
    "attackNotes": [],
    "effectNotes": [],
    "changes": [],
    "contextNotes": [],
    "links": {
      "children": [],
      "charges": []
    },
    "tag": "classFeat_oraclesCurse",
    "useCustomTag": true,
    "armorProf": {
      "value": []
    },
    "weaponProf": {
      "value": []
    },
    "languages": {
      "value": []
    },
    "scriptCalls": [],
    "featType": "classFeat",
    "associations": {
      "classes": [["Oracle"]]
    },
    "abilityType": "ex"
  },
  "ownership": {
    "default": 0
  },
  "_stats": {
    "systemId": "pf1",
    "systemVersion": "0.82.1",
    "coreVersion": "10.285",
    "createdTime": 1663018768156,
    "modifiedTime": 1663018778481,
    "lastModifiedBy": "DbeAbHwpEqczKjsD"
  }
}
