{
  "_id": "LI7UgRNGJ77FYqio",
  "name": "Peerless Speed",
  "type": "feat",
  "img": "systems/pf1/icons/spells/haste-royal-3.jpg",
  "effects": [],
  "folder": null,
  "sort": 0,
  "flags": {},
  "system": {
    "description": {
      "value": "<p>At 3rd level, you can tap into the power of the Astral’s enhanced magical nature to gain the ability to accelerate your spellcasting dramatically.</p>\n<p>Once per day as a&nbsp;<a href=\"https://www.d20pfsrd.com/gamemastering/combat#TOC-Swift-Actions\">swift action</a>, you can cast one cantrip you know as though it were augmented by the @Compendium[pf1.feats.wFoLrh5FeeqBXsQ8]{Quicken Spell}&nbsp;<a href=\"https://www.d20pfsrd.com/feats/metamagic-feats\">metamagic feat</a>, without altering the cantrip’s level.</p>\n<p>At 5th level and every 2 levels thereafter, the maximum level of the spell you can augment with this ability increases by 1, to a maximum of an 8th-level spell at 19th level. If you use this ability while on the&nbsp;<a href=\"https://www.d20pfsrd.com/gamemastering/environment/the-planes#TOC-Astral-Plane\">Astral Plane</a>&nbsp;or on any plane whose enhanced magic trait allows you to cast a spell as if&nbsp;<a href=\"https://www.d20pfsrd.com/bestiary/rules-for-monsters/creature-types#TOC-Augmented\">augmented</a>&nbsp;by @Compendium[pf1.feats.wFoLrh5FeeqBXsQ8]{Quicken Spell}, you can instead choose to augment the spell as though you had applied the @Compendium[pf1.feats.77gXSucrxfrE9yWk]{Empower Spell}&nbsp;or @Compendium[pf1.feats.J1yi4hFKYdXqZE3h]{Maximize Spell}&nbsp;<a href=\"https://www.d20pfsrd.com/feats/metamagic-feats\">metamagic feats</a>&nbsp;instead.</p>"
    },
    "tags": [],
    "actions": [],
    "attackNotes": [],
    "effectNotes": [],
    "changes": [],
    "contextNotes": [],
    "links": {
      "children": [],
      "charges": []
    },
    "tag": "classFeat_peerlessSpeed",
    "useCustomTag": true,
    "armorProf": {
      "value": []
    },
    "weaponProf": {
      "value": []
    },
    "languages": {
      "value": []
    },
    "scriptCalls": [],
    "featType": "classFeat",
    "associations": {
      "classes": [["Sorcerer"]]
    },
    "abilityType": "su"
  },
  "ownership": {
    "default": 0
  },
  "_stats": {
    "systemId": "pf1",
    "systemVersion": "0.82.1",
    "coreVersion": "10.285",
    "createdTime": 1663018764740,
    "modifiedTime": 1663018778223,
    "lastModifiedBy": "DbeAbHwpEqczKjsD"
  }
}
