{
  "_id": "DjqBs6c5x6fPibpB",
  "name": "Pierce the Guard",
  "type": "feat",
  "img": "systems/pf1/icons/items/inventory/banner-red.jpg",
  "effects": [],
  "folder": null,
  "sort": 0,
  "flags": {},
  "system": {
    "description": {
      "value": "<p>At 8th level, when attacking with a light or one-handed weapon, the cavalier ignores the penalty for fighting defensively or using @Compendium[pf1.feats.NFxHebU1XhEs5WJh]{Combat Expertise}&nbsp;on his first melee attack roll each round. If fighting with two weapons, he ignores the penalty for the first attack with each weapon, as long as the off-hand weapon is a light weapon. The cavalier can’t use this ability with double weapons.</p>"
    },
    "tags": [],
    "actions": [],
    "attackNotes": [],
    "effectNotes": [],
    "changes": [],
    "contextNotes": [],
    "links": {
      "children": [],
      "charges": []
    },
    "tag": "classFeat_pierceTheGuard",
    "useCustomTag": true,
    "armorProf": {
      "value": []
    },
    "weaponProf": {
      "value": []
    },
    "languages": {
      "value": []
    },
    "scriptCalls": [],
    "featType": "classFeat",
    "associations": {
      "classes": [["Cavalier"]]
    },
    "abilityType": "ex"
  },
  "ownership": {
    "default": 0
  },
  "_stats": {
    "systemId": "pf1",
    "systemVersion": "0.82.1",
    "coreVersion": "10.285",
    "createdTime": 1663018763536,
    "modifiedTime": 1663018778171,
    "lastModifiedBy": "DbeAbHwpEqczKjsD"
  }
}
