{
  "_id": "oK4nOsSreHhGJgev",
  "name": "Plant Puppet",
  "type": "feat",
  "img": "systems/pf1/icons/spells/vines-jade-3.jpg",
  "effects": [],
  "folder": null,
  "sort": 0,
  "flags": {},
  "system": {
    "description": {
      "value": "<p><strong>Element&nbsp;</strong>wood;&nbsp;<strong>Type&nbsp;</strong>utility (Sp);&nbsp;<strong>Level&nbsp;</strong>5;&nbsp;<strong>Burn&nbsp;</strong>0</p>\n<p>You can control plants, causing them to attack your foes. This functions as the aether puppet wild talent, except it controls plants instead of objects.</p>\n<p>At 12th level, you can grant hardness 5 to Large and larger animated plants.</p>"
    },
    "tags": [],
    "actions": [],
    "attackNotes": [],
    "effectNotes": [],
    "changes": [],
    "contextNotes": [],
    "links": {
      "children": [],
      "charges": []
    },
    "tag": "classFeat_plantPuppet",
    "useCustomTag": true,
    "armorProf": {
      "value": []
    },
    "weaponProf": {
      "value": []
    },
    "languages": {
      "value": []
    },
    "scriptCalls": [],
    "featType": "classFeat",
    "associations": {
      "classes": [["Kineticist"]]
    },
    "abilityType": "sp"
  },
  "ownership": {
    "default": 0
  },
  "_stats": {
    "systemId": "pf1",
    "systemVersion": "0.82.1",
    "coreVersion": "10.285",
    "createdTime": 1663018768656,
    "modifiedTime": 1663018778505,
    "lastModifiedBy": "DbeAbHwpEqczKjsD"
  }
}
