{
  "_id": "Zi8PhdwJRQfN71AD",
  "name": "Plant Domain",
  "type": "feat",
  "img": "systems/pf1/icons/skills/green_20.jpg",
  "effects": [],
  "folder": null,
  "sort": 0,
  "flags": {},
  "system": {
    "description": {
      "value": "<p><strong>Granted Powers:</strong> You find solace in the green, can grow defensive thorns, and can communicate with plants.</p>\n<p><strong>Domain Spells: </strong></p>\n<ul>\n<li>1st—@Compendium[pf1.spells.2nn2tshkn4p7k25l]{Entangle}</li>\n<li>2nd—@Compendium[pf1.spells.la7kuehewu85ybnt]{Barkskin}</li>\n<li>3rd—@Compendium[pf1.spells.tvhm9lzgnjlcucsn]{Plant Growth}</li>\n<li>4th—@Compendium[pf1.spells.wi9uvm8p12qvq616]{Command Plants}</li>\n<li>5th—@Compendium[pf1.spells.nqfoy30smshc3c6w]{Wall Of Thorns}</li>\n<li>6th—@Compendium[pf1.spells.ipc85wy0f0lmr0l4]{Repel Wood}</li>\n<li>7th—@Compendium[pf1.spells.qt0xmkag6ahtvesm]{Animate Plants}</li>\n<li>8th—@Compendium[pf1.spells.szzwom7utm3sm15z]{Control Plants}</li>\n<li>9th—@Compendium[pf1.spells.bp4s030vn5iwwf58]{Shambler}</li>\n</ul>"
    },
    "tags": [],
    "actions": [],
    "attackNotes": [],
    "effectNotes": [],
    "changes": [],
    "contextNotes": [],
    "links": {
      "children": [],
      "charges": []
    },
    "tag": "classFeat_plantDomain",
    "useCustomTag": true,
    "armorProf": {
      "value": []
    },
    "weaponProf": {
      "value": []
    },
    "languages": {
      "value": []
    },
    "scriptCalls": [],
    "featType": "classFeat",
    "associations": {
      "classes": [["Cleric"]]
    }
  },
  "ownership": {
    "default": 0
  },
  "_stats": {
    "systemId": "pf1",
    "systemVersion": "0.82.1",
    "coreVersion": "10.285",
    "createdTime": 1663018766575,
    "modifiedTime": 1663018778340,
    "lastModifiedBy": "DbeAbHwpEqczKjsD"
  }
}
