{
  "_id": "rtGq4fW9oxtyU9Vd",
  "name": "Planar Hunter",
  "type": "feat",
  "img": "systems/pf1/icons/spells/enchant-red-3.jpg",
  "effects": [],
  "folder": null,
  "sort": 0,
  "flags": {},
  "system": {
    "description": {
      "value": "<p>Whenever the magus enhances his weapon using his arcane pool, he can spend 1 additional point from his arcane pool to add the&nbsp;planar&nbsp;special ability to his weapon, or 2 additional points to add the&nbsp;phase locking&nbsp;special ability. The magus must be at least 9th level before selecting this arcana.</p>"
    },
    "tags": [],
    "actions": [],
    "attackNotes": [],
    "effectNotes": [],
    "changes": [],
    "contextNotes": [],
    "links": {
      "children": [],
      "charges": []
    },
    "tag": "classFeat_planarHunter",
    "useCustomTag": true,
    "armorProf": {
      "value": []
    },
    "weaponProf": {
      "value": []
    },
    "languages": {
      "value": []
    },
    "scriptCalls": [],
    "featType": "classFeat",
    "associations": {
      "classes": [["Magus"]]
    },
    "abilityType": "su"
  },
  "ownership": {
    "default": 0
  },
  "_stats": {
    "systemId": "pf1",
    "systemVersion": "0.82.1",
    "coreVersion": "10.285",
    "createdTime": 1663018769131,
    "modifiedTime": 1663018778528,
    "lastModifiedBy": "DbeAbHwpEqczKjsD"
  }
}
