{
  "_id": "SASbiccNdg1IszoP",
  "name": "Planar Scent",
  "type": "feat",
  "img": "systems/pf1/icons/spells/slice-spirit-3.jpg",
  "effects": [],
  "folder": null,
  "sort": 0,
  "flags": {},
  "system": {
    "description": {
      "value": "<p>You can intuitively sense disruptions in the cosmos. This ability functions as a constant detect magic, but only for effects of the conjuration (calling), conjuration (summoning), conjuration (teleport), and illusion (shadow) subschools. You gain a +2 insight bonus on Spellcraft checks to identify such effects.</p>"
    },
    "tags": [],
    "actions": [],
    "attackNotes": [],
    "effectNotes": [],
    "changes": [],
    "contextNotes": [],
    "links": {
      "children": [],
      "charges": []
    },
    "tag": "classFeat_planarScent",
    "useCustomTag": true,
    "armorProf": {
      "value": []
    },
    "weaponProf": {
      "value": []
    },
    "languages": {
      "value": []
    },
    "scriptCalls": [],
    "featType": "classFeat",
    "associations": {
      "classes": [["Psychic"]]
    },
    "abilityType": "su"
  },
  "ownership": {
    "default": 0
  },
  "_stats": {
    "systemId": "pf1",
    "systemVersion": "0.82.1",
    "coreVersion": "10.285",
    "createdTime": 1663018765632,
    "modifiedTime": 1663018778268,
    "lastModifiedBy": "DbeAbHwpEqczKjsD"
  }
}
