{
  "_id": "0EcvlKOKOAurc0DS",
  "name": "Possessed Bloodline",
  "type": "feat",
  "img": "systems/pf1/icons/skills/affliction_03.jpg",
  "effects": [],
  "folder": null,
  "sort": 0,
  "flags": {},
  "system": {
    "description": {
      "value": "<p><em>Possessed&nbsp;<a href=\"https://www.d20pfsrd.com/classes/core-classes/sorcerer\">sorcerers</a>&nbsp;channel their magic potential through a unique bond with a possessing spirit rather than through blood alone. These spirits take numerous forms, but such is their tenaciousness that they bond in a way that prevents their banishment from the host. Instead, both possessor and&nbsp;<a href=\"https://www.d20pfsrd.com/classes/core-classes/sorcerer\">sorcerer</a>&nbsp;work together, their joint nature allowing the&nbsp;<a href=\"https://www.d20pfsrd.com/classes/core-classes/sorcerer\">sorcerer</a>&nbsp;to unlock many unnatural abilities.</em></p>\n<p><em>The magical nature of a&nbsp;<a href=\"https://www.d20pfsrd.com/classes/core-classes/sorcerer\">sorcerer’s</a>&nbsp;<a href=\"https://www.d20pfsrd.com/classes/core-classes/sorcerer#TOC-Bloodline\">bloodline</a>&nbsp;means the&nbsp;<a href=\"https://www.d20pfsrd.com/classes/core-classes/sorcerer\">sorcerer</a>&nbsp;herself does not even need to be the creature initially possessed to have this particular&nbsp;<a href=\"https://www.d20pfsrd.com/classes/core-classes/sorcerer#TOC-Bloodline\">bloodline</a>. It may be that one of your ancestors was possessed by a powerful spirit, one whose presence was so overwhelming that it sends ripples of power down through the generations.</em></p>\n<p><strong>Class Skill:</strong>&nbsp;<a href=\"https://www.d20pfsrd.com/skills/knowledge\">Knowledge</a>&nbsp;(religion).</p>\n<p><strong>Bonus Spells:</strong></p>\n<ul>\n<li>@Compendium[pf1.spells.ja1p1uuf8fp6fiox]{Anticipate Peril} (3rd),</li>\n<li>@Compendium[pf1.spells.9hi94t05i449j5ul]{Share Memory}&nbsp;(5th),</li>\n<li>@Compendium[pf1.spells.l8xwrepcmkdgb2wf]{Purge Spirit} (7th),</li>\n<li>@Compendium[pf1.spells.flqg043abb5xryh5]{Entrap Spirit}&nbsp;(9th),</li>\n<li>@Compendium[pf1.spells.4mw83czf7b62rar3]{Possession}&nbsp;(11th),</li>\n<li>@Compendium[pf1.spells.lovx4kiq18gbvg4e]{Telepathy}&nbsp;(13th),</li>\n<li>@Compendium[pf1.spells.s6q72tw2zra9sycu]{Insanity}&nbsp;(15th),</li>\n<li>@Compendium[pf1.spells.v39qnirlhgje2c0e]{Bilocation}&nbsp;(17th),</li>\n<li>@Compendium[pf1.spells.q8nety5obvbbd5xs]{Divide Mind}&nbsp;(19th).</li>\n</ul>\n<p><strong>Bonus Feats:</strong></p>\n<ul>\n<li>@Compendium[pf1.feats.u7rGDZUL296QIuA0]{Combat Casting},</li>\n<li>@Compendium[pf1.feats.SUACufUXl12sUvnQ]{Deceitful},&nbsp;</li>\n<li><a href=\"https://www.d20pfsrd.com/feats/metamagic-feats/fearsome-spell-metamagic\">Fearsome Spell</a>,</li>\n<li>@Compendium[pf1.feats.cKxfEL5XOWuzLhfO]{Improved Iron Will},</li>\n<li>@Compendium[pf1.feats.iAbIGhm7T2OK9Brt]{Iron Will},</li>\n<li>@Compendium[pf1.feats.L10V7jTzmMYz62zz]{Persuasive},&nbsp;</li>\n<li><a href=\"https://www.d20pfsrd.com/feats/metamagic-feats/selective-spell-metamagic\">Selective Spell</a>,</li>\n<li>@Compendium[pf1.feats.7zJTztNW7hdaqjKc]{Skill Focus}(<a href=\"https://www.d20pfsrd.com/skills/bluff\">Bluff</a>&nbsp;),</li>\n<li>@Compendium[pf1.feats.V2zY7BltkpSXwejy]{Spell Focus},&nbsp;</li>\n<li><a href=\"https://www.d20pfsrd.com/feats/metamagic-feats/traumatic-spell-metamagic\">Traumatic Spell</a>.</li>\n</ul>\n<p><strong>Bloodline Arcana:</strong> Whenever you cast a non-cantrip spell, you can roll the next&nbsp;<a href=\"https://www.d20pfsrd.com/gamemastering/combat#TOC-Will\">Will</a>&nbsp;save you attempt against a&nbsp;<a href=\"https://www.d20pfsrd.com/magic#TOC-Magic-Descriptor-Mind-Affecting\">mind-affecting</a>&nbsp;effect before your next turn twice and take the better result. If you have already failed a save against a&nbsp;<a href=\"https://www.d20pfsrd.com/magic#TOC-Magic-Descriptor-Mind-Affecting\">mind-affecting</a>&nbsp;effect, you can instead attempt another&nbsp;<a href=\"https://www.d20pfsrd.com/gamemastering/combat#TOC-Will\">Will</a>&nbsp;save against that ongoing&nbsp;<a href=\"https://www.d20pfsrd.com/magic#TOC-Magic-Descriptor-Mind-Affecting\">mind-affecting</a>&nbsp;effect after successfully casting your spell. You can use this ability only once against a given&nbsp;<a href=\"https://www.d20pfsrd.com/magic#TOC-Magic-Descriptor-Mind-Affecting\">mind-affecting</a>&nbsp;effect. You can use this ability a number of times per day equal to 3 + your&nbsp;<a href=\"https://www.d20pfsrd.com/basics-ability-scores/ability-scores#TOC-Charisma-Cha-\">Charisma</a>&nbsp;modifier.</p>"
    },
    "tags": [],
    "actions": [],
    "attackNotes": [],
    "effectNotes": [],
    "changes": [],
    "contextNotes": [],
    "links": {
      "children": [],
      "charges": []
    },
    "tag": "classFeat_possessedBloodline",
    "useCustomTag": true,
    "armorProf": {
      "value": []
    },
    "weaponProf": {
      "value": []
    },
    "languages": {
      "value": []
    },
    "scriptCalls": [],
    "featType": "classFeat",
    "associations": {
      "classes": [["Sorcerer"]]
    }
  },
  "ownership": {
    "default": 0
  },
  "_stats": {
    "systemId": "pf1",
    "systemVersion": "0.82.1",
    "coreVersion": "10.285",
    "createdTime": 1663018761819,
    "modifiedTime": 1663018778067,
    "lastModifiedBy": "DbeAbHwpEqczKjsD"
  }
}
