{
  "_id": "zyyB1AU3s5PAuBPU",
  "name": "Prepared for the Journey",
  "type": "feat",
  "img": "systems/pf1/icons/items/inventory/banner-red.jpg",
  "effects": [],
  "folder": null,
  "sort": 0,
  "flags": {},
  "system": {
    "description": {
      "value": "<p>At 2nd level, the cavalier can prepare for the terrain through which he will be traveling with 48 hours of study and customization of his equipment. He can select any terrain type from the list available to a&nbsp;<a href=\"https://aonprd.com/ClassDisplay.aspx?ItemName=Ranger\">ranger for his favored terrain class feature</a>. While in the selected terrain, the cavalier gains a +2 bonus on initiative checks and on Knowledge (geography), Perception, Stealth, and Survival skill checks. At 8th level and every 6 levels thereafter, this bonus increases by 1. Additionally, when calculating overland movement speed in the selected terrain, the cavalier and his mount treat trackless terrain as though it contains a road or trail, and terrain with a road or trail as though it were a highway. If traveling along a highway, the cavalier and his mount can travel for 10 hours before needing to attempt Constitution checks for a forced march.</p>"
    },
    "tags": [],
    "actions": [],
    "attackNotes": [],
    "effectNotes": [],
    "changes": [],
    "contextNotes": [],
    "links": {
      "children": [],
      "charges": []
    },
    "tag": "classFeat_preparedForTheJourney",
    "useCustomTag": true,
    "armorProf": {
      "value": []
    },
    "weaponProf": {
      "value": []
    },
    "languages": {
      "value": []
    },
    "scriptCalls": [],
    "featType": "classFeat",
    "associations": {
      "classes": [["Cavalier"]]
    },
    "abilityType": "ex"
  },
  "ownership": {
    "default": 0
  },
  "_stats": {
    "systemId": "pf1",
    "systemVersion": "0.82.1",
    "coreVersion": "10.285",
    "createdTime": 1663018770132,
    "modifiedTime": 1663018778583,
    "lastModifiedBy": "DbeAbHwpEqczKjsD"
  }
}
