{
  "_id": "GPGViPaQulBFYruH",
  "name": "Quivering Palm (UC)",
  "type": "feat",
  "img": "systems/pf1/icons/skills/fire_07.jpg",
  "effects": [],
  "folder": null,
  "sort": 0,
  "flags": {},
  "system": {
    "description": {
      "value": "<p>A monk can set up vibrations within the body of another creature that can thereafter be fatal if the monk so desires. Using this ability is a standard action that costs 4 ki points, and the monk must announce his intent to use this ability (and spend the ki points) before making the attack roll. Creatures immune to critical hits cannot be affected. Otherwise, if the attack hits and the target takes damage from the blow, the quivering palm attack succeeds. Thereafter, the monk can try to slay the victim at any time within a number of days equal to his monk level. To make such an attempt, the monk merely wills the target to die (a free action); unless the target succeeds at a Fortitude saving throw (DC = 10 + 1/2 the monk’s level + the monk’s Wisdom modifier), it dies. If the saving throw is successful, the target is no longer in danger from that particular quivering palm attack, but it can still be affected by another one at a later time. A monk can have no more than one quivering palm in effect at one time. If a monk uses quivering palm while another is still in effect, the previous one is negated.</p>\n<p>A monk must be at least 16th level before selecting this ki power.</p>"
    },
    "tags": [],
    "actions": [
      {
        "_id": "lglmaaw6ced6s5tw",
        "name": "Use",
        "img": "systems/pf1/icons/skills/fire_07.jpg",
        "description": "",
        "tag": "",
        "activation": {
          "cost": 1,
          "type": "standard"
        },
        "unchainedAction": {
          "activation": {
            "cost": 2,
            "type": "action"
          }
        },
        "duration": {
          "value": null,
          "units": ""
        },
        "target": {
          "value": ""
        },
        "range": {
          "value": null,
          "units": "",
          "maxIncrements": 1,
          "minValue": null,
          "minUnits": ""
        },
        "uses": {
          "autoDeductCharges": true,
          "autoDeductChargesCost": "4",
          "self": {
            "value": 0,
            "maxFormula": "",
            "per": null
          },
          "per": "",
          "value": 0,
          "maxFormula": ""
        },
        "measureTemplate": {
          "type": "",
          "size": "",
          "overrideColor": false,
          "customColor": "",
          "overrideTexture": false,
          "customTexture": ""
        },
        "attackName": "",
        "actionType": "",
        "attackBonus": "",
        "critConfirmBonus": "",
        "damage": {
          "parts": [],
          "critParts": [],
          "nonCritParts": []
        },
        "attackParts": [],
        "formulaicAttacks": {
          "count": {
            "formula": ""
          },
          "bonus": {
            "formula": ""
          },
          "label": null
        },
        "formula": "",
        "ability": {
          "attack": null,
          "damage": null,
          "damageMult": 1,
          "critRange": 20,
          "critMult": 2
        },
        "save": {
          "dc": 0,
          "type": "",
          "description": ""
        },
        "effectNotes": [],
        "attackNotes": [],
        "soundEffect": "",
        "powerAttack": {
          "multiplier": "",
          "damageBonus": 2,
          "critMultiplier": 1
        },
        "naturalAttack": {
          "primaryAttack": true,
          "secondary": {
            "attackBonus": "-5",
            "damageMult": 0.5
          }
        },
        "nonlethal": false,
        "usesAmmo": false,
        "spellEffect": "",
        "spellArea": "",
        "conditionals": [],
        "enh": {
          "value": null
        }
      }
    ],
    "uses": {
      "per": ""
    },
    "attackNotes": [],
    "effectNotes": [],
    "changes": [],
    "contextNotes": [],
    "links": {
      "children": [],
      "charges": []
    },
    "tag": "classFeat_quiveringPalmUc",
    "useCustomTag": true,
    "armorProf": {
      "value": []
    },
    "weaponProf": {
      "value": []
    },
    "languages": {
      "value": []
    },
    "scriptCalls": [],
    "featType": "classFeat",
    "associations": {
      "classes": [["Monk (Unchained)"]]
    },
    "abilityType": "su"
  },
  "ownership": {
    "default": 0
  },
  "_stats": {
    "systemId": "pf1",
    "systemVersion": "0.82.1",
    "coreVersion": "10.285",
    "createdTime": 1663018763923,
    "modifiedTime": 1663018778193,
    "lastModifiedBy": "DbeAbHwpEqczKjsD"
  }
}
