{
  "_id": "8aFTPx0YF8gKMOYN",
  "name": "Rage Subdomain",
  "type": "feat",
  "img": "systems/pf1/icons/skills/yellow_17.jpg",
  "effects": [],
  "folder": null,
  "sort": 0,
  "flags": {},
  "system": {
    "description": {
      "value": "<p><strong>Replacement Domain Spells:</strong></p>\n<ul>\n<li>2nd—@Compendium[pf1.spells.05i5rxwim12hwktu]{Bull's Strength}</li>\n<li>6th—@Compendium[pf1.spells.2mh7g81k30bv7b5m]{Moonstruck}</li>\n</ul>"
    },
    "tags": [],
    "actions": [],
    "attackNotes": [],
    "effectNotes": [],
    "changes": [],
    "contextNotes": [],
    "links": {
      "children": [],
      "charges": []
    },
    "tag": "classFeat_rageSubdomain",
    "useCustomTag": true,
    "armorProf": {
      "value": []
    },
    "weaponProf": {
      "value": []
    },
    "languages": {
      "value": []
    },
    "scriptCalls": [],
    "featType": "classFeat",
    "associations": {
      "classes": [["Cleric"]]
    }
  },
  "ownership": {
    "default": 0
  },
  "_stats": {
    "systemId": "pf1",
    "systemVersion": "0.82.1",
    "coreVersion": "10.285",
    "createdTime": 1663018762949,
    "modifiedTime": 1663018778132,
    "lastModifiedBy": "DbeAbHwpEqczKjsD"
  }
}
