{
  "_id": "QRF9860U3JaWxywM",
  "name": "Rapid Perception",
  "type": "feat",
  "img": "systems/pf1/icons/items/weapons/dagger.PNG",
  "effects": [],
  "folder": null,
  "sort": 0,
  "flags": {},
  "system": {
    "description": {
      "value": "<p>A rogue with this talent can attempt a Perception check to intentionally search for a specific item or creature as a swift action instead of a move action. If she is intentionally searching for an invisible creature, the creature’s bonus on its Stealth check from its invisibility is halved. An investigator can select this rogue talent in place of an investigator talent. She must have the expanded inspiration&nbsp;investigator talent before selecting this talent.</p>"
    },
    "tags": [],
    "actions": [],
    "attackNotes": [],
    "effectNotes": [],
    "changes": [],
    "contextNotes": [],
    "links": {
      "children": [],
      "charges": []
    },
    "tag": "classFeat_rapidPerception",
    "useCustomTag": true,
    "armorProf": {
      "value": []
    },
    "weaponProf": {
      "value": []
    },
    "languages": {
      "value": []
    },
    "scriptCalls": [],
    "featType": "classFeat",
    "associations": {
      "classes": [["Rogue"]]
    },
    "abilityType": "su"
  },
  "ownership": {
    "default": 0
  },
  "_stats": {
    "systemId": "pf1",
    "systemVersion": "0.82.1",
    "coreVersion": "10.285",
    "createdTime": 1663018765274,
    "modifiedTime": 1663018778256,
    "lastModifiedBy": "DbeAbHwpEqczKjsD"
  }
}
