{
  "_id": "EYouoCftnQbTgM52",
  "name": "Redirect Force",
  "type": "feat",
  "img": "systems/pf1/icons/items/weapons/kunai.png",
  "effects": [],
  "folder": null,
  "sort": 0,
  "flags": {},
  "system": {
    "description": {
      "value": "<p>If the ninja has a feat that allows her to attempt a combat maneuver without provoking attacks of opportunity, she can choose to provoke them anyway when she performs that maneuver. If she does so and takes damage from the attack of opportunity, the ninja adds the damage as a bonus on her attack roll instead of as a penalty.</p>"
    },
    "tags": [],
    "actions": [],
    "attackNotes": [],
    "effectNotes": [],
    "changes": [],
    "contextNotes": [],
    "links": {
      "children": [],
      "charges": []
    },
    "tag": "classFeat_redirectForce",
    "useCustomTag": true,
    "armorProf": {
      "value": []
    },
    "weaponProf": {
      "value": []
    },
    "languages": {
      "value": []
    },
    "scriptCalls": [],
    "featType": "classFeat",
    "associations": {
      "classes": [["Ninja"]]
    },
    "abilityType": "ex"
  },
  "ownership": {
    "default": 0
  },
  "_stats": {
    "systemId": "pf1",
    "systemVersion": "0.82.1",
    "coreVersion": "10.285",
    "createdTime": 1663018763824,
    "modifiedTime": 1663018778178,
    "lastModifiedBy": "DbeAbHwpEqczKjsD"
  }
}
