{
  "_id": "JenT0LTGOc87Nb3Z",
  "name": "Resolute",
  "type": "feat",
  "img": "systems/pf1/icons/items/inventory/banner-red.jpg",
  "effects": [],
  "folder": null,
  "sort": 0,
  "flags": {},
  "system": {
    "description": {
      "value": "<p>At 2nd level, whenever the cavalier takes damage from a melee or ranged attack while wearing heavy armor, the cavalier can convert 1 point of lethal damage to 1 point of nonlethal damage. He can use this ability once each time he takes damage. This ability cannot be used to convert ability damage, ability drain, or energy damage to nonlethal damage. At 6th level, and every four levels thereafter, the amount of damage the cavalier can convert increases by 1.</p>"
    },
    "tags": [],
    "actions": [],
    "attackNotes": [],
    "effectNotes": [],
    "changes": [],
    "contextNotes": [],
    "links": {
      "children": [],
      "charges": []
    },
    "tag": "classFeat_resolute",
    "useCustomTag": true,
    "armorProf": {
      "value": []
    },
    "weaponProf": {
      "value": []
    },
    "languages": {
      "value": []
    },
    "scriptCalls": [],
    "featType": "classFeat",
    "associations": {
      "classes": [["Cavalier"]]
    },
    "abilityType": "ex"
  },
  "ownership": {
    "default": 0
  },
  "_stats": {
    "systemId": "pf1",
    "systemVersion": "0.82.1",
    "coreVersion": "10.285",
    "createdTime": 1663018764346,
    "modifiedTime": 1663018778214,
    "lastModifiedBy": "DbeAbHwpEqczKjsD"
  }
}
