{
  "_id": "nKiYWIhQdZuRzkU7",
  "name": "Restoration Subdomain",
  "type": "feat",
  "img": "systems/pf1/icons/skills/light_05.jpg",
  "effects": [],
  "folder": null,
  "sort": 0,
  "flags": {},
  "system": {
    "description": {
      "value": "<p><strong>Replacement Domain Spells:</strong></p>\n<ul>\n<li>2nd—@Compendium[pf1.spells.ocbjt6z7amc3yn8w]{Remove Disease}</li>\n<li>4th—@Compendium[pf1.spells.6l904edkt8jv9jor]{Neutralize Poison}</li>\n<li>5th—@Compendium[pf1.spells.myg2b9ww43nnlbr2]{Break Enchantment}</li>\n</ul>"
    },
    "tags": [],
    "actions": [],
    "attackNotes": [],
    "effectNotes": [],
    "changes": [],
    "contextNotes": [],
    "links": {
      "children": [],
      "charges": []
    },
    "tag": "classFeat_restorationSubdomain",
    "useCustomTag": true,
    "armorProf": {
      "value": []
    },
    "weaponProf": {
      "value": []
    },
    "languages": {
      "value": []
    },
    "scriptCalls": [],
    "featType": "classFeat",
    "associations": {
      "classes": [["Cleric"]]
    }
  },
  "ownership": {
    "default": 0
  },
  "_stats": {
    "systemId": "pf1",
    "systemVersion": "0.82.1",
    "coreVersion": "10.285",
    "createdTime": 1663018768327,
    "modifiedTime": 1663018778499,
    "lastModifiedBy": "DbeAbHwpEqczKjsD"
  }
}
