{
  "_id": "nzVMK0m3aBkOe97f",
  "name": "Scent (UC) (1 pt)",
  "type": "feat",
  "img": "systems/pf1/icons/skills/blue_26.jpg",
  "effects": [],
  "folder": null,
  "sort": 0,
  "flags": {},
  "system": {
    "description": {
      "value": "<p>The eidolon’s sense of smell becomes quite acute. The eidolon gains the scent special quality, allowing it to detect opponents within 30 feet by sense of smell. If the opponent is upwind, the range increases to 60 feet; if the opponent is downwind, the range drops to 15 feet. Strong scents can be detected at twice the normal range. Scent does not allow the eidolon to precisely locate the creature, only to detect its presence. It can detect the direction as a move action. The eidolon can pinpoint the creature’s location if it is within 5 feet. The eidolon can use scent to track creatures.</p>"
    },
    "tags": [],
    "actions": [],
    "attackNotes": [],
    "effectNotes": [],
    "changes": [],
    "contextNotes": [],
    "links": {
      "children": [],
      "charges": []
    },
    "tag": "classFeat_scentUc1Pt",
    "useCustomTag": true,
    "armorProf": {
      "value": []
    },
    "weaponProf": {
      "value": []
    },
    "languages": {
      "value": []
    },
    "scriptCalls": [],
    "featType": "classFeat",
    "associations": {
      "classes": [["Eidolon (Unchained)"]]
    },
    "abilityType": "ex"
  },
  "ownership": {
    "default": 0
  },
  "_stats": {
    "systemId": "pf1",
    "systemVersion": "0.82.1",
    "coreVersion": "10.285",
    "createdTime": 1663018768640,
    "modifiedTime": 1663018778503,
    "lastModifiedBy": "DbeAbHwpEqczKjsD"
  }
}
