{
  "_id": "8GzRLhnJMcoBI2e6",
  "name": "Searing Heat",
  "type": "feat",
  "img": "systems/pf1/icons/skills/fire_10.jpg",
  "effects": [],
  "folder": null,
  "sort": 0,
  "flags": {},
  "system": {
    "description": {
      "value": "<p>At 15th level, your body becomes as hot as a&nbsp;<a href=\"https://www.d20pfsrd.com/bestiary/monster-listings/outsiders/salamander\">salamander’s</a>. You deal 1d6 additional points of fire damage with&nbsp;<a href=\"https://www.d20pfsrd.com/bestiary/rules-for-monsters/universal-monster-rules#TOC-Natural-Attacks\">natural weapons</a>&nbsp;and melee attacks made with metal weapons. In addition, you deal 2d6 points of fire damage per round to any creature you&nbsp;<a href=\"https://www.d20pfsrd.com/gamemastering/combat#TOC-Grapple\">grapple</a>. This heat does not damage your equipment. You can&nbsp;<a href=\"https://www.d20pfsrd.com/gamemastering/combat#TOC-Activate-Magic-Item\">activate</a>&nbsp;or deactivate this effect as a&nbsp;<a href=\"https://www.d20pfsrd.com/gamemastering/combat#TOC-Free-Actions\">free action</a>.</p>"
    },
    "tags": [],
    "actions": [
      {
        "_id": "u3daj1mj7zfs43zz",
        "name": "Use",
        "img": "systems/pf1/icons/skills/fire_10.jpg",
        "description": "",
        "tag": "",
        "activation": {
          "cost": 1,
          "type": "free"
        },
        "unchainedAction": {
          "activation": {
            "cost": 1,
            "type": "free"
          }
        },
        "duration": {
          "value": null,
          "units": "seeText"
        },
        "target": {
          "value": "self"
        },
        "range": {
          "value": null,
          "units": "personal",
          "maxIncrements": 1,
          "minValue": null,
          "minUnits": ""
        },
        "uses": {
          "autoDeductCharges": true,
          "autoDeductChargesCost": "1",
          "self": {
            "value": 0,
            "maxFormula": "",
            "per": null
          },
          "per": "",
          "value": 0,
          "maxFormula": ""
        },
        "measureTemplate": {
          "type": "",
          "size": "0",
          "overrideColor": false,
          "customColor": "",
          "overrideTexture": false,
          "customTexture": ""
        },
        "attackName": "",
        "actionType": "",
        "attackBonus": "",
        "critConfirmBonus": "",
        "damage": {
          "parts": [],
          "critParts": [],
          "nonCritParts": []
        },
        "attackParts": [],
        "formulaicAttacks": {
          "count": {
            "formula": ""
          },
          "bonus": {
            "formula": ""
          },
          "label": null
        },
        "formula": "",
        "ability": {
          "attack": null,
          "damage": null,
          "damageMult": 1,
          "critRange": 20,
          "critMult": 2
        },
        "save": {
          "dc": 0,
          "type": "",
          "description": ""
        },
        "effectNotes": [],
        "attackNotes": [],
        "soundEffect": "",
        "powerAttack": {
          "multiplier": "",
          "damageBonus": 2,
          "critMultiplier": 1
        },
        "naturalAttack": {
          "primaryAttack": true,
          "secondary": {
            "attackBonus": "-5",
            "damageMult": 0.5
          }
        },
        "nonlethal": false,
        "usesAmmo": false,
        "spellEffect": "",
        "spellArea": "",
        "conditionals": [],
        "enh": {
          "value": null
        }
      }
    ],
    "uses": {
      "per": ""
    },
    "attackNotes": [],
    "effectNotes": [],
    "changes": [],
    "contextNotes": [],
    "links": {
      "children": [],
      "charges": []
    },
    "tag": "classFeat_searingHeat",
    "useCustomTag": true,
    "armorProf": {
      "value": []
    },
    "weaponProf": {
      "value": []
    },
    "languages": {
      "value": []
    },
    "scriptCalls": [],
    "featType": "classFeat",
    "associations": {
      "classes": [["Sorcerer"]]
    },
    "abilityType": "su"
  },
  "ownership": {
    "default": 0
  },
  "_stats": {
    "systemId": "pf1",
    "systemVersion": "0.82.1",
    "coreVersion": "10.285",
    "createdTime": 1663018762934,
    "modifiedTime": 1663018778130,
    "lastModifiedBy": "DbeAbHwpEqczKjsD"
  }
}
