{
  "_id": "sayJRR6tDAl9avIK",
  "name": "See in Darkness (3 pts)",
  "type": "feat",
  "img": "systems/pf1/icons/skills/blue_26.jpg",
  "effects": [],
  "folder": null,
  "sort": 0,
  "flags": {},
  "system": {
    "description": {
      "value": "<p>An eidolon can see perfectly in darkness of any kind, including that created by&nbsp;deeper darkness.</p>\n<p>The summoner must be at least 9th level before selecting this evolution.</p>"
    },
    "tags": [],
    "actions": [],
    "attackNotes": [],
    "effectNotes": [],
    "changes": [],
    "contextNotes": [],
    "links": {
      "children": [],
      "charges": []
    },
    "tag": "classFeat_seeInDarkness3Pts",
    "useCustomTag": true,
    "armorProf": {
      "value": []
    },
    "weaponProf": {
      "value": []
    },
    "languages": {
      "value": []
    },
    "scriptCalls": [],
    "featType": "classFeat",
    "associations": {
      "classes": [["Eidolon"]]
    },
    "abilityType": "su"
  },
  "ownership": {
    "default": 0
  },
  "_stats": {
    "systemId": "pf1",
    "systemVersion": "0.82.1",
    "coreVersion": "10.285",
    "createdTime": 1663018769169,
    "modifiedTime": 1663018778532,
    "lastModifiedBy": "DbeAbHwpEqczKjsD"
  }
}
