{
  "_id": "R4uJ4NBb4zfkUNPq",
  "name": "Shadow Vision",
  "type": "feat",
  "img": "systems/pf1/icons/skills/red_05.jpg",
  "effects": [],
  "folder": null,
  "sort": 0,
  "flags": {},
  "system": {
    "description": {
      "value": "<p>While bloodraging, you gain low-light vision if you don’t already have it. If you already have low-light vision, you gain darkvision to a distance of 30 feet.</p>\n<p>At 10th level, you gain darkvision with a range of 30 feet, or add 30 feet to the range of your darkvision if you already have it.</p>"
    },
    "tags": [],
    "actions": [],
    "attackNotes": [],
    "effectNotes": [],
    "changes": [],
    "contextNotes": [],
    "links": {
      "children": [],
      "charges": []
    },
    "tag": "classFeat_shadowVision",
    "useCustomTag": true,
    "armorProf": {
      "value": []
    },
    "weaponProf": {
      "value": []
    },
    "languages": {
      "value": []
    },
    "scriptCalls": [],
    "featType": "classFeat",
    "associations": {
      "classes": [["Bloodrager"]]
    },
    "abilityType": "su"
  },
  "ownership": {
    "default": 0
  },
  "_stats": {
    "systemId": "pf1",
    "systemVersion": "0.82.1",
    "coreVersion": "10.285",
    "createdTime": 1663018765316,
    "modifiedTime": 1663018778259,
    "lastModifiedBy": "DbeAbHwpEqczKjsD"
  }
}
