{
  "_id": "noJYEHpD1zSCfJ7W",
  "name": "Siege Bomb",
  "type": "feat",
  "img": "systems/pf1/icons/items/potions/unique-3.jpg",
  "effects": [],
  "folder": null,
  "sort": 0,
  "flags": {},
  "system": {
    "description": {
      "value": "<p>As a standard action, the alchemist infuses a single piece of ammunition on a loaded siege weapon with the power of his bomb. As long as the siege engine with this ammunition is fired before the start of the alchemist’s next turn, the ammunition does damage normally, and also deals the damage of the alchemist’s bomb. The splash radius of the bomb effect is 20 feet rather than 5 feet. Creatures that take the bomb’s damage (either direct damage or splash damage), take 1d6 points of fire damage each round until the fire is extinguished. Extinguishing the flames is a full-round action that requires a Reflex save. Rolling on the ground provides the target with a +2 bonus on the save. Dousing the target with at least 2 gallons of water automatically extinguishes the flames.</p>\n<p>An alchemist must be at least 12th level and must possess the explosive bomb discovery before selecting this discovery.</p>"
    },
    "tags": [],
    "actions": [],
    "attackNotes": [],
    "effectNotes": [],
    "changes": [],
    "contextNotes": [],
    "links": {
      "children": [],
      "charges": []
    },
    "tag": "classFeat_siegeBomb",
    "useCustomTag": true,
    "armorProf": {
      "value": []
    },
    "weaponProf": {
      "value": []
    },
    "languages": {
      "value": []
    },
    "scriptCalls": [],
    "featType": "classFeat",
    "associations": {
      "classes": [["Alchemist"]]
    }
  },
  "ownership": {
    "default": 0
  },
  "_stats": {
    "systemId": "pf1",
    "systemVersion": "0.82.1",
    "coreVersion": "10.285",
    "createdTime": 1663018768629,
    "modifiedTime": 1663018778502,
    "lastModifiedBy": "DbeAbHwpEqczKjsD"
  }
}
