{
  "_id": "nOkDlnpmue0pcw5A",
  "name": "Signature Poison",
  "type": "feat",
  "img": "systems/pf1/icons/items/weapons/dagger.PNG",
  "effects": [],
  "folder": null,
  "sort": 0,
  "flags": {},
  "system": {
    "description": {
      "value": "<p>A rogue with this talent chooses one poison (such as bloodroot or oil of taggit) as her signature poison. When she uses the chosen poison, the poison’s saving throw DC increases by +2. A rogue can take this talent multiple times, each time applying it to a new poison.</p>"
    },
    "tags": [],
    "actions": [],
    "attackNotes": [],
    "effectNotes": [],
    "changes": [],
    "contextNotes": [],
    "links": {
      "children": [],
      "charges": []
    },
    "tag": "classFeat_signaturePoison",
    "useCustomTag": true,
    "armorProf": {
      "value": []
    },
    "weaponProf": {
      "value": []
    },
    "languages": {
      "value": []
    },
    "scriptCalls": [],
    "featType": "classFeat",
    "associations": {
      "classes": [["Rogue"]]
    },
    "abilityType": "ex"
  },
  "ownership": {
    "default": 0
  },
  "_stats": {
    "systemId": "pf1",
    "systemVersion": "0.82.1",
    "coreVersion": "10.285",
    "createdTime": 1663018768335,
    "modifiedTime": 1663018778500,
    "lastModifiedBy": "DbeAbHwpEqczKjsD"
  }
}
