{
  "_id": "takw0JWSajypY20v",
  "name": "Slam (UC) (1 pt)",
  "type": "feat",
  "img": "systems/pf1/icons/skills/blue_26.jpg",
  "effects": [],
  "folder": null,
  "sort": 0,
  "flags": {},
  "system": {
    "description": {
      "value": "<p>The eidolon can deliver a devastating slam attack. This attack is a primary attack. The slam deals 1d8 points of damage (2d6 if Large, 2d8 if Huge). The eidolon must have the limbs (arms) evolution to take this evolution.</p>\n<p>Alternatively, the eidolon can replace the claws from its base form with this slam attack (this still costs 1 evolution point).</p>\n<p>This evolution can be selected more than once, up to the number of the eidolon’s limbs (arms) evolutions.</p>"
    },
    "tags": [],
    "actions": [],
    "attackNotes": [],
    "effectNotes": [],
    "changes": [],
    "contextNotes": [],
    "links": {
      "children": [],
      "charges": []
    },
    "tag": "classFeat_slamUc1Pt",
    "useCustomTag": true,
    "armorProf": {
      "value": []
    },
    "weaponProf": {
      "value": []
    },
    "languages": {
      "value": []
    },
    "scriptCalls": [],
    "featType": "classFeat",
    "associations": {
      "classes": [["Eidolon (Unchained)"]]
    },
    "abilityType": "ex"
  },
  "ownership": {
    "default": 0
  },
  "_stats": {
    "systemId": "pf1",
    "systemVersion": "0.82.1",
    "coreVersion": "10.285",
    "createdTime": 1663018769223,
    "modifiedTime": 1663018778540,
    "lastModifiedBy": "DbeAbHwpEqczKjsD"
  }
}
