{
  "_id": "3B1zVwRtjHr7khNN",
  "name": "Slowing Strike (SLA)",
  "type": "feat",
  "img": "systems/pf1/icons/items/weapons/rhoka.PNG",
  "effects": [],
  "folder": null,
  "sort": 0,
  "flags": {},
  "system": {
    "description": {
      "value": "<p>An opponent damaged by the slayer’s sneak attack has its speed halved for 1d4 rounds. A successful Fortitude saving throw negates this effect (DC = 10 + 1/2 of the slayer’s level + the slayer’s Intelligence modif ier). Against creatures with multiple types of movement, the slayer must choose which movement type to affect. If the slayer affects a creature’s flight movement, its maneuverability is reduced by one step; if it’s airborne at the time, it falls unless it succeeds at a DC 10 Fly check.</p>\n<p>If the slayer targets a creature already affected by this ability, its speed and maneuverability are not further reduced; the slayer may either extend the duration of that effect by 1d4 rounds or choose another movement type to affect (keeping track of the duration of each affected movement separately).</p>"
    },
    "tags": [],
    "actions": [],
    "attackNotes": [],
    "effectNotes": [],
    "changes": [],
    "contextNotes": [],
    "links": {
      "children": [],
      "charges": []
    },
    "tag": "classFeat_slowingStrikeSla",
    "useCustomTag": true,
    "armorProf": {
      "value": []
    },
    "weaponProf": {
      "value": []
    },
    "languages": {
      "value": []
    },
    "scriptCalls": [],
    "featType": "classFeat",
    "associations": {
      "classes": [["Slayer"]]
    },
    "abilityType": "ex"
  },
  "ownership": {
    "default": 0
  },
  "_stats": {
    "systemId": "pf1",
    "systemVersion": "0.82.1",
    "coreVersion": "10.285",
    "createdTime": 1663018762071,
    "modifiedTime": 1663018778090,
    "lastModifiedBy": "DbeAbHwpEqczKjsD"
  }
}
