{
  "_id": "V6gex88vDD4IQqog",
  "name": "Sneak Attack (CAV)",
  "type": "feat",
  "img": "systems/pf1/icons/items/inventory/banner-red.jpg",
  "effects": [],
  "folder": null,
  "sort": 0,
  "flags": {},
  "system": {
    "description": {
      "value": "<p>At 2nd level, an order of the blossom cavalier can make a sneak attack, as the rogue ability of the same name. At 2nd level, his sneak attack damage is +1d6. This damage increases by 1d6 at 8th level and every 6 levels thereafter. If the cavalier gets a sneak attack bonus from another source, the bonus damage stacks.</p>"
    },
    "tags": [],
    "actions": [],
    "attackNotes": [],
    "effectNotes": [],
    "changes": [],
    "contextNotes": [],
    "links": {
      "children": [],
      "charges": []
    },
    "tag": "classFeat_sneakAttackCav",
    "useCustomTag": true,
    "armorProf": {
      "value": []
    },
    "weaponProf": {
      "value": []
    },
    "languages": {
      "value": []
    },
    "scriptCalls": [],
    "featType": "classFeat",
    "associations": {
      "classes": [["Cavalier"]]
    },
    "abilityType": "ex"
  },
  "ownership": {
    "default": 0
  },
  "_stats": {
    "systemId": "pf1",
    "systemVersion": "0.82.1",
    "coreVersion": "10.285",
    "createdTime": 1663018765784,
    "modifiedTime": 1663018778283,
    "lastModifiedBy": "DbeAbHwpEqczKjsD"
  }
}
