{
  "_id": "2uDIHsepFL6PRyRj",
  "name": "Social Talent",
  "type": "feat",
  "img": "systems/pf1/icons/skills/light_07.jpg",
  "effects": [],
  "folder": null,
  "sort": 0,
  "flags": {},
  "system": {
    "description": {
      "value": "<p>Starting at 1st level, and every 2 levels thereafter, a vigilante gains a social talent. Unless otherwise noted, a talent can be selected only once. Some talents require the vigilante to meet other prerequisites before they can be chosen, such as having another social talent or attaining a minimum vigilante level. Once a talent has been chosen, it cannot be changed.</p>"
    },
    "tags": [],
    "actions": [],
    "attackNotes": [],
    "effectNotes": [],
    "changes": [],
    "contextNotes": [],
    "links": {
      "children": [],
      "charges": []
    },
    "tag": "classFeat_socialTalent",
    "useCustomTag": true,
    "armorProf": {
      "value": []
    },
    "weaponProf": {
      "value": []
    },
    "languages": {
      "value": []
    },
    "scriptCalls": [],
    "featType": "classFeat",
    "associations": {
      "classes": [["Vigilante"]]
    }
  },
  "ownership": {
    "default": 0
  },
  "_stats": {
    "systemId": "pf1",
    "systemVersion": "0.82.1",
    "coreVersion": "10.285",
    "createdTime": 1663018762058,
    "modifiedTime": 1663018778089,
    "lastModifiedBy": "DbeAbHwpEqczKjsD"
  }
}
