{
  "_id": "50IieyGxiEXhKyfX",
  "name": "Spirit Totem, Lesser",
  "type": "feat",
  "img": "systems/pf1/icons/feats/deafening-critical.jpg",
  "effects": [],
  "folder": null,
  "sort": 0,
  "flags": {},
  "system": {
    "description": {
      "value": "<p>While raging, the barbarian is surrounded by spirit wisps that harass her foes. These spirits make one slam attack each round against a living foe that is adjacent to the barbarian. This slam attack is made using the barbarian’s full base attack bonus, plus the barbarian’s Charisma modifier. The slam deals 1d4 points of negative energy damage, plus the barbarian’s Charisma modifier.</p>"
    },
    "tags": [],
    "actions": [],
    "attackNotes": [],
    "effectNotes": [],
    "changes": [],
    "contextNotes": [],
    "links": {
      "children": [],
      "charges": []
    },
    "tag": "classFeat_spiritTotemLesser",
    "useCustomTag": true,
    "armorProf": {
      "value": []
    },
    "weaponProf": {
      "value": []
    },
    "languages": {
      "value": []
    },
    "scriptCalls": [],
    "featType": "classFeat",
    "associations": {
      "classes": [["Barbarian"], ["Skald"]]
    },
    "abilityType": "su"
  },
  "ownership": {
    "default": 0
  },
  "_stats": {
    "systemId": "pf1",
    "systemVersion": "0.82.1",
    "coreVersion": "10.285",
    "createdTime": 1663018762451,
    "modifiedTime": 1663018778103,
    "lastModifiedBy": "DbeAbHwpEqczKjsD"
  }
}
