{
  "_id": "VHvomvdheVblPlA8",
  "name": "Spirit Steed",
  "type": "feat",
  "img": "systems/pf1/icons/feats/deafening-critical.jpg",
  "effects": [],
  "folder": null,
  "sort": 0,
  "flags": {},
  "system": {
    "description": {
      "value": "<p>While raging and mounted, the barbarian’s mount gains DR/magic equal to 1/2 the barbarian’s level. The mount’s natural weapons count as magical for the purpose of overcoming damage reduction.</p>\n<p>A barbarian must have the ferocious mount rage power to select this rage power.</p>\n<p>A barbarian must be at least 6th level to select this rage power.</p>"
    },
    "tags": [],
    "actions": [],
    "attackNotes": [],
    "effectNotes": [],
    "changes": [],
    "contextNotes": [],
    "links": {
      "children": [],
      "charges": []
    },
    "tag": "classFeat_spiritSteed",
    "useCustomTag": true,
    "armorProf": {
      "value": []
    },
    "weaponProf": {
      "value": []
    },
    "languages": {
      "value": []
    },
    "scriptCalls": [],
    "featType": "classFeat",
    "associations": {
      "classes": [["Barbarian"], ["Skald"]]
    },
    "abilityType": "su"
  },
  "ownership": {
    "default": 0
  },
  "_stats": {
    "systemId": "pf1",
    "systemVersion": "0.82.1",
    "coreVersion": "10.285",
    "createdTime": 1663018765795,
    "modifiedTime": 1663018778284,
    "lastModifiedBy": "DbeAbHwpEqczKjsD"
  }
}
