{
  "_id": "8u2spZD9qVCOi7Lw",
  "name": "Spirit Mastery",
  "type": "feat",
  "img": "systems/pf1/icons/skills/red_01.jpg",
  "effects": [],
  "folder": null,
  "sort": 0,
  "flags": {},
  "system": {
    "description": {
      "value": "<p>At 19th legend, the medium becomes a legend among spirits, particularly lesser spirits. He can use his spirit surge ability an additional two times per day without incurring influence, regardless of whether he accepts a taboo or channels a weaker spirit. When channeling a weaker spirit, he can use his spirit surge ability an additional four times per day for each power he forgoes, instead of an additional two times.</p>"
    },
    "tags": [],
    "actions": [],
    "attackNotes": [],
    "effectNotes": [],
    "changes": [],
    "contextNotes": [],
    "links": {
      "children": [],
      "charges": []
    },
    "tag": "classFeat_spiritMastery",
    "useCustomTag": true,
    "armorProf": {
      "value": []
    },
    "weaponProf": {
      "value": []
    },
    "languages": {
      "value": []
    },
    "scriptCalls": [],
    "featType": "classFeat",
    "associations": {
      "classes": [["Medium"]]
    },
    "abilityType": "ex"
  },
  "ownership": {
    "default": 0
  },
  "_stats": {
    "systemId": "pf1",
    "systemVersion": "0.82.1",
    "coreVersion": "10.285",
    "createdTime": 1663018762963,
    "modifiedTime": 1663018778133,
    "lastModifiedBy": "DbeAbHwpEqczKjsD"
  }
}
