{
  "_id": "i6Wn6GJkWo6wy9XJ",
  "name": "Splash of the Styx",
  "type": "feat",
  "img": "systems/pf1/icons/spells/ice-blue-2.jpg",
  "effects": [],
  "folder": null,
  "sort": 0,
  "flags": {},
  "system": {
    "description": {
      "value": "<p><strong>Element&nbsp;</strong>water;&nbsp;<strong>Type&nbsp;</strong>utility (Sp);&nbsp;<strong>Level&nbsp;</strong>5;&nbsp;<strong>Burn&nbsp;</strong>1<br><strong>Prerequisite&nbsp;</strong>tiefling or&nbsp;<a href=\"https://aonprd.com/FeatDisplay.aspx?ItemName=Planar%20Infusion\">Planar Infusion</a>&nbsp;(Abaddon, Abyss, or Hell)<br><strong>Saving Throw&nbsp;</strong>Will negates;&nbsp;<strong>SR&nbsp;</strong>yes</p>\n<p>You can spend 1 full round to draw upon the waters of the River Styx to erase memories of a target. This functions as @Compendium[pf1.spells.5ll7q13p0skbgonc]{Modify Memory}, except that it can only eliminate memories.</p>"
    },
    "tags": [],
    "actions": [],
    "attackNotes": [],
    "effectNotes": [],
    "changes": [],
    "contextNotes": [],
    "links": {
      "children": [],
      "charges": []
    },
    "tag": "classFeat_splashOfTheStyx",
    "useCustomTag": true,
    "armorProf": {
      "value": []
    },
    "weaponProf": {
      "value": []
    },
    "languages": {
      "value": []
    },
    "scriptCalls": [],
    "featType": "classFeat",
    "associations": {
      "classes": [["Kineticist"]]
    },
    "abilityType": "sp"
  },
  "ownership": {
    "default": 0
  },
  "_stats": {
    "systemId": "pf1",
    "systemVersion": "0.82.1",
    "coreVersion": "10.285",
    "createdTime": 1663018767706,
    "modifiedTime": 1663018778466,
    "lastModifiedBy": "DbeAbHwpEqczKjsD"
  }
}
