{
  "_id": "XMSXudP5TOWSWCJc",
  "name": "Spore Infusion",
  "type": "feat",
  "img": "systems/pf1/icons/spells/vines-jade-3.jpg",
  "effects": [],
  "folder": null,
  "sort": 0,
  "flags": {},
  "system": {
    "description": {
      "value": "<p><strong>Element&nbsp;</strong>wood;&nbsp;<strong>Type&nbsp;</strong>substance infusion;&nbsp;<strong>Level&nbsp;</strong>5;&nbsp;<strong>Burn&nbsp;</strong>3<br><strong>Associated Blasts&nbsp;</strong>autumn, spring, summer, verdant, winter, wood<br><strong>Saving Throw&nbsp;</strong>Fortitude negates</p>\n<p>Creatures that take piercing or slashing damage from your blast are infected with spores. If a target fails its Fortitude save, it takes 1d6 points of damage per round for 10 rounds as plants and fungi grow out of its body. At the end of that time, the target is exposed to the pulsing puffs disease. This infusion is a disease effect. When using a wood kinetic blast against a creature infected by this infusion, you gain a +2 bonus on attack rolls, to saving throw DCs, and on caster level checks to overcome spell resistance.<br><br><strong>Pulsing Puffs: </strong>Blast—injury;&nbsp;<em>save&nbsp;</em>Fort DC 18;&nbsp;<em>onset&nbsp;</em>1 minute;&nbsp;<em>frequency&nbsp;</em>1/day;&nbsp;<em>effect&nbsp;</em>1d6 Dex damage;&nbsp;<em>cure&nbsp;</em>2 consecutive saving throws.</p>"
    },
    "tags": [],
    "actions": [
      {
        "_id": "mejobq3xt68jesyn",
        "name": "Use",
        "img": "systems/pf1/icons/spells/vines-jade-3.jpg",
        "description": "",
        "tag": "",
        "activation": {
          "cost": 1,
          "type": ""
        },
        "unchainedAction": {
          "activation": {
            "cost": 1,
            "type": ""
          }
        },
        "duration": {
          "value": null,
          "units": ""
        },
        "target": {
          "value": ""
        },
        "range": {
          "value": null,
          "units": "",
          "maxIncrements": 1,
          "minValue": null,
          "minUnits": ""
        },
        "uses": {
          "autoDeductCharges": true,
          "autoDeductChargesCost": "1",
          "self": {
            "value": 0,
            "maxFormula": "",
            "per": null
          },
          "per": null,
          "value": 0,
          "maxFormula": ""
        },
        "measureTemplate": {
          "type": "",
          "size": "",
          "overrideColor": false,
          "customColor": "",
          "overrideTexture": false,
          "customTexture": ""
        },
        "attackName": "",
        "actionType": "save",
        "attackBonus": "",
        "critConfirmBonus": "",
        "damage": {
          "parts": [],
          "critParts": [],
          "nonCritParts": []
        },
        "attackParts": [],
        "formulaicAttacks": {
          "count": {
            "formula": ""
          },
          "bonus": {
            "formula": ""
          },
          "label": null
        },
        "formula": "",
        "ability": {
          "attack": null,
          "damage": "",
          "damageMult": 1,
          "critRange": 20,
          "critMult": 2
        },
        "save": {
          "dc": "0",
          "type": "fort",
          "description": "Fortitude negates"
        },
        "effectNotes": [],
        "attackNotes": [],
        "soundEffect": "",
        "powerAttack": {
          "multiplier": "",
          "damageBonus": 2,
          "critMultiplier": 1
        },
        "naturalAttack": {
          "primaryAttack": true,
          "secondary": {
            "attackBonus": "-5",
            "damageMult": 0.5
          }
        },
        "nonlethal": false,
        "usesAmmo": false,
        "spellEffect": "",
        "spellArea": "",
        "conditionals": [],
        "enh": {
          "value": null
        }
      }
    ],
    "attackNotes": [],
    "effectNotes": [],
    "changes": [],
    "contextNotes": [],
    "links": {
      "children": [],
      "charges": []
    },
    "tag": "classFeat_sporeInfusion",
    "useCustomTag": true,
    "armorProf": {
      "value": []
    },
    "weaponProf": {
      "value": []
    },
    "languages": {
      "value": []
    },
    "scriptCalls": [],
    "featType": "classFeat",
    "associations": {
      "classes": [["Kineticist"]]
    }
  },
  "ownership": {
    "default": 0
  },
  "_stats": {
    "systemId": "pf1",
    "systemVersion": "0.82.1",
    "coreVersion": "10.285",
    "createdTime": 1663018766168,
    "modifiedTime": 1663018778304,
    "lastModifiedBy": "DbeAbHwpEqczKjsD"
  }
}
