{
  "_id": "GJOpAqTVz53gqNv1",
  "name": "Stag Aspect",
  "type": "feat",
  "img": "systems/pf1/icons/skills/blue_29.jpg",
  "effects": [],
  "folder": null,
  "sort": 0,
  "flags": {},
  "system": {
    "description": {
      "value": "<p><em>The stag can outrun or stand its ground against almost any foe. This aspect offers majestic grace and swift speed.</em><br><br><strong>Minor Form:</strong> You gain an enhancement bonus of +5 feet to your base speed.</p>\n<p>This bonus increases to +10 feet at 8th level and +20 feet at 15th level.<br><br><strong>Major Form: </strong>Your shape changes to that of a Large stag (Pathfinder RPG Bestiary&nbsp;4 150), but its space changes to 10 feet. While in this form, you gain a base speed of 50 feet, low-light vision, scent (30 feet), a gore attack (1d6 damage), and two hoove attacks (1d4 damage).</p>\n<p>At 8th level, you gain a +4 racial bonus on Acrobatic checks when jumping.</p>\n<p>At 15th level, you gain the Awesome Blow and Improved Natural Attack feats (Bestiary&nbsp;314, 315) for gore attacks, and you can use Awesome Blow against a creature of your size or smaller.<br><br><strong>Alternate Natural Attacks:</strong> Gore (P), hoof (B)</p>"
    },
    "tags": [],
    "actions": [],
    "attackNotes": [],
    "effectNotes": [],
    "changes": [],
    "contextNotes": [],
    "links": {
      "children": [],
      "charges": []
    },
    "tag": "classFeat_stagAspect",
    "useCustomTag": true,
    "armorProf": {
      "value": []
    },
    "weaponProf": {
      "value": []
    },
    "languages": {
      "value": []
    },
    "scriptCalls": [],
    "featType": "classFeat",
    "associations": {
      "classes": [["Shifter"]]
    }
  },
  "ownership": {
    "default": 0
  },
  "_stats": {
    "systemId": "pf1",
    "systemVersion": "0.82.1",
    "coreVersion": "10.285",
    "createdTime": 1663018763914,
    "modifiedTime": 1663018778192,
    "lastModifiedBy": "DbeAbHwpEqczKjsD"
  }
}
