{
  "_id": "lIhcBEUn6nHZJsPX",
  "name": "Tail (UC) (1 pt)",
  "type": "feat",
  "img": "systems/pf1/icons/skills/blue_26.jpg",
  "effects": [],
  "folder": null,
  "sort": 0,
  "flags": {},
  "system": {
    "description": {
      "value": "<p><strong>Requirements: </strong>Agathion, daemon, demon, devil, div, elemental, protean, or psychopomp subtype.</p>\n<p>The eidolon grows a long, powerful tail. This grants it a +2 racial bonus on Acrobatics checks to balance on a surface.</p>\n<p>This evolution can be selected more than once.&nbsp;</p>"
    },
    "tags": [],
    "actions": [],
    "attackNotes": [],
    "effectNotes": [],
    "changes": [],
    "contextNotes": [],
    "links": {
      "children": [],
      "charges": []
    },
    "tag": "classFeat_tailUc1Pt",
    "useCustomTag": true,
    "armorProf": {
      "value": []
    },
    "weaponProf": {
      "value": []
    },
    "languages": {
      "value": []
    },
    "scriptCalls": [],
    "featType": "classFeat",
    "associations": {
      "classes": [["Eidolon (Unchained)"]]
    },
    "abilityType": "ex"
  },
  "ownership": {
    "default": 0
  },
  "_stats": {
    "systemId": "pf1",
    "systemVersion": "0.82.1",
    "coreVersion": "10.285",
    "createdTime": 1663018768175,
    "modifiedTime": 1663018778484,
    "lastModifiedBy": "DbeAbHwpEqczKjsD"
  }
}
