{
  "_id": "4uo6V9GBjYa8pmw1",
  "name": "Tainted Infusion",
  "type": "feat",
  "img": "systems/pf1/icons/items/potions/unique-3.jpg",
  "effects": [],
  "folder": null,
  "sort": 0,
  "flags": {},
  "system": {
    "description": {
      "value": "<p>The alchemist can mask murder behind beneficence. When preparing an extract with the infusion discovery, he can lace the extract with one of his bombs as long as the extract has a duration greater than instantaneous. If he chooses, the alchemist can reduce the duration of the extract to 1 round. As soon as the extract’s duration expires, it detonates, dealing 150% of the alchemist’s bomb damage to the drinker. This effect does not produce a splash radius. Producing a tainted extract consumes both an infusion slot and a daily bomb use.</p>\n<p>An alchemist must know both the delayed bomb and infusion discoveries to select this discovery.</p>"
    },
    "tags": [],
    "actions": [],
    "attackNotes": [],
    "effectNotes": [],
    "changes": [],
    "contextNotes": [],
    "links": {
      "children": [],
      "charges": []
    },
    "tag": "classFeat_taintedInfusion",
    "useCustomTag": true,
    "armorProf": {
      "value": []
    },
    "weaponProf": {
      "value": []
    },
    "languages": {
      "value": []
    },
    "scriptCalls": [],
    "featType": "classFeat",
    "associations": {
      "classes": [["Alchemist"]]
    }
  },
  "ownership": {
    "default": 0
  },
  "_stats": {
    "systemId": "pf1",
    "systemVersion": "0.82.1",
    "coreVersion": "10.285",
    "createdTime": 1663018762448,
    "modifiedTime": 1663018778103,
    "lastModifiedBy": "DbeAbHwpEqczKjsD"
  }
}
