{
  "_id": "cUXX3sGBANvzTvFZ",
  "name": "Temporal Celerity",
  "type": "feat",
  "img": "systems/pf1/icons/spells/light-royal-1.jpg",
  "effects": [],
  "folder": null,
  "sort": 0,
  "flags": {},
  "system": {
    "description": {
      "value": "<p>Whenever you roll for initiative, you can roll twice and take either result.</p>\n<p>At 7th level, you can always act in the surprise round, but if you fail to notice the ambush, you act last, regardless of your initiative result (you act in the normal order in following rounds).</p>\n<p>At 11th level, you can roll for initiative three times and take any one of the results.</p>"
    },
    "tags": [],
    "actions": [],
    "attackNotes": [],
    "effectNotes": [],
    "changes": [],
    "contextNotes": [],
    "links": {
      "children": [],
      "charges": []
    },
    "tag": "classFeat_temporalCelerity",
    "useCustomTag": true,
    "armorProf": {
      "value": []
    },
    "weaponProf": {
      "value": []
    },
    "languages": {
      "value": []
    },
    "scriptCalls": [],
    "featType": "classFeat",
    "associations": {
      "classes": [["Oracle"]]
    },
    "abilityType": "su"
  },
  "ownership": {
    "default": 0
  },
  "_stats": {
    "systemId": "pf1",
    "systemVersion": "0.82.1",
    "coreVersion": "10.285",
    "createdTime": 1663018766719,
    "modifiedTime": 1663018778421,
    "lastModifiedBy": "DbeAbHwpEqczKjsD"
  }
}
