{
  "_id": "L1Xj4ZQ48ap20hSw",
  "name": "Tenacious Inspiration",
  "type": "feat",
  "img": "systems/pf1/icons/items/weapons/sword-cane.png",
  "effects": [],
  "folder": null,
  "sort": 0,
  "flags": {},
  "system": {
    "description": {
      "value": "<p>When an investigator rolls his inspiration die, he can roll an additional inspiration die and take the higher result.</p>\n<p>The investigator must at least 13th level to select this talent.</p>"
    },
    "tags": [],
    "actions": [],
    "attackNotes": [],
    "effectNotes": [],
    "changes": [],
    "contextNotes": [],
    "links": {
      "children": [],
      "charges": []
    },
    "tag": "classFeat_tenaciousInspiration",
    "useCustomTag": true,
    "armorProf": {
      "value": []
    },
    "weaponProf": {
      "value": []
    },
    "languages": {
      "value": []
    },
    "scriptCalls": [],
    "featType": "classFeat",
    "associations": {
      "classes": [["Investigator"]]
    },
    "abilityType": "ex"
  },
  "ownership": {
    "default": 0
  },
  "_stats": {
    "systemId": "pf1",
    "systemVersion": "0.82.1",
    "coreVersion": "10.285",
    "createdTime": 1663018764418,
    "modifiedTime": 1663018778222,
    "lastModifiedBy": "DbeAbHwpEqczKjsD"
  }
}
