{
  "_id": "O2TI9qvCdf45jvBX",
  "name": "Thorns Subdomainf",
  "type": "feat",
  "img": "systems/pf1/icons/skills/green_17.jpg",
  "effects": [],
  "folder": null,
  "sort": 0,
  "flags": {},
  "system": {
    "description": {
      "value": "<p><span id=\"ctl00_MainContent_DataListTypes_ctl00_LabelName\" style=\"margin-top: 0px;\"><strong>Replacement Domain Spells</strong>: </span></p>\n<ul>\n<li><span id=\"ctl00_MainContent_DataListTypes_ctl00_LabelName\" style=\"margin-top: 0px;\">1st—@Compendium[pf1.spells.6vx3lvbhp6h220wq]{Thorn Javelin}</span></li>\n<li><span id=\"ctl00_MainContent_DataListTypes_ctl00_LabelName\" style=\"margin-top: 0px;\">3rd— @Compendium[pf1.spells.b433azw2m5ov8pkq]{Thorny Entanglement}</span></li>\n<li><span id=\"ctl00_MainContent_DataListTypes_ctl00_LabelName\" style=\"margin-top: 0px;\">4th—@Compendium[pf1.spells.818uuekrao87o57u]{Thorn Body}</span></li>\n</ul>"
    },
    "tags": [],
    "actions": [],
    "attackNotes": [],
    "effectNotes": [],
    "changes": [],
    "contextNotes": [],
    "links": {
      "children": [],
      "charges": []
    },
    "tag": "classFeat_thornsSubdomainf",
    "useCustomTag": true,
    "armorProf": {
      "value": []
    },
    "weaponProf": {
      "value": []
    },
    "languages": {
      "value": []
    },
    "scriptCalls": [],
    "featType": "classFeat",
    "associations": {
      "classes": [["Cleric"]]
    }
  },
  "ownership": {
    "default": 0
  },
  "_stats": {
    "systemId": "pf1",
    "systemVersion": "0.82.1",
    "coreVersion": "10.285",
    "createdTime": 1663018764906,
    "modifiedTime": 1663018778243,
    "lastModifiedBy": "DbeAbHwpEqczKjsD"
  }
}
