{
  "_id": "mkrQUtrBgUgV7G2Y",
  "name": "Throat Crush (UC)",
  "type": "feat",
  "img": "systems/pf1/icons/skills/yellow_08.jpg",
  "effects": [],
  "folder": null,
  "sort": 0,
  "flags": {},
  "system": {
    "description": {
      "value": "<p>The monk gives a sharp blow to a foe’s throat, hampering its ability to speak for 1 round as if it had the&nbsp;<a href=\"https://aonprd.com/Rules.aspx?Name=Minor%20Spellblights&amp;Category=Description%20of%20Spellblights\">caster croak spellblight</a>. Creatures without a discernible throat, or with multiple vocal organs, are unaffected (subject to GM discretion).</p>"
    },
    "tags": [],
    "actions": [],
    "attackNotes": [],
    "effectNotes": [],
    "changes": [],
    "contextNotes": [],
    "links": {
      "children": [],
      "charges": []
    },
    "tag": "classFeat_throatCrushUc",
    "useCustomTag": true,
    "armorProf": {
      "value": []
    },
    "weaponProf": {
      "value": []
    },
    "languages": {
      "value": []
    },
    "scriptCalls": [],
    "featType": "classFeat",
    "associations": {
      "classes": [["Monk (Unchained)"]]
    },
    "abilityType": "ex"
  },
  "ownership": {
    "default": 0
  },
  "_stats": {
    "systemId": "pf1",
    "systemVersion": "0.82.1",
    "coreVersion": "10.285",
    "createdTime": 1663018768254,
    "modifiedTime": 1663018778495,
    "lastModifiedBy": "DbeAbHwpEqczKjsD"
  }
}
