{
  "_id": "jttL7NeMj1wGPkDO",
  "name": "Tireless Rage (UC)",
  "type": "feat",
  "img": "systems/pf1/icons/feats/stunning-fist.jpg",
  "effects": [],
  "folder": null,
  "sort": 0,
  "flags": {},
  "system": {
    "description": {
      "value": "<p>At 17th level, a barbarian is no longer fatigued at the end of her rage. If she enters a rage again within 1 minute of ending a rage, she doesn’t gain any temporary hit points from her rage.</p>"
    },
    "tags": [],
    "actions": [],
    "attackNotes": [],
    "effectNotes": [],
    "changes": [],
    "contextNotes": [],
    "links": {
      "children": [],
      "charges": []
    },
    "tag": "classFeat_tirelessRageUc",
    "useCustomTag": true,
    "armorProf": {
      "value": []
    },
    "weaponProf": {
      "value": []
    },
    "languages": {
      "value": []
    },
    "scriptCalls": [],
    "featType": "classFeat",
    "associations": {
      "classes": [["Barbarian (Unchained)"]]
    },
    "abilityType": "ex"
  },
  "ownership": {
    "default": 0
  },
  "_stats": {
    "systemId": "pf1",
    "systemVersion": "0.82.1",
    "coreVersion": "10.285",
    "createdTime": 1663018767805,
    "modifiedTime": 1663018778476,
    "lastModifiedBy": "DbeAbHwpEqczKjsD"
  }
}
