{
  "_id": "vETLfsVXQo1qG2PX",
  "name": "Tireless Bloodrage",
  "type": "feat",
  "img": "systems/pf1/icons/skills/red_10.jpg",
  "effects": [],
  "folder": null,
  "sort": 0,
  "flags": {},
  "system": {
    "description": {
      "value": "<p>At 17th level, a bloodrager no longer becomes fatigued at the end of his bloodrage.</p>"
    },
    "tags": [],
    "actions": [],
    "attackNotes": [],
    "effectNotes": [],
    "changes": [],
    "contextNotes": [],
    "links": {
      "children": [],
      "charges": []
    },
    "tag": "classFeat_tirelessBloodrage",
    "useCustomTag": true,
    "armorProf": {
      "value": []
    },
    "weaponProf": {
      "value": []
    },
    "languages": {
      "value": []
    },
    "scriptCalls": [],
    "featType": "classFeat",
    "associations": {
      "classes": [["Bloodrager"]]
    },
    "abilityType": "su"
  },
  "ownership": {
    "default": 0
  },
  "_stats": {
    "systemId": "pf1",
    "systemVersion": "0.82.1",
    "coreVersion": "10.285",
    "createdTime": 1663018769599,
    "modifiedTime": 1663018778553,
    "lastModifiedBy": "DbeAbHwpEqczKjsD"
  }
}
