{
  "_id": "M0DxwppY22ri9neB",
  "name": "Tremor Infusion",
  "type": "feat",
  "img": "systems/pf1/icons/spells/rock-sky-3.jpg",
  "effects": [],
  "folder": null,
  "sort": 0,
  "flags": {},
  "system": {
    "description": {
      "value": "<p><strong>Element&nbsp;</strong>earth;&nbsp;<strong>Type&nbsp;</strong>form infusion;&nbsp;<strong>Level&nbsp;</strong>5;&nbsp;<strong>Burn&nbsp;</strong>3<br><strong>Associated Blasts&nbsp;</strong>earth<br><strong>Saving Throw&nbsp;</strong>none</p>\n<p>You send a tremor through the ground or other solid surface with which you are in contact, allowing you to affect a burrowing or incorporeal creature within that same surface with a normal kinetic blast.</p>\n<p>This infusion doesn’t allow you to attack creatures above the ground if you are burrowing or to ignore total cover provided by factors other than burrowing.</p>"
    },
    "tags": [],
    "actions": [],
    "attackNotes": [],
    "effectNotes": [],
    "changes": [],
    "contextNotes": [],
    "links": {
      "children": [],
      "charges": []
    },
    "tag": "classFeat_tremorInfusion",
    "useCustomTag": true,
    "armorProf": {
      "value": []
    },
    "weaponProf": {
      "value": []
    },
    "languages": {
      "value": []
    },
    "scriptCalls": [],
    "featType": "classFeat",
    "associations": {
      "classes": [["Kineticist"]]
    }
  },
  "ownership": {
    "default": 0
  },
  "_stats": {
    "systemId": "pf1",
    "systemVersion": "0.82.1",
    "coreVersion": "10.285",
    "createdTime": 1663018764779,
    "modifiedTime": 1663018778227,
    "lastModifiedBy": "DbeAbHwpEqczKjsD"
  }
}
