{
  "_id": "9vClYy9InaOQKlh5",
  "name": "True Mutagen",
  "type": "feat",
  "img": "systems/pf1/icons/items/potions/unique-3.jpg",
  "effects": [],
  "folder": null,
  "sort": 0,
  "flags": {},
  "system": {
    "description": {
      "value": "<p>The alchemist’s mutagen now grants a +8 natural armor bonus and a +8 alchemical bonus to Strength, Dexterity, and Constitution. The alchemist takes a –2 penalty to his Intelligence, Wisdom, and Charisma as long as the mutagen persists.</p>\n<p>An alchemist must possess the grand mutagen discovery before selecting this discovery.</p>"
    },
    "tags": [],
    "actions": [],
    "attackNotes": [],
    "effectNotes": [],
    "changes": [],
    "contextNotes": [],
    "links": {
      "children": [],
      "charges": []
    },
    "tag": "classFeat_trueMutagen",
    "useCustomTag": true,
    "armorProf": {
      "value": []
    },
    "weaponProf": {
      "value": []
    },
    "languages": {
      "value": []
    },
    "scriptCalls": [],
    "featType": "classFeat",
    "associations": {
      "classes": [["Alchemist"]]
    }
  },
  "ownership": {
    "default": 0
  },
  "_stats": {
    "systemId": "pf1",
    "systemVersion": "0.82.1",
    "coreVersion": "10.285",
    "createdTime": 1663018763071,
    "modifiedTime": 1663018778141,
    "lastModifiedBy": "DbeAbHwpEqczKjsD"
  }
}
