{
  "_id": "RG55tIBcdfYN0uyw",
  "name": "Umbral Transformation",
  "type": "feat",
  "img": "systems/pf1/icons/skills/violet_26.jpg",
  "effects": [],
  "folder": null,
  "sort": 0,
  "flags": {},
  "system": {
    "description": {
      "value": "<p>The subject of this trick turns into a living shadow for 1 round, as if affected by&nbsp;shadow body&nbsp;(Occult Adventures&nbsp;186).</p>\n<p>After this trick ends, the subject is staggered for 1 round.</p>"
    },
    "tags": [],
    "actions": [],
    "attackNotes": [],
    "effectNotes": [],
    "changes": [],
    "contextNotes": [],
    "links": {
      "children": [],
      "charges": []
    },
    "tag": "classFeat_umbralTransformation",
    "useCustomTag": true,
    "armorProf": {
      "value": []
    },
    "weaponProf": {
      "value": []
    },
    "languages": {
      "value": []
    },
    "scriptCalls": [],
    "featType": "classFeat",
    "associations": {
      "classes": [["Mesmerist"]]
    }
  },
  "ownership": {
    "default": 0
  },
  "_stats": {
    "systemId": "pf1",
    "systemVersion": "0.82.1",
    "coreVersion": "10.285",
    "createdTime": 1663018765325,
    "modifiedTime": 1663018778260,
    "lastModifiedBy": "DbeAbHwpEqczKjsD"
  }
}
