{
  "_id": "abjlF9XM3j72rzua",
  "name": "Undead Subschool",
  "type": "feat",
  "img": "systems/pf1/icons/skills/affliction_17.jpg",
  "effects": [],
  "folder": null,
  "sort": 0,
  "flags": {},
  "system": {
    "description": {
      "value": "<p><strong>Associated School:</strong>&nbsp;<a href=\"https://www.d20pfsrd.com/classes/core-classes/wizard/arcane-schools/paizo-arcane-schools/classic-arcane-schools/necromancy\">Necromancy</a>.</p>\n<p><strong>Replacement Power:</strong> This subschool replaces the grave touch power of the&nbsp;<a href=\"https://www.d20pfsrd.com/magic#TOC-Necromancy\">necromancy</a>&nbsp;school.</p>"
    },
    "tags": [],
    "actions": [],
    "attackNotes": [],
    "effectNotes": [],
    "changes": [],
    "contextNotes": [],
    "links": {
      "children": [],
      "charges": []
    },
    "tag": "classFeat_undeadSubschool",
    "useCustomTag": true,
    "armorProf": {
      "value": []
    },
    "weaponProf": {
      "value": []
    },
    "languages": {
      "value": []
    },
    "scriptCalls": [],
    "featType": "classFeat",
    "associations": {
      "classes": [["Wizard"]]
    }
  },
  "ownership": {
    "default": 0
  },
  "_stats": {
    "systemId": "pf1",
    "systemVersion": "0.82.1",
    "coreVersion": "10.285",
    "createdTime": 1663018766626,
    "modifiedTime": 1663018778358,
    "lastModifiedBy": "DbeAbHwpEqczKjsD"
  }
}
