{
  "_id": "tSmRmVuqYPDTyVZY",
  "name": "Universalist School",
  "type": "feat",
  "img": "systems/pf1/icons/items/inventory/pearl.jpg",
  "effects": [],
  "folder": null,
  "sort": 0,
  "flags": {},
  "system": {
    "description": {
      "value": "<p>Wizards who do not specialize (known as as universalists) have the most diversity of all arcane spellcasters.</p>"
    },
    "tags": [],
    "actions": [],
    "attackNotes": [],
    "effectNotes": [],
    "changes": [],
    "contextNotes": [],
    "links": {
      "children": [],
      "charges": []
    },
    "tag": "classFeat_universalistSchool",
    "useCustomTag": true,
    "armorProf": {
      "value": []
    },
    "weaponProf": {
      "value": []
    },
    "languages": {
      "value": []
    },
    "scriptCalls": [],
    "featType": "classFeat",
    "associations": {
      "classes": [["Wizard"]]
    }
  },
  "ownership": {
    "default": 0
  },
  "_stats": {
    "systemId": "pf1",
    "systemVersion": "0.82.1",
    "coreVersion": "10.285",
    "createdTime": 1663018769209,
    "modifiedTime": 1663018778539,
    "lastModifiedBy": "DbeAbHwpEqczKjsD"
  }
}
