{
  "_id": "GJGq5ZB8R3ilH8LD",
  "name": "Unrestrained Rage",
  "type": "feat",
  "img": "systems/pf1/icons/feats/deafening-critical.jpg",
  "effects": [],
  "folder": null,
  "sort": 0,
  "flags": {},
  "system": {
    "description": {
      "value": "<p><span id=\"ctl00_MainContent_DataList3_ctl28_LabelName\">While raging, the barbarian is immune to paralysis. If the barbarian is targeted by an effect that would cause her to become paralyzed, she can enter a rage as an immediate action, as long as she still has rounds of rage remaining.</span></p>\n<p><span id=\"ctl00_MainContent_DataList3_ctl28_LabelName\"> A barbarian must be at least 12th level to select this rage power.</span></p>"
    },
    "tags": [],
    "actions": [],
    "attackNotes": [],
    "effectNotes": [],
    "changes": [],
    "contextNotes": [],
    "links": {
      "children": [],
      "charges": []
    },
    "tag": "classFeat_unrestrainedRage",
    "useCustomTag": true,
    "armorProf": {
      "value": []
    },
    "weaponProf": {
      "value": []
    },
    "languages": {
      "value": []
    },
    "scriptCalls": [],
    "featType": "classFeat",
    "associations": {
      "classes": [["Barbarian"], ["Skald"]]
    }
  },
  "ownership": {
    "default": 0
  },
  "_stats": {
    "systemId": "pf1",
    "systemVersion": "0.82.1",
    "coreVersion": "10.285",
    "createdTime": 1663018763913,
    "modifiedTime": 1663018778192,
    "lastModifiedBy": "DbeAbHwpEqczKjsD"
  }
}
