{
  "_id": "t61KDFMdrtkBil68",
  "name": "Vampiric Infusion",
  "type": "feat",
  "img": "systems/pf1/icons/spells/rip-sky-1.jpg",
  "effects": [],
  "folder": null,
  "sort": 0,
  "flags": {},
  "system": {
    "description": {
      "value": "<p><strong>Element&nbsp;</strong>void;&nbsp;<strong>Type&nbsp;</strong>substance infusion;&nbsp;<strong>Level&nbsp;</strong>5;&nbsp;<strong>Burn&nbsp;</strong>3<br><strong>Prerequisite&nbsp;</strong>void healer<br><strong>Associated Blasts&nbsp;</strong>negative void<br><strong>Saving Throw&nbsp;</strong>none</p>\n<p>Your kinetic blast can drain your foes’ vitality to replenish your own. If your blast hits (or the enemy fails its saving throw against a blast without an attack roll), you can activate the void healer utility wild talent on yourself by accepting its burn cost; you don’t need to take an action to do so.</p>\n<p>The void healer utility wild talent heals you when used in this way even if you are a living creature.</p>"
    },
    "tags": [],
    "actions": [],
    "attackNotes": [],
    "effectNotes": [],
    "changes": [],
    "contextNotes": [],
    "links": {
      "children": [],
      "charges": []
    },
    "tag": "classFeat_vampiricInfusion",
    "useCustomTag": true,
    "armorProf": {
      "value": []
    },
    "weaponProf": {
      "value": []
    },
    "languages": {
      "value": []
    },
    "scriptCalls": [],
    "featType": "classFeat",
    "associations": {
      "classes": [["Kineticist"]]
    }
  },
  "ownership": {
    "default": 0
  },
  "_stats": {
    "systemId": "pf1",
    "systemVersion": "0.82.1",
    "coreVersion": "10.285",
    "createdTime": 1663018769191,
    "modifiedTime": 1663018778537,
    "lastModifiedBy": "DbeAbHwpEqczKjsD"
  }
}
