{
  "_id": "i0yrg2hLAnCWNTGh",
  "name": "Vandal",
  "type": "feat",
  "img": "systems/pf1/icons/items/inventory/banner-red.jpg",
  "effects": [],
  "folder": null,
  "sort": 0,
  "flags": {},
  "system": {
    "description": {
      "value": "<p>At 2nd level, the cavalier gains @Compendium[pf1.feats.lpXdFoT6OqS5vi2X]{Improved Sunder}&nbsp;as a bonus feat. In addition, when dealing damage to objects (including when using the sunder combat maneuver), he adds half his cavalier level to the damage roll. If an order of the beast cavalier successfully breaks an object, he receives a +2 morale bonus on all attack rolls until the end of his next turn.</p>"
    },
    "tags": [],
    "actions": [],
    "attackNotes": [],
    "effectNotes": [],
    "changes": [],
    "contextNotes": [],
    "links": {
      "children": [],
      "charges": []
    },
    "tag": "classFeat_vandal",
    "useCustomTag": true,
    "armorProf": {
      "value": []
    },
    "weaponProf": {
      "value": []
    },
    "languages": {
      "value": []
    },
    "scriptCalls": [],
    "featType": "classFeat",
    "associations": {
      "classes": [["Cavalier"]]
    },
    "abilityType": "ex"
  },
  "ownership": {
    "default": 0
  },
  "_stats": {
    "systemId": "pf1",
    "systemVersion": "0.82.1",
    "coreVersion": "10.285",
    "createdTime": 1663018767695,
    "modifiedTime": 1663018778465,
    "lastModifiedBy": "DbeAbHwpEqczKjsD"
  }
}
