{
  "_id": "UJ3fKW74kW2537nw",
  "name": "Vortex Splash",
  "type": "feat",
  "img": "systems/pf1/icons/feats/deceitful.jpg",
  "effects": [],
  "folder": null,
  "sort": 0,
  "flags": {},
  "system": {
    "description": {
      "value": "<p>When in rain or waist deep in water, the vigilante can make a whirling splash as a full-round action, allowing him to attempt a single dirty trick combat maneuver or feint against each adjacent foe. The vigilante can make a separate choice for each target.</p>"
    },
    "tags": [],
    "actions": [],
    "attackNotes": [],
    "effectNotes": [],
    "changes": [],
    "contextNotes": [],
    "links": {
      "children": [],
      "charges": []
    },
    "tag": "classFeat_vortexSplash",
    "useCustomTag": true,
    "armorProf": {
      "value": []
    },
    "weaponProf": {
      "value": []
    },
    "languages": {
      "value": []
    },
    "scriptCalls": [],
    "featType": "classFeat",
    "associations": {
      "classes": [["Vigilante"]]
    },
    "abilityType": "ex"
  },
  "ownership": {
    "default": 0
  },
  "_stats": {
    "systemId": "pf1",
    "systemVersion": "0.82.1",
    "coreVersion": "10.285",
    "createdTime": 1663018765738,
    "modifiedTime": 1663018778279,
    "lastModifiedBy": "DbeAbHwpEqczKjsD"
  }
}
