{
  "_id": "lwSkb8EAyKc03EC7",
  "name": "Warding Talisman",
  "type": "feat",
  "img": "systems/pf1/icons/items/armor/shield-heavy-metal.png",
  "effects": [],
  "folder": null,
  "sort": 0,
  "flags": {},
  "system": {
    "description": {
      "value": "<p>The implement wards against adverse effects. Whoever wears (or holds, for bells) the implement gains a +1 resistance bonus on saving throws for every 2 points of mental focus invested in the implement, to a maximum bonus of 1 + 1 for every 4 occultist levels you possess.</p>"
    },
    "tags": [],
    "actions": [],
    "attackNotes": [],
    "effectNotes": [],
    "changes": [],
    "contextNotes": [],
    "links": {
      "children": [],
      "charges": []
    },
    "tag": "classFeat_wardingTalisman",
    "useCustomTag": true,
    "armorProf": {
      "value": []
    },
    "weaponProf": {
      "value": []
    },
    "languages": {
      "value": []
    },
    "scriptCalls": [],
    "featType": "classFeat",
    "associations": {
      "classes": [["Occultist"]]
    },
    "abilityType": "su"
  },
  "ownership": {
    "default": 0
  },
  "_stats": {
    "systemId": "pf1",
    "systemVersion": "0.82.1",
    "coreVersion": "10.285",
    "createdTime": 1663018768217,
    "modifiedTime": 1663018778492,
    "lastModifiedBy": "DbeAbHwpEqczKjsD"
  }
}
