{
  "_id": "63vMiCfBi4PWsZQo",
  "name": "Wards Subdomain",
  "type": "feat",
  "img": "systems/pf1/icons/spells/heal-royal-2.jpg",
  "effects": [],
  "folder": null,
  "sort": 0,
  "flags": {},
  "system": {
    "description": {
      "value": "<p><strong>Replacement Domain Spells:</strong></p>\n<ul>\n<li>1st—@Compendium[pf1.spells.cqhabnit3b7l5ezm]{Arcane Lock}</li>\n<li>4th—@Compendium[pf1.spells.0vmz2klcfvkc3h0v]{Dimensional Anchor}</li>\n<li>6th—@Compendium[pf1.spells.8z4tlk1fojr9t9yb]{Guards and Wards}</li>\n</ul>"
    },
    "tags": [],
    "actions": [],
    "attackNotes": [],
    "effectNotes": [],
    "changes": [],
    "contextNotes": [],
    "links": {
      "children": [],
      "charges": []
    },
    "tag": "classFeat_wardsSubdomain",
    "useCustomTag": true,
    "armorProf": {
      "value": []
    },
    "weaponProf": {
      "value": []
    },
    "languages": {
      "value": []
    },
    "scriptCalls": [],
    "featType": "classFeat",
    "associations": {
      "classes": [["Cleric"]]
    }
  },
  "ownership": {
    "default": 0
  },
  "_stats": {
    "systemId": "pf1",
    "systemVersion": "0.82.1",
    "coreVersion": "10.285",
    "createdTime": 1663018762529,
    "modifiedTime": 1663018778115,
    "lastModifiedBy": "DbeAbHwpEqczKjsD"
  }
}
