{
  "_id": "DT09HcrTJjBwRTM6",
  "name": "Wasting Curse",
  "type": "feat",
  "img": "systems/pf1/icons/spells/horror-eerie-1.jpg",
  "effects": [],
  "folder": null,
  "sort": 0,
  "flags": {},
  "system": {
    "description": {
      "value": "<p>Your body is slowly rotting away. You take a –4 penalty on Charisma-based skill checks, except for Intimidate. You gain a +4 competence bonus on saves made against disease.</p>\n<p>At 5th level, you are immune to the sickened condition (but not nauseated).</p>\n<p>At 10th level, you gain immunity to disease.</p>\n<p>At 15th level, you are immune to the nauseated condition.</p>"
    },
    "tags": [],
    "actions": [],
    "attackNotes": [],
    "effectNotes": [],
    "changes": [
      {
        "_id": "gm73pnz9",
        "formula": "-4",
        "operator": "+",
        "subTarget": "chaSkills",
        "modifier": "penalty",
        "priority": 0,
        "value": 0,
        "target": "skills"
      }
    ],
    "contextNotes": [],
    "links": {
      "children": [],
      "charges": []
    },
    "tag": "classFeat_wastingCurse",
    "useCustomTag": true,
    "armorProf": {
      "value": []
    },
    "weaponProf": {
      "value": []
    },
    "languages": {
      "value": []
    },
    "scriptCalls": [],
    "featType": "classFeat",
    "associations": {
      "classes": [["Oracle"]]
    }
  },
  "ownership": {
    "default": 0
  },
  "_stats": {
    "systemId": "pf1",
    "systemVersion": "0.82.1",
    "coreVersion": "10.285",
    "createdTime": 1663018763510,
    "modifiedTime": 1663018778168,
    "lastModifiedBy": "DbeAbHwpEqczKjsD"
  }
}
