{
  "_id": "WRs8xxGAs4OY1LzZ",
  "name": "Water Patron",
  "type": "feat",
  "img": "systems/pf1/icons/feats/improved-familiar.jpg",
  "effects": [],
  "folder": null,
  "sort": 0,
  "flags": {},
  "system": {
    "description": {
      "value": "<ul>\n<li>2nd — @Compendium[pf1.spells.cyzbticmitktat5v]{Bless Water}/@Compendium[pf1.spells.c0hvjnqzry149ugs]{Curse Water}</li>\n<li>4th — @Compendium[pf1.spells.7fvsn0gbv6ynlp63]{Slipstream}</li>\n<li>6th — @Compendium[pf1.spells.7m5us8d4a9lwh1ap]{Water Breathing}</li>\n<li>8th — @Compendium[pf1.spells.7yf67b7y4byj96w7]{Control Water}</li>\n<li>10th — @Compendium[pf1.spells.nll8ip8348eti0ff]{Geyser}</li>\n<li>12th — @Compendium[pf1.spells.hd32fuc6e7j4isbn]{Elemental Body III} (water only),</li>\n<li>14th — @Compendium[pf1.spells.v42t5kpxc8mvd615]{Elemental Body IV} (water only),</li>\n<li>16th — @Compendium[pf1.spells.o4rwtizvdj7216qd]{Seamantle}</li>\n<li>18th — @Compendium[pf1.spells.ltda70etgwje43x6]{Tsunami}</li>\n</ul>"
    },
    "tags": [],
    "actions": [],
    "attackNotes": [],
    "effectNotes": [],
    "changes": [],
    "contextNotes": [],
    "links": {
      "children": [],
      "charges": []
    },
    "tag": "classFeat_waterPatron",
    "useCustomTag": true,
    "armorProf": {
      "value": []
    },
    "weaponProf": {
      "value": []
    },
    "languages": {
      "value": []
    },
    "scriptCalls": [],
    "featType": "classFeat",
    "associations": {
      "classes": [["Witch"]]
    }
  },
  "ownership": {
    "default": 0
  },
  "_stats": {
    "systemId": "pf1",
    "systemVersion": "0.82.1",
    "coreVersion": "10.285",
    "createdTime": 1663018766115,
    "modifiedTime": 1663018778290,
    "lastModifiedBy": "DbeAbHwpEqczKjsD"
  }
}
