{
  "_id": "ozDR6FwV88blNopw",
  "name": "Waverider",
  "type": "feat",
  "img": "systems/pf1/icons/items/inventory/banner-red.jpg",
  "effects": [],
  "folder": null,
  "sort": 0,
  "flags": {},
  "system": {
    "description": {
      "value": "<p>At 2nd level, the cavalier gains a swim speed equal to his unmodified base land speed. If he already has a swim speed, his swim speed increases by 10 feet, and if he and his mount both have a swim speed, the mount’s swim speed also increases by 10 feet. He gains a +1 morale bonus on damage rolls when underwater.</p>"
    },
    "tags": [],
    "actions": [],
    "attackNotes": [],
    "effectNotes": [],
    "changes": [],
    "contextNotes": [],
    "links": {
      "children": [],
      "charges": []
    },
    "tag": "classFeat_waverider",
    "useCustomTag": true,
    "armorProf": {
      "value": []
    },
    "weaponProf": {
      "value": []
    },
    "languages": {
      "value": []
    },
    "scriptCalls": [],
    "featType": "classFeat",
    "associations": {
      "classes": [["Cavalier"]]
    },
    "abilityType": "ex"
  },
  "ownership": {
    "default": 0
  },
  "_stats": {
    "systemId": "pf1",
    "systemVersion": "0.82.1",
    "coreVersion": "10.285",
    "createdTime": 1663018768683,
    "modifiedTime": 1663018778508,
    "lastModifiedBy": "DbeAbHwpEqczKjsD"
  }
}
