{
  "_id": "rvYG5s2yfT3STfiY",
  "name": "Whip Crack",
  "type": "feat",
  "img": "systems/pf1/icons/items/inventory/banner-red.jpg",
  "effects": [],
  "folder": null,
  "sort": 0,
  "flags": {},
  "system": {
    "description": {
      "value": "<p>At 2nd level, the cavalier becomes proficient with a whip and gains&nbsp;<a href=\"https://aonprd.com/FeatDisplay.aspx?ItemName=Whip%20Mastery\">Whip Mastery</a>&nbsp;as a bonus feat. When a creature whose number of Hit Dice is less than or equal to 1/2 the cavalier’s level takes nonlethal damage from the cavalier’s whip, it is shaken for 1 round. This does not stack with other fear effects.</p>"
    },
    "tags": [],
    "actions": [],
    "attackNotes": [],
    "effectNotes": [],
    "changes": [],
    "contextNotes": [],
    "links": {
      "children": [],
      "charges": []
    },
    "tag": "classFeat_whipCrack",
    "useCustomTag": true,
    "armorProf": {
      "value": []
    },
    "weaponProf": {
      "value": []
    },
    "languages": {
      "value": []
    },
    "scriptCalls": [],
    "featType": "classFeat",
    "associations": {
      "classes": [["Cavalier"]]
    },
    "abilityType": "ex"
  },
  "ownership": {
    "default": 0
  },
  "_stats": {
    "systemId": "pf1",
    "systemVersion": "0.82.1",
    "coreVersion": "10.285",
    "createdTime": 1663018769134,
    "modifiedTime": 1663018778528,
    "lastModifiedBy": "DbeAbHwpEqczKjsD"
  }
}
