{
  "_id": "SBOOoBEHUIiAsagP",
  "name": "Willful Ignorance",
  "type": "feat",
  "img": "systems/pf1/icons/skills/violet_26.jpg",
  "effects": [],
  "folder": null,
  "sort": 0,
  "flags": {},
  "system": {
    "description": {
      "value": "<p>The subject gains the ability to tell one undetectable lie. When the subject attempts to lie, the mesmerist can trigger this trick. That particular lie resists truth-detecting magic, and creatures attempting to use such magic must succeed at a caster level check against a DC equal to 15 + the mesmerist’s class level to succeed; failure means the magic doesn’t detect the subject’s lie or force her to speak only the truth.</p>"
    },
    "tags": [],
    "actions": [],
    "attackNotes": [],
    "effectNotes": [],
    "changes": [],
    "contextNotes": [],
    "links": {
      "children": [],
      "charges": []
    },
    "tag": "classFeat_willfulIgnorance",
    "useCustomTag": true,
    "armorProf": {
      "value": []
    },
    "weaponProf": {
      "value": []
    },
    "languages": {
      "value": []
    },
    "scriptCalls": [],
    "featType": "classFeat",
    "associations": {
      "classes": [["Mesmerist"]]
    }
  },
  "ownership": {
    "default": 0
  },
  "_stats": {
    "systemId": "pf1",
    "systemVersion": "0.82.1",
    "coreVersion": "10.285",
    "createdTime": 1663018765633,
    "modifiedTime": 1663018778268,
    "lastModifiedBy": "DbeAbHwpEqczKjsD"
  }
}
