{
  "_id": "XkvB3xC4CoH4O11D",
  "name": "Wind Spirit Manifestation",
  "type": "feat",
  "img": "systems/pf1/icons/skills/violet_20.jpg",
  "effects": [],
  "folder": null,
  "sort": 0,
  "flags": {},
  "system": {
    "description": {
      "value": "<p>Upon reaching 20th level, the shaman becomes a being of air and electricity. The shaman gains electricity resistance 30. She can also apply any one of the following feats to any air or electricity spell she casts without increasing the spell’s level or casting time: Enlarge Spell, Extend Spell, Silent Spell, or Still Spell. She doesn’t need to possess these feats to use this ability.</p>"
    },
    "tags": [],
    "actions": [],
    "attackNotes": [],
    "effectNotes": [],
    "changes": [],
    "contextNotes": [],
    "links": {
      "children": [],
      "charges": []
    },
    "tag": "classFeat_windSpiritManifestation",
    "useCustomTag": true,
    "armorProf": {
      "value": []
    },
    "weaponProf": {
      "value": []
    },
    "languages": {
      "value": []
    },
    "scriptCalls": [],
    "featType": "classFeat",
    "associations": {
      "classes": [["Shaman"]]
    }
  },
  "ownership": {
    "default": 0
  },
  "_stats": {
    "systemId": "pf1",
    "systemVersion": "0.82.1",
    "coreVersion": "10.285",
    "createdTime": 1663018766189,
    "modifiedTime": 1663018778309,
    "lastModifiedBy": "DbeAbHwpEqczKjsD"
  }
}
