{
  "_id": "C0kN2Ob5gw8pFfcr",
  "name": "Witch Hunter (UC)",
  "type": "feat",
  "img": "systems/pf1/icons/feats/deafening-critical.jpg",
  "effects": [],
  "folder": null,
  "sort": 0,
  "flags": {},
  "system": {
    "description": {
      "value": "<p>The barbarian gains a +1 bonus on damage rolls against creatures possessing spells or spell-like abilities. This damage bonus increases by 1 for every 4 levels the barbarian has. In addition, if she confirms a critical hit against a creature affected by an ongoing beneficial spell effect, that effect is suppressed for 1 round (determined randomly if the creature is currently affected by more than one effect).</p>\n<p>A barbarian must have the superstition rage power to select this rage power.</p>"
    },
    "tags": [],
    "actions": [],
    "attackNotes": [],
    "effectNotes": [],
    "changes": [],
    "contextNotes": [],
    "links": {
      "children": [],
      "charges": []
    },
    "tag": "classFeat_witchHunterUc",
    "useCustomTag": true,
    "armorProf": {
      "value": []
    },
    "weaponProf": {
      "value": []
    },
    "languages": {
      "value": []
    },
    "scriptCalls": [],
    "featType": "classFeat",
    "associations": {
      "classes": [["Barbarian (Unchained)"]]
    },
    "abilityType": "ex"
  },
  "ownership": {
    "default": 0
  },
  "_stats": {
    "systemId": "pf1",
    "systemVersion": "0.82.1",
    "coreVersion": "10.285",
    "createdTime": 1663018763420,
    "modifiedTime": 1663018778159,
    "lastModifiedBy": "DbeAbHwpEqczKjsD"
  }
}
