{
  "_id": "DxpiD3wcLuVAwnSa",
  "name": "Witch's Bounty",
  "type": "feat",
  "img": "systems/pf1/icons/skills/violet_02.jpg",
  "effects": [],
  "folder": null,
  "sort": 0,
  "flags": {},
  "system": {
    "description": {
      "value": "<p>The witch may bless a bush, plant, or tree that is planted in the ground, so that it creates a plentiful harvest. Each day at dawn, this blessed bush grows a number of&nbsp;goodberries&nbsp;equal to twice her witch level. Berries on the tree remain until they are picked, but the tree can never manifest a number of berries greater than twice her level at one time.</p>\n<p>The witch may only have one witch’s bounty active at a time, but can shift her blessing to a new plant with a ritual requiring 1 hour.</p>"
    },
    "tags": [],
    "actions": [],
    "attackNotes": [],
    "effectNotes": [],
    "changes": [],
    "contextNotes": [],
    "links": {
      "children": [],
      "charges": []
    },
    "tag": "classFeat_witchsBounty",
    "useCustomTag": true,
    "armorProf": {
      "value": []
    },
    "weaponProf": {
      "value": []
    },
    "languages": {
      "value": []
    },
    "scriptCalls": [],
    "featType": "classFeat",
    "associations": {
      "classes": [["Witch"]]
    },
    "abilityType": "su"
  },
  "ownership": {
    "default": 0
  },
  "_stats": {
    "systemId": "pf1",
    "systemVersion": "0.82.1",
    "coreVersion": "10.285",
    "createdTime": 1663018763552,
    "modifiedTime": 1663018778174,
    "lastModifiedBy": "DbeAbHwpEqczKjsD"
  }
}
