{
  "_id": "MFogxSkB5dBmUI5i",
  "name": "Prayer (Negative)",
  "type": "buff",
  "img": "systems/pf1/icons/skills/yellow_13.jpg",
  "effects": [],
  "folder": null,
  "sort": 6700000,
  "flags": {},
  "system": {
    "description": {
      "value": "<p>You have a +1 luck bonus on attack rolls, weapon damage rolls, saves and skill checks.</p>"
    },
    "tags": [],
    "changes": [
      {
        "_id": "xs01uvaa",
        "formula": "-1",
        "operator": "+",
        "subTarget": "attack",
        "modifier": "untyped",
        "priority": 0,
        "value": -1,
        "target": "attack"
      },
      {
        "_id": "ywa29n6c",
        "formula": "-1",
        "operator": "+",
        "subTarget": "wdamage",
        "modifier": "untyped",
        "priority": 0,
        "value": -1,
        "target": "damage"
      },
      {
        "_id": "0wyddrhp",
        "formula": "-1",
        "operator": "+",
        "subTarget": "allSavingThrows",
        "modifier": "untyped",
        "priority": 0,
        "value": -1,
        "target": "savingThrows"
      },
      {
        "_id": "qgh4wvhx",
        "formula": "-1",
        "operator": "+",
        "subTarget": "skills",
        "modifier": "untyped",
        "priority": 0,
        "value": -1,
        "target": "skills"
      }
    ],
    "contextNotes": [],
    "links": {
      "children": []
    },
    "flags": {
      "boolean": [],
      "dictionary": []
    },
    "scriptCalls": [],
    "level": "5",
    "duration": {
      "value": "@item.level",
      "units": "round"
    }
  },
  "ownership": {
    "default": 0
  },
  "_stats": {
    "systemId": "pf1",
    "systemVersion": "0.82.1",
    "coreVersion": "10.285",
    "createdTime": 1663018729294,
    "modifiedTime": 1663018729407,
    "lastModifiedBy": "DbeAbHwpEqczKjsD"
  }
}
