{
  "_id": "blsl7v5wr0rm28su",
  "name": "Dissolution",
  "type": "spell",
  "img": "systems/pf1/icons/misc/magic-swirl.png",
  "effects": [],
  "folder": null,
  "sort": 0,
  "flags": {},
  "system": {
    "tags": [],
    "actions": [
      {
        "_id": "heg66mys9suzk49d",
        "name": "Use",
        "img": "systems/pf1/icons/misc/magic-swirl.png",
        "description": "",
        "tag": "",
        "activation": {
          "cost": 1,
          "type": "standard"
        },
        "unchainedAction": {
          "activation": {
            "cost": 2,
            "type": "action"
          }
        },
        "duration": {
          "value": "10 minutes/level (D)",
          "units": ""
        },
        "target": {
          "value": "Tiny or smaller object touched"
        },
        "range": {
          "value": null,
          "units": "touch",
          "maxIncrements": 1,
          "minValue": null,
          "minUnits": ""
        },
        "uses": {
          "autoDeductCharges": true,
          "autoDeductChargesCost": "1",
          "self": {
            "value": 0,
            "maxFormula": "",
            "per": null
          },
          "per": "",
          "value": 0,
          "maxFormula": ""
        },
        "measureTemplate": {
          "type": "",
          "size": "0",
          "overrideColor": false,
          "customColor": "",
          "overrideTexture": false,
          "customTexture": ""
        },
        "attackName": "",
        "actionType": "spellsave",
        "attackBonus": "",
        "critConfirmBonus": "",
        "damage": {
          "parts": [],
          "critParts": [],
          "nonCritParts": []
        },
        "attackParts": [],
        "formulaicAttacks": {
          "count": {
            "formula": ""
          },
          "bonus": {
            "formula": ""
          },
          "label": null
        },
        "formula": "",
        "ability": {
          "attack": "",
          "damage": "",
          "damageMult": 1,
          "critRange": 20,
          "critMult": 2
        },
        "save": {
          "dc": "0",
          "type": "fort",
          "description": "Fortitude negates (object)"
        },
        "effectNotes": [],
        "attackNotes": [],
        "soundEffect": "",
        "powerAttack": {
          "multiplier": "",
          "damageBonus": 2,
          "critMultiplier": 1
        },
        "naturalAttack": {
          "primaryAttack": true,
          "secondary": {
            "attackBonus": "-5",
            "damageMult": 0.5
          }
        },
        "nonlethal": false,
        "usesAmmo": false,
        "spellEffect": "",
        "spellArea": "",
        "conditionals": [],
        "enh": {
          "value": null
        }
      }
    ],
    "uses": {
      "per": ""
    },
    "attackNotes": [],
    "effectNotes": [],
    "links": {
      "children": []
    },
    "flags": {
      "boolean": [],
      "dictionary": []
    },
    "scriptCalls": [],
    "learnedAt": {
      "class": [
        ["sorcerer/wizard", 5],
        ["alchemist", 4],
        ["summoner", 6],
        ["spiritualist", 6],
        ["unchained Summoner", 6]
      ],
      "domain": [],
      "subDomain": [],
      "elementalSchool": [],
      "bloodline": []
    },
    "level": 5,
    "school": "trs",
    "components": {
      "verbal": true,
      "somatic": true,
      "material": true
    },
    "materials": {
      "value": "vial of alchemical reagents worth 50 gp",
      "gpValue": 50
    },
    "spellbook": "",
    "preparation": {
      "autoDeductCharges": false,
      "spontaneousPrepared": false
    },
    "sr": false,
    "shortDescription": "<p>You touch a Tiny or smaller item, causing the item to vanish as if it did not exist at all. The item doesn't take damage or otherwise gain any condition; it simply ceases to be visible to or interact with the world in any way, as if it no longer existed. The oil vanishes with the item and leaves no residue, nor does it affect surfaces that handle or hold the item during its application. No spell or ability short of <i>miracle</i> or <i>wish</i> can locate or affect the item  while it is under the effect of this spell. Though the item seems to not exist while under the effects of this spell, its own reality is consistent (it ages normally, and any ongoing effects upon it continue normally). The target object can be one size larger than Tiny for every 5 caster levels above 5th you possess.  The target item returns to existence when the spell's duration expires. An item returns to existence in exactly the same location and condition it left. If the location no longer has room for the item, the item takes 1d0 points of damage (bypassing hardness) and is teleported to the nearest location that has room for it. If that location is more than 5 feet from the original location, there is a 25% chance the item is instead shifted to a randomly determined alternate plane.</p>"
  },
  "ownership": {
    "default": 0
  },
  "_stats": {
    "systemId": "pf1",
    "systemVersion": "0.82.1",
    "coreVersion": "10.285",
    "createdTime": 1663018732042,
    "modifiedTime": 1663018744781,
    "lastModifiedBy": "DbeAbHwpEqczKjsD"
  }
}
