{
  "_id": "cdedzw5d9ui73ua7",
  "name": "Dragon's Breath",
  "type": "spell",
  "img": "systems/pf1/icons/misc/magic-swirl.png",
  "effects": [],
  "folder": null,
  "sort": 0,
  "flags": {},
  "system": {
    "tags": [],
    "actions": [
      {
        "_id": "75v240ev2mqf2uib",
        "name": "Use",
        "img": "systems/pf1/icons/misc/magic-swirl.png",
        "description": "",
        "tag": "",
        "activation": {
          "cost": 1,
          "type": "standard"
        },
        "unchainedAction": {
          "activation": {
            "cost": 2,
            "type": "action"
          }
        },
        "duration": {
          "value": "instantaneous",
          "units": ""
        },
        "target": {
          "value": ""
        },
        "range": {
          "value": 30,
          "units": "ft",
          "maxIncrements": 1,
          "minValue": null,
          "minUnits": ""
        },
        "uses": {
          "autoDeductCharges": true,
          "autoDeductChargesCost": "1",
          "self": {
            "value": 0,
            "maxFormula": "",
            "per": null
          },
          "per": "",
          "value": 0,
          "maxFormula": ""
        },
        "measureTemplate": {
          "type": "",
          "size": "0",
          "overrideColor": false,
          "customColor": "",
          "overrideTexture": false,
          "customTexture": ""
        },
        "attackName": "",
        "actionType": "spellsave",
        "attackBonus": "",
        "critConfirmBonus": "",
        "damage": {
          "parts": [],
          "critParts": [],
          "nonCritParts": []
        },
        "attackParts": [],
        "formulaicAttacks": {
          "count": {
            "formula": ""
          },
          "bonus": {
            "formula": ""
          },
          "label": null
        },
        "formula": "",
        "ability": {
          "attack": "",
          "damage": "",
          "damageMult": 1,
          "critRange": 20,
          "critMult": 2
        },
        "save": {
          "dc": "0",
          "type": "ref",
          "description": "Reflex half"
        },
        "effectNotes": [],
        "attackNotes": [],
        "soundEffect": "",
        "powerAttack": {
          "multiplier": "",
          "damageBonus": 2,
          "critMultiplier": 1
        },
        "naturalAttack": {
          "primaryAttack": true,
          "secondary": {
            "attackBonus": "-5",
            "damageMult": 0.5
          }
        },
        "nonlethal": false,
        "usesAmmo": false,
        "spellEffect": "",
        "spellArea": "cone-shaped burst or line",
        "conditionals": [],
        "enh": {
          "value": null
        }
      }
    ],
    "uses": {
      "per": ""
    },
    "attackNotes": [],
    "effectNotes": [],
    "links": {
      "children": []
    },
    "flags": {
      "boolean": [],
      "dictionary": []
    },
    "scriptCalls": [],
    "learnedAt": {
      "class": [
        ["sorcerer/wizard", 4],
        ["alchemist", 4],
        ["bloodrager", 4]
      ],
      "domain": [],
      "subDomain": [["Dragon", 4]],
      "elementalSchool": [],
      "bloodline": [["Kobold", 4]]
    },
    "level": 4,
    "school": "evo",
    "types": "acid, cold, electricity, or fire",
    "components": {
      "verbal": true,
      "somatic": true,
      "material": true
    },
    "materials": {
      "value": "a dragon scale"
    },
    "shortDescription": "<p>You breathe out a blast of energy. Creatures in the affected area take 1d6 points of energy damage per caster level (maximum of 12d6). A successful Reflex save results in half damage. The spell's effect and energy type depend on the type of dragon scale used: </p><p><i>Black dragon</i>: 60-foot line of acid.</p><p><i>Blue or bronze dragon</i>: 60-foot line of electricity.</p><p><i>Green dragon</i>: 30-foot cone of acid.</p><p><i>Gold or red dragon</i>: 30-foot cone of fire.</p><p><i>Silver or white dragon</i>: 30-foot cone of cold.</p><p><i>Brass dragon</i>: 60-foot line of fire.</p><p><i>Copper dragon</i>: 60-foot line of acid.</p>"
  },
  "ownership": {
    "default": 0
  },
  "_stats": {
    "systemId": "pf1",
    "systemVersion": "0.82.1",
    "coreVersion": "10.285",
    "createdTime": 1663018732402,
    "modifiedTime": 1663018744788,
    "lastModifiedBy": "DbeAbHwpEqczKjsD"
  }
}
