{
  "_id": "x619lrcykmmwts0f",
  "name": "Find the Path",
  "type": "spell",
  "img": "systems/pf1/icons/misc/magic-swirl.png",
  "effects": [],
  "folder": null,
  "sort": 0,
  "flags": {},
  "system": {
    "tags": [],
    "actions": [
      {
        "_id": "6a8rf6n3v0r9ch5z",
        "name": "Use",
        "img": "systems/pf1/icons/misc/magic-swirl.png",
        "description": "",
        "tag": "",
        "activation": {
          "cost": 3,
          "type": "round"
        },
        "unchainedAction": {
          "activation": {
            "cost": 9,
            "type": "action"
          }
        },
        "duration": {
          "value": "10 min./level",
          "units": ""
        },
        "target": {
          "value": "you or creature touched"
        },
        "range": {
          "value": null,
          "units": "personal",
          "maxIncrements": 1,
          "minValue": null,
          "minUnits": ""
        },
        "uses": {
          "autoDeductCharges": true,
          "autoDeductChargesCost": "1",
          "self": {
            "value": 0,
            "maxFormula": "",
            "per": null
          },
          "per": "",
          "value": 0,
          "maxFormula": ""
        },
        "measureTemplate": {
          "type": "",
          "size": "0",
          "overrideColor": false,
          "customColor": "",
          "overrideTexture": false,
          "customTexture": ""
        },
        "attackName": "",
        "actionType": "spellsave",
        "attackBonus": "",
        "critConfirmBonus": "",
        "damage": {
          "parts": [],
          "critParts": [],
          "nonCritParts": []
        },
        "attackParts": [],
        "formulaicAttacks": {
          "count": {
            "formula": ""
          },
          "bonus": {
            "formula": ""
          },
          "label": null
        },
        "formula": "",
        "ability": {
          "attack": "",
          "damage": "",
          "damageMult": 1,
          "critRange": 20,
          "critMult": 2
        },
        "save": {
          "dc": "0",
          "type": "will",
          "description": "none or Will negates (harmless)"
        },
        "effectNotes": [],
        "attackNotes": [],
        "soundEffect": "",
        "powerAttack": {
          "multiplier": "",
          "damageBonus": 2,
          "critMultiplier": 1
        },
        "naturalAttack": {
          "primaryAttack": true,
          "secondary": {
            "attackBonus": "-5",
            "damageMult": 0.5
          }
        },
        "nonlethal": false,
        "usesAmmo": false,
        "spellEffect": "",
        "spellArea": "",
        "conditionals": [],
        "enh": {
          "value": null
        }
      }
    ],
    "uses": {
      "per": ""
    },
    "attackNotes": [],
    "effectNotes": [],
    "links": {
      "children": []
    },
    "flags": {
      "boolean": [],
      "dictionary": []
    },
    "scriptCalls": [],
    "learnedAt": {
      "class": [
        ["cleric/oracle", 6],
        ["druid", 6],
        ["bard", 6],
        ["witch", 6],
        ["inquisitor", 6],
        ["shaman", 6],
        ["psychic", 6],
        ["occultist", 6],
        ["spiritualist", 6],
        ["hunter", 6]
      ],
      "domain": [
        ["Knowledge", 6],
        ["Travel", 6]
      ],
      "subDomain": [],
      "elementalSchool": [],
      "bloodline": []
    },
    "level": 6,
    "school": "div",
    "components": {
      "verbal": true,
      "somatic": true,
      "focus": true
    },
    "materials": {
      "focus": "a set of divination counters"
    },
    "sr": false,
    "shortDescription": "<p>The recipient of this spell can find the shortest, most direct physical route to a prominent specified destination, such as a city, keep, lake, or dungeon. The locale can be outdoors or underground, as long as it is prominent. For example, a hunter's cabin is not prominent enough, but a logging camp is. <i>Find the path</i> works with respect to locations, not objects or creatures at a locale. The location must be on the same plane as the subject at the time of casting. The spell enables the subject to sense the correct direction that will eventually lead it to its destination, indicating at appropriate times the exact path to follow or physical actions to take. For example, the spell enables the subject to sense what cavern corridor to take when a choice presents itself. The spell ends when the destination is reached or the duration expires, whichever comes first. <i>Find the path</i> can be used to remove the subject and its companions from the effect of a <i>maze</i> spell in a single round, specifying the destination as \"outside the <i>maze</i>.\" This divination is keyed to the recipient, not its companions, and its effect does not predict or allow for the actions of creatures (including guardians) who might take action to oppose the caster as he follows the path revealed by this spell.</p>"
  },
  "ownership": {
    "default": 0
  },
  "_stats": {
    "systemId": "pf1",
    "systemVersion": "0.82.1",
    "coreVersion": "10.285",
    "createdTime": 1663018735967,
    "modifiedTime": 1663018745000,
    "lastModifiedBy": "DbeAbHwpEqczKjsD"
  }
}
