{
  "_id": "1vh2ewwvzvxunoxk",
  "name": "Protection from Energy",
  "type": "spell",
  "img": "systems/pf1/icons/misc/magic-swirl.png",
  "effects": [],
  "folder": null,
  "sort": 0,
  "flags": {},
  "system": {
    "tags": [],
    "actions": [
      {
        "_id": "h00j5yjm51wx24le",
        "name": "Use",
        "img": "systems/pf1/icons/misc/magic-swirl.png",
        "description": "",
        "tag": "",
        "activation": {
          "cost": 1,
          "type": "standard"
        },
        "unchainedAction": {
          "activation": {
            "cost": 2,
            "type": "action"
          }
        },
        "duration": {
          "value": "10 min./level or until discharged",
          "units": ""
        },
        "target": {
          "value": "creature touched"
        },
        "range": {
          "value": null,
          "units": "touch",
          "maxIncrements": 1,
          "minValue": null,
          "minUnits": ""
        },
        "uses": {
          "autoDeductCharges": true,
          "autoDeductChargesCost": "1",
          "self": {
            "value": 0,
            "maxFormula": "",
            "per": null
          },
          "per": "",
          "value": 0,
          "maxFormula": ""
        },
        "measureTemplate": {
          "type": "",
          "size": "0",
          "overrideColor": false,
          "customColor": "",
          "overrideTexture": false,
          "customTexture": ""
        },
        "attackName": "",
        "actionType": "spellsave",
        "attackBonus": "",
        "critConfirmBonus": "",
        "damage": {
          "parts": [],
          "critParts": [],
          "nonCritParts": []
        },
        "attackParts": [],
        "formulaicAttacks": {
          "count": {
            "formula": ""
          },
          "bonus": {
            "formula": ""
          },
          "label": null
        },
        "formula": "",
        "ability": {
          "attack": "",
          "damage": "",
          "damageMult": 1,
          "critRange": 20,
          "critMult": 2
        },
        "save": {
          "dc": "0",
          "type": "fort",
          "description": "Fortitude negates (harmless)"
        },
        "effectNotes": [],
        "attackNotes": [],
        "soundEffect": "",
        "powerAttack": {
          "multiplier": "",
          "damageBonus": 2,
          "critMultiplier": 1
        },
        "naturalAttack": {
          "primaryAttack": true,
          "secondary": {
            "attackBonus": "-5",
            "damageMult": 0.5
          }
        },
        "nonlethal": false,
        "usesAmmo": false,
        "spellEffect": "",
        "spellArea": "",
        "conditionals": [],
        "enh": {
          "value": null
        }
      }
    ],
    "uses": {
      "per": ""
    },
    "attackNotes": [],
    "effectNotes": [],
    "links": {
      "children": []
    },
    "flags": {
      "boolean": [],
      "dictionary": []
    },
    "scriptCalls": [],
    "learnedAt": {
      "class": [
        ["sorcerer/wizard", 3],
        ["cleric/oracle", 3],
        ["druid", 3],
        ["ranger", 2],
        ["alchemist", 3],
        ["summoner", 3],
        ["inquisitor", 3],
        ["bloodrager", 3],
        ["shaman", 3],
        ["psychic", 3],
        ["occultist", 3],
        ["spiritualist", 3],
        ["hunter", 2],
        ["unchained Summoner", 3]
      ],
      "domain": [
        ["Luck", 3],
        ["Protection", 3]
      ],
      "subDomain": [],
      "elementalSchool": [],
      "bloodline": [
        ["Destined", 3],
        ["Elemental", 3]
      ]
    },
    "level": 3,
    "school": "abj",
    "components": {
      "verbal": true,
      "somatic": true,
      "divineFocus": 1
    },
    "shortDescription": "<p><i>Protection from energy</i> grants temporary immunity to the type of energy you specify when you cast it (acid, cold, electricity, fire, or sonic). When the spell absorbs 12 points per caster level of energy damage (to a maximum of 120 points at 10th level), it is discharged.</p><p><i>Protection from energy</i> overlaps (and does not stack with) <i><i>resist energy</i>.</i> If a character is warded by <i><i>protection</i> from energy</i> and <i>resist energy</i>, the <i>protection</i> spell absorbs damage until its power is exhausted.</p>"
  },
  "ownership": {
    "default": 0
  },
  "_stats": {
    "systemId": "pf1",
    "systemVersion": "0.82.1",
    "coreVersion": "10.285",
    "createdTime": 1663018730221,
    "modifiedTime": 1663018744592,
    "lastModifiedBy": "DbeAbHwpEqczKjsD"
  }
}
