{
  "_id": "69j5vk8wqvthshcv",
  "name": "Psychic Image",
  "type": "spell",
  "img": "systems/pf1/icons/misc/magic-swirl.png",
  "effects": [],
  "folder": null,
  "sort": 0,
  "flags": {},
  "system": {
    "tags": [],
    "actions": [
      {
        "_id": "nfnl47ajcjkx75yb",
        "name": "Use",
        "img": "systems/pf1/icons/misc/magic-swirl.png",
        "description": "",
        "tag": "",
        "activation": {
          "cost": 1,
          "type": "standard"
        },
        "unchainedAction": {
          "activation": {
            "cost": 2,
            "type": "action"
          }
        },
        "duration": {
          "value": "1 round/level (D)",
          "units": ""
        },
        "target": {
          "value": ""
        },
        "range": {
          "value": null,
          "units": "long",
          "maxIncrements": 1,
          "minValue": null,
          "minUnits": ""
        },
        "uses": {
          "autoDeductCharges": true,
          "autoDeductChargesCost": "1",
          "self": {
            "value": 0,
            "maxFormula": "",
            "per": null
          },
          "per": "",
          "value": 0,
          "maxFormula": ""
        },
        "measureTemplate": {
          "type": "",
          "size": "0",
          "overrideColor": false,
          "customColor": "",
          "overrideTexture": false,
          "customTexture": ""
        },
        "attackName": "",
        "actionType": "spellsave",
        "attackBonus": "",
        "critConfirmBonus": "",
        "damage": {
          "parts": [],
          "critParts": [],
          "nonCritParts": []
        },
        "attackParts": [],
        "formulaicAttacks": {
          "count": {
            "formula": ""
          },
          "bonus": {
            "formula": ""
          },
          "label": null
        },
        "formula": "",
        "ability": {
          "attack": "",
          "damage": "",
          "damageMult": 1,
          "critRange": 20,
          "critMult": 2
        },
        "save": {
          "dc": "0",
          "type": "will",
          "description": "Will disbelief (if interacted with)"
        },
        "effectNotes": [],
        "attackNotes": [],
        "soundEffect": "",
        "powerAttack": {
          "multiplier": "",
          "damageBonus": 2,
          "critMultiplier": 1
        },
        "naturalAttack": {
          "primaryAttack": true,
          "secondary": {
            "attackBonus": "-5",
            "damageMult": 0.5
          }
        },
        "nonlethal": false,
        "usesAmmo": false,
        "spellEffect": "one shadow duplicate",
        "spellArea": "",
        "conditionals": [],
        "enh": {
          "value": null
        }
      }
    ],
    "uses": {
      "per": ""
    },
    "attackNotes": [],
    "effectNotes": [],
    "links": {
      "children": []
    },
    "flags": {
      "boolean": [],
      "dictionary": []
    },
    "scriptCalls": [],
    "learnedAt": {
      "class": [["psychic", 9]],
      "domain": [],
      "subDomain": [],
      "elementalSchool": [],
      "bloodline": []
    },
    "level": 9,
    "school": "ill",
    "subschool": "shadow",
    "components": {
      "verbal": true
    },
    "shortDescription": "<p>You envelop your consciousness in a quasi-real image of yourself. Your <i>psychic image</i> looks, sounds, and smells like you, but is intangible. While your mind occupies the image, you control it as though it were your own body, but you cannot directly affect physical objects. Your image moves with a fly speed of 60 feet and perfect maneuverability. Your senses perceive only what the image can see and hear while occupying it, and your own body is considered blind, deaf, and helpless. You can switch between the image and your body as a swift action. While your mind is in your body, the image is similarly helpless.  Your image can pass through solid objects as though you are incorporeal. It cannot go farther into a solid object than  your space (5 feet for a Small or Medium creature). It can't be damaged by most attacks or effects, whether or not they affect incorporeal creatures. However, mind-affecting effects targeted against or affecting your <i>psychic image</i> have their full effect on you whenever your mind occupies it.  If you desire, you can cast any psychic spell or spell-like ability with a range of touch or greater while your mind occupies your image. You can't cast non-psychic spells through the image, even if you possess them. The <i>psychic image</i> can cast only psychic illusion spells on itself. The spells affect other targets normally, despite originating from the <i>psychic image</i>.  Objects are affected by the <i>psychic image</i> as if they had succeeded at their Will saves. You need not maintain line of effect to your <i>psychic image</i>, but if you cross into another plane even for an instant, such as via <i>blink</i>, <i>dimension door</i>, or similar spells, the spell ends.</p>"
  },
  "ownership": {
    "default": 0
  },
  "_stats": {
    "systemId": "pf1",
    "systemVersion": "0.82.1",
    "coreVersion": "10.285",
    "createdTime": 1663018731264,
    "modifiedTime": 1663018744688,
    "lastModifiedBy": "DbeAbHwpEqczKjsD"
  }
}
