{
  "_id": "bkw0h80dzx999xyp",
  "name": "Red Hand of the Killer",
  "type": "spell",
  "img": "systems/pf1/icons/misc/magic-swirl.png",
  "effects": [],
  "folder": null,
  "sort": 0,
  "flags": {},
  "system": {
    "tags": [],
    "actions": [
      {
        "_id": "v3rgqd2pkgx183lh",
        "name": "Use",
        "img": "systems/pf1/icons/misc/magic-swirl.png",
        "description": "",
        "tag": "",
        "activation": {
          "cost": 1,
          "type": "standard"
        },
        "unchainedAction": {
          "activation": {
            "cost": 2,
            "type": "action"
          }
        },
        "duration": {
          "value": "1 day/level (D)",
          "units": ""
        },
        "target": {
          "value": "one creature"
        },
        "range": {
          "value": null,
          "units": "",
          "maxIncrements": 1,
          "minValue": null,
          "minUnits": ""
        },
        "uses": {
          "autoDeductCharges": true,
          "autoDeductChargesCost": "1",
          "self": {
            "value": 0,
            "maxFormula": "",
            "per": null
          },
          "per": "",
          "value": 0,
          "maxFormula": ""
        },
        "measureTemplate": {
          "type": "",
          "size": "0",
          "overrideColor": false,
          "customColor": "",
          "overrideTexture": false,
          "customTexture": ""
        },
        "attackName": "",
        "actionType": "spellsave",
        "attackBonus": "",
        "critConfirmBonus": "",
        "damage": {
          "parts": [],
          "critParts": [],
          "nonCritParts": []
        },
        "attackParts": [],
        "formulaicAttacks": {
          "count": {
            "formula": ""
          },
          "bonus": {
            "formula": ""
          },
          "label": null
        },
        "formula": "",
        "ability": {
          "attack": "",
          "damage": "",
          "damageMult": 1,
          "critRange": 20,
          "critMult": 2
        },
        "save": {
          "dc": "0",
          "type": "will",
          "description": "Will negates"
        },
        "effectNotes": [],
        "attackNotes": [],
        "soundEffect": "",
        "powerAttack": {
          "multiplier": "",
          "damageBonus": 2,
          "critMultiplier": 1
        },
        "naturalAttack": {
          "primaryAttack": true,
          "secondary": {
            "attackBonus": "-5",
            "damageMult": 0.5
          }
        },
        "nonlethal": false,
        "usesAmmo": false,
        "spellEffect": "",
        "spellArea": "",
        "conditionals": [],
        "enh": {
          "value": null
        }
      }
    ],
    "uses": {
      "per": ""
    },
    "attackNotes": [],
    "effectNotes": [],
    "links": {
      "children": []
    },
    "flags": {
      "boolean": [],
      "dictionary": []
    },
    "scriptCalls": [],
    "learnedAt": {
      "class": [
        ["sorcerer/wizard", 5],
        ["cleric/oracle", 4],
        ["bard", 4],
        ["paladin", 4],
        ["witch", 5],
        ["inquisitor", 4],
        ["psychic", 5],
        ["medium", 3],
        ["occultist", 4],
        ["spiritualist", 4]
      ],
      "domain": [],
      "subDomain": [],
      "elementalSchool": [],
      "bloodline": []
    },
    "level": 5,
    "school": "nec",
    "components": {
      "verbal": true,
      "somatic": true,
      "material": true,
      "focus": true
    },
    "materials": {
      "value": "a black candle",
      "focus": "a corpse slain no more than 1 day ago per caster level"
    },
    "shortDescription": "<p>Drawing upon the spiritual link between a corpse and its killer, you reach out across space to brand the killer of the corpse you used as a focus for this spell, creating a physical manifestation of the killer's guilt.  The killer's right hand becomes stained indelibly red, and this stain can't be removed (although it can be hidden by magical or mundane means, such as <i>disguise self</i> or by wearing gloves). If the killer is not humanoid, or doesn't have a right hand for some other reason, the spell instead causes a red stain in the shape of a hand to appear elsewhere on the creature's body (typically on the chest).  This spell affects only the creature that directly killed the targeted corpse. Other individuals that contributed to the target's death are unaffected, and if the victim did not die from violence or died indirectly (for instance, if the creature died from suffocating after someone trapped it in a room filling with water), then the spell has no effect. The killer can attempt a Will save to resist the spell's effects. Distance is not a factor, but the killer must be on the same plane as you at the time you cast the spell, or the spell fails. Once a corpse has acted as the focus for <i>Red Hand of the Killer</i>, it can never act as the focus for another casting of <i>Red Hand of the Killer</i>.</p>"
  },
  "ownership": {
    "default": 0
  },
  "_stats": {
    "systemId": "pf1",
    "systemVersion": "0.82.1",
    "coreVersion": "10.285",
    "createdTime": 1663018732041,
    "modifiedTime": 1663018744781,
    "lastModifiedBy": "DbeAbHwpEqczKjsD"
  }
}
