{
  "_id": "p8dbns0wei8eayas",
  "name": "Sepia Snake Sigil",
  "type": "spell",
  "img": "systems/pf1/icons/misc/magic-swirl.png",
  "effects": [],
  "folder": null,
  "sort": 0,
  "flags": {},
  "system": {
    "tags": [],
    "actions": [
      {
        "_id": "o7c51xb8pfrmily9",
        "name": "Use",
        "img": "systems/pf1/icons/misc/magic-swirl.png",
        "description": "",
        "tag": "",
        "activation": {
          "cost": 10,
          "type": "minute"
        },
        "unchainedAction": {
          "activation": {
            "cost": 10,
            "type": "minute"
          }
        },
        "duration": {
          "value": "permanent or until discharged; until released or 1d4 days + 1 day/level; see text",
          "units": ""
        },
        "target": {
          "value": "one touched book or written work"
        },
        "range": {
          "value": null,
          "units": "touch",
          "maxIncrements": 1,
          "minValue": null,
          "minUnits": ""
        },
        "uses": {
          "autoDeductCharges": true,
          "autoDeductChargesCost": "1",
          "self": {
            "value": 0,
            "maxFormula": "",
            "per": null
          },
          "per": "",
          "value": 0,
          "maxFormula": ""
        },
        "measureTemplate": {
          "type": "",
          "size": "0",
          "overrideColor": false,
          "customColor": "",
          "overrideTexture": false,
          "customTexture": ""
        },
        "attackName": "",
        "actionType": "spellsave",
        "attackBonus": "",
        "critConfirmBonus": "",
        "damage": {
          "parts": [],
          "critParts": [],
          "nonCritParts": []
        },
        "attackParts": [],
        "formulaicAttacks": {
          "count": {
            "formula": ""
          },
          "bonus": {
            "formula": ""
          },
          "label": null
        },
        "formula": "",
        "ability": {
          "attack": "",
          "damage": "",
          "damageMult": 1,
          "critRange": 20,
          "critMult": 2
        },
        "save": {
          "dc": "0",
          "type": "ref",
          "description": "Reflex negates"
        },
        "effectNotes": [],
        "attackNotes": [],
        "soundEffect": "",
        "powerAttack": {
          "multiplier": "",
          "damageBonus": 2,
          "critMultiplier": 1
        },
        "naturalAttack": {
          "primaryAttack": true,
          "secondary": {
            "attackBonus": "-5",
            "damageMult": 0.5
          }
        },
        "nonlethal": false,
        "usesAmmo": false,
        "spellEffect": "",
        "spellArea": "",
        "conditionals": [],
        "enh": {
          "value": null
        }
      }
    ],
    "uses": {
      "per": ""
    },
    "attackNotes": [],
    "effectNotes": [],
    "links": {
      "children": []
    },
    "flags": {
      "boolean": [],
      "dictionary": []
    },
    "scriptCalls": [],
    "learnedAt": {
      "class": [
        ["sorcerer/wizard", 3],
        ["bard", 3],
        ["witch", 3],
        ["occultist", 3]
      ],
      "domain": [],
      "subDomain": [],
      "elementalSchool": [],
      "bloodline": []
    },
    "level": 3,
    "school": "con",
    "subschool": "creation",
    "types": "force",
    "components": {
      "verbal": true,
      "somatic": true,
      "material": true
    },
    "materials": {
      "value": "powdered amber worth 500 gp and a snake scale",
      "gpValue": 500
    },
    "spellbook": "",
    "preparation": {
      "autoDeductCharges": false,
      "spontaneousPrepared": false
    },
    "sr": false,
    "shortDescription": "<p>You cause a small symbol to appear in the text of a written work.</p><p>The text containing the symbol must be at least 25 words long.</p><p>When anyone reads the text containing the symbol, the <i><i>sepia snake</i> sigil</i> springs into being, transforming into a large sepia serpent that strikes at the reader, provided there is line of between the symbol and the reader.</p><p>Simply seeing the enspelled text is not sufficient to trigger the spell; the subject must deliberately read it. The target is entitled to a save to evade the snake's strike. If it succeeds, the <i>sepia snake</i> dissipates in a flash of brown light accompanied by a puff of duncolored smoke and a loud noise. If the target fails its save, it is engulfed in a shimmering amber field of force and immobilized until released, either at your command or when 1d4 days + 1 day per caster level have elapsed.</p><p>While trapped in the amber field of force, the subject does not age, breathe, grow hungry, sleep, or regain spells. It is preserved in a state of suspended animation, unaware of its surroundings. It can be damaged by outside forces (and perhaps even killed), since the field provides no protection against physical injury. However, a dying subject does not lose hit points or become stable until the spell ends.</p><p>The hidden sigil cannot be detected by normal observation, and <i>detect magic</i> reveals only that the entire text is magical.</p><p>A <i>dispel magic</i> can remove the sigil. An <i>erase</i> spell destroys the entire page of text.</p><p><i>Sepia snake sigil</i> can be cast in combination with other spells that hide or garble text, such as secret page.</p>"
  },
  "ownership": {
    "default": 0
  },
  "_stats": {
    "systemId": "pf1",
    "systemVersion": "0.82.1",
    "coreVersion": "10.285",
    "createdTime": 1663018734673,
    "modifiedTime": 1663018744917,
    "lastModifiedBy": "DbeAbHwpEqczKjsD"
  }
}
