{
  "_id": "btoow6tyv39443gh",
  "name": "Shadow Walk",
  "type": "spell",
  "img": "systems/pf1/icons/misc/magic-swirl.png",
  "effects": [],
  "folder": null,
  "sort": 0,
  "flags": {},
  "system": {
    "tags": [],
    "actions": [
      {
        "_id": "5xhnqgnbthboi9xh",
        "name": "Use",
        "img": "systems/pf1/icons/misc/magic-swirl.png",
        "description": "",
        "tag": "",
        "activation": {
          "cost": 1,
          "type": "standard"
        },
        "unchainedAction": {
          "activation": {
            "cost": 2,
            "type": "action"
          }
        },
        "duration": {
          "value": "1 hour/level",
          "units": ""
        },
        "target": {
          "value": "up to one touched creature/level"
        },
        "range": {
          "value": null,
          "units": "touch",
          "maxIncrements": 1,
          "minValue": null,
          "minUnits": ""
        },
        "uses": {
          "autoDeductCharges": true,
          "autoDeductChargesCost": "1",
          "self": {
            "value": 0,
            "maxFormula": "",
            "per": null
          },
          "per": "",
          "value": 0,
          "maxFormula": ""
        },
        "measureTemplate": {
          "type": "",
          "size": "0",
          "overrideColor": false,
          "customColor": "",
          "overrideTexture": false,
          "customTexture": ""
        },
        "attackName": "",
        "actionType": "spellsave",
        "attackBonus": "",
        "critConfirmBonus": "",
        "damage": {
          "parts": [],
          "critParts": [],
          "nonCritParts": []
        },
        "attackParts": [],
        "formulaicAttacks": {
          "count": {
            "formula": ""
          },
          "bonus": {
            "formula": ""
          },
          "label": null
        },
        "formula": "",
        "ability": {
          "attack": "",
          "damage": "",
          "damageMult": 1,
          "critRange": 20,
          "critMult": 2
        },
        "save": {
          "dc": "0",
          "type": "will",
          "description": "Will negates"
        },
        "effectNotes": [],
        "attackNotes": [],
        "soundEffect": "",
        "powerAttack": {
          "multiplier": "",
          "damageBonus": 2,
          "critMultiplier": 1
        },
        "naturalAttack": {
          "primaryAttack": true,
          "secondary": {
            "attackBonus": "-5",
            "damageMult": 0.5
          }
        },
        "nonlethal": false,
        "usesAmmo": false,
        "spellEffect": "",
        "spellArea": "",
        "conditionals": [],
        "enh": {
          "value": null
        }
      }
    ],
    "uses": {
      "per": ""
    },
    "attackNotes": [],
    "effectNotes": [],
    "links": {
      "children": []
    },
    "flags": {
      "boolean": [],
      "dictionary": []
    },
    "scriptCalls": [],
    "learnedAt": {
      "class": [
        ["sorcerer/wizard", 6],
        ["bard", 5],
        ["alchemist", 6],
        ["mesmerist", 5],
        ["spiritualist", 6]
      ],
      "domain": [["Darkness", 6]],
      "subDomain": [],
      "elementalSchool": [],
      "bloodline": [
        ["Dreamspun", 6],
        ["Shadow", 6]
      ]
    },
    "level": 6,
    "school": "ill",
    "subschool": "shadow",
    "types": "shadow",
    "components": {
      "verbal": true,
      "somatic": true
    },
    "shortDescription": "<p>To use the <i>shadow walk</i> spell, you must be in an area of dim light. You and any creature you touch are then transported along a coiling path of shadowstuff to the edge of the Material Plane where it borders the Plane of Shadow. The effect is largely illusory, but the path is quasi-real. You can take more than one creature along with you (subject to your level limit), but all must be touching each other.</p><p>In the region of shadow, you move at a rate of 50 miles per hour, moving normally on the borders of the Plane of Shadow but much more rapidly relative to the Material Plane. Thus, you can use this spell to travel rapidly by stepping onto the Plane of Shadow, moving the desired distance, and then stepping back onto the Material Plane.</p><p>Because of the blurring of reality between the Plane of Shadow and the Material Plane, you can't make out details of the terrain or areas you pass over during transit, nor can you predict perfectly where your travel will end. It's impossible to judge distances accurately, making the spell virtually useless for scouting or spying.</p><p>Furthermore, when the spell effect ends, you are shunted 1d10 x 100 feet in a random horizontal direction from your desired endpoint. If this would place you within a solid object, you are shunted 1d10 x 1,000 feet in the same direction. If this would still place you within a solid object, you (and any creatures with you) are shunted to the nearest empty space available, but the strain of this activity renders each creature fatigued (no save).</p><p><i>Shadow walk</i> can also be used to travel to other planes that border on the Plane of Shadow, but this usage requires the transit of the Plane of Shadow to arrive at a border with another plane of reality. The transit of the Plane of Shadow requires 1d4 hours.</p><p>Any creatures touched by you when <i>shadow walk</i> is cast also make the transition to the borders of the Plane of Shadow.</p><p>They may opt to follow you, wander off through the plane, or stumble back into the Material Plane (50% chance for either of the latter results if they are lost or abandoned by you). Creatures unwilling to accompany you into the Plane of Shadow receive a Will saving throw, negating the effect if successful.</p>"
  },
  "ownership": {
    "default": 0
  },
  "_stats": {
    "systemId": "pf1",
    "systemVersion": "0.82.1",
    "coreVersion": "10.285",
    "createdTime": 1663018732061,
    "modifiedTime": 1663018744783,
    "lastModifiedBy": "DbeAbHwpEqczKjsD"
  }
}
