{
  "_id": "bvsi2gzhq49mmt2f",
  "name": "Simulacrum",
  "type": "spell",
  "img": "systems/pf1/icons/misc/magic-swirl.png",
  "effects": [],
  "folder": null,
  "sort": 0,
  "flags": {},
  "system": {
    "tags": [],
    "actions": [
      {
        "_id": "l7zcmlqcu7o9nj55",
        "name": "Use",
        "img": "systems/pf1/icons/misc/magic-swirl.png",
        "description": "",
        "tag": "",
        "activation": {
          "cost": 12,
          "type": "hour"
        },
        "unchainedAction": {
          "activation": {
            "cost": 12,
            "type": "hour"
          }
        },
        "duration": {
          "value": "instantaneous",
          "units": ""
        },
        "target": {
          "value": ""
        },
        "range": {
          "value": 0,
          "units": "ft",
          "maxIncrements": 1,
          "minValue": null,
          "minUnits": ""
        },
        "uses": {
          "autoDeductCharges": true,
          "autoDeductChargesCost": "1",
          "self": {
            "value": 0,
            "maxFormula": "",
            "per": null
          },
          "per": "",
          "value": 0,
          "maxFormula": ""
        },
        "measureTemplate": {
          "type": "",
          "size": "0",
          "overrideColor": false,
          "customColor": "",
          "overrideTexture": false,
          "customTexture": ""
        },
        "attackName": "",
        "actionType": "other",
        "attackBonus": "",
        "critConfirmBonus": "",
        "damage": {
          "parts": [],
          "critParts": [],
          "nonCritParts": []
        },
        "attackParts": [],
        "formulaicAttacks": {
          "count": {
            "formula": ""
          },
          "bonus": {
            "formula": ""
          },
          "label": null
        },
        "formula": "",
        "ability": {
          "attack": "",
          "damage": "",
          "damageMult": 1,
          "critRange": 20,
          "critMult": 2
        },
        "save": {
          "dc": "0",
          "type": "",
          "description": ""
        },
        "effectNotes": [],
        "attackNotes": [],
        "soundEffect": "",
        "powerAttack": {
          "multiplier": "",
          "damageBonus": 2,
          "critMultiplier": 1
        },
        "naturalAttack": {
          "primaryAttack": true,
          "secondary": {
            "attackBonus": "-5",
            "damageMult": 0.5
          }
        },
        "nonlethal": false,
        "usesAmmo": false,
        "spellEffect": "one duplicate creature",
        "spellArea": "",
        "conditionals": [],
        "enh": {
          "value": null
        }
      }
    ],
    "uses": {
      "per": ""
    },
    "attackNotes": [],
    "effectNotes": [],
    "links": {
      "children": []
    },
    "flags": {
      "boolean": [],
      "dictionary": []
    },
    "scriptCalls": [],
    "learnedAt": {
      "class": [
        ["sorcerer/wizard", 7],
        ["summoner", 5],
        ["psychic", 7],
        ["unchained Summoner", 5]
      ],
      "domain": [],
      "subDomain": [],
      "elementalSchool": [],
      "bloodline": []
    },
    "level": 7,
    "school": "ill",
    "subschool": "shadow",
    "components": {
      "verbal": true,
      "somatic": true,
      "material": true
    },
    "materials": {
      "value": "ice sculpture of the target plus powdered rubies worth 500 gp per HD of the simulacrum"
    },
    "sr": false,
    "shortDescription": "<p><i>Simulacrum</i> creates an illusory duplicate of any creature. The duplicate creature is partially real and formed from ice or snow. It appears to be the same as the original, but it has only half of the real creature's levels or HD (and the appropriate hit points, feats, skill ranks, and special abilities for a creature of that level or HD).</p><p>You can't create a simulacrum of a creature whose HD or levels exceed twice your caster level. You must make a Disguise check when you cast the spell to determine how good the likeness is.</p><p>A creature familiar with the original might detect the ruse with a successful Perception check (opposed by the caster's Disguise check) or a DC 20 Sense Motive check.</p><p>At all times, the simulacrum remains under your absolute command. No special telepathic link exists, so command must be exercised in some other manner. A simulacrum has no ability to become more powerful. It cannot increase its level or abilities. If reduced to 0 hit points or otherwise destroyed, it reverts to snow and melts instantly into nothingness. A complex process requiring at least 24 hours, 100 gp per hit point, and a fully equipped magical laboratory can repair damage to a simulacrum.</p>"
  },
  "ownership": {
    "default": 0
  },
  "_stats": {
    "systemId": "pf1",
    "systemVersion": "0.82.1",
    "coreVersion": "10.285",
    "createdTime": 1663018732065,
    "modifiedTime": 1663018744784,
    "lastModifiedBy": "DbeAbHwpEqczKjsD"
  }
}
