{
  "_id": "yq2pz65es5it8cqd",
  "name": "Spiritual Squire",
  "type": "spell",
  "img": "systems/pf1/icons/misc/magic-swirl.png",
  "effects": [],
  "folder": null,
  "sort": 0,
  "flags": {},
  "system": {
    "tags": [],
    "actions": [
      {
        "_id": "z8zy76gs5scowj2q",
        "name": "Use",
        "img": "systems/pf1/icons/misc/magic-swirl.png",
        "description": "",
        "tag": "",
        "activation": {
          "cost": 1,
          "type": "standard"
        },
        "unchainedAction": {
          "activation": {
            "cost": 2,
            "type": "action"
          }
        },
        "duration": {
          "value": "1 minute/level (D)",
          "units": ""
        },
        "target": {
          "value": ""
        },
        "range": {
          "value": null,
          "units": "medium",
          "maxIncrements": 1,
          "minValue": null,
          "minUnits": ""
        },
        "uses": {
          "autoDeductCharges": true,
          "autoDeductChargesCost": "1",
          "self": {
            "value": 0,
            "maxFormula": "",
            "per": null
          },
          "per": "",
          "value": 0,
          "maxFormula": ""
        },
        "measureTemplate": {
          "type": "",
          "size": "0",
          "overrideColor": false,
          "customColor": "",
          "overrideTexture": false,
          "customTexture": ""
        },
        "attackName": "",
        "actionType": "",
        "attackBonus": "",
        "critConfirmBonus": "",
        "damage": {
          "parts": [],
          "critParts": [],
          "nonCritParts": []
        },
        "attackParts": [],
        "formulaicAttacks": {
          "count": {
            "formula": ""
          },
          "bonus": {
            "formula": ""
          },
          "label": null
        },
        "formula": "",
        "ability": {
          "attack": "",
          "damage": "",
          "damageMult": 1,
          "critRange": 20,
          "critMult": 2
        },
        "save": {
          "dc": "0",
          "type": "",
          "description": ""
        },
        "effectNotes": [],
        "attackNotes": [],
        "soundEffect": "",
        "powerAttack": {
          "multiplier": "",
          "damageBonus": 2,
          "critMultiplier": 1
        },
        "naturalAttack": {
          "primaryAttack": true,
          "secondary": {
            "attackBonus": "-5",
            "damageMult": 0.5
          }
        },
        "nonlethal": false,
        "usesAmmo": false,
        "spellEffect": "",
        "spellArea": "",
        "conditionals": [],
        "enh": {
          "value": null
        }
      }
    ],
    "uses": {
      "per": ""
    },
    "attackNotes": [],
    "effectNotes": [],
    "links": {
      "children": []
    },
    "flags": {
      "boolean": [],
      "dictionary": []
    },
    "scriptCalls": [],
    "learnedAt": {
      "class": [
        ["cleric/oracle", 2],
        ["paladin", 2],
        ["inquisitor", 2],
        ["antipaladin", 2],
        ["shaman", 2],
        ["spiritualist", 2]
      ],
      "domain": [],
      "subDomain": [],
      "elementalSchool": [],
      "bloodline": []
    },
    "level": 2,
    "school": "evo",
    "types": "force",
    "components": {
      "verbal": true,
      "somatic": true,
      "divineFocus": 1
    },
    "sr": false,
    "shortDescription": "<p>This spell causes an ally made of pure force to appear in a single 5-foot square within range. The ally takes the form of a servant of your god (if any) or an ancestor. The spiritual squire occupies its space, though you and your allies can move through it, since it is your ally. While the spiritual squire appears to wear armor and carry a weapon, it cannot make attacks and does not threaten any spaces. On your turn, the spiritual squire can do one of the following: retrieve one stowed item from your possessions, carry an object weighing no more than 10 pounds per caster level, hand you an object it is carrying, perform the aid another action on your behalf or for one of your allies, or help one creature of your choice don armor (which then takes half the normal time). When the spiritual squire attempts the aid another action in combat, its attack bonus is equal to your base attack bonus + your Wisdom modifier.  Each round after the first as a swift action, you can order the spiritual squire to move. It has a speed of 30 feet. Being a construct of force, the spiritual squire cannot be harmed by any physical attacks, but <i>disintegrate</i>, <i>dispel magic</i>, a <i>rod of cancellation</i>, or a <i>sphere of annihilation</i> affects it. A spiritual ally's AC against touch attacks is 10.</p>"
  },
  "ownership": {
    "default": 0
  },
  "_stats": {
    "systemId": "pf1",
    "systemVersion": "0.82.1",
    "coreVersion": "10.285",
    "createdTime": 1663018736381,
    "modifiedTime": 1663018745011,
    "lastModifiedBy": "DbeAbHwpEqczKjsD"
  }
}
