{
  "_id": "w2yf0ksu14e91uae",
  "name": "Threefold Aspect",
  "type": "spell",
  "img": "systems/pf1/icons/misc/magic-swirl.png",
  "effects": [],
  "folder": null,
  "sort": 0,
  "flags": {},
  "system": {
    "tags": [],
    "actions": [
      {
        "_id": "bgssmxdzl4hfom1d",
        "name": "Use",
        "img": "systems/pf1/icons/misc/magic-swirl.png",
        "description": "",
        "tag": "",
        "activation": {
          "cost": 1,
          "type": "standard"
        },
        "unchainedAction": {
          "activation": {
            "cost": 2,
            "type": "action"
          }
        },
        "duration": {
          "value": "24 hours (D)",
          "units": ""
        },
        "target": {
          "value": "you"
        },
        "range": {
          "value": null,
          "units": "personal",
          "maxIncrements": 1,
          "minValue": null,
          "minUnits": ""
        },
        "uses": {
          "autoDeductCharges": true,
          "autoDeductChargesCost": "1",
          "self": {
            "value": 0,
            "maxFormula": "",
            "per": null
          },
          "per": "",
          "value": 0,
          "maxFormula": ""
        },
        "measureTemplate": {
          "type": "",
          "size": "0",
          "overrideColor": false,
          "customColor": "",
          "overrideTexture": false,
          "customTexture": ""
        },
        "attackName": "",
        "actionType": "",
        "attackBonus": "",
        "critConfirmBonus": "",
        "damage": {
          "parts": [],
          "critParts": [],
          "nonCritParts": []
        },
        "attackParts": [],
        "formulaicAttacks": {
          "count": {
            "formula": ""
          },
          "bonus": {
            "formula": ""
          },
          "label": null
        },
        "formula": "",
        "ability": {
          "attack": "",
          "damage": "",
          "damageMult": 1,
          "critRange": 20,
          "critMult": 2
        },
        "save": {
          "dc": "0",
          "type": "",
          "description": ""
        },
        "effectNotes": [],
        "attackNotes": [],
        "soundEffect": "",
        "powerAttack": {
          "multiplier": "",
          "damageBonus": 2,
          "critMultiplier": 1
        },
        "naturalAttack": {
          "primaryAttack": true,
          "secondary": {
            "attackBonus": "-5",
            "damageMult": 0.5
          }
        },
        "nonlethal": false,
        "usesAmmo": false,
        "spellEffect": "",
        "spellArea": "",
        "conditionals": [],
        "enh": {
          "value": null
        }
      }
    ],
    "uses": {
      "per": ""
    },
    "attackNotes": [],
    "effectNotes": [],
    "links": {
      "children": []
    },
    "flags": {
      "boolean": [],
      "dictionary": []
    },
    "scriptCalls": [],
    "learnedAt": {
      "class": [
        ["druid", 5],
        ["witch", 4],
        ["hunter", 5]
      ],
      "domain": [],
      "subDomain": [],
      "elementalSchool": [],
      "bloodline": [["Imperious", 4]]
    },
    "level": 5,
    "school": "trs",
    "components": {
      "somatic": true,
      "focus": true
    },
    "materials": {
      "focus": "silver crescent worth 5 gp"
    },
    "sr": false,
    "shortDescription": "<p><i>Threefold aspect</i> allows you to shift your appearance between your natural age and three idealized age categories: young adult (youth/maiden), adulthood (father/mother), or elderly (elder/crone). In each case, your appearance is your own at the appropriate age, rather than that of a new individual.</p><p>You may change between these three aspects or your actual age as a standard action. As the young adult, you gain a +2 enhancement bonus to Dexterity and Constitution, but suffer a -2 penalty to Wisdom. In the adult aspect, you gain a +2 enhancement bonus to Wisdom and Intelligence, but take a -2 penalty to Dexterity. As the elderly aspect, you gain a +4 enhancement bonus to Wisdom and Intelligence, but take a -2 penalty to Strength and Dexterity. As enhancement bonuses, these stack with any bonuses or penalties you may have from your actual age (which are untyped bonuses)-the bonuses granted by this spell represent your idealized form in this threefold aspect rather than simply duplicating your ability scores at any one particular age.</p><p><i>True seeing</i> reveals your natural appearance overlaid with that your aspect, recognizing both as part of your true self.</p><p>Individuals who study you closely and have interacted with you at another apparent age recognize a resemblance (as though family) with a successful DC 20 Perception check.</p><p><i>Threefold aspect</i> does not alter your clothing or equipment, and does not heal any deformity or injury unrelated to age.</p>"
  },
  "ownership": {
    "default": 0
  },
  "_stats": {
    "systemId": "pf1",
    "systemVersion": "0.82.1",
    "coreVersion": "10.285",
    "createdTime": 1663018735865,
    "modifiedTime": 1663018744986,
    "lastModifiedBy": "DbeAbHwpEqczKjsD"
  }
}
