{
  "name": "Show Actor Information",
  "type": "script",
  "flags": {},
  "scope": "global",
  "command": "// CONFIGURATION\n// Leave the actorNames array empty to guess the players\n// Example actorNames: `actorNames: [\"Bob\", \"John\"],`\nconst c = {\n  actorNames: [],\n};\n// END CONFIGURATION\n\nconst tokens = canvas.tokens.controlled;\nlet actors = tokens.map(o => o.actor);\nif (!actors.length && c.actorNames.length) actors = game.actors.entities.filter(o => c.actorNames.includes(o.name));\nif (!actors.length) actors = game.actors.entities.filter(o => o.isPC && o.testUserPermission(game.user, \"OWNER\"));\nactors = actors.filter(o => o.testUserPermission(game.user, \"OWNER\"));\n\nif (!actors.length) ui.notifications.warn(\"No applicable actor(s) found\");\nelse {\n  const msg = `Choose the information you want to show for the following actor(s): <strong>${actors.map(o => o.name).join(\"</strong>, <strong>\")}</strong>`;\n  \n  new Dialog({\n    title: \"Show Actor Information\",\n    content: `<p>${msg}</p>`,\n    buttons: {\n      fort: {\n        label: \"Social Defenses\",\n        callback: () => {\n          let c = \"\";\n          // Add demoralize DC\n          c += `<table><thead><tr><td colspan=\"2\">Demoralize (Intimidate)</td><tr><td>Character</td><td>DC</td></thead><tbody>`;\n          for (let a of actors) {\n            const rollData = a.getRollData({ forceRefresh: false });\n            const dc = 10 + rollData.attributes.hd.total + rollData.abilities.wis.mod;\n            c += `<tr><td>${a.name}</td><td>${dc}</td></tr>`;\n          }\n          c += \"</tbody></table>\";\n          // Add diplomacy DCs\n          c += `<table><thead><tr><td colspan=\"3\">Diplomacy</td></tr><tr><td>Character</td><td>Starting Attitude</td><td>DC</td><thead><tbody>`;\n          for (let a of actors) {\n            c += `<tr><td rowspan=\"5\">${a.name}</td>`;\n            const rollData = a.getRollData({ forceRefresh: false });\n            const dipArr = [{ label: \"Hostile\", base: 25 }, { label: \"Unfriendly\", base: 20 }, { label: \"Indifferent\", base: 15 }, { label: \"Friendly\", base: 10 }, { label: \"Helpful\", base: 0 }];\n            for (let b = 0; b < dipArr.length; b++) {\n              const o = dipArr[b];\n              if (b > 0) c += \"<tr>\";\n              c += `<td>${o.label}</td><td>${o.base + rollData.abilities.cha.mod}</td></tr>`;\n            }\n          }\n          c += \"</tbody></table>\";\n          // Render chat message\n          let messageData = {\n            content: c,\n            user: game.user._id,\n            speaker: ChatMessage.getSpeaker({ user: game.user }),\n            type: CONST.CHAT_MESSAGE_TYPES.OTHER,\n          };\n          messageData = ChatMessage.applyRollMode(messageData, game.settings.get(\"core\", \"rollMode\"));\n          ChatMessage.create(messageData);\n        },\n      },\n    },\n  }).render(true);\n}",
  "author": "61klraqiWb97OOLa",
  "img": "systems/pf1/icons/skills/red_25.jpg",
  "actorIds": [],
  "_id": "NozVDiFkfZcBg4Hg",
  "ownership": {
    "default": 0
  }
}
