{
  "_id": "13AHAyh9DklWxvWP",
  "name": "Show Defenses",
  "type": "script",
  "sort": 100001,
  "flags": {},
  "scope": "global",
  "command": "game.pf1.rollDefenses();",
  "author": "T9i9xVjdkHeFZC72",
  "img": "systems/pf1/icons/items/armor/shield-light-metal.png",
  "actorIds": [],
  "ownership": {
    "default": 0
  }
}
