{
  "_id": "6GjOjO6r3R06fLwE",
  "name": "Bard",
  "type": "class",
  "img": "systems/pf1/icons/items/inventory/lute.jpg",
  "effects": [],
  "folder": null,
  "sort": 0,
  "flags": {},
  "system": {
    "description": {
      "value": "<p>Untold wonders and secrets exist for those skillful enough to discover them. Through cleverness, talent, and magic, these cunning few unravel the wiles of the world, becoming adept in the arts of persuasion, manipulation, and inspiration. Typically masters of one or many forms of artistry, bards possess an uncanny ability to know more than they should and use what they learn to keep themselves and their allies ever one step ahead of danger. Bards are quick-witted and captivating, and their skills might lead them down many paths, be they gamblers or jacks-of-all-trades, scholars or performers, leaders or scoundrels, or even all of the above. For bards, every day brings its own opportunities, adventures, and challenges, and only by bucking the odds, knowing the most, and being the best might they claim the treasures of each.</p>\n<p><strong>Role</strong>: Bards capably confuse and confound their foes while inspiring their allies to ever-greater daring. While accomplished with both weapons and magic, the true strength of bards lies outside melee, where they can support their companions and undermine their foes without fear of interruptions to their performances.</p>\n<p><strong>Alignment</strong>: Any</p>\n<p><strong>Hit Die</strong>: d8</p>\n<p><strong>Starting Wealth</strong>: 3d6 × 10 gp (average 105 gp.) In addition, each character begins play with an outfit worth 10 gp or less.</p>\n<h2><span id=\"Class_Skills\">Class Skills</span></h2>\n<p>The bard’s class skills are&nbsp;<a href=\"https://www.d20pfsrd.com/skills/acrobatics\">Acrobatics</a>&nbsp;(<a href=\"https://www.d20pfsrd.com/basics-ability-scores/ability-scores#TOC-Dexterity-Dex-\">Dex</a>), <a href=\"https://www.d20pfsrd.com/skills/appraise\">Appraise</a>&nbsp;(<a href=\"https://www.d20pfsrd.com/basics-ability-scores/ability-scores#TOC-Intelligence-Int-\">Int</a>), <a href=\"https://www.d20pfsrd.com/skills/bluff\">Bluff</a>&nbsp;(<a href=\"https://www.d20pfsrd.com/basics-ability-scores/ability-scores#TOC-Charisma-Cha-\">Cha</a>), <a href=\"https://www.d20pfsrd.com/skills/climb\">Climb</a>&nbsp;(<a href=\"https://www.d20pfsrd.com/basics-ability-scores/ability-scores#TOC-Strength-Str-\">Str</a>), <a href=\"https://www.d20pfsrd.com/skills/craft\">Craft</a>&nbsp;(<a href=\"https://www.d20pfsrd.com/basics-ability-scores/ability-scores#TOC-Intelligence-Int-\">Int</a>), <a href=\"https://www.d20pfsrd.com/skills/diplomacy\">Diplomacy</a>&nbsp;(<a href=\"https://www.d20pfsrd.com/basics-ability-scores/ability-scores#TOC-Charisma-Cha-\">Cha</a>), <a href=\"https://www.d20pfsrd.com/skills/disguise\">Disguise</a>&nbsp;(<a href=\"https://www.d20pfsrd.com/basics-ability-scores/ability-scores#TOC-Charisma-Cha-\">Cha</a>), <a href=\"https://www.d20pfsrd.com/skills/escape-artist\">Escape Artist</a>&nbsp;(<a href=\"https://www.d20pfsrd.com/basics-ability-scores/ability-scores#TOC-Dexterity-Dex-\">Dex</a>), <a href=\"https://www.d20pfsrd.com/skills/intimidate\">Intimidate</a>&nbsp;(<a href=\"https://www.d20pfsrd.com/basics-ability-scores/ability-scores#TOC-Charisma-Cha-\">Cha</a>), <a href=\"https://www.d20pfsrd.com/skills/knowledge\">Knowledge</a>&nbsp;(all) (<a href=\"https://www.d20pfsrd.com/basics-ability-scores/ability-scores#TOC-Intelligence-Int-\">Int</a>), <a href=\"https://www.d20pfsrd.com/skills/linguistics\">Linguistics</a>&nbsp;(<a href=\"https://www.d20pfsrd.com/basics-ability-scores/ability-scores#TOC-Intelligence-Int-\">Int</a>), <a href=\"https://www.d20pfsrd.com/skills/perception\">Perception</a>&nbsp;(<a href=\"https://www.d20pfsrd.com/basics-ability-scores/ability-scores#TOC-Wisdom-Wis-\">Wis</a>), <a href=\"https://www.d20pfsrd.com/skills/perform\">Perform</a>&nbsp;(<a href=\"https://www.d20pfsrd.com/basics-ability-scores/ability-scores#TOC-Charisma-Cha-\">Cha</a>), <a href=\"https://www.d20pfsrd.com/skills/profession\">Profession</a>&nbsp;(<a href=\"https://www.d20pfsrd.com/basics-ability-scores/ability-scores#TOC-Wisdom-Wis-\">Wis</a>), <a href=\"https://www.d20pfsrd.com/skills/sense-motive\">Sense Motive</a>&nbsp;(<a href=\"https://www.d20pfsrd.com/basics-ability-scores/ability-scores#TOC-Wisdom-Wis-\">Wis</a>), <a href=\"https://www.d20pfsrd.com/skills/sleight-of-hand\">Sleight of Hand</a>&nbsp;(<a href=\"https://www.d20pfsrd.com/basics-ability-scores/ability-scores#TOC-Dexterity-Dex-\">Dex</a>), <a href=\"https://www.d20pfsrd.com/skills/spellcraft\">Spellcraft</a>&nbsp;(<a href=\"https://www.d20pfsrd.com/basics-ability-scores/ability-scores#TOC-Intelligence-Int-\">Int</a>), <a href=\"https://www.d20pfsrd.com/skills/stealth\">Stealth</a>&nbsp;(<a href=\"https://www.d20pfsrd.com/basics-ability-scores/ability-scores#TOC-Dexterity-Dex-\">Dex</a>), and <a href=\"https://www.d20pfsrd.com/skills/use-magic-device\">Use Magic Device</a>&nbsp;(<a href=\"https://www.d20pfsrd.com/basics-ability-scores/ability-scores#TOC-Charisma-Cha-\">Cha</a>).</p>\n<p><strong>Skill Ranks Per Level</strong>: 6 +&nbsp;<a href=\"https://www.d20pfsrd.com/basics-ability-scores/ability-scores#TOC-Intelligence-Int-\">Int</a>&nbsp;<a href=\"https://www.d20pfsrd.com/basics-ability-scores/ability-scores#TOC-Determine-Bonuses\">modifier</a></p>"
    },
    "tags": [],
    "changes": [],
    "links": {
      "children": [],
      "classAssociations": [
        {
          "id": "pf1.class-abilities.Pb9pxYrx6tS87euP",
          "dataType": "compendium",
          "name": "Bardic Knowledge",
          "img": "systems/pf1/icons/items/inventory/book-blue.jpg",
          "level": 1,
          "_index": 0
        },
        {
          "id": "pf1.class-abilities.RSoy0ll1sNno6mJD",
          "dataType": "compendium",
          "name": "Deadly Performance",
          "img": "systems/pf1/icons/feats/improved-initiative.jpg",
          "level": 20,
          "_index": 1
        },
        {
          "id": "pf1.class-abilities.FnfX1SMG9uzBghnB",
          "dataType": "compendium",
          "name": "Mass Suggestion",
          "img": "systems/pf1/icons/feats/deceitful.jpg",
          "level": 18,
          "_index": 2
        },
        {
          "id": "pf1.class-abilities.vtrruBLKeimBrupy",
          "dataType": "compendium",
          "name": "Suggestion",
          "img": "systems/pf1/icons/feats/blinding-critical.jpg",
          "level": 6,
          "_index": 3
        },
        {
          "id": "pf1.class-abilities.qfjvZrIgJUjRXUUL",
          "dataType": "compendium",
          "name": "Frightening Tune",
          "img": "systems/pf1/icons/feats/greater-sunder.jpg",
          "level": 14,
          "_index": 4
        },
        {
          "id": "pf1.class-abilities.iGrgU1XzlweVO2tb",
          "dataType": "compendium",
          "name": "Soothing Performance",
          "img": "systems/pf1/icons/feats/blind-fight.jpg",
          "level": 12,
          "_index": 5
        },
        {
          "id": "pf1.class-abilities.qamuc5DZdOJMlRrD",
          "dataType": "compendium",
          "name": "Jack of All Trades",
          "img": "systems/pf1/icons/items/inventory/herb-bag.jpg",
          "level": 10,
          "_index": 6
        },
        {
          "id": "pf1.class-abilities.X7gqbGkXTox6Ojhy",
          "dataType": "compendium",
          "name": "Inspire Greatness",
          "img": "systems/pf1/icons/feats/widen-spell.jpg",
          "level": 9,
          "_index": 7
        },
        {
          "id": "pf1.class-abilities.pmWnRksUzrKvNOvy",
          "dataType": "compendium",
          "name": "Dirge of Doom",
          "img": "systems/pf1/icons/feats/medusas-wrath.jpg",
          "level": 8,
          "_index": 8
        },
        {
          "id": "pf1.class-abilities.msQWK7TW7mufzf8l",
          "dataType": "compendium",
          "name": "Lore Master",
          "img": "systems/pf1/icons/items/inventory/book-tan.jpg",
          "level": 5,
          "_index": 9
        },
        {
          "id": "pf1.class-abilities.HAqAsb5H56C6cZm3",
          "dataType": "compendium",
          "name": "Versatile Performance",
          "img": "systems/pf1/icons/feats/persuasive.jpg",
          "level": 2,
          "_index": 10
        },
        {
          "id": "pf1.class-abilities.wew6ophJrcab24m6",
          "dataType": "compendium",
          "name": "Well-Versed",
          "img": "systems/pf1/icons/feats/extra-performance.png",
          "level": 2,
          "_index": 11
        },
        {
          "id": "pf1.class-abilities.2M56kfIOws5yYtxq",
          "dataType": "compendium",
          "name": "Inspire Competence",
          "img": "systems/pf1/icons/feats/tiring-critical.jpg",
          "level": 3,
          "_index": 12
        },
        {
          "id": "pf1.class-abilities.h56K6HEBOItImPPL",
          "dataType": "compendium",
          "name": "Inspire Courage",
          "img": "systems/pf1/icons/feats/stunning-fist.jpg",
          "level": 1,
          "_index": 13
        },
        {
          "id": "pf1.class-abilities.tWE66WvFjS1o0S4y",
          "dataType": "compendium",
          "name": "Fascinate",
          "img": "systems/pf1/icons/feats/persuasive.jpg",
          "level": 1,
          "_index": 14
        },
        {
          "id": "pf1.class-abilities.ZfCUTi1MiLgR4T7I",
          "dataType": "compendium",
          "name": "Bardic Performance",
          "img": "systems/pf1/icons/items/inventory/flute.jpg",
          "level": 1,
          "_index": 15
        },
        {
          "id": "pf1.class-abilities.RF8ioMkLc7LNnNT1",
          "dataType": "compendium",
          "name": "Countersong",
          "img": "systems/pf1/icons/feats/deafening-critical.jpg",
          "level": 1,
          "_index": 16
        },
        {
          "id": "pf1.class-abilities.Kq3GVZ1yMv3ERQCJ",
          "dataType": "compendium",
          "name": "Distraction",
          "img": "systems/pf1/icons/feats/improved-feint.jpg",
          "level": 1,
          "_index": 17
        },
        {
          "id": "pf1.class-abilities.LIFTbzT5WDcsDn0O",
          "dataType": "compendium",
          "name": "Inspire Heroics",
          "img": "systems/pf1/icons/feats/athletic.jpg",
          "level": 15,
          "_index": 18
        }
      ]
    },
    "tag": "bard",
    "useCustomTag": true,
    "armorProf": {
      "value": ["lgt", "shl"]
    },
    "weaponProf": {
      "value": ["sim"],
      "custom": "Longsword;Rapier;Sap;Shortsword;Shortbow;Whip"
    },
    "languages": {
      "value": []
    },
    "flags": {
      "boolean": [],
      "dictionary": []
    },
    "scriptCalls": [],
    "bab": "med",
    "skillsPerLevel": 6,
    "savingThrows": {
      "ref": {
        "value": "high"
      },
      "will": {
        "value": "high"
      }
    },
    "classSkills": {
      "acr": true,
      "apr": true,
      "art": false,
      "blf": true,
      "clm": true,
      "crf": true,
      "dip": true,
      "dev": false,
      "dis": true,
      "esc": true,
      "fly": false,
      "han": false,
      "hea": false,
      "int": true,
      "kar": true,
      "kdu": true,
      "ken": true,
      "kge": true,
      "khi": true,
      "klo": true,
      "kna": true,
      "kno": true,
      "kpl": true,
      "kre": true,
      "lin": true,
      "lor": false,
      "per": true,
      "prf": true,
      "pro": true,
      "rid": false,
      "sen": true,
      "slt": true,
      "spl": true,
      "ste": true,
      "sur": false,
      "swm": false,
      "umd": true
    }
  },
  "ownership": {
    "default": 0
  },
  "_stats": {
    "systemId": "pf1",
    "systemVersion": "0.82.1",
    "coreVersion": "10.285",
    "createdTime": 1663018728648,
    "modifiedTime": 1663018728972,
    "lastModifiedBy": "DbeAbHwpEqczKjsD"
  }
}
