{
  "_id": "7eZQP0MzeO2svmVF",
  "name": "Druid",
  "type": "class",
  "img": "systems/pf1/icons/spells/leaf-jade-3.jpg",
  "effects": [],
  "folder": null,
  "sort": 0,
  "flags": {},
  "system": {
    "description": {
      "value": "<p>Within the purity of the elements and the order of the wilds lingers a power beyond the marvels of civilization. Furtive yet undeniable, these primal magics are guarded over by servants of philosophical balance known as druids. Allies to beasts and manipulators of nature, these often misunderstood protectors of the wild strive to shield their lands from all who would threaten them and prove the might of the wilds to those who lock themselves behind city walls. Rewarded for their devotion with incredible powers, druids gain unparalleled shape-shifting abilities, the companionship of mighty beasts, and the power to call upon nature’s wrath. The mightiest temper powers akin to storms, earthquakes, and volcanoes with primeval wisdom long abandoned and forgotten by civilization.</p>\n<p><strong>Role</strong>: While some druids might keep to the fringe of battle, allowing companions and summoned creatures to fight while they confound foes with the powers of nature, others transform into deadly beasts and savagely wade into combat. Druids worship personifications of elemental forces, natural powers, or nature itself. Typically this means devotion to a nature deity, though druids are just as likely to revere vague spirits, animalistic demigods, or even specific awe-inspiring natural wonders.</p>\n<p><strong>Alignment</strong>: Any neutral</p>\n<p><strong>Hit Die</strong>: d8</p>\n<p><strong>Starting Wealth</strong>: 2d6 × 10 gp (average 70 gp.) In addition, each character begins play with an outfit worth 10 gp or less.</p>\n<h2><span id=\"Class_Skills\">Class Skills</span></h2>\n<p>The druid’s class skills are&nbsp;<a href=\"https://www.d20pfsrd.com/skills/climb\">Climb</a>&nbsp;(<a href=\"https://www.d20pfsrd.com/basics-ability-scores/ability-scores#TOC-Strength-Str-\" rel=\"nofollow\">Str</a>),&nbsp;<a href=\"https://www.d20pfsrd.com/skills/craft\">Craft</a>&nbsp;(<a href=\"https://www.d20pfsrd.com/basics-ability-scores/ability-scores#TOC-Intelligence-Int-\" rel=\"nofollow\">Int</a>),&nbsp;<a href=\"https://www.d20pfsrd.com/skills/fly\">Fly</a>&nbsp;(<a href=\"https://www.d20pfsrd.com/basics-ability-scores/ability-scores#TOC-Dexterity-Dex-\" rel=\"nofollow\">Dex</a>),&nbsp;<a href=\"https://www.d20pfsrd.com/skills/handle-animal\">Handle Animal</a>&nbsp;(<a href=\"https://www.d20pfsrd.com/basics-ability-scores/ability-scores#TOC-Charisma-Cha-\" rel=\"nofollow\">Cha</a>),&nbsp;<a href=\"https://www.d20pfsrd.com/skills/heal\">Heal</a>&nbsp;(<a href=\"https://www.d20pfsrd.com/basics-ability-scores/ability-scores#TOC-Wisdom-Wis-\" rel=\"nofollow\">Wis</a>),&nbsp;<a href=\"https://www.d20pfsrd.com/skills/knowledge\">Knowledge</a>&nbsp;(geography) (<a href=\"https://www.d20pfsrd.com/basics-ability-scores/ability-scores#TOC-Intelligence-Int-\" rel=\"nofollow\">Int</a>),&nbsp;<a href=\"https://www.d20pfsrd.com/skills/knowledge\">Knowledge</a>&nbsp;(nature) (<a href=\"https://www.d20pfsrd.com/basics-ability-scores/ability-scores#TOC-Intelligence-Int-\" rel=\"nofollow\">Int</a>),&nbsp;<a href=\"https://www.d20pfsrd.com/skills/perception\">Perception</a>&nbsp;(<a href=\"https://www.d20pfsrd.com/basics-ability-scores/ability-scores#TOC-Wisdom-Wis-\" rel=\"nofollow\">Wis</a>),&nbsp;<a href=\"https://www.d20pfsrd.com/skills/profession\">Profession</a>&nbsp;(<a href=\"https://www.d20pfsrd.com/basics-ability-scores/ability-scores#TOC-Wisdom-Wis-\" rel=\"nofollow\">Wis</a>),&nbsp;<a href=\"https://www.d20pfsrd.com/skills/ride\">Ride</a>&nbsp;(<a href=\"https://www.d20pfsrd.com/basics-ability-scores/ability-scores#TOC-Dexterity-Dex-\" rel=\"nofollow\">Dex</a>),&nbsp;<a href=\"https://www.d20pfsrd.com/skills/spellcraft\">Spellcraft</a>&nbsp;(<a href=\"https://www.d20pfsrd.com/basics-ability-scores/ability-scores#TOC-Intelligence-Int-\" rel=\"nofollow\">Int</a>),&nbsp;<a href=\"https://www.d20pfsrd.com/skills/survival\">Survival</a>&nbsp;(<a href=\"https://www.d20pfsrd.com/basics-ability-scores/ability-scores#TOC-Wisdom-Wis-\" rel=\"nofollow\">Wis</a>), and&nbsp;<a href=\"https://www.d20pfsrd.com/skills/swim\">Swim</a>&nbsp;(<a href=\"https://www.d20pfsrd.com/basics-ability-scores/ability-scores#TOC-Strength-Str-\" rel=\"nofollow\">Str</a>).</p>\n<p><strong>Skill Ranks Per Level</strong>: 4 +&nbsp;<a href=\"https://www.d20pfsrd.com/basics-ability-scores/ability-scores#TOC-Intelligence-Int-\" rel=\"nofollow\">Int</a> modifier.</p>"
    },
    "tags": [],
    "changes": [],
    "links": {
      "children": [],
      "classAssociations": [
        {
          "id": "pf1.class-abilities.wZ40bxNVn95BbLBV",
          "dataType": "compendium",
          "name": "Nature Bond",
          "img": "systems/pf1/icons/skills/blue_21.jpg",
          "level": 1,
          "_index": 0
        },
        {
          "id": "pf1.class-abilities.UJPlPj3RUKLvmKzM",
          "dataType": "compendium",
          "name": "Nature Sense",
          "img": "systems/pf1/icons/skills/emerald_05.jpg",
          "level": 1,
          "_index": 1
        },
        {
          "id": "pf1.class-abilities.Yr8dfM2d8JEWoYkr",
          "dataType": "compendium",
          "name": "Wild Empathy",
          "img": "systems/pf1/icons/skills/green_13.jpg",
          "level": 1,
          "_index": 2
        },
        {
          "id": "pf1.class-abilities.5iXq1igb1Cq0qobT",
          "dataType": "compendium",
          "name": "Woodland Stride",
          "img": "systems/pf1/icons/skills/green_16.jpg",
          "level": 2,
          "_index": 3
        },
        {
          "id": "pf1.class-abilities.adslhIPLFgIaHBfh",
          "dataType": "compendium",
          "name": "Trackless Step",
          "img": "systems/pf1/icons/skills/green_24.jpg",
          "level": 3,
          "_index": 4
        },
        {
          "id": "pf1.class-abilities.0j7haa7K5O1CJ3ot",
          "dataType": "compendium",
          "name": "Resist Nature's Lure",
          "img": "systems/pf1/icons/skills/green_09.jpg",
          "level": 4,
          "_index": 5
        },
        {
          "id": "pf1.class-abilities.sJdBOE9lwz5XAkUi",
          "dataType": "compendium",
          "name": "Wild Shape",
          "img": "systems/pf1/icons/skills/green_21.jpg",
          "level": 4,
          "_index": 6
        },
        {
          "id": "pf1.class-abilities.yzmKDxR63yS5fqlc",
          "dataType": "compendium",
          "name": "Venom Immunity",
          "img": "systems/pf1/icons/skills/green_23.jpg",
          "level": 9,
          "_index": 7
        },
        {
          "id": "pf1.class-abilities.MXj2WoyW7vLxiVYw",
          "dataType": "compendium",
          "name": "A Thousand Faces",
          "img": "systems/pf1/icons/skills/water_07.jpg",
          "level": 13,
          "_index": 8
        },
        {
          "id": "pf1.class-abilities.5JlthJkVGEHPZypG",
          "dataType": "compendium",
          "name": "Timeless Body",
          "img": "systems/pf1/icons/skills/green_15.jpg",
          "level": 15,
          "_index": 9
        }
      ]
    },
    "tag": "druid",
    "useCustomTag": true,
    "armorProf": {
      "value": ["lgt", "med", "shl"],
      "custom": "No Metal Armors"
    },
    "weaponProf": {
      "value": [],
      "custom": "Club;Dagger;Dart;Quarterstaff;Scimitar;Scythe;Sickle;Shortspear;Sling;Spear;Natural attacks"
    },
    "languages": {
      "value": []
    },
    "flags": {
      "boolean": [],
      "dictionary": []
    },
    "scriptCalls": [],
    "bab": "med",
    "skillsPerLevel": 4,
    "savingThrows": {
      "fort": {
        "value": "high"
      },
      "will": {
        "value": "high"
      }
    },
    "classSkills": {
      "clm": true,
      "acr": false,
      "apr": false,
      "art": false,
      "blf": false,
      "crf": true,
      "dip": false,
      "dev": false,
      "dis": false,
      "esc": false,
      "fly": true,
      "han": true,
      "hea": true,
      "int": false,
      "kar": false,
      "kdu": false,
      "ken": false,
      "kge": true,
      "khi": false,
      "klo": false,
      "kna": true,
      "kno": false,
      "kpl": false,
      "kre": false,
      "lin": false,
      "lor": false,
      "per": true,
      "prf": false,
      "pro": true,
      "rid": true,
      "sen": false,
      "slt": false,
      "spl": true,
      "ste": false,
      "sur": true,
      "swm": true,
      "umd": false
    }
  },
  "ownership": {
    "default": 0
  },
  "_stats": {
    "systemId": "pf1",
    "systemVersion": "0.82.1",
    "coreVersion": "10.285",
    "createdTime": 1663018728650,
    "modifiedTime": 1663018728972,
    "lastModifiedBy": "DbeAbHwpEqczKjsD"
  }
}
