{
  "_id": "Immo2BuSe5WGdRW9",
  "name": "Hunter",
  "type": "class",
  "img": "systems/pf1/icons/skills/blue_29.jpg",
  "effects": [],
  "folder": null,
  "sort": 0,
  "flags": {},
  "system": {
    "description": {
      "value": "<p>Hunters are warriors of the wilds that have forged close bonds with trusted animal companions. They focus their tactics on fighting alongside their companion animals as a formidable team of two. Able to cast a wide variety of nature spells and take on the abilities and attributes of beasts, hunters magically improve both themselves and their animal companions.</p>\n<p><strong>Role</strong>: Hunters can adapt their tactics to many kinds of opponents, and cherish their highly trained animal companions. As a team, the hunter and her companion can react to danger with incredible speed, making them excellent scouts, explorers, and saboteurs.</p>\n<p><strong>Alignment</strong>: Any neutral.</p>\n<p><strong>Hit Die</strong>: d8.</p>\n<p><strong>Parent Classes</strong>:&nbsp;<a href=\"https://www.d20pfsrd.com/classes/core-classes/druid\">Druid</a>&nbsp;and&nbsp;<a href=\"https://www.d20pfsrd.com/classes/core-classes/ranger\">ranger</a>.</p>\n<p><strong>Starting Wealth</strong>: 4d6 × 10 gp (average 140 gp.) In addition, each character begins play with an outfit worth 10 gp or less.</p>\n<h2><span id=\"Class_Skills\">Class Skills</span></h2>\n<p>The hunter’s class skills are <a href=\"https://www.d20pfsrd.com/skills/climb\">Climb</a>&nbsp;(<a href=\"https://www.d20pfsrd.com/basics-ability-scores/ability-scores#TOC-Strength-Str-\">Str</a>), <a href=\"https://www.d20pfsrd.com/skills/craft\">Craft</a>&nbsp;(<a href=\"https://www.d20pfsrd.com/basics-ability-scores/ability-scores#TOC-Intelligence-Int-\">Int</a>), <a href=\"https://www.d20pfsrd.com/skills/handle-animal\">Handle Animal</a>&nbsp;(<a href=\"https://www.d20pfsrd.com/basics-ability-scores/ability-scores#TOC-Charisma-Cha-\">Cha</a>), <a href=\"https://www.d20pfsrd.com/skills/heal\">Heal</a>&nbsp;(<a href=\"https://www.d20pfsrd.com/basics-ability-scores/ability-scores#TOC-Wisdom-Wis-\">Wis</a>), <a href=\"https://www.d20pfsrd.com/skills/intimidate\">Intimidate</a>&nbsp;(<a href=\"https://www.d20pfsrd.com/basics-ability-scores/ability-scores#TOC-Charisma-Cha-\">Cha</a>), <a href=\"https://www.d20pfsrd.com/skills/knowledge\">Knowledge</a>&nbsp;(dungeoneering) (<a href=\"https://www.d20pfsrd.com/basics-ability-scores/ability-scores#TOC-Intelligence-Int-\">Int</a>), <a href=\"https://www.d20pfsrd.com/skills/knowledge\">Knowledge</a>&nbsp;(geography) (<a href=\"https://www.d20pfsrd.com/basics-ability-scores/ability-scores#TOC-Intelligence-Int-\">Int</a>), <a href=\"https://www.d20pfsrd.com/skills/knowledge\">Knowledge</a>&nbsp;(nature) (<a href=\"https://www.d20pfsrd.com/basics-ability-scores/ability-scores#TOC-Intelligence-Int-\">Int</a>), <a href=\"https://www.d20pfsrd.com/skills/perception\">Perception</a>&nbsp;(<a href=\"https://www.d20pfsrd.com/basics-ability-scores/ability-scores#TOC-Wisdom-Wis-\">Wis</a>), <a href=\"https://www.d20pfsrd.com/skills/profession\">Profession</a>&nbsp;(<a href=\"https://www.d20pfsrd.com/basics-ability-scores/ability-scores#TOC-Wisdom-Wis-\">Wis</a>), <a href=\"https://www.d20pfsrd.com/skills/ride\">Ride</a>&nbsp;(<a href=\"https://www.d20pfsrd.com/basics-ability-scores/ability-scores#TOC-Dexterity-Dex-\">Dex</a>), <a href=\"https://www.d20pfsrd.com/skills/spellcraft\">Spellcraft</a>&nbsp;(<a href=\"https://www.d20pfsrd.com/basics-ability-scores/ability-scores#TOC-Intelligence-Int-\">Int</a>), <a href=\"https://www.d20pfsrd.com/skills/stealth\">Stealth</a>&nbsp;(<a href=\"https://www.d20pfsrd.com/basics-ability-scores/ability-scores#TOC-Dexterity-Dex-\">Dex</a>), <a href=\"https://www.d20pfsrd.com/skills/survival\">Survival</a>&nbsp;(<a href=\"https://www.d20pfsrd.com/basics-ability-scores/ability-scores#TOC-Wisdom-Wis-\">Wis</a>), and <a href=\"https://www.d20pfsrd.com/skills/swim\">Swim</a>&nbsp;(<a href=\"https://www.d20pfsrd.com/basics-ability-scores/ability-scores#TOC-Strength-Str-\">Str</a>).</p>\n<p><strong>Skill Ranks per Level</strong>: 6 +&nbsp;<a href=\"https://www.d20pfsrd.com/basics-ability-scores/ability-scores#TOC-Intelligence-Int-\">Int</a> modifier.</p>"
    },
    "tags": [],
    "changes": [],
    "links": {
      "children": [],
      "classAssociations": [
        {
          "id": "pf1.class-abilities.V7cGG7vKN0BY2Bhb",
          "dataType": "compendium",
          "name": "Animal Companion (HUN)",
          "img": "systems/pf1/icons/skills/blue_29.jpg",
          "level": 1,
          "_index": 0
        },
        {
          "id": "pf1.class-abilities.4r83TfLHXrRmXtIn",
          "dataType": "compendium",
          "name": "Animal Focus",
          "img": "systems/pf1/icons/skills/blue_26.jpg",
          "level": 1,
          "_index": 1
        },
        {
          "id": "pf1.class-abilities.qqfc9I2awuSdfCxf",
          "dataType": "compendium",
          "name": "Nature Training",
          "img": "systems/pf1/icons/skills/green_20.jpg",
          "level": 1,
          "_index": 2
        },
        {
          "id": "pf1.class-abilities.Yr8dfM2d8JEWoYkr",
          "dataType": "compendium",
          "name": "Wild Empathy",
          "img": "systems/pf1/icons/skills/green_13.jpg",
          "level": 1,
          "_index": 3
        },
        {
          "id": "pf1.class-abilities.sxpGOVklEiwzkRjM",
          "dataType": "compendium",
          "name": "Precise Companion",
          "img": "systems/pf1/icons/skills/arrow_07.jpg",
          "level": 2,
          "_index": 4
        },
        {
          "id": "pf1.class-abilities.r8wPs0bB3WhOLxbX",
          "dataType": "compendium",
          "name": "Track",
          "img": "systems/pf1/icons/skills/beast_01.jpg",
          "level": 2,
          "_index": 5
        },
        {
          "id": "pf1.class-abilities.nE79k9XBL67xrLCT",
          "dataType": "compendium",
          "name": "Hunter Tactics",
          "img": "systems/pf1/icons/skills/beast_01.jpg",
          "level": 3,
          "_index": 6
        },
        {
          "id": "pf1.class-abilities.Rh0LztkmetWVC6jk",
          "dataType": "compendium",
          "name": "Teamwork Feat (HUN)",
          "img": "systems/pf1/icons/skills/violet_03.jpg",
          "level": 3,
          "_index": 7
        },
        {
          "id": "pf1.class-abilities.pGDnMUhjGfphXiJB",
          "dataType": "compendium",
          "name": "Improved Empathic Link",
          "img": "systems/pf1/icons/spells/link-spirit-2.jpg",
          "level": 4,
          "_index": 8
        },
        {
          "id": "pf1.class-abilities.fkZVfqo0SOHAfJhh",
          "dataType": "compendium",
          "name": "Greater Empathic Link",
          "img": "systems/pf1/icons/spells/link-spirit-3.jpg",
          "level": 14,
          "_index": 9
        },
        {
          "id": "pf1.class-abilities.5iXq1igb1Cq0qobT",
          "dataType": "compendium",
          "name": "Woodland Stride",
          "img": "systems/pf1/icons/skills/green_16.jpg",
          "level": 5,
          "_index": 10
        },
        {
          "id": "pf1.class-abilities.VNAsksfmUCMQsoZE",
          "dataType": "compendium",
          "name": "Bonus Tricks",
          "img": "systems/pf1/icons/spells/wild-eerie-2.jpg",
          "level": 7,
          "_index": 11
        },
        {
          "id": "pf1.class-abilities.sk0HNTe9lKBpHQpN",
          "dataType": "compendium",
          "name": "Swift Tracker",
          "img": "systems/pf1/icons/skills/green_20.jpg",
          "level": 8,
          "_index": 12
        },
        {
          "id": "pf1.class-abilities.h0hqYiLG7hkjPCin",
          "dataType": "compendium",
          "name": "Raise Animal Companion",
          "img": "systems/pf1/icons/spells/heal-jade-2.jpg",
          "level": 10,
          "_index": 13
        },
        {
          "id": "pf1.class-abilities.DnQK1UZ09ufe1Jmn",
          "dataType": "compendium",
          "name": "Speak with Master",
          "img": "systems/pf1/icons/spells/wild-orange-1.jpg",
          "level": 11,
          "_index": 14
        },
        {
          "id": "pf1.class-abilities.A56OUZnIsE8ZMda2",
          "dataType": "compendium",
          "name": "One with the Wild",
          "img": "systems/pf1/icons/feats/deceitful.jpg",
          "level": 17,
          "_index": 15
        },
        {
          "id": "pf1.class-abilities.GAHaeOGTBeR6LJ3K",
          "dataType": "compendium",
          "name": "Master Hunter",
          "img": "systems/pf1/icons/skills/arrow_06.jpg",
          "level": 20,
          "_index": 16
        }
      ]
    },
    "tag": "hunter",
    "useCustomTag": true,
    "armorProf": {
      "value": ["lgt", "med", "shl"]
    },
    "weaponProf": {
      "value": ["sim", "mar"]
    },
    "languages": {
      "value": []
    },
    "flags": {
      "boolean": [],
      "dictionary": []
    },
    "scriptCalls": [],
    "bab": "med",
    "skillsPerLevel": 6,
    "savingThrows": {
      "fort": {
        "value": "high"
      },
      "ref": {
        "value": "high"
      }
    },
    "classSkills": {
      "acr": false,
      "apr": false,
      "art": false,
      "blf": false,
      "clm": true,
      "crf": true,
      "dip": false,
      "dev": false,
      "dis": false,
      "esc": false,
      "fly": false,
      "han": true,
      "hea": true,
      "int": true,
      "kar": false,
      "kdu": true,
      "ken": false,
      "kge": true,
      "khi": false,
      "klo": false,
      "kna": true,
      "kno": false,
      "kpl": false,
      "kre": false,
      "lin": false,
      "lor": false,
      "per": true,
      "prf": false,
      "pro": true,
      "rid": true,
      "sen": false,
      "slt": false,
      "spl": true,
      "ste": true,
      "sur": true,
      "swm": true,
      "umd": false
    }
  },
  "ownership": {
    "default": 0
  },
  "_stats": {
    "systemId": "pf1",
    "systemVersion": "0.82.1",
    "coreVersion": "10.285",
    "createdTime": 1663018728672,
    "modifiedTime": 1663018728973,
    "lastModifiedBy": "DbeAbHwpEqczKjsD"
  }
}
