{
  "_id": "24b0LaabeAlUx5gN",
  "name": "Rogue",
  "type": "class",
  "img": "systems/pf1/icons/items/inventory/lockpick.jpg",
  "effects": [],
  "folder": null,
  "sort": 0,
  "flags": {},
  "system": {
    "description": {
      "value": "<p>Life is an endless adventure for those who live by their wits. Ever just one step ahead of danger, rogues bank on their cunning, skill, and charm to bend fate to their favor. Never knowing what to expect, they prepare for everything, becoming masters of a wide variety of skills, training themselves to be adept manipulators, agile acrobats, shadowy stalkers, or masters of any of dozens of other professions or talents. Thieves and gamblers, fast talkers and diplomats, bandits and bounty hunters, and explorers and investigators all might be considered rogues, as well as countless other professions that rely upon wits, prowess, or luck. Although many rogues favor cities and the innumerable opportunities of civilization, some embrace lives on the road, journeying far, meeting exotic people, and facing fantastic danger in pursuit of equally fantastic riches. In the end, any who desire to shape their fates and live life on their own terms might come to be called rogues.</p>\n<p>Role: Rogues excel at moving about unseen and catching foes unaware, and tend to avoid head-to-head combat. Their varied skills and abilities allow them to be highly versatile, with great variations in expertise existing between different rogues. Most, however, excel in overcoming hindrances of all types, from unlocking doors and disarming traps to outwitting magical hazards and conning dull-witted opponents.</p>\n<p><strong>Alignment</strong>: Any</p>\n<p><strong>Hit Die</strong>: d8</p>\n<p><strong>Starting Wealth</strong>: 4d6 × 10 gp (average 140 gp.) In addition, each character begins play with an outfit worth 10 gp or less.</p>\n<h3><strong><span id=\"Class_Skills\">Class Skills</span></strong></h3>\n<p>The rogue’s class skills are <a href=\"https://www.d20pfsrd.com/skills/acrobatics\">Acrobatics</a>&nbsp;(<a href=\"https://www.d20pfsrd.com/basics-ability-scores/ability-scores#TOC-Dexterity-Dex-\">Dex</a>), <a href=\"https://www.d20pfsrd.com/skills/appraise\">Appraise</a>&nbsp;(<a href=\"https://www.d20pfsrd.com/basics-ability-scores/ability-scores#TOC-Intelligence-Int-\">Int</a>), <a href=\"https://www.d20pfsrd.com/skills/bluff\">Bluff</a>&nbsp;(<a href=\"https://www.d20pfsrd.com/basics-ability-scores/ability-scores#TOC-Charisma-Cha-\">Cha</a>), <a href=\"https://www.d20pfsrd.com/skills/climb\">Climb</a>&nbsp;(<a href=\"https://www.d20pfsrd.com/basics-ability-scores/ability-scores#TOC-Strength-Str-\">Str</a>), <a href=\"https://www.d20pfsrd.com/skills/craft\">Craft</a>&nbsp;(<a href=\"https://www.d20pfsrd.com/basics-ability-scores/ability-scores#TOC-Intelligence-Int-\">Int</a>), <a href=\"https://www.d20pfsrd.com/skills/diplomacy\">Diplomacy</a>&nbsp;(<a href=\"https://www.d20pfsrd.com/basics-ability-scores/ability-scores#TOC-Charisma-Cha-\">Cha</a>), <a href=\"https://www.d20pfsrd.com/skills/disable-device\">Disable Device</a>&nbsp;(<a href=\"https://www.d20pfsrd.com/basics-ability-scores/ability-scores#TOC-Dexterity-Dex-\">Dex</a>), <a href=\"https://www.d20pfsrd.com/skills/disguise\">Disguise</a>&nbsp;(<a href=\"https://www.d20pfsrd.com/basics-ability-scores/ability-scores#TOC-Charisma-Cha-\">Cha</a>), <a href=\"https://www.d20pfsrd.com/skills/escape-artist\">Escape Artist</a>&nbsp;(<a href=\"https://www.d20pfsrd.com/basics-ability-scores/ability-scores#TOC-Dexterity-Dex-\">Dex</a>), <a href=\"https://www.d20pfsrd.com/skills/intimidate\">Intimidate</a>&nbsp;(<a href=\"https://www.d20pfsrd.com/basics-ability-scores/ability-scores#TOC-Charisma-Cha-\">Cha</a>), <a href=\"https://www.d20pfsrd.com/skills/knowledge\">Knowledge</a>&nbsp;(dungeoneering) (<a href=\"https://www.d20pfsrd.com/basics-ability-scores/ability-scores#TOC-Intelligence-Int-\">Int</a>), <a href=\"https://www.d20pfsrd.com/skills/knowledge\">Knowledge</a>&nbsp;(local) (<a href=\"https://www.d20pfsrd.com/basics-ability-scores/ability-scores#TOC-Intelligence-Int-\">Int</a>), <a href=\"https://www.d20pfsrd.com/skills/linguistics\">Linguistics</a>&nbsp;(<a href=\"https://www.d20pfsrd.com/basics-ability-scores/ability-scores#TOC-Intelligence-Int-\">Int</a>), <a href=\"https://www.d20pfsrd.com/skills/perception\">Perception</a>&nbsp;(<a href=\"https://www.d20pfsrd.com/basics-ability-scores/ability-scores#TOC-Wisdom-Wis-\">Wis</a>), <a href=\"https://www.d20pfsrd.com/skills/perform\">Perform</a>&nbsp;(<a href=\"https://www.d20pfsrd.com/basics-ability-scores/ability-scores#TOC-Charisma-Cha-\">Cha</a>), <a href=\"https://www.d20pfsrd.com/skills/profession\">Profession</a>&nbsp;(<a href=\"https://www.d20pfsrd.com/basics-ability-scores/ability-scores#TOC-Wisdom-Wis-\">Wis</a>), <a href=\"https://www.d20pfsrd.com/skills/sense-motive\">Sense Motive</a>&nbsp;(<a href=\"https://www.d20pfsrd.com/basics-ability-scores/ability-scores#TOC-Wisdom-Wis-\">Wis</a>), <a href=\"https://www.d20pfsrd.com/skills/sleight-of-hand\">Sleight of Hand</a>&nbsp;(<a href=\"https://www.d20pfsrd.com/basics-ability-scores/ability-scores#TOC-Dexterity-Dex-\">Dex</a>), <a href=\"https://www.d20pfsrd.com/skills/stealth\">Stealth</a>&nbsp;(<a href=\"https://www.d20pfsrd.com/basics-ability-scores/ability-scores#TOC-Dexterity-Dex-\">Dex</a>), <a href=\"https://www.d20pfsrd.com/skills/swim\">Swim</a>&nbsp;(<a href=\"https://www.d20pfsrd.com/basics-ability-scores/ability-scores#TOC-Strength-Str-\">Str</a>), and <a href=\"https://www.d20pfsrd.com/skills/use-magic-device\">Use Magic Device</a>&nbsp;(<a href=\"https://www.d20pfsrd.com/basics-ability-scores/ability-scores#TOC-Charisma-Cha-\">Cha</a>).</p>\n<p><strong>Skill Ranks per Level</strong>: 8 +&nbsp;<a href=\"https://www.d20pfsrd.com/basics-ability-scores/ability-scores#TOC-Intelligence-Int-\">Int</a>&nbsp;modifier.</p>"
    },
    "tags": [],
    "changes": [],
    "links": {
      "children": [],
      "classAssociations": [
        {
          "id": "pf1.class-abilities.6pjr8jMFSKqXkBKk",
          "dataType": "compendium",
          "name": "Sneak Attack (ROG)",
          "img": "systems/pf1/icons/skills/red_13.jpg",
          "level": 1,
          "_index": 0
        },
        {
          "id": "pf1.class-abilities.pEODJDoTk7uhCZY7",
          "dataType": "compendium",
          "name": "Trapfinding",
          "img": "systems/pf1/icons/items/inventory/lockpick.jpg",
          "level": 1,
          "_index": 1
        },
        {
          "id": "pf1.class-abilities.BoEkMviJrW0PKmhj",
          "dataType": "compendium",
          "name": "Trap Sense (ROG)",
          "img": "systems/pf1/icons/items/inventory/hook-hand.jpg",
          "level": 3,
          "_index": 2
        },
        {
          "id": "pf1.class-abilities.iBTrvPtn3jczInbn",
          "dataType": "compendium",
          "name": "Rogue Talents",
          "img": "systems/pf1/icons/feats/acrobatic.jpg",
          "level": 2,
          "_index": 3
        },
        {
          "id": "pf1.class-abilities.KQYCRLEdD4bGA5ak",
          "dataType": "compendium",
          "name": "Evasion",
          "img": "systems/pf1/icons/skills/blue_06.jpg",
          "level": 2,
          "_index": 4
        },
        {
          "id": "pf1.class-abilities.7WaQxnVaaoL4AGr8",
          "dataType": "compendium",
          "name": "Uncanny Dodge",
          "img": "systems/pf1/icons/feats/wind-stance.jpg",
          "level": 3,
          "_index": 5
        },
        {
          "id": "pf1.class-abilities.ZfnHhhTFQVo0Lj4P",
          "dataType": "compendium",
          "name": "Improved Uncanny Dodge",
          "img": "systems/pf1/icons/feats/wind-stance.jpg",
          "level": 8,
          "_index": 6
        },
        {
          "id": "pf1.class-abilities.EQ7JGo4P1XirLO46",
          "dataType": "compendium",
          "name": "Advanced Talents",
          "img": "systems/pf1/icons/feats/agile-maneuvers.jpg",
          "level": 10,
          "_index": 7
        },
        {
          "id": "pf1.class-abilities.KmVwFz2ajNtvgvbp",
          "dataType": "compendium",
          "name": "Master Strike",
          "img": "systems/pf1/icons/feats/greater-vital-strike.jpg",
          "level": 20,
          "_index": 8
        }
      ]
    },
    "tag": "rogue",
    "useCustomTag": true,
    "armorProf": {
      "value": ["lgt"]
    },
    "weaponProf": {
      "value": ["sim"],
      "custom": "Hand Crossbow;Rapier;Sap;Shortbow;Short Sword"
    },
    "languages": {
      "value": []
    },
    "flags": {
      "boolean": [],
      "dictionary": []
    },
    "scriptCalls": [],
    "bab": "med",
    "skillsPerLevel": 8,
    "savingThrows": {
      "ref": {
        "value": "high"
      }
    },
    "classSkills": {
      "acr": true,
      "apr": true,
      "art": false,
      "blf": true,
      "clm": true,
      "crf": true,
      "dip": true,
      "dev": true,
      "dis": true,
      "esc": true,
      "fly": false,
      "han": false,
      "hea": false,
      "int": true,
      "kar": false,
      "kdu": true,
      "ken": false,
      "kge": false,
      "khi": false,
      "klo": true,
      "kna": false,
      "kno": false,
      "kpl": false,
      "kre": false,
      "lin": true,
      "lor": false,
      "per": true,
      "prf": true,
      "pro": true,
      "rid": false,
      "sen": true,
      "slt": true,
      "spl": false,
      "ste": true,
      "sur": false,
      "swm": true,
      "umd": true
    }
  },
  "ownership": {
    "default": 0
  },
  "_stats": {
    "systemId": "pf1",
    "systemVersion": "0.82.1",
    "coreVersion": "10.285",
    "createdTime": 1663018728637,
    "modifiedTime": 1663018728971,
    "lastModifiedBy": "DbeAbHwpEqczKjsD"
  }
}
