{
  "_id": "zx3bDmMsNBEBNfIJ",
  "name": "Vampire Hunter",
  "type": "class",
  "img": "systems/pf1/icons/items/inventory/stake.jpg",
  "effects": [],
  "folder": null,
  "sort": 0,
  "flags": {},
  "system": {
    "description": {
      "value": "<p>Not all beings who stalk the night hunt mortal prey. Out of honor, desperation, or tragic need, a vampire hunter pits his abilities not just against the creatures of the night, but also their terrifying undead overlords: vampires. Most vampire hunters do not survive their first encounters with vampirekind, as no amount of study or training can truly prepare one to face the Nobles of the night. Those few who survive and force themselves to carry on grow more and more like their terrible quarry, becoming dark-garbed bringers of death, feared by the dead and the living alike. Vampire hunters approach their duties with a grim but ironclad resolve so strong it resembles ecclesiastical faith, and it is from this mysterious, selfless dedication that their divine power wells.</p>\n<p><strong>Role</strong>: Vampire hunters obsessively stalk their quarry— not just vampirekind, but all those supernatural beasts and undead terrors that serve the Nobility. These champions of the living track their blasphemous prey, learn their weaknesses, and bring them low. Doing so requires more than training and guile, though. To stand against the darkness, vampire hunters adopt a measure of their foes’ unnatural power, turning vampirekind’s sinister might back against them. Vampire hunters are the vanguard in the battle against evil, but know to value the perspective, support, and magic of other expert adventurers.</p>\n<p><strong>Alignment</strong>: Any.</p>\n<p><strong>Hit Die</strong>: d8.</p>\n<p><strong>Starting Wealth</strong>: 5d6 × 10 gp (average 175 gp).</p>\n<h2><span id=\"Class_Skills\">Class Skills</span></h2>\n<p>The vampire hunter’s class skills are <a href=\"https://www.d20pfsrd.com/skills/bluff\">Bluff</a>&nbsp;(<a href=\"https://www.d20pfsrd.com/basics-ability-scores/ability-scores#TOC-Charisma-Cha-\">Cha</a>), <a href=\"https://www.d20pfsrd.com/skills/climb\">Climb</a>&nbsp;(<a href=\"https://www.d20pfsrd.com/basics-ability-scores/ability-scores#TOC-Strength-Str-\">Str</a>), <a href=\"https://www.d20pfsrd.com/skills/craft\">Craft</a>&nbsp;(<a href=\"https://www.d20pfsrd.com/basics-ability-scores/ability-scores#TOC-Intelligence-Int-\">Int</a>), <a href=\"https://www.d20pfsrd.com/skills/handle-animal\">Handle Animal</a>&nbsp;(<a href=\"https://www.d20pfsrd.com/basics-ability-scores/ability-scores#TOC-Charisma-Cha-\">Cha</a>), <a href=\"https://www.d20pfsrd.com/skills/heal\">Heal</a>&nbsp;(<a href=\"https://www.d20pfsrd.com/basics-ability-scores/ability-scores#TOC-Wisdom-Wis-\">Wis</a>), <a href=\"https://www.d20pfsrd.com/skills/intimidate\">Intimidate</a>&nbsp;(<a href=\"https://www.d20pfsrd.com/basics-ability-scores/ability-scores#TOC-Charisma-Cha-\">Cha</a>), <a href=\"https://www.d20pfsrd.com/skills/knowledge\">Knowledge</a>&nbsp;(arcana) (<a href=\"https://www.d20pfsrd.com/basics-ability-scores/ability-scores#TOC-Intelligence-Int-\">Int</a>), <a href=\"https://www.d20pfsrd.com/skills/knowledge\">Knowledge</a>&nbsp;(geography) (<a href=\"https://www.d20pfsrd.com/basics-ability-scores/ability-scores#TOC-Intelligence-Int-\">Int</a>), <a href=\"https://www.d20pfsrd.com/skills/knowledge\">Knowledge</a>&nbsp;(local) (<a href=\"https://www.d20pfsrd.com/basics-ability-scores/ability-scores#TOC-Intelligence-Int-\">Int</a>), <a href=\"https://www.d20pfsrd.com/skills/knowledge\">Knowledge</a>&nbsp;(religion) (<a href=\"https://www.d20pfsrd.com/basics-ability-scores/ability-scores#TOC-Intelligence-Int-\">Int</a>), <a href=\"https://www.d20pfsrd.com/skills/perception\">Perception</a>&nbsp;(<a href=\"https://www.d20pfsrd.com/basics-ability-scores/ability-scores#TOC-Wisdom-Wis-\">Wis</a>), <a href=\"https://www.d20pfsrd.com/skills/profession\">Profession</a>&nbsp;(<a href=\"https://www.d20pfsrd.com/basics-ability-scores/ability-scores#TOC-Wisdom-Wis-\">Wis</a>), <a href=\"https://www.d20pfsrd.com/skills/ride\">Ride</a>&nbsp;(<a href=\"https://www.d20pfsrd.com/basics-ability-scores/ability-scores#TOC-Dexterity-Dex-\">Dex</a>), <a href=\"https://www.d20pfsrd.com/skills/sense-motive\">Sense Motive</a>&nbsp;(<a href=\"https://www.d20pfsrd.com/basics-ability-scores/ability-scores#TOC-Wisdom-Wis-\">Wis</a>), <a href=\"https://www.d20pfsrd.com/skills/spellcraft\">Spellcraft</a>&nbsp;(<a href=\"https://www.d20pfsrd.com/basics-ability-scores/ability-scores#TOC-Intelligence-Int-\">Int</a>), <a href=\"https://www.d20pfsrd.com/skills/stealth\">Stealth</a>&nbsp;(<a href=\"https://www.d20pfsrd.com/basics-ability-scores/ability-scores#TOC-Dexterity-Dex-\">Dex</a>), <a href=\"https://www.d20pfsrd.com/skills/survival\">Survival</a>&nbsp;(<a href=\"https://www.d20pfsrd.com/basics-ability-scores/ability-scores#TOC-Wisdom-Wis-\">Wis</a>), and <a href=\"https://www.d20pfsrd.com/skills/swim\">Swim</a>&nbsp;(<a href=\"https://www.d20pfsrd.com/basics-ability-scores/ability-scores#TOC-Strength-Str-\">Str</a>).</p>\n<p><strong>Skill Ranks per Level</strong>: 6 +&nbsp;<a href=\"https://www.d20pfsrd.com/basics-ability-scores/ability-scores#TOC-Intelligence-Int-\">Int</a> modifier.</p>"
    },
    "tags": [],
    "changes": [],
    "links": {
      "children": [],
      "classAssociations": [
        {
          "id": "pf1.class-abilities.aQ0aWLmgTI3TIGXo",
          "dataType": "compendium",
          "name": "Detect Undead",
          "img": "systems/pf1/icons/skills/affliction_17.jpg",
          "level": 1,
          "_index": 0
        },
        {
          "id": "pf1.class-abilities.1gKaluTk5z6U2nZM",
          "dataType": "compendium",
          "name": "Technique Feat",
          "img": "systems/pf1/icons/skills/red_11.jpg",
          "level": 1,
          "_index": 1
        },
        {
          "id": "pf1.class-abilities.r8wPs0bB3WhOLxbX",
          "dataType": "compendium",
          "name": "Track",
          "img": "systems/pf1/icons/skills/beast_01.jpg",
          "level": 1,
          "_index": 2
        },
        {
          "id": "pf1.class-abilities.D2Hb80tMFgnbhkeN",
          "dataType": "compendium",
          "name": "Vampiric Focus",
          "img": "systems/pf1/icons/skills/beast_02.jpg",
          "level": 1,
          "_index": 3
        },
        {
          "id": "pf1.class-abilities.MT4AzxhNBwUsNQC0",
          "dataType": "compendium",
          "name": "Relentless",
          "img": "systems/pf1/icons/skills/blue_32.jpg",
          "level": 2,
          "_index": 4
        },
        {
          "id": "pf1.class-abilities.VTSxRzsa79oMALLt",
          "dataType": "compendium",
          "name": "Stake",
          "img": "systems/pf1/icons/items/weapons/kobold-tail-attachment.png",
          "level": 4,
          "_index": 5
        },
        {
          "id": "pf1.class-abilities.YaaZNCmv8kp62Wfd",
          "dataType": "compendium",
          "name": "Relentless Band",
          "img": "systems/pf1/icons/skills/nature_08.jpg",
          "level": 5,
          "_index": 6
        },
        {
          "id": "pf1.class-abilities.9hgwz9Z4MQJfd1ph",
          "dataType": "compendium",
          "name": "Vampire Tracker",
          "img": "systems/pf1/icons/skills/affliction_21.jpg",
          "level": 7,
          "_index": 7
        },
        {
          "id": "pf1.class-abilities.sk0HNTe9lKBpHQpN",
          "dataType": "compendium",
          "name": "Swift Tracker",
          "img": "systems/pf1/icons/skills/green_20.jpg",
          "level": 10,
          "_index": 8
        },
        {
          "id": "pf1.class-abilities.rbsYLckukbbbHDN7",
          "dataType": "compendium",
          "name": "Vampire Bane",
          "img": "systems/pf1/icons/skills/blood_04.jpg",
          "level": 11,
          "_index": 9
        },
        {
          "id": "pf1.class-abilities.EbMT5qliolI2BhDt",
          "dataType": "compendium",
          "name": "Remove Vampirism",
          "img": "systems/pf1/icons/skills/blood_10.jpg",
          "level": 13,
          "_index": 10
        },
        {
          "id": "pf1.class-abilities.7hFLTBScf4tz8wXh",
          "dataType": "compendium",
          "name": "Quarry (VAM)",
          "img": "systems/pf1/icons/skills/arrow_12.jpg",
          "level": 14,
          "_index": 11
        },
        {
          "id": "pf1.class-abilities.32nTtFqPUPWcU6gB",
          "dataType": "compendium",
          "name": "Improved Quarry (VAM)",
          "img": "systems/pf1/icons/skills/arrow_13.jpg",
          "level": 19,
          "_index": 12
        },
        {
          "id": "pf1.class-abilities.6as0xicfWFdSV58T",
          "dataType": "compendium",
          "name": "Critical Reflexes",
          "img": "systems/pf1/icons/skills/blood_02.jpg",
          "level": 17,
          "_index": 13
        },
        {
          "id": "pf1.class-abilities.XvyrdZjQh3Fa9mZN",
          "dataType": "compendium",
          "name": "Master Vampire Hunter",
          "img": "systems/pf1/icons/skills/red_13.jpg",
          "level": 20,
          "_index": 14
        }
      ]
    },
    "tag": "vampireHunter",
    "useCustomTag": true,
    "armorProf": {
      "value": ["lgt", "med", "shl"]
    },
    "weaponProf": {
      "value": ["sim", "mar"]
    },
    "languages": {
      "value": []
    },
    "flags": {
      "boolean": [],
      "dictionary": []
    },
    "scriptCalls": [],
    "bab": "high",
    "skillsPerLevel": 6,
    "savingThrows": {
      "ref": {
        "value": "high"
      },
      "will": {
        "value": "high"
      }
    },
    "classSkills": {
      "acr": false,
      "apr": false,
      "art": false,
      "blf": true,
      "clm": true,
      "crf": true,
      "dip": false,
      "dev": false,
      "dis": false,
      "esc": false,
      "fly": false,
      "han": true,
      "hea": true,
      "int": true,
      "kar": true,
      "kdu": false,
      "ken": false,
      "kge": true,
      "khi": false,
      "klo": true,
      "kna": false,
      "kno": false,
      "kpl": false,
      "kre": true,
      "lin": false,
      "lor": false,
      "per": true,
      "prf": false,
      "pro": true,
      "rid": true,
      "sen": true,
      "slt": false,
      "spl": true,
      "ste": true,
      "sur": true,
      "swm": true,
      "umd": false
    }
  },
  "ownership": {
    "default": 0
  },
  "_stats": {
    "systemId": "pf1",
    "systemVersion": "0.82.1",
    "coreVersion": "10.285",
    "createdTime": 1663018728727,
    "modifiedTime": 1663018728978,
    "lastModifiedBy": "DbeAbHwpEqczKjsD"
  }
}
